# #MIST v1.1 [Fe/H] = 0, v_init = 0, reprocessed track 
# #star_age 	 star_mass 	 logL 	 logT
1.283024886253405202e+04 2.499999830490716446e-01 2.451293238333456248e-01 3.530857851486271848e+00
1.355682057346550209e+04 2.499999822656126247e-01 2.400082203362728372e-01 3.530804907135637549e+00
1.429574541287300417e+04 2.499999814826118216e-01 2.348860297284264542e-01 3.530750966657881129e+00
1.504721346504420762e+04 2.499999807000890806e-01 2.297634156893926249e-01 3.530696024310714165e+00
1.581143321101654692e+04 2.499999799180462334e-01 2.246403970035684428e-01 3.530640193092342560e+00
1.658862624408263218e+04 2.499999791364755919e-01 2.195173278137635131e-01 3.530583450323121042e+00
1.737901562312879105e+04 2.499999783553709110e-01 2.143947822284152649e-01 3.530526047215264196e+00
1.899576716303871945e+04 2.499999767987609589e-01 2.041934057595342633e-01 3.530413207352010030e+00
1.982650872523494763e+04 2.499999760194901721e-01 1.990743761677030155e-01 3.530353558300740602e+00
2.067165604130750216e+04 2.499999752403843645e-01 1.939505164779529722e-01 3.530293137733038655e+00
2.239249020591344379e+04 2.499999736949818085e-01 1.837199385153588105e-01 3.530170344138789496e+00
2.327423262911031270e+04 2.499999729234766987e-01 1.786367494881097306e-01 3.530108140049804888e+00
2.507989708095231617e+04 2.499999713840611870e-01 1.684375355787956496e-01 3.529981212879175878e+00
2.600560903418175803e+04 2.499999706150613232e-01 1.633658588466328498e-01 3.529916975459864492e+00
2.790941940462590355e+04 2.499999690738983482e-01 1.531413309030756620e-01 3.529785510690201189e+00
2.986765917231747153e+04 2.499999675426791135e-01 1.429767002170266588e-01 3.529652298983985137e+00
3.087587830478024625e+04 2.499999667744805532e-01 1.378998935369945555e-01 3.529585015167745254e+00
3.294410455075938080e+04 2.499999652388228133e-01 1.276909394177861423e-01 3.529448387534422249e+00
3.507952692466786539e+04 2.499999637073029579e-01 1.175180921981905657e-01 3.529310636606573404e+00
3.728624650314734026e+04 2.499999621782145187e-01 1.073444717493654416e-01 3.529171108120454647e+00
3.956634374540127465e+04 2.499999606519136275e-01 9.721468286465625996e-02 3.529034482199858047e+00
4.192326439940209821e+04 2.499999591273407984e-01 8.712765477750056275e-02 3.528897306906494169e+00
4.313894829211824981e+04 2.499999583609044396e-01 8.201245653358030241e-02 3.528824852300624926e+00
4.562424340103653958e+04 2.499999568341065015e-01 7.188603425525832979e-02 3.528680448543011661e+00
4.819657895746299619e+04 2.499999553072193847e-01 6.172971657943378959e-02 3.528534773168229499e+00
5.221772843817163812e+04 2.499999530206884757e-01 4.653703748751438635e-02 3.528316173845514214e+00
5.500373964620701736e+04 2.499999515028903663e-01 3.647746014159328198e-02 3.528171129611117784e+00
5.789384877277987107e+04 2.499999499811698112e-01 2.635699037511421775e-02 3.528024739864227932e+00
6.087416374647176417e+04 2.499999484647781323e-01 1.630519100595761994e-02 3.527878721093845815e+00
6.395938036397923133e+04 2.499999469476302250e-01 6.227308527259232777e-03 3.527732040261902569e+00
6.878005574494878238e+04 2.499999446760351740e-01 -8.797317659826855291e-03 3.527524432740312577e+00
7.212794934827245015e+04 2.499999431638342540e-01 -1.877643249711472354e-02 3.527385996862438144e+00
7.557891145430691540e+04 2.499999416569595456e-01 -2.876193085108449954e-02 3.527242037020260845e+00
8.098627962442682474e+04 2.499999393936180592e-01 -4.372847567204764252e-02 3.527027219757144394e+00
8.475475362376349221e+04 2.499999378814267981e-01 -5.371934934908831338e-02 3.526885714638416491e+00
8.864828853655901912e+04 2.499999363709781153e-01 -6.362998137886104189e-02 3.526749860777615098e+00
9.474429420575765835e+04 2.499999341035618328e-01 -7.850264375619864232e-02 3.526549452118713290e+00
9.898489182194549358e+04 2.499999325911400616e-01 -8.840828466727117252e-02 3.526413929383265256e+00
1.056291184409433918e+05 2.499999303188153443e-01 -1.032284496334113372e-01 3.526214424957911486e+00
1.102537839911895426e+05 2.499999288019628119e-01 -1.130528385000927616e-01 3.526083969966241405e+00
1.175046234830303438e+05 2.499999265209415511e-01 -1.277777740612220103e-01 3.525891442279426968e+00
1.225599393775851931e+05 2.499999249952959690e-01 -1.375398606291069747e-01 3.525766521856574354e+00
1.304463589955174684e+05 2.499999227117181699e-01 -1.520751978975491137e-01 3.525585012537346685e+00
1.387858749780470971e+05 2.499999204130951835e-01 -1.665225337846628351e-01 3.525408389028158229e+00
1.446405230150030111e+05 2.499999188639407954e-01 -1.761131278283251111e-01 3.525293805356593424e+00
1.539215830487661588e+05 2.499999165063112594e-01 -1.904388574490349928e-01 3.525132426776671046e+00
1.604526528114652610e+05 2.499999149130263110e-01 -1.999246260097768957e-01 3.525030530358614023e+00
1.708340147914819536e+05 2.499999124805978856e-01 -2.140258192228422229e-01 3.524877758348809564e+00
1.820581959237738629e+05 2.499999099738647867e-01 -2.280247164401212057e-01 3.524729295051395095e+00
1.901008323496430239e+05 2.499999082472563194e-01 -2.373016401923022656e-01 3.524633177129929962e+00
2.031201115394812659e+05 2.499999055604801845e-01 -2.509789150346479203e-01 3.524494870252772749e+00
2.126302902951288561e+05 2.499999036721792245e-01 -2.599932396480704178e-01 3.524406828912884038e+00
2.229227756532259809e+05 2.499999016901421900e-01 -2.688475584187589029e-01 3.524323532824106486e+00
2.402460119326141721e+05 2.499998984780807676e-01 -2.818890439930631930e-01 3.524202376432043149e+00
2.534472145374015672e+05 2.499998961183669821e-01 -2.903657409055931393e-01 3.524125758684929721e+00
2.684028245478771278e+05 2.499998935210031026e-01 -2.986706396854117984e-01 3.524052038920701957e+00
2.767064306430922588e+05 2.499998921089451875e-01 -3.027708545156434505e-01 3.524016159833935458e+00
2.952645452992127975e+05 2.499998890189544520e-01 -3.107591090570602232e-01 3.523947283497689043e+00
3.172225446928438032e+05 2.499998854609133958e-01 -3.186107322148619136e-01 3.523880929860170319e+00
3.297956433939884882e+05 2.499998834636291689e-01 -3.225301106413024366e-01 3.523848301258790894e+00
3.585581004122286104e+05 2.499998789863791537e-01 -3.303444331689014968e-01 3.523786855494177139e+00
3.750093276015626034e+05 2.499998764757181413e-01 -3.343508972074789587e-01 3.523756358389354304e+00
3.928609690285968827e+05 2.499998737883575017e-01 -3.384631317934150840e-01 3.523727762225774995e+00
4.120499283085511997e+05 2.499998709399517960e-01 -3.427519091552195807e-01 3.523693630516349096e+00
4.323819375934280688e+05 2.499998679656543210e-01 -3.472278505849777375e-01 3.523658278702019864e+00
4.751143494042641250e+05 2.499998618578940235e-01 -3.567579287749754746e-01 3.523584410279675616e+00
4.968123855885256198e+05 2.499998588315833770e-01 -3.618024516380732303e-01 3.523545746425249536e+00
5.182787722312780097e+05 2.499998558886601385e-01 -3.670040643468544528e-01 3.523506339843356372e+00
5.595106141899506329e+05 2.499998503843364195e-01 -3.777576191440344955e-01 3.523426370166932386e+00
5.789903260947869858e+05 2.499998478552408199e-01 -3.832605986010647059e-01 3.523386196005788840e+00
6.150930781941172900e+05 2.499998432970185203e-01 -3.943237337953808264e-01 3.523306707169388652e+00
6.624790378844292136e+05 2.499998375876035239e-01 -4.108683924176853575e-01 3.523189889939155606e+00
6.901612390957338503e+05 2.499998344072968115e-01 -4.217710909646115724e-01 3.523114273678475961e+00
7.269402970270446967e+05 2.499998303716643167e-01 -4.377706039237215796e-01 3.523008489311814984e+00
7.696803669158008415e+05 2.499998259677610191e-01 -4.584519253498494651e-01 3.522876810761887079e+00
8.078567055693831062e+05 2.499998223011586085e-01 -4.784300036513953747e-01 3.522748897770203946e+00
8.439258865252207033e+05 2.499998190645149054e-01 -4.977719946840039045e-01 3.522624739683339889e+00
8.796789254672569223e+05 2.499998160606332342e-01 -5.166348997868653870e-01 3.522504138666042728e+00
9.257891100028806832e+05 2.499998124563762025e-01 -5.397123109271613206e-01 3.522356187139760397e+00
9.750093809218161041e+05 2.499998089007000601e-01 -5.626261047128624515e-01 3.522208999741509139e+00
1.017153859942056471e+06 2.499998060632317443e-01 -5.808262680781063336e-01 3.522091803426053325e+00
1.062232490617712960e+06 2.499998032117316249e-01 -5.990975874945698720e-01 3.521972233330418867e+00
1.122559764384031994e+06 2.499997996550729629e-01 -6.218918539141818913e-01 3.521821943609397820e+00
1.174201759276557248e+06 2.499997968165824369e-01 -6.401015811591889149e-01 3.521697491903916344e+00
1.229045038670975482e+06 2.499997939841483441e-01 -6.582835775600637263e-01 3.521570720247034103e+00
1.302359131684258580e+06 2.499997904537660520e-01 -6.809606235126973717e-01 3.521409197084612863e+00
1.365097161206865683e+06 2.499997876360210425e-01 -6.990613787100723453e-01 3.521279945518387855e+00
1.431468505053082481e+06 2.499997848337007222e-01 -7.170669421914953601e-01 3.521150309903346098e+00
1.502030311516633024e+06 2.499997820324349473e-01 -7.350731099631613308e-01 3.521018541909012534e+00
1.577003006510357838e+06 2.499997792336942082e-01 -7.530476768693010747e-01 3.520890741788892608e+00
1.656707394562443951e+06 2.499997764358299346e-01 -7.710358857340611216e-01 3.520758380284917166e+00
1.741334459630782716e+06 2.499997736423140160e-01 -7.889986245275424359e-01 3.520625731932884861e+00
1.831125607883711345e+06 2.499997708547795350e-01 -8.069165220634100244e-01 3.520494932830080970e+00
1.926341783946043346e+06 2.499997680743501483e-01 -8.247836663404706226e-01 3.520365690667471181e+00
2.026904867992292158e+06 2.499997653114811591e-01 -8.425340172548048123e-01 3.520238853589730876e+00
2.134179376283676829e+06 2.499997625380985522e-01 -8.603471107953097885e-01 3.520112930970298315e+00
2.248015919942678884e+06 2.499997597689635476e-01 -8.781310510679241066e-01 3.519988146681867658e+00
2.368738611428148579e+06 2.499997570055493279e-01 -8.958752491328780820e-01 3.519864728952734723e+00
2.464082351543456782e+06 2.499997549358136673e-01 -9.091603347897074805e-01 3.519773711771303937e+00
2.597840534052131698e+06 2.499997521822082680e-01 -9.268316967608469792e-01 3.519653909387072677e+00
2.739641461962291505e+06 2.499997494342220128e-01 -9.444620335715785409e-01 3.519536290158141512e+00
2.889949896148763597e+06 2.499997466918162381e-01 -9.620474062310104824e-01 3.519421983309394264e+00
3.049299764463250525e+06 2.499997439542094857e-01 -9.795911729948418856e-01 3.519311318832229585e+00
3.174986091597739607e+06 2.499997419053056058e-01 -9.927169863045568476e-01 3.519230103362316342e+00
3.350637487934799399e+06 2.499997391880414421e-01 -1.010100384328396661e+00 3.519129198170742434e+00
3.537466891944449395e+06 2.499997364650807796e-01 -1.027499127439811311e+00 3.519033706555632968e+00
3.735373972332335077e+06 2.499997337475446391e-01 -1.044845710045590348e+00 3.518943054348392607e+00
3.945102365606003441e+06 2.499997310338595846e-01 -1.062146187286701515e+00 3.518858226811079071e+00
4.109767391771025956e+06 2.499997290107918158e-01 -1.075028439943954250e+00 3.518799256917970908e+00
4.341707901847886853e+06 2.499997263047658569e-01 -1.092245537166192992e+00 3.518724303100600359e+00
4.586616368979774415e+06 2.499997236111630716e-01 -1.109355189825009802e+00 3.518657817514470487e+00
4.847082874771552160e+06 2.499997209101154083e-01 -1.126490565627650264e+00 3.518597276661640016e+00
5.052589896027691662e+06 2.499997188858815722e-01 -1.139315717434916886e+00 3.518556498977769564e+00
5.340531980754176155e+06 2.499997161919385036e-01 -1.156365031097888130e+00 3.518507641670526098e+00
5.645132144206328318e+06 2.499997135043222074e-01 -1.173353388414600129e+00 3.518464817904400910e+00
5.884337155037920922e+06 2.499997114986787228e-01 -1.186015127514196354e+00 3.518437459171167347e+00
6.217625913972066715e+06 2.499997088425309211e-01 -1.202769361145700211e+00 3.518406002927565890e+00
6.571751345488961786e+06 2.499997061787931629e-01 -1.219539960362824749e+00 3.518383130029279826e+00
6.949139297765720636e+06 2.499997034997643586e-01 -1.236373068241070072e+00 3.518369043085513681e+00
7.246743896127501503e+06 2.499997014916056637e-01 -1.248970552074542439e+00 3.518363993589853855e+00
7.662213507378065959e+06 2.499996988266344200e-01 -1.265660005536007215e+00 3.518365053200379400e+00
8.101261185318131931e+06 2.499996961679412100e-01 -1.282271526761554536e+00 3.518376224495743720e+00
8.565874179995164275e+06 2.499996935113687480e-01 -1.298834871108945688e+00 3.518396263390767942e+00
8.930450731274986640e+06 2.499996915283998478e-01 -1.311175502585484764e+00 3.518417097827796880e+00
9.436444072941873223e+06 2.499996889095540409e-01 -1.327441058029658727e+00 3.518453033186818679e+00
9.973762325265089050e+06 2.499996862811706411e-01 -1.343719734432433199e+00 3.518500189713249515e+00
1.054760042240728252e+07 2.499996836285340029e-01 -1.360097225399011567e+00 3.518559567083553219e+00
1.099982647283306345e+07 2.499996816393061094e-01 -1.372345345278481954e+00 3.518611787401733970e+00
1.163109881152843684e+07 2.499996789967866284e-01 -1.388569726963118978e+00 3.518691360642731691e+00
1.229860220105999336e+07 2.499996763557056356e-01 -1.404731750229478937e+00 3.518781992635411804e+00
1.282534810692859814e+07 2.499996743714896219e-01 -1.416840559583599557e+00 3.518856792531023459e+00
1.355802627701347321e+07 2.499996717436859250e-01 -1.432839748654757273e+00 3.518963550879845137e+00
1.433341070978847519e+07 2.499996691134798721e-01 -1.448802861650294593e+00 3.519080898200750429e+00
1.515592230062522367e+07 2.499996664745577080e-01 -1.464773339452574152e+00 3.519207679449564807e+00
1.580186487863335572e+07 2.499996645005333473e-01 -1.476687728574858749e+00 3.519309367365743846e+00
1.670160923412602581e+07 2.499996618810654270e-01 -1.492477639346464269e+00 3.519447735273491862e+00
1.765745896389632672e+07 2.499996592478445079e-01 -1.508316022894741204e+00 3.519593096299170387e+00
1.866123744066190720e+07 2.499996566311352975e-01 -1.524046739669254524e+00 3.519737860376260130e+00
1.972737181205872819e+07 2.499996540008403156e-01 -1.539839096846593147e+00 3.519885765906963115e+00
2.056679261965604126e+07 2.499996520274476719e-01 -1.551677926597196500e+00 3.519997615847616501e+00
2.174001645279029012e+07 2.499996493994320612e-01 -1.567433152624780224e+00 3.520146967727608267e+00
2.296978488298968971e+07 2.499996467919604060e-01 -1.583047021339442306e+00 3.520297041943512006e+00
2.427625666337949410e+07 2.499996441693975169e-01 -1.598755589084706941e+00 3.520442693329159489e+00
2.530612856721405685e+07 2.499996421990174911e-01 -1.610556435286008004e+00 3.520549394202819649e+00
2.674406011476933211e+07 2.499996395771789670e-01 -1.626256005710907004e+00 3.520687358550562251e+00
2.826583570938076079e+07 2.499996369506235494e-01 -1.641978531915372130e+00 3.520820415636411571e+00
2.986711494044960290e+07 2.499996343343294236e-01 -1.657658845003024739e+00 3.520941526499625773e+00
3.156057141909809411e+07 2.499996317148259206e-01 -1.673357395359253319e+00 3.521055622911279492e+00
3.289574524499903619e+07 2.499996297460369277e-01 -1.685150722771257659e+00 3.521136396850674810e+00
3.476539028757374734e+07 2.499996271183825280e-01 -1.700877344799356150e+00 3.521237285255365723e+00
3.674161354741726816e+07 2.499996244889504671e-01 -1.716612630979602816e+00 3.521325674450193954e+00
3.883534639313960820e+07 2.499996218516063184e-01 -1.732372007371714595e+00 3.521406280239215203e+00
4.048874124445594847e+07 2.499996198664454772e-01 -1.744241440985616176e+00 3.521456106105091521e+00
4.280589813212042302e+07 2.499996172151519869e-01 -1.760096715538421730e+00 3.521509753557486633e+00
4.525620276598554105e+07 2.499996145615587251e-01 -1.775960151201327442e+00 3.521550710357548297e+00
4.785761350934512168e+07 2.499996118951925972e-01 -1.791885874014684799e+00 3.521580409901203801e+00
4.990989680002762377e+07 2.499996098906523967e-01 -1.803848208392974994e+00 3.521595320355299208e+00
5.278621523753990233e+07 2.499996072138070957e-01 -1.819804832047338561e+00 3.521605278629847735e+00
5.583378819729263335e+07 2.499996045297894764e-01 -1.835773948292555469e+00 3.521604045639013414e+00
5.906446945796169341e+07 2.499996018371534179e-01 -1.851748881471655839e+00 3.521591674325193821e+00
6.161655052485959232e+07 2.499995998100966177e-01 -1.863718861660749626e+00 3.521578968778883656e+00
6.519942903128735721e+07 2.499995970982149818e-01 -1.879658631242828726e+00 3.521553210656955812e+00
6.902078592402699590e+07 2.499995943605017590e-01 -1.895611653040795153e+00 3.521524479469204660e+00
7.204356156291945279e+07 2.499995922963490214e-01 -1.907542606928729789e+00 3.521498390419149693e+00
7.632006727267184854e+07 2.499995895130264489e-01 -1.923463078331270282e+00 3.521458835730904902e+00
8.089735393786227703e+07 2.499995866927214871e-01 -1.939347522328426221e+00 3.521417577260384402e+00
8.454865254724578559e+07 2.499995845478045209e-01 -1.951227455903387309e+00 3.521386620617460661e+00
8.972132648320753872e+07 2.499995816504524404e-01 -1.966917320701536243e+00 3.521354836934980970e+00
9.388493040961398184e+07 2.499995794259016191e-01 -1.978695269740187168e+00 3.521325919696199236e+00
9.985471167324766517e+07 2.499995763838589735e-01 -1.994330513611891398e+00 3.521287561908483355e+00
1.046942967374577820e+08 2.499995740307799919e-01 -2.005996579972881833e+00 3.521260251073684344e+00
1.117095685149528384e+08 2.499995707761104857e-01 -2.021435830650948784e+00 3.521225578800724065e+00
1.174740493711927384e+08 2.499995682226869576e-01 -2.032915789043948873e+00 3.521201833573328610e+00
1.237561309789225161e+08 2.499995655476185408e-01 -2.044281774025448417e+00 3.521181418327742119e+00
1.306746539851687700e+08 2.499995627144100951e-01 -2.055526850857725130e+00 3.521164646561008027e+00
1.383737942585273981e+08 2.499995596809589937e-01 -2.066596350471739285e+00 3.521154722178098329e+00
1.470653471609410942e+08 2.499995563843156465e-01 -2.077487028666601621e+00 3.521143962815677764e+00
1.535830369963472784e+08 2.499995539876944395e-01 -2.084638766401375687e+00 3.521138476865874445e+00
1.647581218004089892e+08 2.499995500035462892e-01 -2.095115173715702550e+00 3.521134047279558033e+00
1.734294159149800837e+08 2.499995470024763411e-01 -2.101888445488994339e+00 3.521133241583146223e+00
1.834618326292767525e+08 2.499995436101890012e-01 -2.108465751747570227e+00 3.521134032424662497e+00
1.953469079852610230e+08 2.499995396810548443e-01 -2.114767540491139020e+00 3.521140632045568708e+00
2.098258573083656430e+08 2.499995349964465596e-01 -2.120721190489269325e+00 3.521144920344415397e+00
2.184962654719653726e+08 2.499995322331917680e-01 -2.123548530460995121e+00 3.521147497904632218e+00
2.284579433779063523e+08 2.499995290893019528e-01 -2.126244938387172656e+00 3.521150384884705886e+00
2.539542959452266395e+08 2.499995211552444307e-01 -2.131117412332343530e+00 3.521156987564547869e+00
2.706558169983404279e+08 2.499995160204808442e-01 -2.133189614406173717e+00 3.521163036566629767e+00
2.707396038932557106e+08 2.499995159947350776e-01 -2.133199762552465018e+00 3.521163067620598941e+00
2.908149439149583578e+08 2.499995098669823279e-01 -2.134945582027049760e+00 3.521167032383775375e+00
3.149254607957811356e+08 2.499995025517947334e-01 -2.136322917535698362e+00 3.521170823633772429e+00
3.438822116785041094e+08 2.499994938079516116e-01 -2.137333060528094020e+00 3.521174631192474536e+00
3.440269954329177737e+08 2.499994937642426029e-01 -2.137337953866076390e+00 3.521174650046909438e+00
3.788330099939507246e+08 2.499994832909294140e-01 -2.138016229201754381e+00 3.521178653449878126e+00
4.206349755682495832e+08 2.499994707420258033e-01 -2.138425591774887113e+00 3.521182924175191076e+00
4.208434641746051908e+08 2.499994706794431421e-01 -2.138427559972653658e+00 3.521182945376765350e+00
4.710892183063060641e+08 2.499994556173015248e-01 -2.138636528844413576e+00 3.521187647601650372e+00
4.713394046339328289e+08 2.499994555423063480e-01 -2.138637529826400208e+00 3.521187670954541993e+00
5.317343841230246425e+08 2.499994374511640971e-01 -2.138707901544040002e+00 3.521193091177930778e+00
5.320346077161766887e+08 2.499994373612343113e-01 -2.138708233355246957e+00 3.521193118099041897e+00
6.046286725403476954e+08 2.499994156216936436e-01 -2.138690987902026386e+00 3.521199536312310308e+00
6.049889408521301746e+08 2.499994155138054452e-01 -2.138690896239278327e+00 3.521199568158792204e+00
6.053492091639126539e+08 2.499994154059172469e-01 -2.138690804576530269e+00 3.521199600005274100e+00
6.059246841096209288e+08 2.499994152335760222e-01 -2.138690279297830621e+00 3.521199650098748357e+00
6.065001590553289652e+08 2.499994150612347976e-01 -2.138689754019130973e+00 3.521199700192222171e+00
6.943176357703976631e+08 2.499993887618161270e-01 -2.138608900966637805e+00 3.521207342717018296e+00
6.950082057052475214e+08 2.499993885549571804e-01 -2.138608038791220078e+00 3.521207402249415530e+00
6.956987756400972605e+08 2.499993883480982615e-01 -2.138607176615801908e+00 3.521207461781813208e+00
8.014940896590896845e+08 2.499993566566997283e-01 -2.138473975639468616e+00 3.521216582313066112e+00
8.023227735809094906e+08 2.499993564083675679e-01 -2.138472755078580256e+00 3.521216653779932315e+00
8.031514575027292967e+08 2.499993561600354630e-01 -2.138471534517691897e+00 3.521216725246798074e+00
9.306030446786119938e+08 2.499993179649796504e-01 -2.138281997397139200e+00 3.521227711041104325e+00
9.315974653847956657e+08 2.499993176668061090e-01 -2.138280331073414420e+00 3.521227796155824041e+00
9.325918860909795761e+08 2.499993173686325676e-01 -2.138278664749689639e+00 3.521227881270543758e+00
9.335863067971632481e+08 2.499993170704590262e-01 -2.138276998425965303e+00 3.521227966385263031e+00
1.087323747973169327e+09 2.499992709690612991e-01 -2.138015966493699072e+00 3.521241114830023111e+00
1.088517052820590019e+09 2.499992706109631091e-01 -2.138013703960273570e+00 3.521241216176080879e+00
1.089710357668010473e+09 2.499992702528648914e-01 -2.138011441426848513e+00 3.521241317522138203e+00
1.274911269987669945e+09 2.499992146683905903e-01 -2.137654738225805762e+00 3.521257035530254598e+00
1.276343235804574966e+09 2.499992142381955995e-01 -2.137651675809855156e+00 3.521257156464275617e+00
1.277775201621479511e+09 2.499992138080006643e-01 -2.137648613393904551e+00 3.521257277398296637e+00
1.500875475895213842e+09 2.499991467687692204e-01 -2.137162865776586873e+00 3.521276091327408597e+00
1.502593834875499249e+09 2.499991462517534568e-01 -2.137158737024172250e+00 3.521276234996056687e+00
1.504312193855784893e+09 2.499991457347376378e-01 -2.137154608271757628e+00 3.521276378664704776e+00
1.506030552836070299e+09 2.499991452177218465e-01 -2.137150479519342561e+00 3.521276522333353753e+00
1.775125569148780107e+09 2.499990642237137350e-01 -2.136490537227058617e+00 3.521298972357336687e+00
1.777187599925122738e+09 2.499990636020193446e-01 -2.136485000999633233e+00 3.521299142651613145e+00
1.779249630701465130e+09 2.499990629803249265e-01 -2.136479464772207848e+00 3.521299312945889159e+00
2.103400868742522478e+09 2.499989651961737613e-01 -2.135591023487616091e+00 3.521326006466249936e+00
2.105875305674133301e+09 2.499989644480715978e-01 -2.135583682078807666e+00 3.521326207867849778e+00
2.108349742605744362e+09 2.499989636999694620e-01 -2.135576340669999684e+00 3.521326409269448732e+00
2.110824179537355900e+09 2.499989629518673262e-01 -2.135568999261191259e+00 3.521326610671048130e+00
2.501785214731913090e+09 2.499988446521890784e-01 -2.134382968159039162e+00 3.521358355775041638e+00
2.504754539049846172e+09 2.499988437511485029e-01 -2.134373288851454387e+00 3.521358594912003870e+00
2.507723863367780209e+09 2.499988428501079274e-01 -2.134363609543869611e+00 3.521358834048966102e+00
2.510693187685713291e+09 2.499988419490673797e-01 -2.134353930236284391e+00 3.521359073185927890e+00
2.982221889373529434e+09 2.499986986838987069e-01 -2.132795280285416872e+00 3.521396773790728130e+00
2.985785078555049419e+09 2.499986975973580716e-01 -2.132783030530833290e+00 3.521397052686118467e+00
2.989348267736569405e+09 2.499986965108174364e-01 -2.132770780776249264e+00 3.521397331581508361e+00
3.557320623270859718e+09 2.499985230164319117e-01 -2.130797452004423054e+00 3.521441484900231345e+00
3.561596450288684368e+09 2.499985217044802255e-01 -2.130782192355917815e+00 3.521441811396146093e+00
3.565872277306508064e+09 2.499985203925285393e-01 -2.130766932707412575e+00 3.521442137892060842e+00
3.570148104324331760e+09 2.499985190805768531e-01 -2.130751673058907336e+00 3.521442464387975146e+00
4.255135592579740524e+09 2.499983084048819637e-01 -2.128301496029461060e+00 3.521494320274517698e+00
4.260266585001129150e+09 2.499983068183196377e-01 -2.128283048321037985e+00 3.521494701124274762e+00
4.265397577422517776e+09 2.499983052317572563e-01 -2.128264600612614466e+00 3.521495081974030938e+00
4.270528569843906879e+09 2.499983036451949303e-01 -2.128246152904190946e+00 3.521495462823787115e+00
5.096618349687507629e+09 2.499980474032165445e-01 -2.125300931100660318e+00 3.521556105622708266e+00
5.102775540593174934e+09 2.499980454814430542e-01 -2.125279346278388548e+00 3.521556547664374204e+00
5.108932731498841286e+09 2.499980435596695916e-01 -2.125257761456116778e+00 3.521556989706040586e+00
5.115089922404507637e+09 2.499980416378960735e-01 -2.125236176633845009e+00 3.521557431747706524e+00
6.106997078850741386e+09 2.499977308158745637e-01 -2.121824964807728087e+00 3.521627722533706262e+00
6.114297415445896149e+09 2.499977285122143011e-01 -2.121800720417276409e+00 3.521628227849918691e+00
6.121597752041049957e+09 2.499977262085540386e-01 -2.121776476026824731e+00 3.521628733166131120e+00
7.273379776293335915e+09 2.499973611112874528e-01 -2.118057490341964666e+00 3.521707364257491868e+00
7.281490321769042969e+09 2.499973585203020543e-01 -2.118032595214278224e+00 3.521707904631917518e+00
7.289600867244750977e+09 2.499973559293166558e-01 -2.118007700086591782e+00 3.521708445006342725e+00
7.297711412720460892e+09 2.499973533383312851e-01 -2.117982804958904897e+00 3.521708985380768375e+00
8.572211659083251953e+09 2.499969441777812329e-01 -2.114208316070363303e+00 3.521792679578455321e+00
8.581066799809945107e+09 2.499969413130320728e-01 -2.114183591844816412e+00 3.521793247761541679e+00
8.589921940536639214e+09 2.499969384482829404e-01 -2.114158867619269522e+00 3.521793815944628037e+00
9.985583529069711685e+09 2.499964846058452261e-01 -2.110425065626990726e+00 3.521881889908330177e+00
9.995280707051925659e+09 2.499964814292220949e-01 -2.110400752931797186e+00 3.521882487076747559e+00
1.000497788503414154e+10 2.499964782525989082e-01 -2.110376440236603202e+00 3.521883084245165829e+00
1.121025258040581703e+10 2.499960820815958495e-01 -2.107404940549998607e+00 3.521957050437965808e+00
1.121561594616343689e+10 2.499960803029681045e-01 -2.107392305757753714e+00 3.521957376583694899e+00
1.209949862301913452e+10 2.499957863130639613e-01 -2.105377523244209126e+00 3.522010451944667331e+00
1.210593466192827606e+10 2.499957841650848334e-01 -2.105363415106771718e+00 3.522010832796805602e+00
1.316916828971877289e+10 2.499954281077511054e-01 -2.103121973442255488e+00 3.522072905402197307e+00
1.444659329240556145e+10 2.499949971036404262e-01 -2.100659652649086606e+00 3.522145272198087262e+00
1.445586118843472672e+10 2.499949939640824514e-01 -2.100642664608486587e+00 3.522145788721425141e+00
1.446512908446389389e+10 2.499949908245244767e-01 -2.100625676567886124e+00 3.522146305244763465e+00
1.561434819208054543e+10 2.499946003933938010e-01 -2.098559376063044990e+00 3.522210266230750619e+00
1.653854278410903168e+10 2.499942838640904497e-01 -2.097013900583537538e+00 3.522260829188025077e+00
1.764891087157141495e+10 2.499939016139326731e-01 -2.095285776806991240e+00 3.522320070476116172e+00
1.863222722594916153e+10 2.499935615015498325e-01 -2.093835112616044380e+00 3.522371778881018489e+00
1.943361403984268570e+10 2.499932827434812599e-01 -2.092719416106519237e+00 3.522413270361806070e+00
2.039643129106727982e+10 2.499929465958207753e-01 -2.091453865000215906e+00 3.522462293070725892e+00
2.155319568199963379e+10 2.499925410476593890e-01 -2.090030384000615360e+00 3.522520178054524997e+00
2.156149781877665710e+10 2.499925381312497197e-01 -2.090020491060629482e+00 3.522520590286724484e+00
2.331656953344004822e+10 2.499919192604776463e-01 -2.088005030246754323e+00 3.522606948552882145e+00
2.407372440750485992e+10 2.499916508629312917e-01 -2.087192804460746842e+00 3.522643591254685624e+00
2.566275338662771606e+10 2.499910853145161649e-01 -2.085592749242489052e+00 3.522719293401666008e+00
2.666817535887272644e+10 2.499907260680550858e-01 -2.084650952846024197e+00 3.522766319902005172e+00
2.787611633480181122e+10 2.499902931388446881e-01 -2.083583851121956876e+00 3.522822089247679145e+00
2.889870579755982971e+10 2.499899256002592607e-01 -2.082717139173557719e+00 3.522868904882785923e+00
3.081043163359268951e+10 2.499892353540993373e-01 -2.081210619335963408e+00 3.522955041305255275e+00
3.206728704600072479e+10 2.499887799142996303e-01 -2.080294580061467169e+00 3.523010391039421041e+00
3.357729842431626892e+10 2.499882311362051912e-01 -2.079260443371912181e+00 3.523076550543457586e+00
3.483242844941259766e+10 2.499877737537515854e-01 -2.078437020513936861e+00 3.523131391918224331e+00
3.677937929038967133e+10 2.499870614381808909e-01 -2.077239755214364436e+00 3.523215024544018359e+00
3.884070546129872131e+10 2.499863044323537009e-01 -2.076070247418981829e+00 3.523301985337666586e+00
4.015152384928329468e+10 2.499858217141280869e-01 -2.075375723540235029e+00 3.523356582333813769e+00
4.216049953210122681e+10 2.499850798733987689e-01 -2.074363771201674034e+00 3.523439632457449289e+00
4.464997127064163208e+10 2.499841574589159732e-01 -2.073209700661084121e+00 3.523541375903809225e+00
4.628659508025624084e+10 2.499835494433240712e-01 -2.072503657208099703e+00 3.523607629122655460e+00
4.877641217903784180e+10 2.499826219533156646e-01 -2.071485442387878351e+00 3.523707850609785197e+00
5.188465434970100403e+10 2.499814602073774650e-01 -2.070321440645298328e+00 3.523831714118715208e+00
5.324054418235636902e+10 2.499809522740811252e-01 -2.069839480491104666e+00 3.523885466448255954e+00
5.593236744097520447e+10 2.499799414874274706e-01 -2.068935867281074259e+00 3.523991478637526598e+00
5.872166581063404846e+10 2.499788911525455959e-01 -2.068048657575171312e+00 3.524101328251658671e+00
6.212916773810191345e+10 2.499776044557281418e-01 -2.067043778601138637e+00 3.524234582651353254e+00
6.503291614306892395e+10 2.499765053883453159e-01 -2.066246457037650863e+00 3.524347517666999607e+00
6.740873044778695679e+10 2.499756043386110460e-01 -2.065622029063060694e+00 3.524440023154706836e+00
7.042636047800352478e+10 2.499744576765848825e-01 -2.064868386476540252e+00 3.524557121957669459e+00
7.430318882619297791e+10 2.499729810977980304e-01 -2.063947583020363741e+00 3.524707451314496254e+00
7.855109522348236084e+10 2.499713591232938792e-01 -2.062993401123887960e+00 3.524872164150072429e+00
8.180623462747344971e+10 2.499701134738410713e-01 -2.062295380162224578e+00 3.524998279050468142e+00
8.649907146918470764e+10 2.499683140323985253e-01 -2.061329673620181602e+00 3.525180757409903443e+00
8.958400877970477295e+10 2.499671289024212872e-01 -2.060715913425990919e+00 3.525300985882592997e+00
9.329020336175512695e+10 2.499657028563693206e-01 -2.059996123259019374e+00 3.525445807199000026e+00
9.774276063152719116e+10 2.499639864852041260e-01 -2.059152076346547400e+00 3.525620350713935647e+00
1.030919778808275452e+11 2.499619200762446813e-01 -2.058160703454693596e+00 3.525830920423415282e+00
1.095184168106766663e+11 2.499594313851525307e-01 -2.056990715263566916e+00 3.526085787900276269e+00
1.172389974033220673e+11 2.499564328704854121e-01 -2.055605905886873419e+00 3.526394467175554048e+00
1.172921206642806396e+11 2.499564122244406494e-01 -2.055596408843583411e+00 3.526396594974692711e+00
1.265780666798385010e+11 2.499527934331707835e-01 -2.053946454140063604e+00 3.526771794069344157e+00
1.377339514811380310e+11 2.499484284698700320e-01 -2.051969441270461214e+00 3.527228484145161769e+00
1.378104489769183655e+11 2.499483985126710606e-01 -2.051955887953453406e+00 3.527231624647657604e+00
1.512281097367899170e+11 2.499431233482561077e-01 -2.049569527904227417e+00 3.527790045973436595e+00
1.513199067317263184e+11 2.499430872229360112e-01 -2.049553186075561140e+00 3.527793879338721794e+00
1.674578184415467529e+11 2.499367059742599595e-01 -2.046654206621563166e+00 3.528478856319865020e+00
1.675679748354704285e+11 2.499366623682674204e-01 -2.046634377217293910e+00 3.528483549394879404e+00
1.869775314448244324e+11 2.499289338487321044e-01 -2.043094663872535577e+00 3.529326648186559723e+00
1.871097191175328979e+11 2.499288811484530748e-01 -2.043070490303838138e+00 3.529332413587107808e+00
1.872419067902412720e+11 2.499288284481739897e-01 -2.043046316735140255e+00 3.529338178987655006e+00
2.007779244755841675e+11 2.499233979555332552e-01 -2.040555794593184480e+00 3.529936363030989455e+00
2.128334402265926514e+11 2.499185292544084946e-01 -2.038312281163194850e+00 3.530477602676850957e+00
2.248889559776011658e+11 2.499136348000205732e-01 -2.036041362019795908e+00 3.531026579635827556e+00
2.369444717286096802e+11 2.499087141651801791e-01 -2.033746347226970119e+00 3.531582781797485193e+00
2.370237843322347412e+11 2.499086817643599301e-01 -2.033731223391107790e+00 3.531586448650231524e+00
2.511255652567696838e+11 2.499028939559050089e-01 -2.031011890298844769e+00 3.532246605695395392e+00
2.680667373910816650e+11 2.498958961528223999e-01 -2.027699667075375967e+00 3.533052753380816480e+00
2.884189859821000366e+11 2.498874236891385769e-01 -2.023657396118813789e+00 3.534039918256593804e+00
2.885560381611641235e+11 2.498873665825078194e-01 -2.023630124729410618e+00 3.534046580885453981e+00
3.130335573420118408e+11 2.498770791955120252e-01 -2.018682636251636797e+00 3.535260478701539810e+00
3.131980199568887329e+11 2.498770100048276765e-01 -2.018649333002921598e+00 3.535268653948665740e+00
3.292210079755625000e+11 2.498702033759581664e-01 -2.015392435979869834e+00 3.536074344066565622e+00
3.589085519787266235e+11 2.498574418727719793e-01 -2.009255158082793979e+00 3.537600907790916072e+00
3.738013133268485107e+11 2.498509713625154671e-01 -2.006137741565054977e+00 3.538380666556361298e+00
3.913982866039714966e+11 2.498432699066781004e-01 -2.002423832208342525e+00 3.539312681653164372e+00
4.125381694228581543e+11 2.498339381410119298e-01 -1.997944654340735982e+00 3.540440720362837634e+00
4.260827439542027588e+11 2.498279007448244160e-01 -1.995084285219588471e+00 3.541166478515250571e+00
4.389500897589801025e+11 2.498221247388082433e-01 -1.992355644708340590e+00 3.541861199168637953e+00
4.646001277777138672e+11 2.498105022963634236e-01 -1.986900373221985427e+00 3.543252389101469557e+00
4.798885662799689331e+11 2.498035093368239645e-01 -1.983644897960365805e+00 3.544085667731273759e+00
4.982550093444722900e+11 2.497950457631087640e-01 -1.979731448386126580e+00 3.545090920390782330e+00
5.331297909275195923e+11 2.497787690804885441e-01 -1.972328710805650864e+00 3.547006255914756156e+00
5.580656069018804932e+11 2.497669447586038927e-01 -1.967474851580919726e+00 3.548303589096037047e+00
5.854209376935557861e+11 2.497538261555467820e-01 -1.961156223907550400e+00 3.549920490895332126e+00
6.033549740537299805e+11 2.497451296622183181e-01 -1.944362010423309695e+00 3.553282038826944156e+00
6.178365109031569824e+11 2.497378036202032303e-01 -1.915506248373120890e+00 3.556522563971411977e+00
6.294027792869873047e+11 2.497314349320426397e-01 -1.890496988456129346e+00 3.558823266110183958e+00
6.294786236698320312e+11 2.497313931142658983e-01 -1.890332811937787127e+00 3.558838320198841387e+00
6.295693365554523926e+11 2.497313391933664861e-01 -1.890118846430989707e+00 3.558856472077263966e+00
6.296600494410726318e+11 2.497312852724671017e-01 -1.889904880924192065e+00 3.558874623955686545e+00
6.297507623266928711e+11 2.497312313515676896e-01 -1.889690915417394423e+00 3.558892775834109123e+00
6.389309063514676514e+11 2.497257627438626837e-01 -1.867995225825363370e+00 3.560729548947869194e+00
6.390034766599638672e+11 2.497257166539717799e-01 -1.867813458343895006e+00 3.560744021204957477e+00
6.390760469684600830e+11 2.497256705640808483e-01 -1.867631690862426419e+00 3.560758493462045760e+00
6.463766200031820068e+11 2.497210188650230145e-01 -1.849418001026337688e+00 3.562203083047129848e+00
6.464346762499790039e+11 2.497209798422488358e-01 -1.849282889726826751e+00 3.562213043784517641e+00
6.522519121790377197e+11 2.497170575574527984e-01 -1.835300194774857285e+00 3.563253175774214743e+00
6.522983571764752197e+11 2.497170249833640665e-01 -1.835142712097361128e+00 3.563265818375618732e+00
6.523448021739129639e+11 2.497169924092753623e-01 -1.834985229419864972e+00 3.563278460977023165e+00
6.569707239186973877e+11 2.497137323027980582e-01 -1.819551003835249148e+00 3.564500677864189893e+00
6.570078799166474609e+11 2.497137049329236913e-01 -1.819445938451085709e+00 3.564507709760922349e+00
6.619971139553059082e+11 2.497099851904848733e-01 -1.807132592038195762e+00 3.565285983509635770e+00
6.636099986077114258e+11 2.497087444903956788e-01 -1.805103775769148378e+00 3.565366722140771660e+00
6.653397705628851318e+11 2.497074049424519160e-01 -1.797381453047958377e+00 3.566101262463859278e+00
6.669686064823699951e+11 2.497061145675857352e-01 -1.789753387453747457e+00 3.566619311342043908e+00
6.683125301156806641e+11 2.497050235836434651e-01 -1.783762430889380468e+00 3.567054447876378376e+00
6.695834009783364258e+11 2.497039723380735654e-01 -1.778222548093707722e+00 3.567469120201306687e+00
6.708320697580870361e+11 2.497029214588827317e-01 -1.773038565652444998e+00 3.567859129492358061e+00
6.720893831088076172e+11 2.497018460508149684e-01 -1.768016705649100295e+00 3.568221465607063436e+00
6.733848570072288818e+11 2.497007204600777963e-01 -1.763020527665585035e+00 3.568564649515854725e+00
6.762217026052551270e+11 2.496981989873262031e-01 -1.755816539902222750e+00 3.568983624169848046e+00
6.786486916161427002e+11 2.496960024908633224e-01 -1.751773916680385401e+00 3.569232855215408673e+00
6.797578599523151855e+11 2.496949882046544666e-01 -1.750233534340954300e+00 3.569286900836076359e+00
6.810128601924882812e+11 2.496938345759744382e-01 -1.741720845162811004e+00 3.570000735535215242e+00
6.810247684863198242e+11 2.496938234096692799e-01 -1.741644944526098859e+00 3.570006004679724843e+00
6.831668213857547607e+11 2.496917835498532190e-01 -1.731303932377386223e+00 3.570810479379962654e+00
6.842364579236160889e+11 2.496907408680942575e-01 -1.724842731194037526e+00 3.571296273108191421e+00
6.853100720385266113e+11 2.496896737486374307e-01 -1.719152733385173271e+00 3.571754939634196990e+00
6.863259154085555420e+11 2.496886457117388214e-01 -1.715020202130045579e+00 3.572125021311230331e+00
6.873991172590532227e+11 2.496875457494199257e-01 -1.708107854792185742e+00 3.572646771265975296e+00
6.874098481111243896e+11 2.496875345946918123e-01 -1.708036859292537457e+00 3.572652212636177715e+00
6.894329703130407715e+11 2.496853978706490285e-01 -1.697560829683420369e+00 3.573535863776770238e+00
6.894429043508476562e+11 2.496853872104971006e-01 -1.697489114034999247e+00 3.573541226811298710e+00
6.904581478775783691e+11 2.496842889677204913e-01 -1.690090105748992322e+00 3.574100059972844523e+00
6.914281538344232178e+11 2.496832160873768691e-01 -1.684016615018256058e+00 3.574599644585576108e+00
6.932869875070551758e+11 2.496811077034279680e-01 -1.674654578050594589e+00 3.575439178829998177e+00
6.932972964239417725e+11 2.496810958653558066e-01 -1.674568535836655769e+00 3.575445519571069486e+00
6.943198489583522949e+11 2.496799095530609636e-01 -1.667487289619952850e+00 3.576007933700946939e+00
6.952802018897341309e+11 2.496787705662237011e-01 -1.663002077235236298e+00 3.576434789114096624e+00
6.962552287515258789e+11 2.496775978643090976e-01 -1.656553580673418846e+00 3.576955152183875164e+00
6.972539790860167236e+11 2.496763734074941843e-01 -1.649163730945692130e+00 3.577535822515309327e+00
6.981844630774262695e+11 2.496752060211801516e-01 -1.644255758945668555e+00 3.577990958929831322e+00
6.991229341877861328e+11 2.496740103754351570e-01 -1.639047821801393745e+00 3.578456810144761135e+00
7.001232987323322754e+11 2.496727157147386467e-01 -1.631451409427040034e+00 3.579052736557079228e+00
7.001332946394521484e+11 2.496727026596465282e-01 -1.631353291690839313e+00 3.579059752054603027e+00
7.011003399105142822e+11 2.496714221037975578e-01 -1.623478613130448611e+00 3.579675000844893873e+00
7.019780864942944336e+11 2.496702306059774834e-01 -1.618081871265359961e+00 3.580160316277293919e+00
7.028544140606062012e+11 2.496690206510552845e-01 -1.612449138986590036e+00 3.580651193984848657e+00
7.037748420154163818e+11 2.496677279676832728e-01 -1.606300656841676222e+00 3.581179619092703881e+00
7.047067059693018799e+11 2.496663945178190791e-01 -1.599872575717982137e+00 3.581725990496493761e+00
7.056326926577624512e+11 2.496650431996451647e-01 -1.593279241238995336e+00 3.582282388534973272e+00
7.065449920139760742e+11 2.496636847044651497e-01 -1.586594128539437154e+00 3.582842468858324025e+00
7.065538628448997803e+11 2.496636713681942843e-01 -1.586528368737035954e+00 3.582847952782887369e+00
7.074491463099853516e+11 2.496623103207506467e-01 -1.579775932364181346e+00 3.583409991917496207e+00
7.083264507777695312e+11 2.496609486662609845e-01 -1.572973011173128821e+00 3.583972469861884669e+00
7.091851975113134766e+11 2.496595876576538642e-01 -1.566151350388675700e+00 3.584531425049832798e+00
7.100255826913518066e+11 2.496582274940134794e-01 -1.559291414910292106e+00 3.585090715719583709e+00
7.108478516032033691e+11 2.496568682459199273e-01 -1.552408006650223493e+00 3.585648276040131144e+00
7.116526037749771729e+11 2.496555094303112565e-01 -1.545519495654329667e+00 3.586201536762755548e+00
7.124411115003378906e+11 2.496541494419212137e-01 -1.538591979006376897e+00 3.586755225705503758e+00
7.124487822403044434e+11 2.496541361013903670e-01 -1.538523837112270698e+00 3.586760665631050671e+00
7.132208181903986816e+11 2.496527754726846626e-01 -1.531586488266241552e+00 3.587311903931243329e+00
7.139762214253940430e+11 2.496514153268575287e-01 -1.524663445646646132e+00 3.587857563471278599e+00
7.147163460444068604e+11 2.496500538468234831e-01 -1.517716748628826995e+00 3.588402559793087754e+00
7.154420836417543945e+11 2.496486898356518602e-01 -1.510754057337684753e+00 3.588945892114642877e+00
7.161532518386768799e+11 2.496473240963607565e-01 -1.503800466196226981e+00 3.589484773974176868e+00
7.168502035929599609e+11 2.496459565129768299e-01 -1.496854300005305172e+00 3.590019621722027487e+00
7.175336499430095215e+11 2.496445862368762980e-01 -1.489889984568114167e+00 3.590554582085147217e+00
7.182039270567604980e+11 2.496432130290868745e-01 -1.482926066020974432e+00 3.591087254066472667e+00
7.188614470317371826e+11 2.496418365364605207e-01 -1.475967929103381593e+00 3.591616299056887396e+00
7.195066062760898438e+11 2.496404564283719874e-01 -1.469022890106930435e+00 3.592141270105052797e+00
7.201395404893277588e+11 2.496390729460450375e-01 -1.462076067133269319e+00 3.592665890160375852e+00
7.201457131834272461e+11 2.496390593738258279e-01 -1.462007936172997846e+00 3.592671036738328105e+00
7.207667533025744629e+11 2.496376719792426924e-01 -1.455063458286177003e+00 3.593194222513734992e+00
7.213767949826936035e+11 2.496362794196624324e-01 -1.448126720381350818e+00 3.593714683330242465e+00
7.219764517821599121e+11 2.496348807214906484e-01 -1.441194679124363720e+00 3.594233096019864959e+00
7.225662938070485840e+11 2.496334749292943855e-01 -1.434262469749430613e+00 3.594749913949164544e+00
7.231469042570069580e+11 2.496320609666929369e-01 -1.427308631298146668e+00 3.595268063464604147e+00
7.237182268735656738e+11 2.496306391949687509e-01 -1.420340114653763752e+00 3.595787057430366307e+00
7.242801665075097656e+11 2.496292101224138471e-01 -1.413362692062732240e+00 3.596306002227917631e+00
7.248263656435817871e+11 2.496277906562085480e-01 -1.406460170417383360e+00 3.596817747012215349e+00
7.253459152975605469e+11 2.496264112162251414e-01 -1.399773878429686480e+00 3.597312089340422681e+00
7.258332863421976318e+11 2.496250900223133118e-01 -1.393384868255218567e+00 3.597783145796917825e+00
7.262878757900106201e+11 2.496238329242078391e-01 -1.387310508615448024e+00 3.598229978911253291e+00
7.267116354653802490e+11 2.496226386763465699e-01 -1.381541291126413551e+00 3.598654052233624334e+00
7.271075885452452393e+11 2.496215025319803993e-01 -1.376043635872125082e+00 3.599057767102294303e+00
7.278255873342443848e+11 2.496193900105807550e-01 -1.365830955974729033e+00 3.599805484294520852e+00
7.281571151681201172e+11 2.496183909387147404e-01 -1.360995756309181459e+00 3.600158434950840203e+00
7.284725784899549561e+11 2.496174258219521214e-01 -1.356323673272287422e+00 3.600498273028350571e+00
7.290607830466217041e+11 2.496155871878315557e-01 -1.347422848123944972e+00 3.601144800734441098e+00
7.293397760616685791e+11 2.496146967044033105e-01 -1.343108632256871049e+00 3.601457479949161211e+00
7.298716415698081055e+11 2.496129648225551834e-01 -1.334720154588879382e+00 3.602066399559570975e+00
7.303807075956672363e+11 2.496112634066090519e-01 -1.326478704909339612e+00 3.602664155911042165e+00
7.306258306377032471e+11 2.496104281751513609e-01 -1.322433773976882332e+00 3.602957783937399405e+00
7.310875828891662598e+11 2.496088251738846908e-01 -1.314669725549226786e+00 3.603521556226865652e+00
7.315312095174982910e+11 2.496072474747085823e-01 -1.307032791589537446e+00 3.604076595248428383e+00
7.317445984566434326e+11 2.496064748890120533e-01 -1.303294395625755664e+00 3.604348578557660776e+00
7.322431470123406982e+11 2.496046359959019911e-01 -1.294403128357727750e+00 3.604997929573503512e+00
7.324675581256486816e+11 2.496037908723396925e-01 -1.290317428049339243e+00 3.605296908611764550e+00
