# #MIST v1.1 [Fe/H] = 0, v_init = 0, reprocessed track 
# #star_age 	 star_mass 	 logL 	 logT
3.354919348177709821e+02 5.999999614114936541e+00 3.249882430670476108e+00 3.612426263423723860e+00
3.542690680503500857e+02 5.999999595487302884e+00 3.246489323987824083e+00 3.612814713598004435e+00
3.730193058832576298e+02 5.999999577135964657e+00 3.242873480013078513e+00 3.613127877480712069e+00
3.918584865889112621e+02 5.999999558952729295e+00 3.239262503153497619e+00 3.613431153527933315e+00
4.112352523057516578e+02 5.999999540508203388e+00 3.235833763020060427e+00 3.613801379887414456e+00
4.309362292918251569e+02 5.999999522005685648e+00 3.243262535216282494e+00 3.617091361698635765e+00
4.630609363488051144e+02 5.999999491676034857e+00 3.237810746692336039e+00 3.617748442873336856e+00
4.787854968911948959e+02 5.999999477076026544e+00 3.234941884788762323e+00 3.618002779114135592e+00
5.124431059044351287e+02 5.999999446349326249e+00 3.229071698739836460e+00 3.618579698605332684e+00
5.307709205651742650e+02 5.999999429901189174e+00 3.225851169488022308e+00 3.618867815596157556e+00
5.679494829581386739e+02 5.999999397151491998e+00 3.219423094742726033e+00 3.619437579904619007e+00
6.054257555111346392e+02 5.999999364946761560e+00 3.213024544159448936e+00 3.619978712950346011e+00
6.244035016756306504e+02 5.999999348936865040e+00 3.210017784385388318e+00 3.620292300537164998e+00
6.622773704792297167e+02 5.999999317543748489e+00 3.203990917149371231e+00 3.620874329699399485e+00
7.013934755493301054e+02 5.999999285881894018e+00 3.197729509489970479e+00 3.621414479078494786e+00
7.413037366801769394e+02 5.999999254335474319e+00 3.191791286385745607e+00 3.622029409259732713e+00
7.817469234111699734e+02 5.999999223114264701e+00 3.185622214709356470e+00 3.622563955200359231e+00
8.233111531830580816e+02 5.999999191778115026e+00 3.179510672494810564e+00 3.623120909402938850e+00
8.654773160408251442e+02 5.999999160733517023e+00 3.173431449088307321e+00 3.623666999327348925e+00
9.306409053813579249e+02 5.999999114139233924e+00 3.164471311851261515e+00 3.624528761392594056e+00
9.763132852485330204e+02 5.999999082428433717e+00 3.158193995816779509e+00 3.625069333041059938e+00
1.029391522353445225e+03 5.999999046477547893e+00 3.151237186469276530e+00 3.625715778093776542e+00
1.086092940241745964e+03 5.999999009101045111e+00 3.144040747511092526e+00 3.626368862351172950e+00
1.144874141157835538e+03 5.999998971422829896e+00 3.136751865427750641e+00 3.627049525441348621e+00
1.205339501122764432e+03 5.999998933752105579e+00 3.129437768724167235e+00 3.627723503558367035e+00
1.267986517092796475e+03 5.999998895815102706e+00 3.122000574502877157e+00 3.628383941353174880e+00
1.331429892205624583e+03 5.999998858473278851e+00 3.114831798718963096e+00 3.629073320213137333e+00
1.429973263573264603e+03 5.999998802477110260e+00 3.103920969285514531e+00 3.630066499812940162e+00
1.498655819604535509e+03 5.999998764801985907e+00 3.096708307907425795e+00 3.630767435588666991e+00
1.568401893336021431e+03 5.999998727602836368e+00 3.089370472813533830e+00 3.631405052074450968e+00
1.678314073479398303e+03 5.999998671032757969e+00 3.078214389389761330e+00 3.632375276680886778e+00
1.753633076990880909e+03 5.999998633620823085e+00 3.070929219774357399e+00 3.633041244534183978e+00
1.831301908826916588e+03 5.999998596123168326e+00 3.063599070534316127e+00 3.633701725180273456e+00
1.952397927559274649e+03 5.999998539701668854e+00 3.052468034302338040e+00 3.634670005169620577e+00
2.036211994203062432e+03 5.999998502019538549e+00 3.045247598489102536e+00 3.635371454241092426e+00
2.165772358732268913e+03 5.999998445796304480e+00 3.034276344546845028e+00 3.636368494495323400e+00
2.255300753153440837e+03 5.999998408292078977e+00 3.026811134872696041e+00 3.636996718496364966e+00
2.395184508949885640e+03 5.999998351765746918e+00 3.015527900916505466e+00 3.637936044942979841e+00
2.539365464853937738e+03 5.999998295929997560e+00 3.004865423765264776e+00 3.638988388796713380e+00
2.638387808069716812e+03 5.999998258902509818e+00 2.997483769074078985e+00 3.639607703500523428e+00
2.794320121051872775e+03 5.999998202635084432e+00 2.986412681911125411e+00 3.640585579338643019e+00
2.952926179145161768e+03 5.999998147770817525e+00 2.975737343457830697e+00 3.641527758456176045e+00
3.121399550767746859e+03 5.999998091853484539e+00 2.964694987775934543e+00 3.642428568932161159e+00
3.293789596033852831e+03 5.999998036983829053e+00 2.954060201983606859e+00 3.643388714990952959e+00
3.461989300729223032e+03 5.999997985576909443e+00 2.943982148638040641e+00 3.644266563431211470e+00
3.649658098680965850e+03 5.999997930452816597e+00 2.933108896582591107e+00 3.645191685050700237e+00
3.846512714862004032e+03 5.999997875005369075e+00 2.922176886472615642e+00 3.646131097731678317e+00
4.051272722681454070e+03 5.999997819694043777e+00 2.911403769712524348e+00 3.647097839971217503e+00
4.265270327183451627e+03 5.999997764252188226e+00 2.900512550161597147e+00 3.648046044653506570e+00
4.489439719279081146e+03 5.999997708581109812e+00 2.889495537473028897e+00 3.648973324085287295e+00
4.721870399113030544e+03 5.999997653226839311e+00 2.878715231135085428e+00 3.649924872930822239e+00
4.968078293496885635e+03 5.999997597011139661e+00 2.867549379237267271e+00 3.650872178426504799e+00
5.222448362798384551e+03 5.999997541346551166e+00 2.856605269980088568e+00 3.651819460563820563e+00
5.489992154069670505e+03 5.999997485237820172e+00 2.845538424547575662e+00 3.652770733075956677e+00
5.768136761470059355e+03 5.999997429331010323e+00 2.834602771783156339e+00 3.653733691560521635e+00
6.058282268249529807e+03 5.999997373429533987e+00 2.823443117382447909e+00 3.654637281996873988e+00
6.360808918963509313e+03 5.999997317577373757e+00 2.812343570444748586e+00 3.655550353897991656e+00
6.677091278744989722e+03 5.999997261610701571e+00 2.801390187898353812e+00 3.656505810493947628e+00
7.120879727741556053e+03 5.999997186874480803e+00 2.786647290533386112e+00 3.657752921069058694e+00
7.467167063451382091e+03 5.999997131366312075e+00 2.775665396048665023e+00 3.658660064184802607e+00
7.831655433943512435e+03 5.999997075361779508e+00 2.764821311133499826e+00 3.659628467065674684e+00
8.209329220420526326e+03 5.999997019711032387e+00 2.753706788081323520e+00 3.660512856494038125e+00
8.609100525780442695e+03 5.999996963257551386e+00 2.742508541139935474e+00 3.661405731376985884e+00
9.162827822720841141e+03 5.999996888819695506e+00 2.728177817852466269e+00 3.662671042728042003e+00
9.600625878361499417e+03 5.999996832765794430e+00 2.717127058827659702e+00 3.663564490311087773e+00
1.005876662850364482e+04 5.999996776534622711e+00 2.706089515152216407e+00 3.664447281190098771e+00
1.053627539327374143e+04 5.999996720336191913e+00 2.695423260420905631e+00 3.665414793504984559e+00
1.120106158069403864e+04 5.999996645784964500e+00 2.680885434631919306e+00 3.666568024684933036e+00
1.173201156838078532e+04 5.999996589069122699e+00 2.669937567881753182e+00 3.667459076748128766e+00
1.227706001516762990e+04 5.999996533208081573e+00 2.659330173248888762e+00 3.668356593010576372e+00
1.305150131310540382e+04 5.999996457555825558e+00 2.644965678584670243e+00 3.669538034083471345e+00
1.366524938534947796e+04 5.999996400408587505e+00 2.634239836643417654e+00 3.670440468464870598e+00
1.429498311640993779e+04 5.999996344126355297e+00 2.623802631838024979e+00 3.671322224051919214e+00
1.519407269500899565e+04 5.999996267474791978e+00 2.609752597404659813e+00 3.672519368918095495e+00
1.590326184843604096e+04 5.999996209795309454e+00 2.599238066646623047e+00 3.673379203103076307e+00
1.665708070748508180e+04 5.999996150908621928e+00 2.588657610727191472e+00 3.674254563165293863e+00
1.771293693988665837e+04 5.999996072207048670e+00 2.574920793108176564e+00 3.675485843446196998e+00
1.855040462291338918e+04 5.999996012616366059e+00 2.564615758003847112e+00 3.676355139550006257e+00
1.944592552740679093e+04 5.999995951385786341e+00 2.554050597630583397e+00 3.677212112296355251e+00
2.037683998830926430e+04 5.999995890236343499e+00 2.543871165499880682e+00 3.678085427651341277e+00
2.172145629908028059e+04 5.999995805856806363e+00 2.530363271223399657e+00 3.679282833988624546e+00
2.280359212903751177e+04 5.999995740983466774e+00 2.520056190956291964e+00 3.680127750983688717e+00
2.394477432427950771e+04 5.999995675207676626e+00 2.509936723730911368e+00 3.680973846657596305e+00
2.516485070882840955e+04 5.999995607558266997e+00 2.499973820464140850e+00 3.681869640570449853e+00
2.645612639127028160e+04 5.999995538672516560e+00 2.489948508089341317e+00 3.682716654808131373e+00
2.783996738211908087e+04 5.999995467615459432e+00 2.480195748184947035e+00 3.683596795154591597e+00
2.931329942347192991e+04 5.999995394759521261e+00 2.470360367730730644e+00 3.684470604962008178e+00
3.086846561610588833e+04 5.999995320714853975e+00 2.460819752908213420e+00 3.685368901395201569e+00
3.250142072860236658e+04 5.999995245770161745e+00 2.451530898631080646e+00 3.686244833932780907e+00
3.423086050177837024e+04 5.999995169200570189e+00 2.442360424876010683e+00 3.687118115610910962e+00
3.605077944184448279e+04 5.999995091410615267e+00 2.433724727596602300e+00 3.688070299615034742e+00
3.795403106756979832e+04 5.999995012781642600e+00 2.425292154073510176e+00 3.688992471902184267e+00
3.993383995637822954e+04 5.999994933628332916e+00 2.417314165468575915e+00 3.689928293809864535e+00
4.201399430197506445e+04 5.999994853044194443e+00 2.409648510552144351e+00 3.690863072725272254e+00
4.418842857669443038e+04 5.999994771322844755e+00 2.402436732069340053e+00 3.691804188496021766e+00
4.646815808733303129e+04 5.999994688054695047e+00 2.395893181534940908e+00 3.692810326440842950e+00
4.884684596456860891e+04 5.999994603466761056e+00 2.389716432717344574e+00 3.693787930207484749e+00
5.136222774702728202e+04 5.999994516255515720e+00 2.384027354960814193e+00 3.694785667454454803e+00
5.489939832990756258e+04 5.999994396899424487e+00 2.377707469134899387e+00 3.696213820814698625e+00
5.768172707013109175e+04 5.999994305203228961e+00 2.373805946964374858e+00 3.697301069027746578e+00
6.060990400392099400e+04 5.999994210391285776e+00 2.370723303206656141e+00 3.698419658630101914e+00
6.366704514237394324e+04 5.999994112844625249e+00 2.368745976662626873e+00 3.699599704361490105e+00
6.686686584989093535e+04 5.999994011849274500e+00 2.367987387692008561e+00 3.700849492645913230e+00
7.022207433057914022e+04 5.999993906698069424e+00 2.368467130919539976e+00 3.702129324592814186e+00
7.481044125490626902e+04 5.999993763224406251e+00 2.371748828274373722e+00 3.703965035041849596e+00
7.826117416729909019e+04 5.999993654785163777e+00 2.375916111773229922e+00 3.705335208961982651e+00
8.169623716157724266e+04 5.999993545762140279e+00 2.381719580379813905e+00 3.706740712896934742e+00
8.613251020082227478e+04 5.999993402358128947e+00 2.391649158144195653e+00 3.708635172382741541e+00
9.030515610470567481e+04 5.999993263631674623e+00 2.403386307632397578e+00 3.710523766712222393e+00
9.518941325591568602e+04 5.999993094951637573e+00 2.419649163246829549e+00 3.712945803856266380e+00
9.887422255613151356e+04 5.999992962374173899e+00 2.432705701165737366e+00 3.714873417610638384e+00
1.032722704958294344e+05 5.999992797705205660e+00 2.448077549026842270e+00 3.717327551827931398e+00
1.084224419771220128e+05 5.999992596503407327e+00 2.463837099781796436e+00 3.720382752145406258e+00
1.135020559410099813e+05 5.999992391054151497e+00 2.475932617551529269e+00 3.723606003019773958e+00
1.184758212607754249e+05 5.999992185504053666e+00 2.484354586802945519e+00 3.726871315450583033e+00
1.234235496621692146e+05 5.999991979047912594e+00 2.490078307581455430e+00 3.730260665550592769e+00
1.291135482770287199e+05 5.999991741413194468e+00 2.494446927478090714e+00 3.734307606148284275e+00
1.347510314275868586e+05 5.999991507322874895e+00 2.497714356512990896e+00 3.738532641852784000e+00
1.412340329199906555e+05 5.999991241093168171e+00 2.500243766757746400e+00 3.743525375348649931e+00
1.468719828316527128e+05 5.999991012795813816e+00 2.502363584180399947e+00 3.748075565392336106e+00
1.525093891971362173e+05 5.999990787604993159e+00 2.505075146965437316e+00 3.752911313102129665e+00
1.587657077051796077e+05 5.999990540915145054e+00 2.509331803020614871e+00 3.759034621005232779e+00
1.640856299054894480e+05 5.999990333890717231e+00 2.513410433974665903e+00 3.764934884331379017e+00
1.694213294266360172e+05 5.999990128953750279e+00 2.518296713031741518e+00 3.771348138212619716e+00
1.747638272981050250e+05 5.999989926196260370e+00 2.524203344576609886e+00 3.778139596092964680e+00
1.801199119813947473e+05 5.999989724838660443e+00 2.531738659792144741e+00 3.785502755662057961e+00
1.847936149013696122e+05 5.999989550245759418e+00 2.539636031982852149e+00 3.792407279593653868e+00
1.896527455200806726e+05 5.999989369524349136e+00 2.548197873916435263e+00 3.799626847120771700e+00
1.946057114116976154e+05 5.999989185685050685e+00 2.558450096629609760e+00 3.807318695204907399e+00
1.997303576210615283e+05 5.999988995398229719e+00 2.569368866433753507e+00 3.815232401956002217e+00
2.040096973492205725e+05 5.999988836073937293e+00 2.579918953113171209e+00 3.822175198765723980e+00
2.091935238473556819e+05 5.999988642046801601e+00 2.593093974431320170e+00 3.830576172439987825e+00
2.135656321403976181e+05 5.999988477203064718e+00 2.605124452537824986e+00 3.837853041966657663e+00
2.180099955286010518e+05 5.999988308185116637e+00 2.617639268500043137e+00 3.845266798018919019e+00
2.225033336947126663e+05 5.999988135629561903e+00 2.631044017033708826e+00 3.852943050759964017e+00
2.270651968179282267e+05 5.999987958440948788e+00 2.644944439281083692e+00 3.860779128962336770e+00
2.307677301308542083e+05 5.999987813003723858e+00 2.656646003216979413e+00 3.867234524307193944e+00
2.354943964640029008e+05 5.999987624983013745e+00 2.672147893954211817e+00 3.875611350250214748e+00
2.393198177501011232e+05 5.999987470675600676e+00 2.685129632311757497e+00 3.882499757337517732e+00
2.441594883529579965e+05 5.999987272460991505e+00 2.702081465021158202e+00 3.891361391802654168e+00
2.480815191230515193e+05 5.999987109147903119e+00 2.716529773696013450e+00 3.898750688780086904e+00
2.520339236340269854e+05 5.999986941887152980e+00 2.731294511364324773e+00 3.906249838568211619e+00
2.560709310557178396e+05 5.999986768137937965e+00 2.746745014636939874e+00 3.914042403235802325e+00
2.601539312003189989e+05 5.999986589255145830e+00 2.762708711343305978e+00 3.922053696679002943e+00
2.632267375451621483e+05 5.999986452448618834e+00 2.774902656186041483e+00 3.928166036596241639e+00
2.673345979484639829e+05 5.999986266533122503e+00 2.791451342261259683e+00 3.936449513674694423e+00
2.714539987420348916e+05 5.999986076508194266e+00 2.808193858966351542e+00 3.944864995509842043e+00
2.745452620210722089e+05 5.999985931505937842e+00 2.820872943195486648e+00 3.951260602288488855e+00
2.786573225976656540e+05 5.999985735374067986e+00 2.837851938960739062e+00 3.959869445334533999e+00
2.827440113610146800e+05 5.999985536731255564e+00 2.854890833236293446e+00 3.968558720839800102e+00
2.857897742161828210e+05 5.999985386234292228e+00 2.867675602671970303e+00 3.975120857443856792e+00
2.898181243659696192e+05 5.999985183959323010e+00 2.884606121200906426e+00 3.983897756852297523e+00
2.928130749364222866e+05 5.999985031200678165e+00 2.897399399544389187e+00 3.990561213212429070e+00
2.967412105237934156e+05 5.999984827686811073e+00 2.914085681739424949e+00 3.999356361282571548e+00
2.996685348011978203e+05 5.999984673785658806e+00 2.926377172312421227e+00 4.005960211466335963e+00
3.035161604387450498e+05 5.999984468724080422e+00 2.942342602697646914e+00 4.014704630939758268e+00
3.072967701108048786e+05 5.999984264309171422e+00 2.957853869606701380e+00 4.023379956850174466e+00
3.100892146031840239e+05 5.999984111562972622e+00 2.969138074335410327e+00 4.029821297922610235e+00
3.137574026839793660e+05 5.999983908800004428e+00 2.983753167529764383e+00 4.038330168938603748e+00
3.173698163683466846e+05 5.999983706962153995e+00 2.997821703408217964e+00 4.046741893995998041e+00
3.209227497837437550e+05 5.999983506591002325e+00 3.011286390568315596e+00 4.055027330219550308e+00
3.244233038604671019e+05 5.999983307617284822e+00 3.024266051477232597e+00 4.063214131707066024e+00
3.278740474225149956e+05 5.999983110151257293e+00 3.036813834861999073e+00 4.071305371594142741e+00
3.312827358039857354e+05 5.999982913986924515e+00 3.048904397398885191e+00 4.079310609265581533e+00
3.346487398152032401e+05 5.999982719416468768e+00 3.060520914871196485e+00 4.087212459743752468e+00
3.379759410977775697e+05 5.999982526450738263e+00 3.071674432527482068e+00 4.095021013106475927e+00
3.420786518025803962e+05 5.999982287941038273e+00 3.085084907618154570e+00 4.104673310204292491e+00
3.453110575086404569e+05 5.999982099810766911e+00 3.095296380597697627e+00 4.112272713766774501e+00
3.493033592286615749e+05 5.999981867478518360e+00 3.107508694144576644e+00 4.121639228631789109e+00
3.524831737538285088e+05 5.999981682663359628e+00 3.116900852559998825e+00 4.129079790424222907e+00
3.564333090471210890e+05 5.999981453704967826e+00 3.128019903298512538e+00 4.138270315990730808e+00
3.595737571774189128e+05 5.999981272407483246e+00 3.136479337292234604e+00 4.145538533449629526e+00
3.634750042058810359e+05 5.999981048384507964e+00 3.146428412780503336e+00 4.154497907771622423e+00
3.673538968284901930e+05 5.999980827327039634e+00 3.155693173669831264e+00 4.163325148089288774e+00
3.712112281564142904e+05 5.999980609499170114e+00 3.164493063014745200e+00 4.172043135025459648e+00
3.750586412432823563e+05 5.999980394484758506e+00 3.172607383541469428e+00 4.180632032823082156e+00
3.789060028516030288e+05 5.999980182080833835e+00 3.180049416889511704e+00 4.189074747944440347e+00
3.827635600451563951e+05 5.999979972053472110e+00 3.186733603049390240e+00 4.197367474945845167e+00
3.866462500815737294e+05 5.999979764009026439e+00 3.192553346673724590e+00 4.205484515959394543e+00
3.913520652460252168e+05 5.999979516895958653e+00 3.198357514312986538e+00 4.214977046697423901e+00
3.953357390463397023e+05 5.999979312412674126e+00 3.202173488879152430e+00 4.222688208530871457e+00
4.002228465902675525e+05 5.999979068000718563e+00 3.205206087522820546e+00 4.231623710243304082e+00
4.052932308088045684e+05 5.999978822645474885e+00 3.205940167764638637e+00 4.240096328589438635e+00
4.116158907472154242e+05 5.999978529886394796e+00 3.201893607868652403e+00 4.248989535239076965e+00
4.199486937341227313e+05 5.999978170776897102e+00 3.184181216708406037e+00 4.256512393121581361e+00
4.277950813223453006e+05 5.999977865466121330e+00 3.154042575788076341e+00 4.258722419550851512e+00
4.360787975231762975e+05 5.999977579864157917e+00 3.113564921747003833e+00 4.257169449019709617e+00
4.422128281546689104e+05 5.999977390795599774e+00 3.083552878842131140e+00 4.254833529485700261e+00
4.497841390199115849e+05 5.999977178575748304e+00 3.051866862261397806e+00 4.251866718485199925e+00
4.640405759658465977e+05 5.999976819694122554e+00 3.020730320427875260e+00 4.250010197944448898e+00
4.825310990770612843e+05 5.999976382783916762e+00 3.028824689496892208e+00 4.257140542243137205e+00
4.908273929206705652e+05 5.999976184788185840e+00 3.044115297448076074e+00 4.263567201186170053e+00
4.975805882754789782e+05 5.999976019686387829e+00 3.060191123659514734e+00 4.270135561274281066e+00
5.055554136118076276e+05 5.999975818801416061e+00 3.080935060603984699e+00 4.278893692807336890e+00
5.122688371706606704e+05 5.999975644871962110e+00 3.096533183089135388e+00 4.286185929626131319e+00
5.186443381389983697e+05 5.999975476901100002e+00 3.107473690566513458e+00 4.292349190297573891e+00
5.296591709758738289e+05 5.999975185511806863e+00 3.115141721592468382e+00 4.300337282891522506e+00
5.489308238772993209e+05 5.999974695727300578e+00 3.096278145735178455e+00 4.305150402996266834e+00
5.658904561523098964e+05 5.999974303784034291e+00 3.063000417834753630e+00 4.302676097433828062e+00
5.865483438263132703e+05 5.999973870678388721e+00 3.033413023230378869e+00 4.298937830535964011e+00
6.080557177102202550e+05 5.999973447584936892e+00 3.020434901935347582e+00 4.296957911100282246e+00
6.390519894767150981e+05 5.999972855121113113e+00 3.015817957251759385e+00 4.296088697904876241e+00
6.391860974684312241e+05 5.999972852576673787e+00 3.015814923826612315e+00 4.296087729118438503e+00
6.596241554059744813e+05 5.999972464809703254e+00 3.015358740296623985e+00 4.295941385186048400e+00
6.841820108490382554e+05 5.999971999294470670e+00 3.015270013153359852e+00 4.295863304428482188e+00
7.136900604823289905e+05 5.999971439913906579e+00 3.015188119579354620e+00 4.295779280965218661e+00
7.139217990920146694e+05 5.999971435520409457e+00 3.015187135059957058e+00 4.295778578612093668e+00
7.494241540958378464e+05 5.999970762437571103e+00 3.015034922024575348e+00 4.295670587308417332e+00
7.497022404274605215e+05 5.999970757165507429e+00 3.015033509824015745e+00 4.295669679350502257e+00
7.924163009646973806e+05 5.999969947381791791e+00 3.014817926470951370e+00 4.295529976668349015e+00
7.927500045626445208e+05 5.999969941055979916e+00 3.014816398161889399e+00 4.295528857075556317e+00
8.441403586465077242e+05 5.999968966882245347e+00 3.014585558888751127e+00 4.295356464295081445e+00
8.445408029640442692e+05 5.999968959291408943e+00 3.014584176950118710e+00 4.295355123234696038e+00
9.063694055916947545e+05 5.999967787243212669e+00 3.014376813566957303e+00 4.295148589605362055e+00
9.068499387727386784e+05 5.999967778132278440e+00 3.014375655902405526e+00 4.295147024174084116e+00
9.073304719537824858e+05 5.999967769021344211e+00 3.014374498237853750e+00 4.295145458742805289e+00
9.818131150155893993e+05 5.999966356746989860e+00 3.014204049047310097e+00 4.294903589534551536e+00
9.823897548328420380e+05 5.999966345808565471e+00 3.014203259104182298e+00 4.294901762526348143e+00
9.829663946500947932e+05 5.999966334870139306e+00 3.014202469161053610e+00 4.294899935518144751e+00
1.072691550214614719e+06 5.999964632648190133e+00 3.014090542016678143e+00 4.294617735591319985e+00
1.073383517995317932e+06 5.999964619510802954e+00 3.014090204529722872e+00 4.294615658878676356e+00
1.074075485776021145e+06 5.999964606373415776e+00 3.014089867042766713e+00 4.294613582166032728e+00
1.182160853121866938e+06 5.999962553893333883e+00 3.014049596440201206e+00 4.294291926015314509e+00
1.182991214458710747e+06 5.999962538108460031e+00 3.014049784068230764e+00 4.294289563787007324e+00
1.183821575795554556e+06 5.999962522323586178e+00 3.014049971696260322e+00 4.294287201558700140e+00
1.184651937132398598e+06 5.999962506538712326e+00 3.014050159324289435e+00 4.294284839330392956e+00
1.315018667016888736e+06 5.999960027488389969e+00 3.014095321966550944e+00 4.293917805940217214e+00
1.316015100621101446e+06 5.999960008513538057e+00 3.014096175321852478e+00 4.293915124724411392e+00
1.317011534225314157e+06 5.999959989538684368e+00 3.014097028677153123e+00 4.293912443508604682e+00
1.318007967829526635e+06 5.999959970563830680e+00 3.014097882032454656e+00 4.293909762292798860e+00
1.475245190574284643e+06 5.999956974804867116e+00 3.014249692994284580e+00 4.293493589946509204e+00
1.476440910899339709e+06 5.999956951982383657e+00 3.014251308451519229e+00 4.293490611229194620e+00
1.477636631224395009e+06 5.999956929159900199e+00 3.014252923908752990e+00 4.293487632511880037e+00
1.478832351549450308e+06 5.999956906337417628e+00 3.014254539365986751e+00 4.293484653794564565e+00
1.668473595103204250e+06 5.999953284053788138e+00 3.014531890449002383e+00 4.293018868040960001e+00
1.669908459493270377e+06 5.999953256586874950e+00 3.014534469590582688e+00 4.293015494756319050e+00
1.671343323883336736e+06 5.999953229119961762e+00 3.014537048732163882e+00 4.293012121471677212e+00
1.672778188273402862e+06 5.999953201653047685e+00 3.014539627873744188e+00 4.293008748187036261e+00
1.901495572049960494e+06 5.999948818916769788e+00 3.014969327643976182e+00 4.292488690331555112e+00
1.903217409318039892e+06 5.999948785834575027e+00 3.014972924900421347e+00 4.292485119247183789e+00
1.904939246586119290e+06 5.999948752752381154e+00 3.014976522156866512e+00 4.292481548162811578e+00
1.906661083854198921e+06 5.999948719670184616e+00 3.014980119413311677e+00 4.292477977078440254e+00
1.908382921122278087e+06 5.999948686587990743e+00 3.014983716669756397e+00 4.292474405994068931e+00
2.184565618922227062e+06 5.999943372918124851e+00 3.015584822734560522e+00 4.291914253870595886e+00
2.186631823643922340e+06 5.999943333046020122e+00 3.015589713397794913e+00 4.291910269755295104e+00
2.188698028365617618e+06 5.999943293173914505e+00 3.015594604061029305e+00 4.291906285639995211e+00
2.190764233087313361e+06 5.999943253301809776e+00 3.015599494724263252e+00 4.291902301524695318e+00
2.523836434224607423e+06 5.999936814173482347e+00 3.016412835559183936e+00 4.291281404335543392e+00
2.526315879890642129e+06 5.999936766071630956e+00 3.016419247092489986e+00 4.291277087357992848e+00
2.528795325556676369e+06 5.999936717969780453e+00 3.016425658625795592e+00 4.291272770380441415e+00
2.531274771222710609e+06 5.999936669867928174e+00 3.016432070159101642e+00 4.291268453402890870e+00
2.533754216888745315e+06 5.999936621766078559e+00 3.016438481692407247e+00 4.291264136425340325e+00
2.536233662554779556e+06 5.999936573664227168e+00 3.016444893225713297e+00 4.291259819447788892e+00
2.933016535255232826e+06 5.999928857594427178e+00 3.017498787452238762e+00 4.290596443547336492e+00
2.935878810372482985e+06 5.999928801712028914e+00 3.017506724777160976e+00 4.290591988198388052e+00
2.938741085489732679e+06 5.999928745829631538e+00 3.017514662102082745e+00 4.290587532849438723e+00
2.941603360606982838e+06 5.999928689947233273e+00 3.017522599427004515e+00 4.290583077500489395e+00
2.944465635724232998e+06 5.999928634064835009e+00 3.017530536751926284e+00 4.290578622151540067e+00
3.397011928332355805e+06 5.999919773033452586e+00 3.018812019888343912e+00 4.289904681010531462e+00
3.400180878445853479e+06 5.999919710714091359e+00 3.018821273173762698e+00 4.289900283063324160e+00
3.403349828559351154e+06 5.999919648394730132e+00 3.018830526459180597e+00 4.289895885116115970e+00
3.406518778672848828e+06 5.999919586075369793e+00 3.018839779744598939e+00 4.289891487168908668e+00
3.905119158693695441e+06 5.999909748060726855e+00 3.020320966656304673e+00 4.289228279441558378e+00
3.908565485246032476e+06 5.999909679750025759e+00 3.020331444327430059e+00 4.289223968055797087e+00
3.912011811798370443e+06 5.999909611439324664e+00 3.020341921998555446e+00 4.289219656670034908e+00
3.915458138350707479e+06 5.999909543128622680e+00 3.020352399669680832e+00 4.289215345284272729e+00
3.918904464903044514e+06 5.999909474817920696e+00 3.020362877340805774e+00 4.289211033898511438e+00
4.459680159522606060e+06 5.999898714759871687e+00 3.022031448786133279e+00 4.288556733397036247e+00
4.463383062721371651e+06 5.999898640739603550e+00 3.022043077448687498e+00 4.288552437619369329e+00
4.467085965920137241e+06 5.999898566719334525e+00 3.022054706111240829e+00 4.288548141841703298e+00
4.470788869118903764e+06 5.999898492699065500e+00 3.022066334773795049e+00 4.288543846064037268e+00
5.048289836571799591e+06 5.999886898784387412e+00 3.023904414029821908e+00 4.287916633365459695e+00
5.052202163788286969e+06 5.999886819866492971e+00 3.023917050157344910e+00 4.287912705380746203e+00
5.056114491004773416e+06 5.999886740948597641e+00 3.023929686284867913e+00 4.287908777396031823e+00
5.060026818221259862e+06 5.999886662030702311e+00 3.023942322412390915e+00 4.287904849411319219e+00
5.673354128921378404e+06 5.999874232009737796e+00 3.025949026612854809e+00 4.287292063471040748e+00
5.677518531459406950e+06 5.999874147220209508e+00 3.025962825075741769e+00 4.287287922888167735e+00
5.681682933997435495e+06 5.999874062430679444e+00 3.025976623538629173e+00 4.287283782305293833e+00
5.685847336535464972e+06 5.999873977641151157e+00 3.025990422001516578e+00 4.287279641722420820e+00
6.334317213505662978e+06 5.999860704257453214e+00 3.028163231169298086e+00 4.286672303062836420e+00
6.338680086443561129e+06 5.999860614527214864e+00 3.028177996847684295e+00 4.286668444915054721e+00
6.343042959381459281e+06 5.999860524796977401e+00 3.028192762526070503e+00 4.286664586767273022e+00
6.347405832319358364e+06 5.999860435066739939e+00 3.028207528204456267e+00 4.286660728619491323e+00
7.020358550446351990e+06 5.999846515677473846e+00 3.030507824554839580e+00 4.286087003862562028e+00
7.024840887183839455e+06 5.999846422527808087e+00 3.030523272101953047e+00 4.286083300759973902e+00
7.029323223921330646e+06 5.999846329378142329e+00 3.030538719649067403e+00 4.286079597657385776e+00
7.725441088953432627e+06 5.999831775073229956e+00 3.032962919830664905e+00 4.285530112799532887e+00
7.730097574878377840e+06 5.999831677269967578e+00 3.032979263530958480e+00 4.285526567187951663e+00
7.734754060803323053e+06 5.999831579466705200e+00 3.032995607231252055e+00 4.285523021576369551e+00
8.460307292700678110e+06 5.999816240941305168e+00 3.035565830875804672e+00 4.284993272607700909e+00
8.465165680572280660e+06 5.999816137769526492e+00 3.035583151635188770e+00 4.284989831359662382e+00
8.470024068443881348e+06 5.999816034597746039e+00 3.035600472394571980e+00 4.284986390111622967e+00
9.228127547584323213e+06 5.999799822950636852e+00 3.038329371786075317e+00 4.284440143194673922e+00
9.233201633507100865e+06 5.999799713959773406e+00 3.038347749072548787e+00 4.284436447251964708e+00
9.238275719429878518e+06 5.999799604968909961e+00 3.038366126359022701e+00 4.284432751309254606e+00
1.001611761743457057e+07 5.999782769960180673e+00 3.041209052694760828e+00 4.283900072140585102e+00
1.002126171226949990e+07 5.999782658114023448e+00 3.041227957415189032e+00 4.283896685816205974e+00
1.002640580710443296e+07 5.999782546267868000e+00 3.041246862135617235e+00 4.283893299491829509e+00
1.081291325199219957e+07 5.999765310938906637e+00 3.044163335819071392e+00 4.283395221353341498e+00
1.081810482136298902e+07 5.999765196673026324e+00 3.044182683386699395e+00 4.283392006608004010e+00
1.162389923877413385e+07 5.999747316341441206e+00 3.047214082517507361e+00 4.282868316837348033e+00
1.162925925130705722e+07 5.999747196904673174e+00 3.047234344922017613e+00 4.282864748066966598e+00
1.163461926383998059e+07 5.999747077467906919e+00 3.047254607326528308e+00 4.282861179296585163e+00
1.245105052645048127e+07 5.999728724437805027e+00 3.050368006796270848e+00 4.282358505106746982e+00
1.245642729739131220e+07 5.999728603053572584e+00 3.050388597769253529e+00 4.282355326325661515e+00
1.327388152238294668e+07 5.999709983843639627e+00 3.053545707957359134e+00 4.281882679287453364e+00
1.327926007257363573e+07 5.999709860836267339e+00 3.053566561260098844e+00 4.281879601734125629e+00
1.411169719062767178e+07 5.999690647685178568e+00 3.056823749962921610e+00 4.281394106637728569e+00
1.411721628316806816e+07 5.999690519809593781e+00 3.056845428611759008e+00 4.281390862037319778e+00
1.496228790672365949e+07 5.999670749196147845e+00 3.060196621417916152e+00 4.280865421778469404e+00
1.496786412479567900e+07 5.999670618232372910e+00 3.060218818938816643e+00 4.280861878465128001e+00
1.580113489036100358e+07 5.999650848936633807e+00 3.063561148912957499e+00 4.280367159281747824e+00
1.580658097769318894e+07 5.999650719220113615e+00 3.063583058313833263e+00 4.280364014736083966e+00
1.662690410873274133e+07 5.999630983788042826e+00 3.066913304333673818e+00 4.279908582060655498e+00
1.663228339121267200e+07 5.999630853906156247e+00 3.066935213887109768e+00 4.279905638749505137e+00
1.746587979086458683e+07 5.999610520742842290e+00 3.070357475329688945e+00 4.279400322456858419e+00
1.747139894582436606e+07 5.999610385675723023e+00 3.070380191982425622e+00 4.279396870961516441e+00
1.830770277654412761e+07 5.999589695325944660e+00 3.073856186023977699e+00 4.278916239962422097e+00
1.913930425825285167e+07 5.999568826739650973e+00 3.077352880722052930e+00 4.278430816293641747e+00
1.914476765886089578e+07 5.999568689193354842e+00 3.077375911946336196e+00 4.278427586412655970e+00
1.998099128515462205e+07 5.999547399279659743e+00 3.080933246198428233e+00 4.277923221524420505e+00
2.080987077126713097e+07 5.999525986866011351e+00 3.084492669166671863e+00 4.277412465511300610e+00
2.081530822601839900e+07 5.999525845966228843e+00 3.084516062556727611e+00 4.277409100592289626e+00
2.163176810133291036e+07 5.999504441164358326e+00 3.088053037625697606e+00 4.276904043670469946e+00
2.244071917784593627e+07 5.999482922121652351e+00 3.091589087225073307e+00 4.276398884822227409e+00
2.324506799809776992e+07 5.999461211953865281e+00 3.095138136856934175e+00 4.275893177262357625e+00
2.404863759350982681e+07 5.999439203816354649e+00 3.098716373270448354e+00 4.275348526120502868e+00
2.405392422362619266e+07 5.999439058655008594e+00 3.098739951884060595e+00 4.275344887597523069e+00
2.484639319556328654e+07 5.999417027984704553e+00 3.102299713560934258e+00 4.274814836017250208e+00
2.562623875218280777e+07 5.999395026295558431e+00 3.105837174519900046e+00 4.274305445148082860e+00
2.641229022761938348e+07 5.999372522931802898e+00 3.109439263113170870e+00 4.273741174699277501e+00
2.719152736884370074e+07 5.999349877539974507e+00 3.113041109864057798e+00 4.273173737634659020e+00
2.795340914346745610e+07 5.999327401088796030e+00 3.116597310255008413e+00 4.272608955456552060e+00
2.870616535162791982e+07 5.999304860220789237e+00 3.120143315420109253e+00 4.272032558767829613e+00
2.945029541755278409e+07 5.999282243104186563e+00 3.123683826466049140e+00 4.271431551728142040e+00
3.018123544685567915e+07 5.999259691382183846e+00 3.127194780545691888e+00 4.270855934738936988e+00
3.162669492103938758e+07 5.999214089846940823e+00 3.134243525328752611e+00 4.269619052987632557e+00
3.233399060608457774e+07 5.999191267288591867e+00 3.137743877945378124e+00 4.268991713828127921e+00
3.302842998971034959e+07 5.999168521046009062e+00 3.141213749223678242e+00 4.268357618924758512e+00
3.371606109697456658e+07 5.999145659264740083e+00 3.144684645659174382e+00 4.267710819015702484e+00
3.507187577529868484e+07 5.999099561025027505e+00 3.151631013563006345e+00 4.266404243902372606e+00
3.574405941821574420e+07 5.999076184588092886e+00 3.155128905827240704e+00 4.265698233365365688e+00
3.703168196808499098e+07 5.999030372551146684e+00 3.161933106637194069e+00 4.264279560449443451e+00
3.765789893756842613e+07 5.999007583845247460e+00 3.165293584036243502e+00 4.263554833136693034e+00
3.887401474045348167e+07 5.998962328063678129e+00 3.171918227010981806e+00 4.262071329994408408e+00
4.004750946173132956e+07 5.998917342607531289e+00 3.178441793075739596e+00 4.260542343763397355e+00
4.118185235190861672e+07 5.998872553181302081e+00 3.184878030672641636e+00 4.258962677126610252e+00
4.173627852689465135e+07 5.998850171013550892e+00 3.188074417796721072e+00 4.258150293586769664e+00
4.281079474987914413e+07 5.998805823824674199e+00 3.194358281945633316e+00 4.256489524523853873e+00
4.434657291375952214e+07 5.998740087026138923e+00 3.203503779201049451e+00 4.253946125354636010e+00
4.532918229962480068e+07 5.998696484642874971e+00 3.209438203113355481e+00 4.252203694553507773e+00
4.628211763556604087e+07 5.998652977546445442e+00 3.215263362611830988e+00 4.250423994516382642e+00
4.720684535413835198e+07 5.998609546941358062e+00 3.220987293469821378e+00 4.248597810586911550e+00
4.766089882257836312e+07 5.998587762931643752e+00 3.223826680371388864e+00 4.247662407046558286e+00
4.810736231376335025e+07 5.998566038576967685e+00 3.226636726553937962e+00 4.246716720496288566e+00
4.854642344731722027e+07 5.998544371879597215e+00 3.229418813842262370e+00 4.245760790524975903e+00
4.897844885920299590e+07 5.998522751555698918e+00 3.232175627767849058e+00 4.244792005427268755e+00
4.940318336718169600e+07 5.998501196792554779e+00 3.234902504151034641e+00 4.243808111600252175e+00
4.982031768417297304e+07 5.998479730347041183e+00 3.237600529108934477e+00 4.242818615409809091e+00
5.023034403069406003e+07 5.998458334854164242e+00 3.240268759775496665e+00 4.241817703764556136e+00
5.063339478092947602e+07 5.998437010562491345e+00 3.242912095604639333e+00 4.240807744419526237e+00
5.141468314867360145e+07 5.998394817727325190e+00 3.248093777589871056e+00 4.238762739797337531e+00
5.179643634229317307e+07 5.998373772862621855e+00 3.250649543212164261e+00 4.237716504991003497e+00
5.217098047194088995e+07 5.998352841727252027e+00 3.253181448528577047e+00 4.236664570221393866e+00
5.253847779828190804e+07 5.998332023382987543e+00 3.255676937265149729e+00 4.235597847473972166e+00
5.289924547916112840e+07 5.998311307803807502e+00 3.258149733628363354e+00 4.234523281617649459e+00
5.359838084761495888e+07 5.998270348395570828e+00 3.262993099513071371e+00 4.232353079626806291e+00
5.394016570531427115e+07 5.998249917483884808e+00 3.265390874943393307e+00 4.231248971355530131e+00
5.427567901013211161e+07 5.998229591634310687e+00 3.267756701223770932e+00 4.230128261182951377e+00
5.460455385856349766e+07 5.998209400549125547e+00 3.270096220195117365e+00 4.229005945720849979e+00
5.523970715272615850e+07 5.998169629056804730e+00 3.274656380095968711e+00 4.226736073988341502e+00
5.554939274097138643e+07 5.998149850856371756e+00 3.276907525658164566e+00 4.225583441656738160e+00
5.585328201124614477e+07 5.998130187232280974e+00 3.279132924136657579e+00 4.224421975189247114e+00
5.644136940288750827e+07 5.998091388273387281e+00 3.283487253023970709e+00 4.222082882157210726e+00
5.672856957213810086e+07 5.998072068386424149e+00 3.285635582916917485e+00 4.220893540242044217e+00
5.701014425039266795e+07 5.998052881024629635e+00 3.287756147977928034e+00 4.219696599557535954e+00
5.755477933006530255e+07 5.998015051806491194e+00 3.291901667839446599e+00 4.217302314100326299e+00
5.782125712090020627e+07 5.997996186241589811e+00 3.293948405828039494e+00 4.216094351429969578e+00
5.808356246082207561e+07 5.997977379996916270e+00 3.295968198243727887e+00 4.214874064976200430e+00
5.859332976047452539e+07 5.997940139392587078e+00 3.299930790530305025e+00 4.212436651890779871e+00
5.884372754686317593e+07 5.997921500605705170e+00 3.301891412802145265e+00 4.211201248864716362e+00
5.933093117660491914e+07 5.997884554963588855e+00 3.305739386701625371e+00 4.208727495103098626e+00
5.957025556393149495e+07 5.997866066211869907e+00 3.307646540996105777e+00 4.207478665523644246e+00
5.980601482089164853e+07 5.997847626747692118e+00 3.309538566742864951e+00 4.206231469255564903e+00
6.026530882627685368e+07 5.997811040138604000e+00 3.313253635571091760e+00 4.203736964282306587e+00
6.049155630669507384e+07 5.997792684855003387e+00 3.315111212169556065e+00 4.202489120592167282e+00
6.071466756104318798e+07 5.997774362532259929e+00 3.316947460056586472e+00 4.201235842160597755e+00
6.115002870579016209e+07 5.997737957734170067e+00 3.320584542023853114e+00 4.198753110415099243e+00
6.136497550661648810e+07 5.997719656581415038e+00 3.322403656341117006e+00 4.197511290267850192e+00
6.178644688518346846e+07 5.997683122233910424e+00 3.326028280037320872e+00 4.195052345220262602e+00
6.199553078750444949e+07 5.997664670288129329e+00 3.327855241196613356e+00 4.193823152407917476e+00
6.240810870776619762e+07 5.997627601599305969e+00 3.331551682070178266e+00 4.191417839410121360e+00
6.261412795933948457e+07 5.997608756857519374e+00 3.333441181494982253e+00 4.190233350369307885e+00
6.281949170187666267e+07 5.997589745454773080e+00 3.335368554523025608e+00 4.189074533130453304e+00
6.322926942018528283e+07 5.997551121969467047e+00 3.339366049871101083e+00 4.186870133614204015e+00
6.343719535190225393e+07 5.997531167921720474e+00 3.341498832316932344e+00 4.185842903344073385e+00
6.386144691964666545e+07 5.997489704402530819e+00 3.346155400173382866e+00 4.184065536881212743e+00
6.429556106611354649e+07 5.997446244657754555e+00 3.351614750425242484e+00 4.183054052931049149e+00
6.449761816293402016e+07 5.997425663175150135e+00 3.354553550170677134e+00 4.183076150692786932e+00
6.483215470074856281e+07 5.997391115398345462e+00 3.360437860460705473e+00 4.184407956668863449e+00
6.496449137519745529e+07 5.997377304678860099e+00 3.363354037770719174e+00 4.185682101344067263e+00
6.507530570295768976e+07 5.997365690636963897e+00 3.366245930526633678e+00 4.187303617861401150e+00
6.516733641175977886e+07 5.997356020328938442e+00 3.369136106917316020e+00 4.189230976359288761e+00
6.516815265391910821e+07 5.997355934479239536e+00 3.369164472856795101e+00 4.189251256252996214e+00
6.524389423823989928e+07 5.997347966520271356e+00 3.372051803895890654e+00 4.191424127377352704e+00
6.530605758569161594e+07 5.997341426914553963e+00 3.374945905185083639e+00 4.193778759759342556e+00
6.535703360009308159e+07 5.997336068606485604e+00 3.377866039191543379e+00 4.196263881115317673e+00
6.539881069145093858e+07 5.997331683117415935e+00 3.380834891388095009e+00 4.198842010954304982e+00
6.539918278091463447e+07 5.997331644088241376e+00 3.380864298371562882e+00 4.198867654991753184e+00
6.543332813576041907e+07 5.997328065559714538e+00 3.383880396026061721e+00 4.201493009342976315e+00
6.546131383158385754e+07 5.997325137486955171e+00 3.386942539700004140e+00 4.204125866361228425e+00
6.546156474694588035e+07 5.997325111255056740e+00 3.386972805797972441e+00 4.204151677750440186e+00
6.548450398408110440e+07 5.997322714951321743e+00 3.390093694719394257e+00 4.206763132761075497e+00
6.550337236294770241e+07 5.997320746389747548e+00 3.393307302212570598e+00 4.209343687966410563e+00
6.550354276465885341e+07 5.997320728620191943e+00 3.393339263476098822e+00 4.209368882192942252e+00
6.551904325381983817e+07 5.997319112748243697e+00 3.396565849769004775e+00 4.211862118098308905e+00
6.553181732385628670e+07 5.997317781566815498e+00 3.399799750018258848e+00 4.214239687378073640e+00
6.554237416255205870e+07 5.997316681228867630e+00 3.403062944456225036e+00 4.216505713974991743e+00
6.555112261769467592e+07 5.997315768636894973e+00 3.406279688844513487e+00 4.218634495695035014e+00
6.555120264195530862e+07 5.997315760285765407e+00 3.406310938645234376e+00 4.218654848334497665e+00
6.555845207235361636e+07 5.997315003074922934e+00 3.409437546240831729e+00 4.220625676202018894e+00
6.556448902267561853e+07 5.997314371429753876e+00 3.412439683286048187e+00 4.222433309377537469e+00
6.556953818110918999e+07 5.997313842059404543e+00 3.415313699388729418e+00 4.224085331064957316e+00
6.557377750214444101e+07 5.997313396566134713e+00 3.417978413742725596e+00 4.225566358632717900e+00
6.557734930195549130e+07 5.997313020322858179e+00 3.420398069636577443e+00 4.226874753294403320e+00
6.558291840401616693e+07 5.997312431705503322e+00 3.424541661877495091e+00 4.229024548671354466e+00
6.558512077392303944e+07 5.997312198140365425e+00 3.426215660869253998e+00 4.229881470594567539e+00
6.558863512710694969e+07 5.997311824463600338e+00 3.428891284668846851e+00 4.231234497519564819e+00
6.559128895193415135e+07 5.997311541502703847e+00 3.430671598405449885e+00 4.232166288233234042e+00
6.559334372331421077e+07 5.997311322059489136e+00 3.431729325125610242e+00 4.232776007740623569e+00
6.559564670452459157e+07 5.997311075947760806e+00 3.432307649580434994e+00 4.233258499044345591e+00
6.559777765317660570e+07 5.997310848416502971e+00 3.431906279107357349e+00 4.233402329624684768e+00
6.559952047836726904e+07 5.997310662835136696e+00 3.430595126802121086e+00 4.233206817295427804e+00
6.560082927328511328e+07 5.997310524001997045e+00 3.429117004177585137e+00 4.232895026433974195e+00
6.560226921147176623e+07 5.997310371915171245e+00 3.426761806993093629e+00 4.232303551220843119e+00
6.560361023851025850e+07 5.997310231122050084e+00 3.424010167546476691e+00 4.231560150742374127e+00
6.560524499097846448e+07 5.997310060706720236e+00 3.419309446989524659e+00 4.230181960343054826e+00
6.560645287682951242e+07 5.997309935822594085e+00 3.415314465287583978e+00 4.228941810490666420e+00
6.560724846850474179e+07 5.997309854068087809e+00 3.412579425113279719e+00 4.228048076776006248e+00
6.560934274345007539e+07 5.997309640721592672e+00 3.405429245510692926e+00 4.225482558418251600e+00
6.561072213922866434e+07 5.997309501538815368e+00 3.401017602437948373e+00 4.223663635600336086e+00
6.561073597932008654e+07 5.997309500143450656e+00 3.400973675993538947e+00 4.223645287200264775e+00
6.561239679029097408e+07 5.997309333719334390e+00 3.396277263147879921e+00 4.221370201844214520e+00
6.561416197096695006e+07 5.997309157832659388e+00 3.392159915286988348e+00 4.218897892712635489e+00
6.561589053619885445e+07 5.997308986076467008e+00 3.389147220870250887e+00 4.216470937467143187e+00
6.561590743473222852e+07 5.997308984397789366e+00 3.389118783517295785e+00 4.216447210593512018e+00
6.561753940616085380e+07 5.997308822113945226e+00 3.387193133400373313e+00 4.214160253035208470e+00
6.561906549723313749e+07 5.997308669770415435e+00 3.386216878136075970e+00 4.212050400226454272e+00
6.562049618692820519e+07 5.997308526041972954e+00 3.386008452753312969e+00 4.210111240946260658e+00
6.562184937963031232e+07 5.997308388977870663e+00 3.386399304625383966e+00 4.208318678251291800e+00
6.562314300088053197e+07 5.997308256682438277e+00 3.387253670116541659e+00 4.206645808168108402e+00
6.562439250190825760e+07 5.997308127529645816e+00 3.388472401083112651e+00 4.205070058240406361e+00
6.562561014680252224e+07 5.997308000217747903e+00 3.389972290643241237e+00 4.203571465716401612e+00
6.562680584306231886e+07 5.997307873680883361e+00 3.391695057065218233e+00 4.202135801930134029e+00
6.563031232322520018e+07 5.997307493010089807e+00 3.397644815016240827e+00 4.198102871226232935e+00
6.563384831145936251e+07 5.997307093566949021e+00 3.404235203003310950e+00 4.194285809671769449e+00
6.563752145508153737e+07 5.997306661553928109e+00 3.410701995847043921e+00 4.190477744609995447e+00
6.564139109023150802e+07 5.997306188070115063e+00 3.416710236679710189e+00 4.186606121832511462e+00
6.564549506108007580e+07 5.997305666437402927e+00 3.422146221017792644e+00 4.182636374772757293e+00
6.564985344194063544e+07 5.997305091862903836e+00 3.426966966033052397e+00 4.178534323463376055e+00
6.565447673496468365e+07 5.997304460615976218e+00 3.431193109987344947e+00 4.174284091012027353e+00
6.565935473420979828e+07 5.997303771765670533e+00 3.434894575306827846e+00 4.169896623128813040e+00
6.566447031533156335e+07 5.997303025450346325e+00 3.438064443807219206e+00 4.165363332296578847e+00
6.566980668396180123e+07 5.997302221966214653e+00 3.440847924893218224e+00 4.160707373639313644e+00
6.567533291305600107e+07 5.997301363890398029e+00 3.443244451206367351e+00 4.155947431906729328e+00
6.567911300779122114e+07 5.997300762106076988e+00 3.444651945821207928e+00 4.152715822426802816e+00
6.568490156107165664e+07 5.997299817676758238e+00 3.446491109344226977e+00 4.147785968148251179e+00
6.569082477559061348e+07 5.997298822967972676e+00 3.448004199755016153e+00 4.142751700810408444e+00
6.569484631777767837e+07 5.997298131562932788e+00 3.448832268069345730e+00 4.139324769430692719e+00
6.570093724196408689e+07 5.997297059799260310e+00 3.449851042786715283e+00 4.134106306993952984e+00
6.570706842599326372e+07 5.997295951029391503e+00 3.450603331035982713e+00 4.128798876940726004e+00
6.571116919928843528e+07 5.997295192617861481e+00 3.450982333221023435e+00 4.125211541005369575e+00
6.571731173148165643e+07 5.997294031147806237e+00 3.451301111602298022e+00 4.119755933426967331e+00
6.572139837960476428e+07 5.997293241429965782e+00 3.451362384957700424e+00 4.116059555570833695e+00
6.572746424319567531e+07 5.997292043816733198e+00 3.451308963941328578e+00 4.110477053221813115e+00
6.573147225600056350e+07 5.997291235544055965e+00 3.451146135756443467e+00 4.106712011754473757e+00
6.573544679729615152e+07 5.997290420510871023e+00 3.450883331846489543e+00 4.102915029100076438e+00
6.574133500872157514e+07 5.997289187898988239e+00 3.450322218872287738e+00 4.097161989819989358e+00
6.574522152943044156e+07 5.997288357500910827e+00 3.449865991869856430e+00 4.093279793413405088e+00
6.575097586831005663e+07 5.997287102879689691e+00 3.448951429422874249e+00 4.087376018406630784e+00
6.575475490333339572e+07 5.997286262313381577e+00 3.448238858160779685e+00 4.083392850474720781e+00
6.575847883074279875e+07 5.997285420769481235e+00 3.447453977376423229e+00 4.079380313986227691e+00
6.576395153980183601e+07 5.997284159555982264e+00 3.446122068237867264e+00 4.073307918443540565e+00
6.576753231032878160e+07 5.997283318137654362e+00 3.445158531105169786e+00 4.069221866494606488e+00
6.577105575033940375e+07 5.997282477284923807e+00 3.444105864573283160e+00 4.065101479210850854e+00
6.577452251267043501e+07 5.997281637223940365e+00 3.442939968003991158e+00 4.060940226784549800e+00
6.577960372451139241e+07 5.997280382552313327e+00 3.441051501816090763e+00 4.054642071810002690e+00
6.578291551914799958e+07 5.997279549336136384e+00 3.439690769440103324e+00 4.050397565627653407e+00
6.578615931145815551e+07 5.997278721051862327e+00 3.438275747416083661e+00 4.046132445540238542e+00
6.578933666704921424e+07 5.997277897694946347e+00 3.436799498056050783e+00 4.041845338259648202e+00
6.579245448745210469e+07 5.997277077858557348e+00 3.435258318711561731e+00 4.037528528019592500e+00
6.579701823094496876e+07 5.997275855908094755e+00 3.432789093583952678e+00 4.030994948210294027e+00
6.579998747219830751e+07 5.997275046496020501e+00 3.431057358048566375e+00 4.026601063707875738e+00
6.580289969235151261e+07 5.997274241251917104e+00 3.429238531183503191e+00 4.022171064676413721e+00
6.580575388094185293e+07 5.997273440872024963e+00 3.427320654171868597e+00 4.017705660633940745e+00
6.580854625280456245e+07 5.997272646867438439e+00 3.425319696597308727e+00 4.013209987645536714e+00
6.581127671508169919e+07 5.997271859691784002e+00 3.423281475279519981e+00 4.008693938068998541e+00
6.581394626122099161e+07 5.997271079432925589e+00 3.421191911913932238e+00 4.004158786210142651e+00
6.581655325992450118e+07 5.997270307002873224e+00 3.419025691130241018e+00 3.999606943158259931e+00
6.581910158022408187e+07 5.997269541732362264e+00 3.416814697072043217e+00 3.995039441812188841e+00
6.582159419691193104e+07 5.997268783118133051e+00 3.414523993856082740e+00 3.990446924311203070e+00
6.582402723300728202e+07 5.997268032806326588e+00 3.412168462632090282e+00 3.985843714712284935e+00
6.582639961010541022e+07 5.997267291614404527e+00 3.409750792316908807e+00 3.981232258305032801e+00
6.582984747811264545e+07 5.997266197051104086e+00 3.406017477436591445e+00 3.974301847636612983e+00
6.583208218525610864e+07 5.997265476297650721e+00 3.403453515999846246e+00 3.969657312642370428e+00
6.583426215203002095e+07 5.997264764358309463e+00 3.400840055735154799e+00 3.965005326218847159e+00
6.583638705277308077e+07 5.997264061773721622e+00 3.398178707561895440e+00 3.960349853622606275e+00
6.583846025032404065e+07 5.997263367856223937e+00 3.395482068722158964e+00 3.955689184772774425e+00
6.584048912051269412e+07 5.997262680469070517e+00 3.392756477143020533e+00 3.951010416907075662e+00
6.584247071116713434e+07 5.997262000942960469e+00 3.389952630545166379e+00 3.946317413588789069e+00
6.584440472465705127e+07 5.997261329807535901e+00 3.387079404470810573e+00 3.941615540677236851e+00
6.584629301724217087e+07 5.997260666832888276e+00 3.384148494172806387e+00 3.936900943967017064e+00
6.584813684936234355e+07 5.997260011941222047e+00 3.381169743507334235e+00 3.932173467018801993e+00
6.584993408973973989e+07 5.997259366244372281e+00 3.378154298383319265e+00 3.927442695072248746e+00
6.585168442409756780e+07 5.997258730227773782e+00 3.375105044687742861e+00 3.922712466639075135e+00
6.585338694377367198e+07 5.997258104606561169e+00 3.372033772015817998e+00 3.917992013161783138e+00
6.585504497819904983e+07 5.997257488522070190e+00 3.368944891766245675e+00 3.913275864704384155e+00
6.585665603578212857e+07 5.997256883266623539e+00 3.365825786313302981e+00 3.908573006192967547e+00
6.585822180924549699e+07 5.997256288607629493e+00 3.362694327738686262e+00 3.903888134211447536e+00
6.585974182745987177e+07 5.997255705102723766e+00 3.359545884799437943e+00 3.899222412454341757e+00
6.586121626839932799e+07 5.997255133078706280e+00 3.356386231615672067e+00 3.894582553240944822e+00
6.586264044914615899e+07 5.997254574774836478e+00 3.353232835460647543e+00 3.889990694036557173e+00
6.586401516739624739e+07 5.997254030334250530e+00 3.350084783208420181e+00 3.885448795551463608e+00
6.586534415688480437e+07 5.997253498717297404e+00 3.346943473502570043e+00 3.880952875460238705e+00
6.586662751812753081e+07 5.997252980292636870e+00 3.343817763673162524e+00 3.876508881119325345e+00
6.586787302868852019e+07 5.997252472280679925e+00 3.340698813831445513e+00 3.872095030361801804e+00
6.586967380367730558e+07 5.997251729038056034e+00 3.336026848468701900e+00 3.865530207979904542e+00
6.587082982911814749e+07 5.997251246281006587e+00 3.332920392221617956e+00 3.861196447777813567e+00
6.587195413087169826e+07 5.997250772432337840e+00 3.329813693717990741e+00 3.856887348803395454e+00
6.587304834977115691e+07 5.997250307051892548e+00 3.326705283015904957e+00 3.852599415915041181e+00
6.587411015241061151e+07 5.997249851385810793e+00 3.323609026636315633e+00 3.848347737221724962e+00
6.587564803243976086e+07 5.997249184093374375e+00 3.318979077490539886e+00 3.842022289550862890e+00
6.587663888778518140e+07 5.997248749430132087e+00 3.315901793324464997e+00 3.837837746367772418e+00
6.587760326815914363e+07 5.997248322718939484e+00 3.312832729106327534e+00 3.833678460759117446e+00
6.587854245366172493e+07 5.997247903594431051e+00 3.309771745683023347e+00 3.829543470730599530e+00
6.587989928309316933e+07 5.997247291697368254e+00 3.305219268615052108e+00 3.823416130936620583e+00
6.588077976174655557e+07 5.997246890464953850e+00 3.302179765707570880e+00 3.819337628328266732e+00
6.588163329319612682e+07 5.997246498291001870e+00 3.299166864006499722e+00 3.815305433577052874e+00
6.588287048617318273e+07 5.997245924041410881e+00 3.294679196455065018e+00 3.809317172122709927e+00
6.588366986340611428e+07 5.997245549257828046e+00 3.291698030233944472e+00 3.805353570829130838e+00
6.588482951533799618e+07 5.997245000162511275e+00 3.287256538143374485e+00 3.799467931982109636e+00
6.588558322558308393e+07 5.997244639765542118e+00 3.284288582850275695e+00 3.795551400938662834e+00
6.588632161920055747e+07 5.997244283937266829e+00 3.281316429908857302e+00 3.791643697199413410e+00
6.588740454857495427e+07 5.997243757031879952e+00 3.276830478535805558e+00 3.785779455083424949e+00
6.588810967382808030e+07 5.997243410642996153e+00 3.273828352895279625e+00 3.781873696093167148e+00
6.588914327848052979e+07 5.997242898054054194e+00 3.269304743433721683e+00 3.776020540275014881e+00
6.588982001447564363e+07 5.997242559259628791e+00 3.266261192406718195e+00 3.772102487857369901e+00
6.589081176701000333e+07 5.997242058081923233e+00 3.261687414550465292e+00 3.766239134817822354e+00
6.589146238433999568e+07 5.997241726211699486e+00 3.258600025440722803e+00 3.762310051422525614e+00
6.589210240223170072e+07 5.997241397315135281e+00 3.255500333419700354e+00 3.758383603827571307e+00
6.589303216553945839e+07 5.997240915148974949e+00 3.250866423501142854e+00 3.752569202865080555e+00
6.589363549105986953e+07 5.997240599460067934e+00 3.247773072245387027e+00 3.748728719589534464e+00
6.589451468657904863e+07 5.997240135427500896e+00 3.243148815277487440e+00 3.743049501897085740e+00
6.589508693102971464e+07 5.997239830845333408e+00 3.240040934575790565e+00 3.739298185228048688e+00
6.589593100990468264e+07 5.997239377941774308e+00 3.235323938238778396e+00 3.733720948512345039e+00
6.589648125407858193e+07 5.997239080414134449e+00 3.232158729906291494e+00 3.730084177244004540e+00
6.589729153577713668e+07 5.997238639203356314e+00 3.227353492714561511e+00 3.724814908723401707e+00
6.589808900403293967e+07 5.997238201859659057e+00 3.222438641159134587e+00 3.719826284007756279e+00
6.589887634210616350e+07 5.997237767747542136e+00 3.217422035632745647e+00 3.715174310033468430e+00
6.589966888232484460e+07 5.997237329230218350e+00 3.212166018977150816e+00 3.710729903938824847e+00
6.590046430084605515e+07 5.997236888381461739e+00 3.206688983727944642e+00 3.706521068154996712e+00
6.590152867956341058e+07 5.997236298700659773e+00 3.199034927231220848e+00 3.701283209072297353e+00
6.590234478086683899e+07 5.997235847948797272e+00 3.192948789662291009e+00 3.697695270904843845e+00
6.590377785964961350e+07 5.997235062608790024e+00 3.182761576213933186e+00 3.692940123521367468e+00
6.590505324433685839e+07 5.997234374080318453e+00 3.173255863203687355e+00 3.689618321584722693e+00
6.590669168567250669e+07 5.997233508025178850e+00 3.160609124015272720e+00 3.685642434064775319e+00
6.590833169215814769e+07 5.997232663423156751e+00 3.147841459908704120e+00 3.681855676727058491e+00
6.590994675239083171e+07 5.997231853260677426e+00 3.135727648316657401e+00 3.678271805104684322e+00
6.591154422030601650e+07 5.997231071084617504e+00 3.124851297135299522e+00 3.674885098102568470e+00
6.591343860399660468e+07 5.997230163168253192e+00 3.114233137144934105e+00 3.670936322622468939e+00
6.591559140538132191e+07 5.997229145506475234e+00 3.106746636687730767e+00 3.666447104634349419e+00
6.591797491937999427e+07 5.997228012355418691e+00 3.106484083583024081e+00 3.661426016523773086e+00
6.591995867630766332e+07 5.997227037690890938e+00 3.114058907833221923e+00 3.657026390471064481e+00
6.592156457209905982e+07 5.997226206774421975e+00 3.126152136361495248e+00 3.653333845568125238e+00
6.592283415426829457e+07 5.997225510060778753e+00 3.139454062956405611e+00 3.650304293640747488e+00
6.592406078993055224e+07 5.997224792646086655e+00 3.155395589734064199e+00 3.647319548793214850e+00
6.592525030188943446e+07 5.997224045124227132e+00 3.173435495609699508e+00 3.644391339009161346e+00
6.592618675568605959e+07 5.997223414025373955e+00 3.189072361146191970e+00 3.642077995229850096e+00
6.592711846470256150e+07 5.997222743369879261e+00 3.205563554837178586e+00 3.639796832508060298e+00
6.592805944616737962e+07 5.997222018033556701e+00 3.222826791860874174e+00 3.637560841173427040e+00
6.592902205744179338e+07 5.997221221640958611e+00 3.240617383693633613e+00 3.635352669288368865e+00
6.593002147440717369e+07 5.997220332915624397e+00 3.258683498061306416e+00 3.633155325215797760e+00
6.593080887362025678e+07 5.997219586791692869e+00 3.272396845080043803e+00 3.631516488990715441e+00
6.593192640673836321e+07 5.997218457274536618e+00 3.290844955953645012e+00 3.629421068262240979e+00
6.593313813036010414e+07 5.997217140186770656e+00 3.308702508801531383e+00 3.627345892825359908e+00
6.593448797247163951e+07 5.997215565468012599e+00 3.326131759193226234e+00 3.625404632343252942e+00
6.593604195849908143e+07 5.997213624828804157e+00 3.342785653365098586e+00 3.623532640546375472e+00
6.593837889517727494e+07 5.997210485912507494e+00 3.362003189203678133e+00 3.621370379924252259e+00
6.594132221006117761e+07 5.997206232897678291e+00 3.379171313165894475e+00 3.619413203694480163e+00
6.594505493831405789e+07 5.997200475581702328e+00 3.394736139460762470e+00 3.617637588835359352e+00
6.595049022058762610e+07 5.997191524023720355e+00 3.412028873744086255e+00 3.615650665567769373e+00
6.595653424252444506e+07 5.997180877200372962e+00 3.428753214229346202e+00 3.613730230443460645e+00
6.596289238710041344e+07 5.997168910251720497e+00 3.445508540172013134e+00 3.611891135118938667e+00
6.596832442437295616e+07 5.997158050012579622e+00 3.459317533627932040e+00 3.610361333073810020e+00
6.597493185586678982e+07 5.997144019820635386e+00 3.475939670227021328e+00 3.608555050547371135e+00
6.598162660721556842e+07 5.997128845337410752e+00 3.492400690904019278e+00 3.606807585899166391e+00
6.598834230113869160e+07 5.997112600119310244e+00 3.508792595836229822e+00 3.605051963275317295e+00
6.599512249697980285e+07 5.997095113473955408e+00 3.524862115755152292e+00 3.603437660151032063e+00
6.600181120340768993e+07 5.997076757780448908e+00 3.540578811412959936e+00 3.601919210861362686e+00
6.600948197273576260e+07 5.997054267302073249e+00 3.558678112800051530e+00 3.600145174182530106e+00
6.601606445772937685e+07 5.997033673884454963e+00 3.573852492403292835e+00 3.598668672362639320e+00
6.602408819584119320e+07 5.997006894630565910e+00 3.591553824651267934e+00 3.596972138275859709e+00
6.603412290252175182e+07 5.996970972703094205e+00 3.608501648278128027e+00 3.595348366973873500e+00
6.605028765454213321e+07 5.996909725693194915e+00 3.619293138351729500e+00 3.594365667640091466e+00
6.608558823575843871e+07 5.996771312012142197e+00 3.625311481668188840e+00 3.593815809013006124e+00
6.608988276883276552e+07 5.996754326871908347e+00 3.625282033357282607e+00 3.593826669987344680e+00
6.609823358996383101e+07 5.996721312625933109e+00 3.624958735400507059e+00 3.593874079095597640e+00
6.611043275154431909e+07 5.996673187654107728e+00 3.624082656048629225e+00 3.593984801072031221e+00
6.611856071979153901e+07 5.996641224669967407e+00 3.623366360866829616e+00 3.594070563097379267e+00
6.613084279711881280e+07 5.996593102362229644e+00 3.622222914660879756e+00 3.594205278928697123e+00
6.614342499072611332e+07 5.996544030567121375e+00 3.621068515956107792e+00 3.594340148040956695e+00
6.615640776882873476e+07 5.996493627306615615e+00 3.619940933230034297e+00 3.594473058636658447e+00
6.616981052972193062e+07 5.996441824613121696e+00 3.618850889710516938e+00 3.594605101935454794e+00
6.618369072200287133e+07 5.996388408051564589e+00 3.617787093058307590e+00 3.594733059782534212e+00
6.619801318041156232e+07 5.996333523173654534e+00 3.616720114437428357e+00 3.594861306345926266e+00
6.621271172352775186e+07 5.996277435546574885e+00 3.615668370831698120e+00 3.594985845631311072e+00
6.622777921360030770e+07 5.996220181287853279e+00 3.614609890070952680e+00 3.595111862708145978e+00
6.624318622628168017e+07 5.996161884261990593e+00 3.613541876113106621e+00 3.595235732977761334e+00
6.625891935277132690e+07 5.996102606157531767e+00 3.612465987252727828e+00 3.595363498227054144e+00
6.627502395231282711e+07 5.996042190147568007e+00 3.611372056415536491e+00 3.595493053018258056e+00
6.629147657210137695e+07 5.995980738559648415e+00 3.610259518627714215e+00 3.595626275674253858e+00
6.630827368565694988e+07 5.995918279664446793e+00 3.609133251157318867e+00 3.595757314660407822e+00
6.632541537980494648e+07 5.995854825849328051e+00 3.607988045472154681e+00 3.595887736588583738e+00
6.634295710719932616e+07 5.995790187085558109e+00 3.606819231049868346e+00 3.596019200477540423e+00
6.636086443614851683e+07 5.995724510040853161e+00 3.605639792197068871e+00 3.596186292048842770e+00
6.637915346371157467e+07 5.995657756376969516e+00 3.604422240867866556e+00 3.596321544115824942e+00
6.639782767172755301e+07 5.995589927187211288e+00 3.603184468235391513e+00 3.596465616316807612e+00
6.641057731913984567e+07 5.995543807954626381e+00 3.602349708240322634e+00 3.596600287053693279e+00
6.642986504286959767e+07 5.995474343639937587e+00 3.601057729073045444e+00 3.596749040774914086e+00
6.644966470056779683e+07 5.995403402503569623e+00 3.599728032390460797e+00 3.596897055247260333e+00
6.646319166776179522e+07 5.995355149658427862e+00 3.598813034779700715e+00 3.596996887238050000e+00
6.685686467145257443e+07 5.994029721398540289e+00 3.568722405626411742e+00 3.600445614966921948e+00
6.716619182351808250e+07 5.993107535281215981e+00 3.537126921157442982e+00 3.603873997622272007e+00
6.742691039375221729e+07 5.992422549459460512e+00 3.505016609527192184e+00 3.607359815646519863e+00
6.767289583866785467e+07 5.991854643756656884e+00 3.471849352730547178e+00 3.611089543415727743e+00
6.790996088384754956e+07 5.991374408504158033e+00 3.439308882857849969e+00 3.614675557946815943e+00
6.816597325015899539e+07 5.990919629859192241e+00 3.406223601309395832e+00 3.618659137579455454e+00
6.844756968234242499e+07 5.990480832931948108e+00 3.374683018149773339e+00 3.622641496940620875e+00
6.881116852019116282e+07 5.989983380472041929e+00 3.343798301192615785e+00 3.627462719613429698e+00
6.933372782352001965e+07 5.989352166148167456e+00 3.320063799910470070e+00 3.633709344101657912e+00
6.987461147441029549e+07 5.988740761110671329e+00 3.328483852167349433e+00 3.641803915843006667e+00
7.007421857608042657e+07 5.988508403195549334e+00 3.354402652551963904e+00 3.648372757825085078e+00
7.016468512563170493e+07 5.988396344187188802e+00 3.379905422424692940e+00 3.654712399359396624e+00
7.022218213982965052e+07 5.988321105781546194e+00 3.402181938850710630e+00 3.661429727865544326e+00
7.026883347731679678e+07 5.988257568235796136e+00 3.421108567787667809e+00 3.669010852587335059e+00
7.030677321306806803e+07 5.988204713359882803e+00 3.435299059360275020e+00 3.677524739130066944e+00
7.033037487374898791e+07 5.988171889065950992e+00 3.443326678816136521e+00 3.686611463977184311e+00
7.034870993118931353e+07 5.988146801930346541e+00 3.448825576513215196e+00 3.694775903287361274e+00
7.036706297938719392e+07 5.988122198765694293e+00 3.453739925842985947e+00 3.703508513229530230e+00
7.038622633787100017e+07 5.988097154706935044e+00 3.458358551571887318e+00 3.713057306649625744e+00
7.040658375135873258e+07 5.988071307908836793e+00 3.462854175843313342e+00 3.722872990009358674e+00
7.042441653273992240e+07 5.988049269393666663e+00 3.466500110223253550e+00 3.730884876978602716e+00
7.044367836929082870e+07 5.988026036613914194e+00 3.470208232431893691e+00 3.738943428208734154e+00
7.047007984886071086e+07 5.987995053323677652e+00 3.475001008437374583e+00 3.749131332706986619e+00
7.049308267207869887e+07 5.987968782809888424e+00 3.478950253140715265e+00 3.757337377631178477e+00
7.052401655900625885e+07 5.987934397493158478e+00 3.484025144148079622e+00 3.767629343588315471e+00
7.055067359750683606e+07 5.987905549714826137e+00 3.488196852038199403e+00 3.775940489399436828e+00
7.057899571138435602e+07 5.987875621270768889e+00 3.492457403744844147e+00 3.784295725892858009e+00
7.061666017355552316e+07 5.987836869633147430e+00 3.497885596300037925e+00 3.794778871736594894e+00
7.064884012792651355e+07 5.987804627957050485e+00 3.502320783380675984e+00 3.803251914135541867e+00
7.068290318445843458e+07 5.987771298377509765e+00 3.506821182262105374e+00 3.811759991511299184e+00
7.071911524920317531e+07 5.987736694110203928e+00 3.511394057448034900e+00 3.820326223510058572e+00
7.075751972774516046e+07 5.987700851987559858e+00 3.515983187770468810e+00 3.828890228596699252e+00
7.080939718547096848e+07 5.987653703165028318e+00 3.521766204414428891e+00 3.839576723199925823e+00
7.085533102425132692e+07 5.987613040057397029e+00 3.526423202132724199e+00 3.848148733102737751e+00
7.090636359326817095e+07 5.987568902732672171e+00 3.531069972442210769e+00 3.856617592895780433e+00
7.096482171593159437e+07 5.987519479130575917e+00 3.535645295495225326e+00 3.864827865811284013e+00
7.105536202503556013e+07 5.987444759105633452e+00 3.541221682265304427e+00 3.874367141358126432e+00
7.133467205041480064e+07 5.987220135873634774e+00 3.549034053847498704e+00 3.882515313990727801e+00
7.168673137768657506e+07 5.986931068522364896e+00 3.551091930138116304e+00 3.872639393595915358e+00
7.192317504714421928e+07 5.986727362391897067e+00 3.552517718256228640e+00 3.865332512312872559e+00
7.227398172396485507e+07 5.986410508527465701e+00 3.554773963749160437e+00 3.854807650661872032e+00
7.249112115636518598e+07 5.986204909377452310e+00 3.555642686912853456e+00 3.847086735765885557e+00
7.271273290239989758e+07 5.985985880674066451e+00 3.555543647657166684e+00 3.836996685565874365e+00
7.288230649135158956e+07 5.985810906742190518e+00 3.556105284050552040e+00 3.830528081701508825e+00
7.297683957525780797e+07 5.985710820081250105e+00 3.554256749422071593e+00 3.822503675632323628e+00
7.309886723515224457e+07 5.985576657524827482e+00 3.554963588966765009e+00 3.813982557856888000e+00
7.321031831419093907e+07 5.985451782475024629e+00 3.554230125487237046e+00 3.812431452721243730e+00
7.327380702915340662e+07 5.985379190290847973e+00 3.551989131169773550e+00 3.804295046292962112e+00
7.332561956873193383e+07 5.985318195229238469e+00 3.549925262992205788e+00 3.796878682486940271e+00
7.338676329908922315e+07 5.985243939831796922e+00 3.547112303251822585e+00 3.787159092784533332e+00
7.344101455716067553e+07 5.985175721326764453e+00 3.544329978075316134e+00 3.777648353109812618e+00
7.347453167485585809e+07 5.985132170765313120e+00 3.554645274553109413e+00 3.778789240802686855e+00
7.348929899298414588e+07 5.985112782272468124e+00 3.556871371172688701e+00 3.787279018466512603e+00
7.355231896562366188e+07 5.985034235438757122e+00 3.551275435917821799e+00 3.789851955063071820e+00
7.359777621339333057e+07 5.984977217210940559e+00 3.548329600634983372e+00 3.781869473180666574e+00
7.364546348837174475e+07 5.984915503867333619e+00 3.544941949362643285e+00 3.771659344707884998e+00
7.367578674446535110e+07 5.984875036129821524e+00 3.542500540078563631e+00 3.764381042761380858e+00
7.371206583082257211e+07 5.984825197458513379e+00 3.539225442147460488e+00 3.754803667624092789e+00
7.374501767649593949e+07 5.984778421052208586e+00 3.535844225959556830e+00 3.745178405850914771e+00
7.377470514061541855e+07 5.984734888777496487e+00 3.532402752361810450e+00 3.735635019339284657e+00
7.379503889718055725e+07 5.984704226865932064e+00 3.529764984431122077e+00 3.728560063652779810e+00
7.381998154868079722e+07 5.984665581322303751e+00 3.526163558759698891e+00 3.719206135679576697e+00
7.384266968170614541e+07 5.984629350140936666e+00 3.522452054581204806e+00 3.710047893350724380e+00
7.386360680384956300e+07 5.984594940618462644e+00 3.518587292567762592e+00 3.701239746274237241e+00
7.388785848925514519e+07 5.984553928072381623e+00 3.513397031599804432e+00 3.691260246104555165e+00
7.391067282412552834e+07 5.984514360220023477e+00 3.507612112875308163e+00 3.682336322376301041e+00
7.393210034498032928e+07 5.984476507245346077e+00 3.501156519291623415e+00 3.674424475187383798e+00
7.396642357609483600e+07 5.984415212354258884e+00 3.488999335458621509e+00 3.665392494195534034e+00
7.400691943419171870e+07 5.984343832236259431e+00 3.470953867931812820e+00 3.657327831622200875e+00
7.404201538003228605e+07 5.984283814446822447e+00 3.451160991936724098e+00 3.650240477490662716e+00
7.407638315889298916e+07 5.984227261578160650e+00 3.431102805442596271e+00 3.643492996177637888e+00
7.412941415813416243e+07 5.984142894939752821e+00 3.415440030224260681e+00 3.635371128619843795e+00
7.424158596997094154e+07 5.983961742207508649e+00 3.417719844575890065e+00 3.627672813260008677e+00
7.432224674795386195e+07 5.983823960282307119e+00 3.434784801050885683e+00 3.622048282585771606e+00
7.434836808087055385e+07 5.983775343122583301e+00 3.453898858221710721e+00 3.618296134877364789e+00
7.435905338351337612e+07 5.983753753425038902e+00 3.472459955811933341e+00 3.615316084304759592e+00
