# #MIST v1.1 [Fe/H] = 0, v_init = 0, reprocessed track 
# #star_age 	 star_mass 	 logL 	 logT
3.143641126713024505e+02 6.799999554195594875e+00 3.345598767192677236e+00 3.612135221805486296e+00
3.316789872709816791e+02 6.799999533073124880e+00 3.341894129959053217e+00 3.612447639364926300e+00
3.492322100816803072e+02 6.799999511962520060e+00 3.338330208734899607e+00 3.612795472744115166e+00
3.671342861709597400e+02 6.799999490729720542e+00 3.334868406963042986e+00 3.613176663911054298e+00
3.851043094116076873e+02 6.799999469706675015e+00 3.331427906388853888e+00 3.613553887787912977e+00
4.032603026798381052e+02 6.799999448751525399e+00 3.338764730851251361e+00 3.616821416847137982e+00
4.190402438417954727e+02 6.799999430350997187e+00 3.336081005718489312e+00 3.617235086039815251e+00
4.489748678041986523e+02 6.799999396031777721e+00 3.330165644194350349e+00 3.617775318101170701e+00
4.664120754238361997e+02 6.799999376381644645e+00 3.326773858318715860e+00 3.618081633333672720e+00
5.038453769226701979e+02 6.799999335033685810e+00 3.319615812325408477e+00 3.618719179875481640e+00
5.234150936380492567e+02 6.799999313861482264e+00 3.315940454301923079e+00 3.619042722268649204e+00
5.631185903117666385e+02 6.799999271796433042e+00 3.308892020794690580e+00 3.619750870152004474e+00
5.831891381934678975e+02 6.799999250971313636e+00 3.305275749371068716e+00 3.620069288937390883e+00
6.249161225790081744e+02 6.799999208576922527e+00 3.298085252184378202e+00 3.620760933762729117e+00
6.463956352179365012e+02 6.799999187205571616e+00 3.294420573803406249e+00 3.621099346044958978e+00
6.895972919356735247e+02 6.799999145123740263e+00 3.287240183396984872e+00 3.621775507220157841e+00
7.340116030587740852e+02 6.799999103053169236e+00 3.279971347829619965e+00 3.622425997597385816e+00
7.569575653974899296e+02 6.799999081771185949e+00 3.276623154878230970e+00 3.622809733531770604e+00
8.033630203661319911e+02 6.799999039599611272e+00 3.269296039795512421e+00 3.623453902266625448e+00
8.513717347928394474e+02 6.799998997189835137e+00 3.261882530059495799e+00 3.624090629507191963e+00
9.005109223847200610e+02 6.799998955000017276e+00 3.254755516372116908e+00 3.624787861545741841e+00
9.502206002400821490e+02 6.799998913488252583e+00 3.247636185767273531e+00 3.625447422700881717e+00
9.995468637822552864e+02 6.799998873401554178e+00 3.240825438908320422e+00 3.626102025917911753e+00
1.047703655630305775e+03 6.799998835286169552e+00 3.234144811014773246e+00 3.626673857650513533e+00
1.095544606627705662e+03 6.799998798372961950e+00 3.227835735386939131e+00 3.627269793121908226e+00
1.168497057974124118e+03 6.799998743768632892e+00 3.218603650000423144e+00 3.628177900338995343e+00
1.218938527056705880e+03 6.799998707134939480e+00 3.212190158423624986e+00 3.628731281300167755e+00
1.293987123711722461e+03 6.799998654264554077e+00 3.202984747101176310e+00 3.629544518099055761e+00
1.371309704822823505e+03 6.799998601688213462e+00 3.193875672718514913e+00 3.630365303710427316e+00
1.425241878049027036e+03 6.799998566077801065e+00 3.187852796716618808e+00 3.630958396399905030e+00
1.520030933399817741e+03 6.799998505407880423e+00 3.177390047218128899e+00 3.631911958444709487e+00
1.588671592444957241e+03 6.799998462952400402e+00 3.170016319701721930e+00 3.632564655638041096e+00
1.695465356653953222e+03 6.799998399202593191e+00 3.159170544359623634e+00 3.633603033775319791e+00
1.768786647821475526e+03 6.799998356946943545e+00 3.151793154026832688e+00 3.634243873978835637e+00
1.845052486375570197e+03 6.799998314223747009e+00 3.144448540264613179e+00 3.634920989179903916e+00
1.963143236056709611e+03 6.799998250396079413e+00 3.133323172514776545e+00 3.635894414391079188e+00
2.044440322031423875e+03 6.799998207996616806e+00 3.125920076511500056e+00 3.636538308628856520e+00
2.169944776560635546e+03 6.799998144812217760e+00 3.115043856539698730e+00 3.637538331544223347e+00
2.301645866358889180e+03 6.799998081263921357e+00 3.104156286864374170e+00 3.638557266518571254e+00
2.392472000121768360e+03 6.799998038950555213e+00 3.096816931560678388e+00 3.639213251515346137e+00
2.534248141705041235e+03 6.799997975222455970e+00 3.085659370254952183e+00 3.640175032009114631e+00
2.681506152772608402e+03 6.799997911797849071e+00 3.074611891766099614e+00 3.641147842841795601e+00
2.782533198907847236e+03 6.799997869800478156e+00 3.067462779167252407e+00 3.641789069205704443e+00
2.942494217509130067e+03 6.799997805573956278e+00 3.056523877884099960e+00 3.642774111656597924e+00
3.109826201930937714e+03 6.799997741188381184e+00 3.045395698242228111e+00 3.643751770440823989e+00
3.280848058085719003e+03 6.799997678122609912e+00 3.034504730435370501e+00 3.644706264720946720e+00
3.458392132485394541e+03 6.799997615342601165e+00 3.023743057007853174e+00 3.645660788553012566e+00
3.643452317232419318e+03 6.799997552576876991e+00 3.012842541389120221e+00 3.646601257721387768e+00
3.835788053358177876e+03 6.799997490014061619e+00 3.002162894903247281e+00 3.647581059183781171e+00
3.968372770288912307e+03 6.799997448346893236e+00 2.994962960262367080e+00 3.648206292477032875e+00
4.174978047202479502e+03 6.799997385644979353e+00 2.984038637905648716e+00 3.649135118530102861e+00
4.389801265240555949e+03 6.799997323123600168e+00 2.973249350992473339e+00 3.650068502582078267e+00
4.614943432203024713e+03 6.799997260269311283e+00 2.962446242249190842e+00 3.651021663764909775e+00
4.914816574763902281e+03 6.799997180444547595e+00 2.948803777121534964e+00 3.652256301873658018e+00
5.126891727650299799e+03 6.799997126470985975e+00 2.939423543061286281e+00 3.653049239237804002e+00
5.415384125070350819e+03 6.799997056047452304e+00 2.927242321131682701e+00 3.654091083614402713e+00
5.715006210547557203e+03 6.799996986246640951e+00 2.915227896229197757e+00 3.655128611522262538e+00
5.951242796266164987e+03 6.799996933392950638e+00 2.906115245139540004e+00 3.655897644340416974e+00
6.282185103106894530e+03 6.799996862311908252e+00 2.894172833049255100e+00 3.657004460962696157e+00
6.630622584688135248e+03 6.799996790885515452e+00 2.881874086140022495e+00 3.658024874010536553e+00
6.905067530637006712e+03 6.799996736895632665e+00 2.872884349541660498e+00 3.658858276728974346e+00
7.288742329669714309e+03 6.799996664449318828e+00 2.860528541062105301e+00 3.659890784827945609e+00
7.697694122762037296e+03 6.799996590820082787e+00 2.848178540578702123e+00 3.660970675949966058e+00
8.026581049471001279e+03 6.799996534030434248e+00 2.838679797767551083e+00 3.661788216733437906e+00
8.482878153581239530e+03 6.799996458523835052e+00 2.826138563719784003e+00 3.662877926079256774e+00
8.882663840245611937e+03 6.799996395204013666e+00 2.815648513089970884e+00 3.663779420781239082e+00
9.310014977302424086e+03 6.799996330199050476e+00 2.805036990297481214e+00 3.664707702339837780e+00
9.907640476036867767e+03 6.799996243522344663e+00 2.791086820541663904e+00 3.665949580770710536e+00
1.038189204113039887e+04 6.799996177907468464e+00 2.780532356066375499e+00 3.666862101365482296e+00
1.087456448746520618e+04 6.799996112452086017e+00 2.770000575188029224e+00 3.667752577579030948e+00
1.138969652683571985e+04 6.799996046710967690e+00 2.759791656874013732e+00 3.668694468175626611e+00
1.192815016661691152e+04 6.799995980657840278e+00 2.749565147823242128e+00 3.669612263883646364e+00
1.268563669912153637e+04 6.799995891924285552e+00 2.736045071186564925e+00 3.670831874812058970e+00
1.328655452660232368e+04 6.799995824665215238e+00 2.726046030535916209e+00 3.671767745963343543e+00
1.391812940315059677e+04 6.799995756671193270e+00 2.715913639938878354e+00 3.672662538584011038e+00
1.457964928949376736e+04 6.799995688173214425e+00 2.706093848439728333e+00 3.673589997409936636e+00
1.551383858700903875e+04 6.799995595649692248e+00 2.693113003863662591e+00 3.674822697941280136e+00
1.625608652661927408e+04 6.799995525304029620e+00 2.683344311727716480e+00 3.675724392917639971e+00
1.703562108722716948e+04 6.799995454161908981e+00 2.673716149135032083e+00 3.676617255354273972e+00
1.785624250736876274e+04 6.799995381987930188e+00 2.664422219907370160e+00 3.677548193044026803e+00
1.873184051331629234e+04 6.799995307734817196e+00 2.655256656104260315e+00 3.678513901444338430e+00
1.965415422212018893e+04 6.799995232273357004e+00 2.646103481139236990e+00 3.679435508435993540e+00
2.095904245245939455e+04 6.799995129882963951e+00 2.634019571270082238e+00 3.680617491660387763e+00
2.201263236701452843e+04 6.799995050493056858e+00 2.625590161592613825e+00 3.681602156295089578e+00
2.313866861452924059e+04 6.799994968466577028e+00 2.616953025338078387e+00 3.682507579607555925e+00
2.434361911247850367e+04 6.799994883619060460e+00 2.608439138804296231e+00 3.683417418188093428e+00
2.563253946929280210e+04 6.799994795825913485e+00 2.600476749579668123e+00 3.684431944214738408e+00
2.698356867424817028e+04 6.799994706692701563e+00 2.592515867052431311e+00 3.685376366767393108e+00
2.843087990472684032e+04 6.799994614172229390e+00 2.584832160192896744e+00 3.686309788609377414e+00
2.997606649949628627e+04 6.799994518360310103e+00 2.577466774604602939e+00 3.687268578701925037e+00
3.105243174179484413e+04 6.799994453238884518e+00 2.572799208001638860e+00 3.687907605469173511e+00
3.272662074004266833e+04 6.799994354276297059e+00 2.566536966961059374e+00 3.688929484005734061e+00
3.448989590917738678e+04 6.799994252683826623e+00 2.560869406932956949e+00 3.689948331124949910e+00
3.634109315300453454e+04 6.799994148488906376e+00 2.556058843798474811e+00 3.690987095971353327e+00
3.828507400146145665e+04 6.799994041247122922e+00 2.552477219698329414e+00 3.692108470223366190e+00
4.034057419429862784e+04 6.799993929696340089e+00 2.549989439293745441e+00 3.693238030107215408e+00
4.252577300534180540e+04 6.799993812557393547e+00 2.548889944219923542e+00 3.694402375057419086e+00
4.483993162945760560e+04 6.799993689400586128e+00 2.549607712916737157e+00 3.695634776117954878e+00
4.724077972764495644e+04 6.799993561741032977e+00 2.552419748204187044e+00 3.696918438142358099e+00
4.965915206921929348e+04 6.799993432335240229e+00 2.557507856272921209e+00 3.698235147258822408e+00
5.201915174119951553e+04 6.799993304274423167e+00 2.564712850016277024e+00 3.699543425702054744e+00
5.426792707628084463e+04 6.799993179648611275e+00 2.573798825017170167e+00 3.700832333791606921e+00
5.704487244271219242e+04 6.799993020702279622e+00 2.588135808166757812e+00 3.702508944264520707e+00
5.958549225312143244e+04 6.799992868691954406e+00 2.604171247885304297e+00 3.704159554135219246e+00
6.248749515284340305e+04 6.799992685164225392e+00 2.625308104953186117e+00 3.706219984274187418e+00
6.465631719858766155e+04 6.799992539889701426e+00 2.642138952068093793e+00 3.707918889278533747e+00
6.725308100831374759e+04 6.799992356083633283e+00 2.661909793420232262e+00 3.710148300106098418e+00
7.029779658001709322e+04 6.799992127388360785e+00 2.682256227901445911e+00 3.713023762154816332e+00
7.333078077515157929e+04 6.799991887805218127e+00 2.698299991582811863e+00 3.716160600561961402e+00
7.633856521836281172e+04 6.799991641905210216e+00 2.710219577127308099e+00 3.719508303075705236e+00
7.977068925644439878e+04 6.799991355282280381e+00 2.719870869808324709e+00 3.723630966206036064e+00
8.310570068683668796e+04 6.799991074253663115e+00 2.726601493551597422e+00 3.727922173179217147e+00
8.638115729097649455e+04 6.799990798514207846e+00 2.730314570471658264e+00 3.732323350971606502e+00
9.011492341434156697e+04 6.799990487924619131e+00 2.732349638048989782e+00 3.737659858392810452e+00
9.333666995562931697e+04 6.799990225087428897e+00 2.732766122983077750e+00 3.742755974186434909e+00
9.691627335766726173e+04 6.799989940672562128e+00 2.732261425852156922e+00 3.749137016257384047e+00
1.000053173399650550e+05 6.799989702446922024e+00 2.732092841419611950e+00 3.755054591253230711e+00
1.035576963254175498e+05 6.799989436641652674e+00 2.732081367665406546e+00 3.762061228455342743e+00
1.067097668812030461e+05 6.799989207726943263e+00 2.732389970980943161e+00 3.768415364134608758e+00
1.100134819682248053e+05 6.799988974628373484e+00 2.733020925729516382e+00 3.775185864356132459e+00
1.133982974535523681e+05 6.799988742391885665e+00 2.735150997440393805e+00 3.782464314327720345e+00
1.169142515174529253e+05 6.799988507194743903e+00 2.738135726275465309e+00 3.789992510058863395e+00
1.200517598907647189e+05 6.799988301795524492e+00 2.741813268582570018e+00 3.796755756580914021e+00
1.233075274175172235e+05 6.799988092410445439e+00 2.746218124310304987e+00 3.803699757198242271e+00
1.266479821240023302e+05 6.799987880897818471e+00 2.751727617560625561e+00 3.810863799020509202e+00
1.300555575080145791e+05 6.799987667885058151e+00 2.758311983519236676e+00 3.818214538572671568e+00
1.335378620462454273e+05 6.799987452316434755e+00 2.766170869341492811e+00 3.825820517840571533e+00
1.364925527699489321e+05 6.799987270506701265e+00 2.773857431314738164e+00 3.832394705707969695e+00
1.401150194334568223e+05 6.799987048287736258e+00 2.784177934044875791e+00 3.840551935877294376e+00
1.431932223150842474e+05 6.799986859599298938e+00 2.793766871233133386e+00 3.847580377962430465e+00
1.463241030392417160e+05 6.799986667394689377e+00 2.804125406766015072e+00 3.854798323064241750e+00
1.495298534474817279e+05 6.799986469952126633e+00 2.815286733375605532e+00 3.862247033043012756e+00
1.528130490040346631e+05 6.799986266706384619e+00 2.827511204182352689e+00 3.870008371312823492e+00
1.561523880293319817e+05 6.799986058444330794e+00 2.840845122893761232e+00 3.878071038441555984e+00
1.588677796349746059e+05 6.799985887619710567e+00 2.852214329333747855e+00 3.884726950504831411e+00
1.616255329645144811e+05 6.799985712533259452e+00 2.864249640779360284e+00 3.891583153972625997e+00
1.651500486380062939e+05 6.799985486096979059e+00 2.880196092355365778e+00 3.900476936128787209e+00
1.680149443073098955e+05 6.799985299592893995e+00 2.893632544103448723e+00 3.907823671394621723e+00
1.709302608806795615e+05 6.799985107317121802e+00 2.907689094490798709e+00 3.915399901033700836e+00
1.738821597386084322e+05 6.799984909875662176e+00 2.922313380899236535e+00 3.923180486933542710e+00
1.761205665364641463e+05 6.799984758184709044e+00 2.933637414257105114e+00 3.929153058583013447e+00
1.791137210003616929e+05 6.799984552546341376e+00 2.949040957195213863e+00 3.937227386421324749e+00
1.821150085347109998e+05 6.799984342977117180e+00 2.964798270196002505e+00 3.945440025108126747e+00
1.843751917597703869e+05 6.799984182824379886e+00 2.976844023003967443e+00 3.951701475736080660e+00
1.873891140075932490e+05 6.799983966024396587e+00 2.993191124292635230e+00 3.960172393295941617e+00
1.896452838218258694e+05 6.799983801225864433e+00 3.005559786036149372e+00 3.966592487328410854e+00
1.926423744976205053e+05 6.799983578910653748e+00 3.022153825038785602e+00 3.975227819405659169e+00
1.956236236557771917e+05 6.799983353889715865e+00 3.038738621674419882e+00 3.983924108133618525e+00
1.978462924551222823e+05 6.799983183599252357e+00 3.051095702028398193e+00 3.990468145088560625e+00
2.007848723192399484e+05 6.799982955188514033e+00 3.067381664747693915e+00 3.999191247959601014e+00
2.029686985407607281e+05 6.799982783063963865e+00 3.079463230220572445e+00 4.005731939063889691e+00
2.058505636531970522e+05 6.799982552874132224e+00 3.095398930551394034e+00 4.014448532816142112e+00
2.079870177196633304e+05 6.799982380011027061e+00 3.107231702491350500e+00 4.020978834638532895e+00
2.108004628604708705e+05 6.799982149564824496e+00 3.122654352533750899e+00 4.029630216599201731e+00
2.135709024572141061e+05 6.799981919657155593e+00 3.137702836778985649e+00 4.038221146348336177e+00
2.156081106128116371e+05 6.799981748742400356e+00 3.149008186500453554e+00 4.044678816707344637e+00
2.182892689673298737e+05 6.799981521488174252e+00 3.163391124945502231e+00 4.053126769277385577e+00
2.209314688554327004e+05 6.799981295248901603e+00 3.177204487055857562e+00 4.061478862369741094e+00
2.235297327511605108e+05 6.799981070820545703e+00 3.190423715418208683e+00 4.069705952509695912e+00
2.254551862681028142e+05 6.799980903433151092e+00 3.199978637253209524e+00 4.075805530334537963e+00
2.279919896662073734e+05 6.799980681735801724e+00 3.212136629290766709e+00 4.083812847903725896e+00
2.311222716431482986e+05 6.799980406754048801e+00 3.226754115898529118e+00 4.093709430803066596e+00
2.335923238440854766e+05 6.799980188938056891e+00 3.237885376499513690e+00 4.101502087988533773e+00
2.360341735657831014e+05 6.799979973133141620e+00 3.248640387342864866e+00 4.109210705284719545e+00
2.384477714315867051e+05 6.799979759540246249e+00 3.259005834601673701e+00 4.116817481400666168e+00
2.408470735394001822e+05 6.799979547126017820e+00 3.268991779855666024e+00 4.124355267289818272e+00
2.438301814509009419e+05 6.799979283203937186e+00 3.280998473694633599e+00 4.133703890335281628e+00
2.462048924669546832e+05 6.799979073509129890e+00 3.290242937074146834e+00 4.141125077541458310e+00
2.491509971368029073e+05 6.799978814145337225e+00 3.301228780413171027e+00 4.150287343220914416e+00
2.514932980177339341e+05 6.799978608809551517e+00 3.309657128222219580e+00 4.157551334514987040e+00
2.543979135204122285e+05 6.799978355556126175e+00 3.319559944158822606e+00 4.166490659002803909e+00
2.572890799248365802e+05 6.799978105364790970e+00 3.328908236740610427e+00 4.175321693164255166e+00
2.595942405959428288e+05 6.799977907477341432e+00 3.335972601157445538e+00 4.182300883226210964e+00
2.624686405221809982e+05 6.799977662973825332e+00 3.344305612743058376e+00 4.190934327429178374e+00
2.653386297978219809e+05 6.799977421637872332e+00 3.352139007565457351e+00 4.199463114927590723e+00
2.682095143918270478e+05 6.799977183284533488e+00 3.359405747597400627e+00 4.207873785081811313e+00
2.710911349438781617e+05 6.799976947463397536e+00 3.365918608514629096e+00 4.216136005260404218e+00
2.739867461253807414e+05 6.799976714301969594e+00 3.371779082310857323e+00 4.224267846267652615e+00
2.774931262892018422e+05 6.799976437510434124e+00 3.377855576292852824e+00 4.233823203732159257e+00
2.804516977858812315e+05 6.799976209057762233e+00 3.382010713942665170e+00 4.241601017007827323e+00
2.840634849357528146e+05 6.799975936959652856e+00 3.385939815314240153e+00 4.250721911949113085e+00
2.871400345868538134e+05 6.799975711389365074e+00 3.388202542682489771e+00 4.258111292633716793e+00
2.909480570092393318e+05 6.799975440557244788e+00 3.389196643344246862e+00 4.266621108862965528e+00
2.956462930955569609e+05 6.799975120118830318e+00 3.387002274797164425e+00 4.275873627310670777e+00
3.008472019636828336e+05 6.799974785123968246e+00 3.377787502672682241e+00 4.283700977256140519e+00
3.070782748611563002e+05 6.799974415276906825e+00 3.354984574228546013e+00 4.288786613365813238e+00
3.139790763124930672e+05 6.799974049837009815e+00 3.317460672127940491e+00 4.289376737556157337e+00
3.198705230999544729e+05 6.799973773653203324e+00 3.281571369965107010e+00 4.287298157471742144e+00
3.253794412246922147e+05 6.799973540825869911e+00 3.251191350888171794e+00 4.284768253247943193e+00
3.325047743499213248e+05 6.799973266373183556e+00 3.223258955842470463e+00 4.282539280085402744e+00
3.453342644197684713e+05 6.799972812087595742e+00 3.209943343843276065e+00 4.284705734835721813e+00
3.554809203101966414e+05 6.799972461296043491e+00 3.224180899278613843e+00 4.292196891478718968e+00
3.635156954526650370e+05 6.799972177345126489e+00 3.245611908926034683e+00 4.301459623747933669e+00
3.677282812928031199e+05 6.799972024466732989e+00 3.258819333972219567e+00 4.307212599765396277e+00
3.730999433608808322e+05 6.799971825212320908e+00 3.274874401003190272e+00 4.314692924692394627e+00
3.780502990077505819e+05 6.799971638271632202e+00 3.286471621772552698e+00 4.321009266548096583e+00
3.864654533143327571e+05 6.799971318236194051e+00 3.296222698336303214e+00 4.329404286547601899e+00
3.984444418587781256e+05 6.799970873719387576e+00 3.287579999488817517e+00 4.335108337957817248e+00
4.130959007656466565e+05 6.799970371225086296e+00 3.254874593919481640e+00 4.334107525410053618e+00
4.275240870485365158e+05 6.799969922573159131e+00 3.225748193579089484e+00 4.330762495124907296e+00
4.424222641325438744e+05 6.799969489421225255e+00 3.210120223344021806e+00 4.328529934822536340e+00
4.638934092483496061e+05 6.799968887926658212e+00 3.202899272122070595e+00 4.327316579880863046e+00
4.639863059738983284e+05 6.799968885356579840e+00 3.202891821552417806e+00 4.327314921621453259e+00
4.781437669475301518e+05 6.799968493693462790e+00 3.201769486414096200e+00 4.327064435543686471e+00
4.951550153300201055e+05 6.799968024351964679e+00 3.201413811455648517e+00 4.326932529419512896e+00
5.155952676459659706e+05 6.799967460749841486e+00 3.201321198902058018e+00 4.326843940620081597e+00
5.157557931877142400e+05 6.799967456323273929e+00 3.201320529724849262e+00 4.326843280993623253e+00
5.403483061835486442e+05 6.799966778169610926e+00 3.201216875565557896e+00 4.326741989973258207e+00
5.698978479085693834e+05 6.799965963234874344e+00 3.201064752495299981e+00 4.326614196873804552e+00
5.701290046886869241e+05 6.799965956859532312e+00 3.201063577094291013e+00 4.326613152760444336e+00
5.703601614688044647e+05 6.799965950484190280e+00 3.201062401693281601e+00 4.326612108647085009e+00
6.059583056069000158e+05 6.799964968672839838e+00 3.200883323425960825e+00 4.326451501525851562e+00
6.062356937430410180e+05 6.799964961021562893e+00 3.200882106293557072e+00 4.326450267223438395e+00
6.490644219632120803e+05 6.799963779639815797e+00 3.200698799235444092e+00 4.326259807312335504e+00
6.493972877265812131e+05 6.799963770456228573e+00 3.200697723525310678e+00 4.326258335847890990e+00
7.009249078961340711e+05 6.799962348765757447e+00 3.200538323774650973e+00 4.326031408235529341e+00
7.013243468121771002e+05 6.799962337740356411e+00 3.200537541506636607e+00 4.326029703555601458e+00
7.017237857282201294e+05 6.799962326714957150e+00 3.200536759238622242e+00 4.326027998875673575e+00
7.637965932813094696e+05 6.799960613192773451e+00 3.200424824949793745e+00 4.325764189982876928e+00
7.642759199805611279e+05 6.799960599951999640e+00 3.200424452708211742e+00 4.325762208976844825e+00
7.647552466798127862e+05 6.799960586711226718e+00 3.200424080466629739e+00 4.325760227970812721e+00
8.395302117630708963e+05 6.799958520774222137e+00 3.200377321214163739e+00 4.325454347141825195e+00
8.401054038021728629e+05 6.799958504866475018e+00 3.200377440045982347e+00 4.325452127740185837e+00
8.406805958412748296e+05 6.799958488958727898e+00 3.200377558877801398e+00 4.325449908338545590e+00
8.412557878803769127e+05 6.799958473050980778e+00 3.200377677709620006e+00 4.325447688936906232e+00
9.314458996115680784e+05 6.799955977980054023e+00 3.200410293985280763e+00 4.325102528366861598e+00
9.321361300584905548e+05 6.799955958860081751e+00 3.200411019227066500e+00 4.325099983485187316e+00
9.328263605054127984e+05 6.799955939740110367e+00 3.200411744468852682e+00 4.325097438603513034e+00
1.041468632850995986e+06 6.799952928924261286e+00 3.200541113923800918e+00 4.324702948980703177e+00
1.042296909387302701e+06 6.799952905930950919e+00 3.200542547784234859e+00 4.324700120113535107e+00
1.043125185923609650e+06 6.799952882937640553e+00 3.200543981644668801e+00 4.324697291246367925e+00
1.043953462459916482e+06 6.799952859944330186e+00 3.200545415505102298e+00 4.324694462379200743e+00
1.174986810503661865e+06 6.799949220076825007e+00 3.200789628243050355e+00 4.324253544010854711e+00
1.175980742347229971e+06 6.799949192409825649e+00 3.200791909392258550e+00 4.324250362545011939e+00
1.176974674190798309e+06 6.799949164742827179e+00 3.200794190541466744e+00 4.324247181079170943e+00
1.177968606034366414e+06 6.799949137075827821e+00 3.200796471690674938e+00 4.324243999613329059e+00
1.178962537877934519e+06 6.799949109408828463e+00 3.200798752839883576e+00 4.324240818147487175e+00
1.337196487373996992e+06 6.799944700748775439e+00 3.201180294286398720e+00 4.323747609249632085e+00
1.338389205586278811e+06 6.799944667435215528e+00 3.201183542290241490e+00 4.323744160392403835e+00
1.339581923798560631e+06 6.799944634121654730e+00 3.201186790294084705e+00 4.323740711535175585e+00
1.340774642010842450e+06 6.799944600808094819e+00 3.201190038297927920e+00 4.323737262677947335e+00
1.531609555975942872e+06 6.799939264080181012e+00 3.201731972077936472e+00 4.323200488382233253e+00
1.533040817830681102e+06 6.799939223939952093e+00 3.201736426011675629e+00 4.323196725825079412e+00
1.534472079685419332e+06 6.799939183799723175e+00 3.201740879945415230e+00 4.323192963267926459e+00
1.535903341540157562e+06 6.799939143659494256e+00 3.201745333879154387e+00 4.323189200710772617e+00
1.537334603394896025e+06 6.799939103519265338e+00 3.201749787812893988e+00 4.323185438153618776e+00
1.767767762007754296e+06 6.799932630207706552e+00 3.202489900734918571e+00 4.322597857243331454e+00
1.769485276233440731e+06 6.799932581800882225e+00 3.202495757224071760e+00 4.322593746414556293e+00
1.771202790459126467e+06 6.799932533394058787e+00 3.202501613713225392e+00 4.322589635585782020e+00
1.772920304684812203e+06 6.799932484987234460e+00 3.202507470202379025e+00 4.322585524757007747e+00
1.774637818910498172e+06 6.799932436580411022e+00 3.202513326691532214e+00 4.322581413928233474e+00
2.051731289986150805e+06 6.799924609876605075e+00 3.203483247201202921e+00 4.321943982844975274e+00
2.053769430387264583e+06 6.799924552092448948e+00 3.203490698373522960e+00 4.321939620314010355e+00
2.055807570788378129e+06 6.799924494308292822e+00 3.203498149545843443e+00 4.321935257783044548e+00
2.057845711189492140e+06 6.799924436524138471e+00 3.203505600718163482e+00 4.321930895252079630e+00
2.059883851590605918e+06 6.799924378739982345e+00 3.203513051890483965e+00 4.321926532721114711e+00
2.383029999146237969e+06 6.799915192390447061e+00 3.204720731618841967e+00 4.321265241283423819e+00
2.385310845121648628e+06 6.799915127276149107e+00 3.204729548273629103e+00 4.321260911720985476e+00
2.387591691097059287e+06 6.799915062161850265e+00 3.204738364928416239e+00 4.321256582158548909e+00
2.389872537072469946e+06 6.799914997047551424e+00 3.204747181583203819e+00 4.321252252596111454e+00
2.392153383047881071e+06 6.799914931933253470e+00 3.204755998237990511e+00 4.321247923033673999e+00
2.751736591044288129e+06 6.799904633782139385e+00 3.206170226801855705e+00 4.320587964239109624e+00
2.754232347348598298e+06 6.799904561988212137e+00 3.206180278407246398e+00 4.320583603588270982e+00
2.756728103652908467e+06 6.799904490194284890e+00 3.206190330012637091e+00 4.320579242937432340e+00
2.759223859957219101e+06 6.799904418400356754e+00 3.206200381618027784e+00 4.320574882286592810e+00
3.149641980404204689e+06 6.799893146645942466e+00 3.207796340813970026e+00 4.319926209668331296e+00
3.152310598617762793e+06 6.799893069241429444e+00 3.207807456718994477e+00 4.319922070053573648e+00
3.154979216831319965e+06 6.799892991836917311e+00 3.207818572624018927e+00 4.319917930438816889e+00
3.157647835044877604e+06 6.799892914432405178e+00 3.207829688529042933e+00 4.319913790824059241e+00
3.160316453258435242e+06 6.799892837027892156e+00 3.207840804434067827e+00 4.319909651209302481e+00
3.577129413249757607e+06 6.799880697798819540e+00 3.209601035027813687e+00 4.319299018165554394e+00
3.579960103804337792e+06 6.799880614977738880e+00 3.209613174310085082e+00 4.319295147947888935e+00
3.582790794358918443e+06 6.799880532156658219e+00 3.209625313592356477e+00 4.319291277730223477e+00
3.585621484913499095e+06 6.799880449335578447e+00 3.209637452874628316e+00 4.319287407512558019e+00
4.031363388011495117e+06 6.799867348791593713e+00 3.211572685580355468e+00 4.318696283755402376e+00
4.034406091426374391e+06 6.799867258960379246e+00 3.211586058585921499e+00 4.318692374487435259e+00
4.037448794841252733e+06 6.799867169129165667e+00 3.211599431591486642e+00 4.318688465219468142e+00
4.040491498256131541e+06 6.799867079297951200e+00 3.211612804597052229e+00 4.318684555951501025e+00
4.516696264073346741e+06 6.799852948742522329e+00 3.213729114935999220e+00 4.318090188937525831e+00
4.519917069394143298e+06 6.799852852726750996e+00 3.213743573831083999e+00 4.318086277613936375e+00
4.523137874714939855e+06 6.799852756710979662e+00 3.213758032726168778e+00 4.318082366290346030e+00
5.020668923335671425e+06 6.799837843071987464e+00 3.216014606338860382e+00 4.317520229072928650e+00
5.023989336654714309e+06 6.799837743065694440e+00 3.216029800503442448e+00 4.317516722548941033e+00
5.027309749973757192e+06 6.799837643059400527e+00 3.216044994668024959e+00 4.317513216024955192e+00
5.030630163292799145e+06 6.799837543053106614e+00 3.216060188832607025e+00 4.317509709500968462e+00
5.547239554952064529e+06 6.799821892227425835e+00 3.218446720833132879e+00 4.316964614251499022e+00
5.550701713118307292e+06 6.799821786865548390e+00 3.218462831890382070e+00 4.316960963636994997e+00
5.554163871284548193e+06 6.799821681503670945e+00 3.218478942947631261e+00 4.316957313022490084e+00
6.090640003522992134e+06 6.799805250944282342e+00 3.220999298628226537e+00 4.316431830808594938e+00
6.094219725953252986e+06 6.799805140805921688e+00 3.221016231236954575e+00 4.316428518253754731e+00
6.097799448383513838e+06 6.799805030667561923e+00 3.221033163845683944e+00 4.316425205698914525e+00
6.652061687534118071e+06 6.799787863013854405e+00 3.223679367826854048e+00 4.315910011165700055e+00
6.655754125850500539e+06 6.799787748135238452e+00 3.223697105407298036e+00 4.315906568764221518e+00
6.659446564166883007e+06 6.799787633256624275e+00 3.223714842987742468e+00 4.315903126362742981e+00
7.230719996273558587e+06 6.799769731063978639e+00 3.226483087429230956e+00 4.315401310854760197e+00
7.234520206719150767e+06 6.799769611447264772e+00 3.226501600624878563e+00 4.315398098878193700e+00
7.238320417164742947e+06 6.799769491830551793e+00 3.226520113820527058e+00 4.315394886901627203e+00
7.822967876424640417e+06 6.799750949259616206e+00 3.229391865206156620e+00 4.314901018116516163e+00
7.826841164698669687e+06 6.799750825884252947e+00 3.229410979918962088e+00 4.314897747303001907e+00
8.422820978250883520e+06 6.799731690396121131e+00 3.232378425747626238e+00 4.314420346471864676e+00
8.426768144034093246e+06 6.799731563118381672e+00 3.232398173210250469e+00 4.314417277319809507e+00
8.430715309817304835e+06 6.799731435840642213e+00 3.232417920672874700e+00 4.314414208167755227e+00
9.036783073557065800e+06 6.799711729648729275e+00 3.235476970121324847e+00 4.313946755202167971e+00
9.040790621168907732e+06 6.799711598806876367e+00 3.235497286248598670e+00 4.313943676724833587e+00
9.658045628385871649e+06 6.799691269961198437e+00 3.238653997086415881e+00 4.313473331827465174e+00
9.662131892213413492e+06 6.799691134838917961e+00 3.238674979810701515e+00 4.313470229890493890e+00
1.028766029651753604e+07 6.799670261160049023e+00 3.241912826008121584e+00 4.313003908407788245e+00
1.029178862036905810e+07 6.799670122846412923e+00 3.241934270371511939e+00 4.313000855736882855e+00
1.092222695072926208e+07 6.799648801291198197e+00 3.245237656617454114e+00 4.312526570035650764e+00
1.092638268677638099e+07 6.799648660193613026e+00 3.245259510728607300e+00 4.312523421292562276e+00
1.155606879663231410e+07 6.799627071262769107e+00 3.248599332493906200e+00 4.312067789325638500e+00
1.156020631461240351e+07 6.799626928861533415e+00 3.248621351713958383e+00 4.312064851380554842e+00
1.219153540738618001e+07 6.799604983912897360e+00 3.252010030659744810e+00 4.311602773572880132e+00
1.219569478446356766e+07 6.799604838809312213e+00 3.252032426073471427e+00 4.311599695896671136e+00
1.282982415198808722e+07 6.799582487483432303e+00 3.255476570409610027e+00 4.311139610670216449e+00
1.283400037908106484e+07 6.799582339764087102e+00 3.255499320172448918e+00 4.311136601326372997e+00
1.346630698606227525e+07 6.799559736550662592e+00 3.258975362822614574e+00 4.310670758445636963e+00
1.347046164871045947e+07 6.799559587528073656e+00 3.258998269791528735e+00 4.310667675861649784e+00
1.410125095178924501e+07 6.799536714793497083e+00 3.262504769718230335e+00 4.310199120030911324e+00
1.472670473536870629e+07 6.799513710048034731e+00 3.266020183058233606e+00 4.309735042539394101e+00
1.473080985668736883e+07 6.799513558576275152e+00 3.266043313701162631e+00 4.309731997889009847e+00
1.535298028126675636e+07 6.799490342880009308e+00 3.269579495708292427e+00 4.309268598397539840e+00
1.597638457831231505e+07 6.799466744530722195e+00 3.273155257583848954e+00 4.308786104788232763e+00
1.659732766981549375e+07 6.799442894745931554e+00 3.276749729173094039e+00 4.308300373791539073e+00
1.660140812882267311e+07 6.799442737570066342e+00 3.276773393122229372e+00 4.308297180801762494e+00
1.721606474901700392e+07 6.799418778706406208e+00 3.280364531343720635e+00 4.307802180163067263e+00
1.782234221386766061e+07 6.799394796990926082e+00 3.283937961481458778e+00 4.307301953197950617e+00
1.841956436152249947e+07 6.799370824898784527e+00 3.287489448328678954e+00 4.306827975580841184e+00
1.901871913804005459e+07 6.799346424076915696e+00 3.291087677821198820e+00 4.306321473043341896e+00
1.961912775092400610e+07 6.799321608787209925e+00 3.294726717349085732e+00 4.305786661943517224e+00
2.020917428845158219e+07 6.799296853386660011e+00 3.298336398490668397e+00 4.305258765169797996e+00
2.079048636070975661e+07 6.799272097947643090e+00 3.301927440341209330e+00 4.304737809419886929e+00
2.137032648470476642e+07 6.799247036308910808e+00 3.305545085984705089e+00 4.304178829277869767e+00
2.194354094793871045e+07 6.799221885329535198e+00 3.309152103338061757e+00 4.303614107269760680e+00
2.250308137112704664e+07 6.799196962249427045e+00 3.312708069747128281e+00 4.303062120345203745e+00
2.305793175450952351e+07 6.799171878106863076e+00 3.316271573574345322e+00 4.302484266712236050e+00
2.360817517904473096e+07 6.799146627090982165e+00 3.319844376161863231e+00 4.301902791525169079e+00
2.415191151227357611e+07 6.799121297179388179e+00 3.323407571466488353e+00 4.301302567468823668e+00
2.521702579555798694e+07 6.799070545410946131e+00 3.330491145650758433e+00 4.300062136389830592e+00
2.573729115543175489e+07 6.799045186962823450e+00 3.334004762772885933e+00 4.299433451323344535e+00
2.624960090017275885e+07 6.799019837898084617e+00 3.337498928373574536e+00 4.298823234225332968e+00
2.725948725415381789e+07 6.798968735197263413e+00 3.344493476798145792e+00 4.297489464728193376e+00
2.775046904962528870e+07 6.798943318685494397e+00 3.347949036872489348e+00 4.296804321211267208e+00
2.869902587727859616e+07 6.798893096625932664e+00 3.354727903142899148e+00 4.295412915280553356e+00
2.961429392669444531e+07 6.798843171283789566e+00 3.361403653123378188e+00 4.293976654247476432e+00
3.006153253050469607e+07 6.798818225766120271e+00 3.364718889125260404e+00 4.293236272480998039e+00
3.092896731414721534e+07 6.798768756978602390e+00 3.371246945528092898e+00 4.291732546280541349e+00
3.176608810705733299e+07 6.798719589893189585e+00 3.377680947547186285e+00 4.290179032765807143e+00
3.257296281693219393e+07 6.798670787771978752e+00 3.384010955378947916e+00 4.288578063213170033e+00
3.335144579076536000e+07 6.798622308112214796e+00 3.390211382625333947e+00 4.286940236393480319e+00
3.447151075813239813e+07 6.798550000500464208e+00 3.399264664414836101e+00 4.284421704245782614e+00
3.519187380046784878e+07 6.798501805238347906e+00 3.405179020657961964e+00 4.282686402295720285e+00
3.589141949156510085e+07 6.798453654858014339e+00 3.411001208588148703e+00 4.280905251113061638e+00
3.623573056147126853e+07 6.798429442968024539e+00 3.413897207099603204e+00 4.279992777474732613e+00
3.657463283264460415e+07 6.798405270475839757e+00 3.416768634041649211e+00 4.279067527044176700e+00
3.690806759099393338e+07 6.798381148343890956e+00 3.419616307157347990e+00 4.278134597732547562e+00
3.723611088953700662e+07 6.798357078455944169e+00 3.422433320413440949e+00 4.277186557022949032e+00
3.755940686671863496e+07 6.798333020159060602e+00 3.425231905369999996e+00 4.276223336721180601e+00
3.787745462672085315e+07 6.798309016291280038e+00 3.428006658723902422e+00 4.275252519564367581e+00
3.819009398586007953e+07 6.798285086615291739e+00 3.430754656941420233e+00 4.274268065057415633e+00
3.849755284902756661e+07 6.798261221083300221e+00 3.433479108282655012e+00 4.273271919414918685e+00
3.879969400175832957e+07 6.798237437727447485e+00 3.436176569493240684e+00 4.272265625233703901e+00
3.909652974424476922e+07 6.798213743756087446e+00 3.438847824617079940e+00 4.271245154008799005e+00
3.938778595831121504e+07 6.798190169128026206e+00 3.441490050814382862e+00 4.270217641826349109e+00
3.995141943099499494e+07 6.798143596959134172e+00 3.446662534873284667e+00 4.268139567193980355e+00
4.022657147329501808e+07 6.798120386877888777e+00 3.449215266846348715e+00 4.267076015998220839e+00
4.049627455314230174e+07 6.798097322242120377e+00 3.451740067516622990e+00 4.266005970745101905e+00
4.076085375614252687e+07 6.798074384790163904e+00 3.454235469658472724e+00 4.264926261191746448e+00
4.102083454767891020e+07 6.798051537528165156e+00 3.456710671948479252e+00 4.263836093481526923e+00
4.152492681033416092e+07 6.798006333054749994e+00 3.461569543333868015e+00 4.261635002829641472e+00
4.177100161556698382e+07 6.797983814349173315e+00 3.463969629070116962e+00 4.260514673299971022e+00
4.201224716954560578e+07 6.797961438661165978e+00 3.466341823607347550e+00 4.259384430756643525e+00
4.224868765801260620e+07 6.797939212849573920e+00 3.468685799535412784e+00 4.258245446295526371e+00
4.270523643761782348e+07 6.797895435836255551e+00 3.473265816397745898e+00 4.255952331658001242e+00
4.292802588286063075e+07 6.797873644476138288e+00 3.475529334413033133e+00 4.254788327295772277e+00
4.314673709315560758e+07 6.797851968259831956e+00 3.477771066953430079e+00 4.253613920851832653e+00
4.336128091893301159e+07 6.797830423564375835e+00 3.479987082680548571e+00 4.252432418856512797e+00
4.377697646714345366e+07 6.797787856827647524e+00 3.484320191970820879e+00 4.250059628407131029e+00
4.398062913545513153e+07 6.797766592559482568e+00 3.486464056866830141e+00 4.248859635093416465e+00
4.418081010001069307e+07 6.797745418714566057e+00 3.488583261863314355e+00 4.247652302638348587e+00
4.456949537391966581e+07 6.797703509593981508e+00 3.492734480272804642e+00 4.245234176393904768e+00
4.476024348939925432e+07 6.797682544480492695e+00 3.494790988090484163e+00 4.244011160198776444e+00
4.494803004215352237e+07 6.797661640326671417e+00 3.496829123471216327e+00 4.242784938254697380e+00
4.531289540214422345e+07 6.797620249025962735e+00 3.500824859273418355e+00 4.240337088869072346e+00
4.549192039106591791e+07 6.797599553139646922e+00 3.502804346689624371e+00 4.239103207728383893e+00
4.566833991043990105e+07 6.797578901503495530e+00 3.504769440491880772e+00 4.237867173274278088e+00
4.601203705538001657e+07 6.797537912775389657e+00 3.508641612007237676e+00 4.235407717988871390e+00
4.618140172893146425e+07 6.797517335793131110e+00 3.510570084399592616e+00 4.234165336592836226e+00
4.634863732480268925e+07 6.797496764220645638e+00 3.512485618742954951e+00 4.232928275379171268e+00
4.667673262808079273e+07 6.797455655658369622e+00 3.516303139291609092e+00 4.230468631791737266e+00
4.683946520161888003e+07 6.797434886822509625e+00 3.518227699064188307e+00 4.229236859776833946e+00
4.700065987459979951e+07 6.797414059289119237e+00 3.520157227558620150e+00 4.228013621769555641e+00
4.731712315976986289e+07 6.797372411768769496e+00 3.524012733176433265e+00 4.225608197862486648e+00
4.747495009330999851e+07 6.797351256650120632e+00 3.525981139860023372e+00 4.224423391417716722e+00
4.763246391856732965e+07 6.797329883022928954e+00 3.527977937466899583e+00 4.223253305663807744e+00
4.794578977942867577e+07 6.797286577287882992e+00 3.532083775409610382e+00 4.221017196560156393e+00
4.810373265655504167e+07 6.797264342218608313e+00 3.534238006188590298e+00 4.219959416226612525e+00
4.842365387808705866e+07 6.797218461609077167e+00 3.538844478777288138e+00 4.218067460968836890e+00
4.859018095797297359e+07 6.797194133893865953e+00 3.541422392114249362e+00 4.217295426392040802e+00
4.892050346308564395e+07 6.797144990320181712e+00 3.547085128495792716e+00 4.216479394243587642e+00
4.906969053194807470e+07 6.797122410809906867e+00 3.550034173909597968e+00 4.216642042478083496e+00
4.920075779140510410e+07 6.797102386206352875e+00 3.552945068384983252e+00 4.217234480567651822e+00
4.940624701181676239e+07 6.797070683664911073e+00 3.558549559644413218e+00 4.219600154967201533e+00
4.948489806031073630e+07 6.797058474054969324e+00 3.561278493429088421e+00 4.221292903350285286e+00
4.948559794386374950e+07 6.797058365266026136e+00 3.561305092731518407e+00 4.221311002348645758e+00
4.955058207439167798e+07 6.797048260106277162e+00 3.564002745989696574e+00 4.223271330858887396e+00
4.960412299721939862e+07 6.797039931569262450e+00 3.566691049438373895e+00 4.225441691769053598e+00
4.964806461024843156e+07 6.797033100824076968e+00 3.569393323013958508e+00 4.227782724691699912e+00
4.964845611478252709e+07 6.797033039998954251e+00 3.569419896011514659e+00 4.227806328227953436e+00
4.968436647888618708e+07 6.797027465724640116e+00 3.572126108101943309e+00 4.230253747941833176e+00
4.971377932728491724e+07 6.797022908747580416e+00 3.574847835060175338e+00 4.232765679380062096e+00
4.973793407330820709e+07 6.797019174497268779e+00 3.577598704534175944e+00 4.235292198950882714e+00
4.973815131782397628e+07 6.797019140946781945e+00 3.577625779856751453e+00 4.235316893870074040e+00
4.975798742807180434e+07 6.797016080967694052e+00 3.580469363236631342e+00 4.237859134268426864e+00
4.977431951429622620e+07 6.797013566309495047e+00 3.583341491096961207e+00 4.240365007037935285e+00
4.977446734450659901e+07 6.797013543565501692e+00 3.583369481576418991e+00 4.240389245084069003e+00
4.978790528027237952e+07 6.797011477924641554e+00 3.586288199925351527e+00 4.242829292088362791e+00
4.979900249873325229e+07 6.797009774105131186e+00 3.589279751497500115e+00 4.245204272631848852e+00
4.980818483092799783e+07 6.797008365171547162e+00 3.592257383238325996e+00 4.247465067949306672e+00
4.980826877348011732e+07 6.797008352293534728e+00 3.592286394674631733e+00 4.247486761797700794e+00
4.981587299648411572e+07 6.797007185672657492e+00 3.595249150667291893e+00 4.249622316080266415e+00
4.982220062448657304e+07 6.797006214536667201e+00 3.598180810741967939e+00 4.251627947156097598e+00
4.982748107388618588e+07 6.797005403408476809e+00 3.601049566388563328e+00 4.253492591093412045e+00
4.983189694025518745e+07 6.797004724200897741e+00 3.603834642189017945e+00 4.255213607952777366e+00
4.983559611921902001e+07 6.797004154268923237e+00 3.606420000248644619e+00 4.256759917821396400e+00
4.983870736707597971e+07 6.797003674050445809e+00 3.608854522845175161e+00 4.258152825129383423e+00
4.984133786760304123e+07 6.797003267226405576e+00 3.611106226841434452e+00 4.259396025638974237e+00
4.984357130651183426e+07 6.797002921099831951e+00 3.613142064048949997e+00 4.260491867380584274e+00
4.984709169091657549e+07 6.797002373974939005e+00 3.616559207390854347e+00 4.262276989016179130e+00
4.984849754783344269e+07 6.797002154882838987e+00 3.617897867347522389e+00 4.262976585580901201e+00
4.985076202639628947e+07 6.797001801264226373e+00 3.620014506447748914e+00 4.264076365101119315e+00
4.985249765703707933e+07 6.797001529673795339e+00 3.621481691187449670e+00 4.264853208221073722e+00
4.985442548267567158e+07 6.797001227577232463e+00 3.622610734389806630e+00 4.265539487477928660e+00
4.985581407991686463e+07 6.797001009908159475e+00 3.622889178717624503e+00 4.265851694323110621e+00
4.985712974250370264e+07 6.797000803860434814e+00 3.622499070600558646e+00 4.265929407546862784e+00
4.985823763484349102e+07 6.797000630721956149e+00 3.621541567120307725e+00 4.265787196053350883e+00
4.985929782111304998e+07 6.797000465543771242e+00 3.620355031359549169e+00 4.265547549827310547e+00
4.986037602489742637e+07 6.797000298176705257e+00 3.618110905457218252e+00 4.264954941255457044e+00
4.986132913415833563e+07 6.797000150977353883e+00 3.615486825819440142e+00 4.264215387100927401e+00
4.986237567624752969e+07 6.796999990335839570e+00 3.611679672424633836e+00 4.263077897070762567e+00
4.986347217838034034e+07 6.796999823307817046e+00 3.607116985228508987e+00 4.261629156994457546e+00
4.986419438277837634e+07 6.796999714049849928e+00 3.603980247396679548e+00 4.260570849420647122e+00
4.986506247487618774e+07 6.796999583503153808e+00 3.600181897522348962e+00 4.259206517768586053e+00
4.986610592157775164e+07 6.796999427655977755e+00 3.595730686817718347e+00 4.257456749056304446e+00
4.986736014104066044e+07 6.796999241693058913e+00 3.590759375269267473e+00 4.255227499797426205e+00
4.986871352030786872e+07 6.796999042393361279e+00 3.586087621958180094e+00 4.252721950247611460e+00
4.986872686304476857e+07 6.796999040429610339e+00 3.586042151136736411e+00 4.252697168991381282e+00
4.987006299726934731e+07 6.796998844572068599e+00 3.582288935176916933e+00 4.250161396036687300e+00
4.987007607869110256e+07 6.796998842655107786e+00 3.582252778122077874e+00 4.250136529677096320e+00
4.987133814295183867e+07 6.796998657894838480e+00 3.579591320786386088e+00 4.247717534375423654e+00
4.987251405140731484e+07 6.796998485413034530e+00 3.577895637517024774e+00 4.245458492398507033e+00
4.987360997958053648e+07 6.796998323930652397e+00 3.577015054439992348e+00 4.243367067301527129e+00
4.987463843846385181e+07 6.796998171387556908e+00 3.576792775058150742e+00 4.241428013124398433e+00
4.987464850862004608e+07 6.796998169893726960e+00 3.576790720305930371e+00 4.241409031707363830e+00
4.987654440884444118e+07 6.796997885055642286e+00 3.577776354963956074e+00 4.237907785537926131e+00
4.987916655020037293e+07 6.796997480747787534e+00 3.581546030752857046e+00 4.233259870871501462e+00
4.988167818980021775e+07 6.796997079334825109e+00 3.586853509651513505e+00 4.229024914987549622e+00
4.988502423594570160e+07 6.796996519878391041e+00 3.594824448127899252e+00 4.223641107862246002e+00
4.988760206427259743e+07 6.796996068656311785e+00 3.600792435660089996e+00 4.219644822006255680e+00
4.989027437476187944e+07 6.796995582411253345e+00 3.606479279613819422e+00 4.215625112950760922e+00
4.989306760336217284e+07 6.796995054597106289e+00 3.611727211032806473e+00 4.211520659737352013e+00
4.989700785360188037e+07 6.796994277627106840e+00 3.617819231128114321e+00 4.205828912158287025e+00
4.990012261510819197e+07 6.796993637923558929e+00 3.621830694246251259e+00 4.201418128184670309e+00
4.990336022279419005e+07 6.796992950147717316e+00 3.625342445939335967e+00 4.196883223518327100e+00
4.990671543189258873e+07 6.796992213730736587e+00 3.628401007549541202e+00 4.192222659313505240e+00
4.991017318849304318e+07 6.796991430319545557e+00 3.631134130242644087e+00 4.187461194170952083e+00
4.991372624083053321e+07 6.796990599874788153e+00 3.633486915511509263e+00 4.182576958463947392e+00
4.991734977038896829e+07 6.796989726846857316e+00 3.635541446678997257e+00 4.177606515330912096e+00
4.991980637912523001e+07 6.796989120051970090e+00 3.636754275796032054e+00 4.174229693259019491e+00
4.992353238017523289e+07 6.796988176861865405e+00 3.638310987863677681e+00 4.169083225556150296e+00
4.992730094254469872e+07 6.796987194955209866e+00 3.639552396860410877e+00 4.163833078752765537e+00
4.993109680647926778e+07 6.796986177538014040e+00 3.640565682624518740e+00 4.158490174302361453e+00
4.993363480219148099e+07 6.796985481210420232e+00 3.641105658336152295e+00 4.154877737030069795e+00
4.993743805160374939e+07 6.796984413434612904e+00 3.641724750486175388e+00 4.149399218129855349e+00
4.994123137476363033e+07 6.796983319057552819e+00 3.642129864030213326e+00 4.143841187683170446e+00
4.994375453255042434e+07 6.796982574611992511e+00 3.642272912540311935e+00 4.140081672548363123e+00
4.994750814440637082e+07 6.796981442339045110e+00 3.642316307097182460e+00 4.134388275828250414e+00
4.994999228555943072e+07 6.796980676385465436e+00 3.642225503687135824e+00 4.130543809888388651e+00
4.995366857391174883e+07 6.796979518067345793e+00 3.641949353729688976e+00 4.124738401383989839e+00
4.995609272448292375e+07 6.796978737721839359e+00 3.641652849418442806e+00 4.120820194992583119e+00
4.995967793678747863e+07 6.796977558921396323e+00 3.641032199053842788e+00 4.114878992437958516e+00
4.996203115084846318e+07 6.796976768806999303e+00 3.640518071826094548e+00 4.110877940415977427e+00
4.996549007982826978e+07 6.796975583146773303e+00 3.639607878493735793e+00 4.104843963540922402e+00
4.996775823081595451e+07 6.796974789572534092e+00 3.638892715202293626e+00 4.100783744184511193e+00
4.997110129323258251e+07 6.796973596040226440e+00 3.637672368889280694e+00 4.094636160433635652e+00
4.997329286230456084e+07 6.796972797767684149e+00 3.636762996069114351e+00 4.090493329017689916e+00
4.997545010329110920e+07 6.796971999401240083e+00 3.635792148063135443e+00 4.086321376821012485e+00
4.997861652225483209e+07 6.796970804168878999e+00 3.634227013022280239e+00 4.080025275710148058e+00
4.998068428115046024e+07 6.796970008188550239e+00 3.633081311955940862e+00 4.075790958838666711e+00
4.998371556899759918e+07 6.796968818501622600e+00 3.631250396774152289e+00 4.069399551108091373e+00
4.998569741832056642e+07 6.796968025567194260e+00 3.629943892004600325e+00 4.065093520728979115e+00
4.998764963006569445e+07 6.796967232449982355e+00 3.628575615148853295e+00 4.060749348444888440e+00
4.998957318745656312e+07 6.796966438946180133e+00 3.627130479556310849e+00 4.056361099886612642e+00
4.999239464531706274e+07 6.796965252800291957e+00 3.624813542101269714e+00 4.049721154653990851e+00
4.999423506857233495e+07 6.796964464413301599e+00 3.623170211957457809e+00 4.045248213580769026e+00
4.999604105659808964e+07 6.796963679167243200e+00 3.621455041687374532e+00 4.040743418682463783e+00
4.999781097444984317e+07 6.796962898130955111e+00 3.619678325405364383e+00 4.036212778839791682e+00
5.000039739211367816e+07 6.796961735658141990e+00 3.616912482984570687e+00 4.029375926657126072e+00
5.000207945452403277e+07 6.796960965714752056e+00 3.614997734321354628e+00 4.024785972100382914e+00
5.000372814332772791e+07 6.796960200025131016e+00 3.613018971202085261e+00 4.020169697345589377e+00
5.000534443321342766e+07 6.796959438485185245e+00 3.611017788656991634e+00 4.015534960713543100e+00
5.000692927812770009e+07 6.796958680909454209e+00 3.608950438292166218e+00 4.010871862056663240e+00
5.000848243372280896e+07 6.796957927805063804e+00 3.606786453842762086e+00 4.006181592627716448e+00
5.001075464397485554e+07 6.796956806535423112e+00 3.603390579579508035e+00 3.999094723397773610e+00
5.001223452796367556e+07 6.796956063430274142e+00 3.601043879371943035e+00 3.994325679815804442e+00
5.001368381662093848e+07 6.796955325551465421e+00 3.598635657441821678e+00 3.989532241037080595e+00
5.001510197554188967e+07 6.796954593538013789e+00 3.596177871468822396e+00 3.984720996060275411e+00
5.001648942746131122e+07 6.796953867530847404e+00 3.593696590059099361e+00 3.979897739922302335e+00
5.001784747957536578e+07 6.796953147144346730e+00 3.591181332225938494e+00 3.975056539579068016e+00
5.001917577390740812e+07 6.796952432914607378e+00 3.588605013693189960e+00 3.970201252793864821e+00
5.002047599096345901e+07 6.796951724332890521e+00 3.585974374750590776e+00 3.965330822612422423e+00
5.002175074325949699e+07 6.796951020304564217e+00 3.583286065886294836e+00 3.960433635694396770e+00
5.002299835193166137e+07 6.796950322094016173e+00 3.580528454559180673e+00 3.955517585419913829e+00
5.002421694897282124e+07 6.796949631147356286e+00 3.577712261573608998e+00 3.950592412670099751e+00
5.002540735781301558e+07 6.796948947404251484e+00 3.574853003141917007e+00 3.945658222865272791e+00
5.002656846756206453e+07 6.796948271886632753e+00 3.571949855407824170e+00 3.940718613820436644e+00
5.002769970154412091e+07 6.796947605346773003e+00 3.569018007732475350e+00 3.935783706104882818e+00
5.002880311961106956e+07 6.796946946971763381e+00 3.566046760772395352e+00 3.930844826741503262e+00
5.003040469957607239e+07 6.796945976420423641e+00 3.561536062605526354e+00 3.923443848109053000e+00
5.003143880300484598e+07 6.796945340029157734e+00 3.558495923832565300e+00 3.918511959791747934e+00
5.003244532698392123e+07 6.796944713018692852e+00 3.555434259505981132e+00 3.913587868933857905e+00
5.003342414180414379e+07 6.796944095862965440e+00 3.552358582793381458e+00 3.908677685963138693e+00
5.003437521587440372e+07 6.796943488983858472e+00 3.549272750314638181e+00 3.903786138387593141e+00
5.003529774360703677e+07 6.796942893313440592e+00 3.546183215002584710e+00 3.898921214513237921e+00
5.003619202512988448e+07 6.796942309087006251e+00 3.543095504260685757e+00 3.894088923933311186e+00
5.003705794688799977e+07 6.796941736817489144e+00 3.540015016518522906e+00 3.889294804625450297e+00
5.003789599607758224e+07 6.796941176616489777e+00 3.536946258153978562e+00 3.884543321165818686e+00
5.003870940506966412e+07 6.796940626734545354e+00 3.533879684637635243e+00 3.879820998683001232e+00
5.003949590441048890e+07 6.796940089105151905e+00 3.530829700565437435e+00 3.875148285910396506e+00
5.004062585957600176e+07 6.796939306114422763e+00 3.526295752792169225e+00 3.868240239478196063e+00
5.004134947077709436e+07 6.796938797916013186e+00 3.523288378779920293e+00 3.863688790986960164e+00
5.004204991040026397e+07 6.796938300786027121e+00 3.520297445279510384e+00 3.859185376352999519e+00
5.004272611964581907e+07 6.796937815848131947e+00 3.517338651435207630e+00 3.854741783567874336e+00
5.004370799554897845e+07 6.796937102678292320e+00 3.512903097334322489e+00 3.848112427209342101e+00
5.004433825626339018e+07 6.796936639072875153e+00 3.509967412809645193e+00 3.843743516887203171e+00
5.004494930330139399e+07 6.796936185104705430e+00 3.507041033881463044e+00 3.839416709663152183e+00
5.004583490659844875e+07 6.796935519089590372e+00 3.502676019394938223e+00 3.832981911718441381e+00
5.004640296118156612e+07 6.796935086681183513e+00 3.499794159228035273e+00 3.828746955978924671e+00
5.004695827201776206e+07 6.796934659919520172e+00 3.496910312205579352e+00 3.824521383047875034e+00
5.004776799845889211e+07 6.796934030229662582e+00 3.492589815460887870e+00 3.818202606576962310e+00
5.004829380513119698e+07 6.796933616473709527e+00 3.489698704223105352e+00 3.813995037132859700e+00
5.004904892377454042e+07 6.796933015334779782e+00 3.485425118175130788e+00 3.807803031305957653e+00
5.004953566473086178e+07 6.796932623385911754e+00 3.482585618361633273e+00 3.803713743266206926e+00
5.005001224515682459e+07 6.796932236142884776e+00 3.479742751960152702e+00 3.799631094979787349e+00
5.005070352980887890e+07 6.796931668151452222e+00 3.475493191254064307e+00 3.793568070450527685e+00
5.005115689434444904e+07 6.796931291505577732e+00 3.472625970939324791e+00 3.789495696794764612e+00
5.005181824343858659e+07 6.796930735993687911e+00 3.468319246963752711e+00 3.783415870187346819e+00
5.005224803970509022e+07 6.796930371011148608e+00 3.465436969983453963e+00 3.779372803730387975e+00
5.005287861362480372e+07 6.796929829719529970e+00 3.461082199147099026e+00 3.773306225606112285e+00
5.005329134896885604e+07 6.796929471592548566e+00 3.458146738064748149e+00 3.769243804231361850e+00
5.005390043624797463e+07 6.796928937416939043e+00 3.453677505035886774e+00 3.763115914404735918e+00
5.005429797580669820e+07 6.796928585045373339e+00 3.450666003419540218e+00 3.759027352565979641e+00
5.005487775606361032e+07 6.796928065739727742e+00 3.446132402562597896e+00 3.752937244046956167e+00
5.005525445942450315e+07 6.796927724842099394e+00 3.443089549653155057e+00 3.748902738127502410e+00
5.005580426855832338e+07 6.796927222295749971e+00 3.438503201304699886e+00 3.742896603391879129e+00
5.005616437118716538e+07 6.796926889903957658e+00 3.435398191513846289e+00 3.738896103571802243e+00
5.005669263067211211e+07 6.796926397634852179e+00 3.430692508436114174e+00 3.732934810098269551e+00
5.005703599298553914e+07 6.796926074695260667e+00 3.427523599624437978e+00 3.729014101344322540e+00
5.005753591314870119e+07 6.796925600399045919e+00 3.422751828836971821e+00 3.723259127201534291e+00
5.005802575169757754e+07 6.796925131117635743e+00 3.417890811237328741e+00 3.717642053981049521e+00
5.005834909150538594e+07 6.796924819064310341e+00 3.414562390892232013e+00 3.713995966515472702e+00
5.005882796672940254e+07 6.796924354052027439e+00 3.409453577743942532e+00 3.708815874218809761e+00
5.005930102344208211e+07 6.796923892175051662e+00 3.404180605097365753e+00 3.704015182833079844e+00
5.005993496106131375e+07 6.796923271109831077e+00 3.396730303201171974e+00 3.698035769032430586e+00
5.006041740436889231e+07 6.796922798169725333e+00 3.390752234446660296e+00 3.693794311791848362e+00
5.006107238011574745e+07 6.796922157717485646e+00 3.382249330861307079e+00 3.688541149419332310e+00
5.006157500555954129e+07 6.796921668995683952e+00 3.375613582281381309e+00 3.685023039066591455e+00
5.006268770567886531e+07 6.796920600312579275e+00 3.362556009309037197e+00 3.679893042806244630e+00
5.006349835414190590e+07 6.796919838303660200e+00 3.352080821766182162e+00 3.676603953041110984e+00
5.006451465869632363e+07 6.796918906113115888e+00 3.338749978220689751e+00 3.672740549377466301e+00
5.006572439192628860e+07 6.796917830222420243e+00 3.323476393492770242e+00 3.668375654923823781e+00
5.006670801802200079e+07 6.796916979887404509e+00 3.312252890323040155e+00 3.664923576351911905e+00
5.006804460540709645e+07 6.796915850588756136e+00 3.300596240159825445e+00 3.660332189129121172e+00
5.006933561020231992e+07 6.796914771609279704e+00 3.294990328904790378e+00 3.655841489704793279e+00
5.007073426581969857e+07 6.796913586212522951e+00 3.297658517258233779e+00 3.650775094873422777e+00
5.007186247540302575e+07 6.796912588175103132e+00 3.307954482170709642e+00 3.646439426556051799e+00
5.007276288469566405e+07 6.796911742619632157e+00 3.321945866056177366e+00 3.642752407522176661e+00
5.007347408319999278e+07 6.796911029954353367e+00 3.336892540422249809e+00 3.639735509087229648e+00
5.007415821620777249e+07 6.796910295424412496e+00 3.354293480587970500e+00 3.636723123518179168e+00
5.007482388040495664e+07 6.796909523429078170e+00 3.373818640424345094e+00 3.633709638114650087e+00
5.007534547184393555e+07 6.796908871407461028e+00 3.390659477524087251e+00 3.631328754206562870e+00
5.007586352830731869e+07 6.796908176585629846e+00 3.408379948829938222e+00 3.628989621984259895e+00
5.007638366462674737e+07 6.796907426235821781e+00 3.426677302518047252e+00 3.626647193500006860e+00
5.007691545667044818e+07 6.796906599395991400e+00 3.445745159741991248e+00 3.624368625330357307e+00
5.007746358361051232e+07 6.796905679229004349e+00 3.464936789505270731e+00 3.622094022261610480e+00
5.007804176643984020e+07 6.796904630567158101e+00 3.484258957730610451e+00 3.619825820027397167e+00
5.007850359697013348e+07 6.796903734684194731e+00 3.498858122266484294e+00 3.618169307059402318e+00
5.007916690957861394e+07 6.796902357778442649e+00 3.518003953015610641e+00 3.616036105707284065e+00
5.007991057824060321e+07 6.796900693415869554e+00 3.536535183235601565e+00 3.613956036382062642e+00
5.008099479295662791e+07 6.796898060605670366e+00 3.558340932229218101e+00 3.611516061045410897e+00
5.008205462823113054e+07 6.796895285459100045e+00 3.574451594730584603e+00 3.609705418569876922e+00
5.008373005542439222e+07 6.796890582430926919e+00 3.592385198604671093e+00 3.607675220682140971e+00
5.008644536928122491e+07 6.796882378477758557e+00 3.610678165773864912e+00 3.605585862865968494e+00
5.009060884428686649e+07 6.796868845568419637e+00 3.629170793394530303e+00 3.603412098503660399e+00
5.009472051128794253e+07 6.796854568144513387e+00 3.644437727730224008e+00 3.601668603578366934e+00
5.009981710409749299e+07 6.796835672342324663e+00 3.662194798015475872e+00 3.599664283057261827e+00
5.010505537407806516e+07 6.796814840903849131e+00 3.679826638242405412e+00 3.597710876267764313e+00
5.011035927184000611e+07 6.796792236271011589e+00 3.697194266715174482e+00 3.595846156839735297e+00
5.011565364587286860e+07 6.796768095312930136e+00 3.713884479350381795e+00 3.594111912443354040e+00
5.012085955931948870e+07 6.796742772552874179e+00 3.730221700275362817e+00 3.592483909235126838e+00
5.012679577710220963e+07 6.796711854247905471e+00 3.748687288690483399e+00 3.590624918478086958e+00
5.013300567326098680e+07 6.796677069314851494e+00 3.767252483897607362e+00 3.588801486585111444e+00
5.013991008518210799e+07 6.796635551082327531e+00 3.783819808199865520e+00 3.587177851911557358e+00
5.015128166218641400e+07 6.796562903300528369e+00 3.796647479040196060e+00 3.585939143086791514e+00
5.018123051084347069e+07 6.796363080950625246e+00 3.804861409377934489e+00 3.585244551740572660e+00
5.018457694050250947e+07 6.796340494680780608e+00 3.804854913887532053e+00 3.585254194267780470e+00
5.019103689598469436e+07 6.796296906200247179e+00 3.804592483342013498e+00 3.585298494270478642e+00
5.020043963350789249e+07 6.796233577544250615e+00 3.803836461061756324e+00 3.585400405206757846e+00
5.020670562915217131e+07 6.796191491509915750e+00 3.803214405900503081e+00 3.585479232857255560e+00
5.021616447417639941e+07 6.796128164329532595e+00 3.802220184664487412e+00 3.585603930750834056e+00
5.022586372051171213e+07 6.796063489205218744e+00 3.801206802329331502e+00 3.585729122233265453e+00
5.023589322150424123e+07 6.795996883250610132e+00 3.800200400770317621e+00 3.585854238832729912e+00
5.024629530399319530e+07 6.795928080712998920e+00 3.799202536592158452e+00 3.585978938058341114e+00
5.025345249602027237e+07 6.795880898629210520e+00 3.798537624507290822e+00 3.586061091172937143e+00
5.026437841768433154e+07 6.795809111284889070e+00 3.797544831763318918e+00 3.586184369921275206e+00
5.027558807824529707e+07 6.795735752501304461e+00 3.796549022351306757e+00 3.586305491334914386e+00
5.028704926532658935e+07 6.795661046482944556e+00 3.795547209263562483e+00 3.586428765373243621e+00
5.029872909099677205e+07 6.795585221650147112e+00 3.794532357742946171e+00 3.586550090404807101e+00
5.031069676008166373e+07 6.795507843334367415e+00 3.793505925501569287e+00 3.586674299265634414e+00
5.032298339801099151e+07 6.795428730937697281e+00 3.792452942009767014e+00 3.586799894643704079e+00
5.033137723119823635e+07 6.795374873667364035e+00 3.791736834419480395e+00 3.586886101371757007e+00
5.034411622972542048e+07 6.795293429300858890e+00 3.790652255231941936e+00 3.587016405850158129e+00
5.035711112555140257e+07 6.795210715225469045e+00 3.789551290964126906e+00 3.587179109167105473e+00
5.036597852739945054e+07 6.795154485591268667e+00 3.788794224978716763e+00 3.587269254199288770e+00
5.037947073872543871e+07 6.795069251497094065e+00 3.787652342292056939e+00 3.587402158559994003e+00
5.039330281873477250e+07 6.794982269939369601e+00 3.786478906838314895e+00 3.587539414214786948e+00
5.040274491168352216e+07 6.794923126743734443e+00 3.785672937326951093e+00 3.587634415434538315e+00
5.041703605063775182e+07 6.794833969610376556e+00 3.784449220801641367e+00 3.587775117513322343e+00
5.043158845830134302e+07 6.794743626181748652e+00 3.783196970013127380e+00 3.587919686597717650e+00
5.044152333139722794e+07 6.794682205864583047e+00 3.782336723766639874e+00 3.588016408618058595e+00
5.045161077933400869e+07 6.794620055069736431e+00 3.781463358306660805e+00 3.588114737258284670e+00
5.078778256588883698e+07 6.792678409184034649e+00 3.747526069443571473e+00 3.592016023535166802e+00
5.105950157849526405e+07 6.791313229963675369e+00 3.711179864843758835e+00 3.596051282967280827e+00
5.129906614699361473e+07 6.790274032502555457e+00 3.673694418833698627e+00 3.600222940631258695e+00
5.152232421692673117e+07 6.789438935757109661e+00 3.637117163268840159e+00 3.604541651092279420e+00
5.175559711527421325e+07 6.788685443567564981e+00 3.600933431563005716e+00 3.608976450732778840e+00
5.203070839343427867e+07 6.787918126686798281e+00 3.565305413901717735e+00 3.613784245832951658e+00
5.241608098346772045e+07 6.786990756115839574e+00 3.532197066397758434e+00 3.619776346407934220e+00
5.295438824688999355e+07 6.785835502917225703e+00 3.525267003212889438e+00 3.628800297244481055e+00
5.314186075040641427e+07 6.785433638564692060e+00 3.551118805990693073e+00 3.635808189612350638e+00
5.320855732705514878e+07 6.785280418566049576e+00 3.582546759388486102e+00 3.643034737108586274e+00
5.324087977580220252e+07 6.785200797973450548e+00 3.608318121008138757e+00 3.650506039426249849e+00
5.326458751126458496e+07 6.785139637005684676e+00 3.629200458993192768e+00 3.659176073203902479e+00
5.327807871364498138e+07 6.785104172742824957e+00 3.641196523432371990e+00 3.668522036984856349e+00
5.328681688888981938e+07 6.785081480154085298e+00 3.648098388744740905e+00 3.678403379078328594e+00
5.329488712750450522e+07 6.785061055308254652e+00 3.653534527869895854e+00 3.689220372942132009e+00
5.330149526270335168e+07 6.785044850318787013e+00 3.657384657060589017e+00 3.699178630325132389e+00
5.330830634097720683e+07 6.785028709825995819e+00 3.660868273904169357e+00 3.709575051679518509e+00
5.331560184224136174e+07 6.785012042872836879e+00 3.664112846907927157e+00 3.720090132421082885e+00
5.332364383586091548e+07 6.784994348082577176e+00 3.667231140759462882e+00 3.730640130459396353e+00
5.333077978464014083e+07 6.784979171567504075e+00 3.669667756577306150e+00 3.739032973606350119e+00
5.334085284557291120e+07 6.784958466415384137e+00 3.672725000065479417e+00 3.749456474501645431e+00
5.335261753776844591e+07 6.784935169783828712e+00 3.675889348013385849e+00 3.759858998933272467e+00
5.336656405099980533e+07 6.784908548952715890e+00 3.679248264625137654e+00 3.770254369132300276e+00
5.338297316110721976e+07 6.784878328164284156e+00 3.682852400842995255e+00 3.780572742444567425e+00
5.340231725920661539e+07 6.784843914481659688e+00 3.686803788823890482e+00 3.790961423497165139e+00
5.342505598839783669e+07 6.784804816716951237e+00 3.691156953348215808e+00 3.801611850537313764e+00
5.344563396451388299e+07 6.784770493776969502e+00 3.694920588867803168e+00 3.810342905913629785e+00
5.347397927388465405e+07 6.784724642083165946e+00 3.699835150591667787e+00 3.821398606647909091e+00
5.350475625818234682e+07 6.784676507637257714e+00 3.704950501423422971e+00 3.832549611397451983e+00
5.353122253497543931e+07 6.784636349785127862e+00 3.709153459048682322e+00 3.841567645705852296e+00
5.356678076758041978e+07 6.784584019630139018e+00 3.714523678704801934e+00 3.852979548245537789e+00
5.359735234084049612e+07 6.784540383051466783e+00 3.718922260816038161e+00 3.862217681878597819e+00
5.363020195511257648e+07 6.784494766179539837e+00 3.723441478473044519e+00 3.871628149958456611e+00
5.367461665744644403e+07 6.784434994814825259e+00 3.729181327925085832e+00 3.883508526626333612e+00
5.371336689347914606e+07 6.784384457728856788e+00 3.733858221764627672e+00 3.893103477692650749e+00
5.375555614694277942e+07 6.784330957525662953e+00 3.738558012686237220e+00 3.902697614767174805e+00
5.380213221358557791e+07 6.784273515681250366e+00 3.743225970200592556e+00 3.912155504807294015e+00
5.386949021621242166e+07 6.784192940232859570e+00 3.748904066223587073e+00 3.923435360085541390e+00
5.395620113004655391e+07 6.784092361176665698e+00 3.754244806498100662e+00 3.933259436113656804e+00
5.426308346297823638e+07 6.783742992273572803e+00 3.760941798502103417e+00 3.934434434977862161e+00
5.447093959713018686e+07 6.783496681238082360e+00 3.762298080674669976e+00 3.924586089892046381e+00
5.468904819254091382e+07 6.783223946492721090e+00 3.763695355371852180e+00 3.913764075692329758e+00
5.489324869612074643e+07 6.782954370041991865e+00 3.764614923268914559e+00 3.902606350485142706e+00
5.503820974464339763e+07 6.782753298630540328e+00 3.764596740404104303e+00 3.892829691629820399e+00
5.516666282811616361e+07 6.782567050836364686e+00 3.764457445554495685e+00 3.883607400266289034e+00
5.528006998235556483e+07 6.782395412793523093e+00 3.763418169334043384e+00 3.873091176502974076e+00
5.537512347908916324e+07 6.782245116748082836e+00 3.761873270487307686e+00 3.862624653126413232e+00
5.545303674884594232e+07 6.782116560650527148e+00 3.760006216941761625e+00 3.852205930951429380e+00
5.551861368220277876e+07 6.781856572964517937e+00 3.757942546238843384e+00 3.841965859069172318e+00
5.557471091128842533e+07 6.781614027515488807e+00 3.755474014686293494e+00 3.831548094185830422e+00
5.562224641884256154e+07 6.781403547379658114e+00 3.752873574746017127e+00 3.821214187170812959e+00
5.566361436822420359e+07 6.781216250419941360e+00 3.750290356577393958e+00 3.811018606341901815e+00
5.570036604819212854e+07 6.781046325992154067e+00 3.747305638587264287e+00 3.800641172435952786e+00
5.572420855948047340e+07 6.780934301899211647e+00 3.744896019412244037e+00 3.792669647258873233e+00
5.575153417900211364e+07 6.780803872486484529e+00 3.741890891299998856e+00 3.782418391991775319e+00
5.578170544141340256e+07 6.780656895782714244e+00 3.738250625257912851e+00 3.770002430694329387e+00
5.580875334727109224e+07 6.780520221523501867e+00 3.743948837263614049e+00 3.765971106324398576e+00
5.585233038936704397e+07 6.780293750334254632e+00 3.739313349741981707e+00 3.766313482151034009e+00
5.587708697869845480e+07 6.780168063052101068e+00 3.734301785277981178e+00 3.754676470560087687e+00
5.589168518694686890e+07 6.780093411827353478e+00 3.730949181095148948e+00 3.745726127232263725e+00
5.590649228880092502e+07 6.780016910134269992e+00 3.727105679583280207e+00 3.735189653859116277e+00
5.591894005128426105e+07 6.779951869868645176e+00 3.723448003515895888e+00 3.725193446422586874e+00
5.592996202816493809e+07 6.779893683837845408e+00 3.719781426468069085e+00 3.715417966692356799e+00
5.593987233089794219e+07 6.779840887071015842e+00 3.716069113024783377e+00 3.705883691300066118e+00
5.595110319352564961e+07 6.779780588402203101e+00 3.711194233874971271e+00 3.694311453529699474e+00
5.596128817048645020e+07 6.779725709702872471e+00 3.705972734006276248e+00 3.683668503388421556e+00
5.597088619858495891e+07 6.779674302630711580e+00 3.700068857891823271e+00 3.674178042384125042e+00
5.598167422107947618e+07 6.779617731427834748e+00 3.691816535121851484e+00 3.664122414374778369e+00
5.599379280571629107e+07 6.779557154735359248e+00 3.680642401565082711e+00 3.655388253265594134e+00
5.601263856367255747e+07 6.779472838767117260e+00 3.658828596053591564e+00 3.646612201884481763e+00
5.603015642342063785e+07 6.779408373389605558e+00 3.631977883042128319e+00 3.638178755219076965e+00
5.604624955681390315e+07 6.779360558771502454e+00 3.608923814565497601e+00 3.630550890039606848e+00
5.607367639182115346e+07 6.779283362191391049e+00 3.606778392120770338e+00 3.620693916468286755e+00
5.613889006722482294e+07 6.779082020655666341e+00 3.624145159815133521e+00 3.613687354408086527e+00
5.617350729600989819e+07 6.778954853238316147e+00 3.645908103591124050e+00 3.608805140000629574e+00
5.618410524420663714e+07 6.778905933237274084e+00 3.665772450244750402e+00 3.605438127890823630e+00
