# #MIST v1.1 [Fe/H] = 0, v_init = 0, reprocessed track 
# #star_age 	 star_mass 	 logL 	 logT
2.453530803546858579e+02 9.999994416059506008e+00 3.674152198956823323e+00 3.611891030319842599e+00
2.552895862717838895e+02 9.999994223196720711e+00 3.671150282222647387e+00 3.612177127437340651e+00
2.662204345023686187e+02 9.999994013845016738e+00 3.667898963093514375e+00 3.612489870634725708e+00
2.776972432668459305e+02 9.999993797190910527e+00 3.664701180466797936e+00 3.612803824739797331e+00
2.898154799013448724e+02 9.999993571663427616e+00 3.661340856511672737e+00 3.613126091235092652e+00
3.152978896743421728e+02 9.999993108188668600e+00 3.654280254339778988e+00 3.613808131698041048e+00
3.281382934861593981e+02 9.999992880038615084e+00 3.650882561567271090e+00 3.614140771876471092e+00
3.414798829410039502e+02 9.999992646540947661e+00 3.647355706979991119e+00 3.614472170488186364e+00
3.689881787476119257e+02 9.999992176267674893e+00 3.640278654305558526e+00 3.615158238150111281e+00
3.832058450574858739e+02 9.999991938884953413e+00 3.636571600449684194e+00 3.615527680739094585e+00
3.972090190191404417e+02 9.999991708914672373e+00 3.632934870392933391e+00 3.615875400055292843e+00
4.251339357872618052e+02 9.999991261075615867e+00 3.626155593632090834e+00 3.616533324469126232e+00
4.398638119678639669e+02 9.999991030124480318e+00 3.622637949818833469e+00 3.616870873637924255e+00
4.701869720897127536e+02 9.999990565711428303e+00 3.615605779868550584e+00 3.617561254529719772e+00
5.012036995938957489e+02 9.999990105321696632e+00 3.608548142913123868e+00 3.618239309492211397e+00
5.171970995953015517e+02 9.999989873445350952e+00 3.604974466647651088e+00 3.618580186683179711e+00
5.496903033778623922e+02 9.999989413354395396e+00 3.597923068302801841e+00 3.619275211309153306e+00
5.827955904109127232e+02 9.999988959110883258e+00 3.590882742299831953e+00 3.619941061064915644e+00
5.998777024175118413e+02 9.999988730149823368e+00 3.587390765707154205e+00 3.620297278038290045e+00
6.341892531963151214e+02 9.999988280893015613e+00 3.580379342467777892e+00 3.620965589376839766e+00
6.690150043891469522e+02 9.999987838828227282e+00 3.573477049765150682e+00 3.621622651808718896e+00
7.050345199915051353e+02 9.999987395416278346e+00 3.566500939890339783e+00 3.622289923807377576e+00
7.416149236984203981e+02 9.999986958808232629e+00 3.559654258555740469e+00 3.622955607240096132e+00
7.791664621159388844e+02 9.999986524081762695e+00 3.552751632538718951e+00 3.623609690785819293e+00
8.180993422071471741e+02 9.999986086962477927e+00 3.545841091948760848e+00 3.624275120134428541e+00
8.559112014032076559e+02 9.999985674853023809e+00 3.539648781661606236e+00 3.624940233819256896e+00
9.064291177343519621e+02 9.999985142438312380e+00 3.531098876645804019e+00 3.625758167977352286e+00
9.470293116773046904e+02 9.999984728397949496e+00 3.524496790327550588e+00 3.626383211921595073e+00
9.904197744958103158e+02 9.999984298795929760e+00 3.517571792446369638e+00 3.627033107840391679e+00
1.056986457903443352e+03 9.999983664916120674e+00 3.506844729917572678e+00 3.628067557274214039e+00
1.101637972958053297e+03 9.999983256228157202e+00 3.499878243283503387e+00 3.628723584651003531e+00
1.172267488352689725e+03 9.999982633915045938e+00 3.489766699925096027e+00 3.629674306280214147e+00
1.222037232574293967e+03 9.999982211574032220e+00 3.482713324762483076e+00 3.630349153149880159e+00
1.272532069190503535e+03 9.999981796270793311e+00 3.475652187676039784e+00 3.630999052939061222e+00
1.349442823468911456e+03 9.999981188011968669e+00 3.465149308308139720e+00 3.631996288136484896e+00
1.402336167142311524e+03 9.999980785482563306e+00 3.458494103749138571e+00 3.632610952696731843e+00
1.487315399286336969e+03 9.999980162485693214e+00 3.447997918281203944e+00 3.633606995599849121e+00
1.573861540545054140e+03 9.999979556979965878e+00 3.437586023978425942e+00 3.634587899317284432e+00
1.633426883379587707e+03 9.999979156029361604e+00 3.430537222456067070e+00 3.635249079524554894e+00
1.725070260793690522e+03 9.999978562707239504e+00 3.420041678675526775e+00 3.636219105311618183e+00
1.820063628174578071e+03 9.999977975524849683e+00 3.409705558611642928e+00 3.637200019636657178e+00
1.885903622051581351e+03 9.999977583826643368e+00 3.402758024765558442e+00 3.637844134064012636e+00
1.987443142514559213e+03 9.999977002469696785e+00 3.392692780390331286e+00 3.638798374141987590e+00
2.095605152494352296e+03 9.999976410461085763e+00 3.382206952286495483e+00 3.639780097874709242e+00
2.208071963860921642e+03 9.999975822580887908e+00 3.372002696013566059e+00 3.640740707698571832e+00
2.286234131642527245e+03 9.999975429180524955e+00 3.365277045604936124e+00 3.641386293451431833e+00
2.408288511378710155e+03 9.999974837620722923e+00 3.354838254621030913e+00 3.642356896881045358e+00
2.536270611454473965e+03 9.999974245046086452e+00 3.344577908886278816e+00 3.643336423638771748e+00
2.667411651764291491e+03 9.999973664937094497e+00 3.334449253076875230e+00 3.644317775542492033e+00
2.804888243511125438e+03 9.999973083611957136e+00 3.324502927455576629e+00 3.645275081043020560e+00
2.949102212239414712e+03 9.999972500162503053e+00 3.314375667688692406e+00 3.646250906604276310e+00
3.099068977276489022e+03 9.999971920011912374e+00 3.304398473089798394e+00 3.647228215438365950e+00
3.203251670077658218e+03 9.999971531582676931e+00 3.297935911569076506e+00 3.647860723985109299e+00
3.368262683779422332e+03 9.999970938369816764e+00 3.287929063772612626e+00 3.648853342235675257e+00
3.540679072752078810e+03 9.999970345246916636e+00 3.278125814453532350e+00 3.649838560186451808e+00
3.719443453189717729e+03 9.999969756690466838e+00 3.268366310504521088e+00 3.650825489831784676e+00
3.906019859650529270e+03 9.999969168277109688e+00 3.259109254484449103e+00 3.651756940380191274e+00
4.107955774143687449e+03 9.999968557148161352e+00 3.249731607694305691e+00 3.652718775756663483e+00
4.320534985235011845e+03 9.999967940409611344e+00 3.240204591552740432e+00 3.653719940895834739e+00
4.540013688694905795e+03 9.999967330017183187e+00 3.230878938202005557e+00 3.654703754687405493e+00
4.770262385552460728e+03 9.999966715528184835e+00 3.221995568554095968e+00 3.655661735678013002e+00
5.014281478267999773e+03 9.999966090100894434e+00 3.212908744503688130e+00 3.656665059389922146e+00
5.268772993029500867e+03 9.999965463569736812e+00 3.204222829006182494e+00 3.657643370656894710e+00
5.447455768855093083e+03 9.999965037755565334e+00 3.198396241145337715e+00 3.658305476425057101e+00
5.723518541900647506e+03 9.999964401052270802e+00 3.189836530844729623e+00 3.659327376361074968e+00
6.016840310246201625e+03 9.999963749795130141e+00 3.181775737185321251e+00 3.660318609093256459e+00
6.328612848251708783e+03 9.999963082717851393e+00 3.173690932948221466e+00 3.661341974490782469e+00
6.658848229188606638e+03 9.999962401258581934e+00 3.166032185955442557e+00 3.662377101020138248e+00
7.013469914415509265e+03 9.999961694462239592e+00 3.158710369237767601e+00 3.663413267969699127e+00
7.391938324019787615e+03 9.999960964880932224e+00 3.151592217667135820e+00 3.664499225875109012e+00
7.650732106164148718e+03 9.999960479500440869e+00 3.147173221740695581e+00 3.665234124886377565e+00
8.061436439972412700e+03 9.999959728445057650e+00 3.141237841561030031e+00 3.666303515290326942e+00
8.507170861040454838e+03 9.999958935734152732e+00 3.135685898547968087e+00 3.667427181563044147e+00
8.986420562080325908e+03 9.999958105026058419e+00 3.131071372585990886e+00 3.668578776484950232e+00
9.328820024623546487e+03 9.999957522522210596e+00 3.128499820280950861e+00 3.669373316082484848e+00
9.874962350897940269e+03 9.999956608289153337e+00 3.125564541157262788e+00 3.670610677603207250e+00
1.026681909703563724e+04 9.999955960582209258e+00 3.124511953552456589e+00 3.671461487314794603e+00
1.090469620235892944e+04 9.999954914710670550e+00 3.124418303022014953e+00 3.672808915663498208e+00
1.136040425904617587e+04 9.999954169547727645e+00 3.125784873205024184e+00 3.673735227317540541e+00
1.183329892776173256e+04 9.999953393766919163e+00 3.128432252187649532e+00 3.674681983480596159e+00
1.254706420020078804e+04 9.999952209033116546e+00 3.134885528880958283e+00 3.676081552949019837e+00
1.301046971885138919e+04 9.999951424673389155e+00 3.140719099437257800e+00 3.676976070098111116e+00
1.366321002963769934e+04 9.999950289137093051e+00 3.151223661151044020e+00 3.678231478142065303e+00
1.444670917792595355e+04 9.999948859983376792e+00 3.167312322631630650e+00 3.679754815229983933e+00
1.497735862100057784e+04 9.999947838248610665e+00 3.180175600947494186e+00 3.680813091403947634e+00
1.562961886448228324e+04 9.999946508628164921e+00 3.197697822193436679e+00 3.682178169327126049e+00
1.623934856511586986e+04 9.999945180347607376e+00 3.215305428828041823e+00 3.683572992560566028e+00
1.697395278131221130e+04 9.999943457848839756e+00 3.236282568506242185e+00 3.685419394181036257e+00
1.770719394544993702e+04 9.999941603867160467e+00 3.255149171911725592e+00 3.687467233679635470e+00
1.831407564310113230e+04 9.999939978260993456e+00 3.267939218883209485e+00 3.689321348017422952e+00
1.908337274647004233e+04 9.999937820529044785e+00 3.281445206225830802e+00 3.691873138429917045e+00
1.999922170745817857e+04 9.999935136743145492e+00 3.293898220789452047e+00 3.695122060733384561e+00
2.088295919272753599e+04 9.999932461218921986e+00 3.304301682627893477e+00 3.698537687466588064e+00
2.169996470496447728e+04 9.999929913122574732e+00 3.314325228442923432e+00 3.702045646139600965e+00
2.245859032329589900e+04 9.999927489261084546e+00 3.324071926981122083e+00 3.706247974926455413e+00
2.319595874000547337e+04 9.999925080809568101e+00 3.333371808112737700e+00 3.711527836532152236e+00
2.397205630925877631e+04 9.999922504845248028e+00 3.342851869850338886e+00 3.717859852375678287e+00
2.471098424890968454e+04 9.999920020817580024e+00 3.351888243989732175e+00 3.724517872219995418e+00
2.534611946142794113e+04 9.999917865103858716e+00 3.359750666325572954e+00 3.730779673255326223e+00
2.597699421607759359e+04 9.999915708650242152e+00 3.367600106382788283e+00 3.737499713742533203e+00
2.661089007180347835e+04 9.999913530177083842e+00 3.375405237358770183e+00 3.744554975028715038e+00
2.725227649561522412e+04 9.999911317205167904e+00 3.383062104452997154e+00 3.751828707398871643e+00
2.790481616800171832e+04 9.999909060392928595e+00 3.390436535555933606e+00 3.759274058125362306e+00
2.856292897745176742e+04 9.999906783481648631e+00 3.397298136909559396e+00 3.766768965734895058e+00
2.923769739321529050e+04 9.999904456411005782e+00 3.402894546508794527e+00 3.774196033248002902e+00
2.981453163883077650e+04 9.999902477811765777e+00 3.407741115305035429e+00 3.780634336285352060e+00
3.049091487378717284e+04 9.999900172827612010e+00 3.412704223149488847e+00 3.788078807339156029e+00
3.117746252667013323e+04 9.999897856295334009e+00 3.416807601394375560e+00 3.795473399847987039e+00
3.187594937548864982e+04 9.999895530494029572e+00 3.420044629173350614e+00 3.802803945520860651e+00
3.259119550012416221e+04 9.999893187801609074e+00 3.422472296226128030e+00 3.810094613070162062e+00
3.343314161211835017e+04 9.999890487658618099e+00 3.424329062620075081e+00 3.818386213945960783e+00
3.419505549271526979e+04 9.999888102652786159e+00 3.425233984824166633e+00 3.825616191106353092e+00
3.498700545007119945e+04 9.999885685494401599e+00 3.425571841202366130e+00 3.832861713709563301e+00
3.581289157748380239e+04 9.999883233040389285e+00 3.425467475121567684e+00 3.840139255220230474e+00
3.667765858046459471e+04 9.999880738937509506e+00 3.425082686560315892e+00 3.847478483151899553e+00
3.745630508973216638e+04 9.999878555417282655e+00 3.424678577797518386e+00 3.853866057902347819e+00
3.841214629715509363e+04 9.999875951005051888e+00 3.423654706511368495e+00 3.861255931822446641e+00
3.943769180811135448e+04 9.999873245309288450e+00 3.423825593559291391e+00 3.869150078221804012e+00
4.036067990723004914e+04 9.999870874534163789e+00 3.424629137090852815e+00 3.876095993028170206e+00
4.133628418992678780e+04 9.999868425011491979e+00 3.426151673162574518e+00 3.883297339695892525e+00
4.219219974654233374e+04 9.999866316318382076e+00 3.428130741985977892e+00 3.889524857362183230e+00
4.329024938403764099e+04 9.999863657525756011e+00 3.431030753210486228e+00 3.897230399607138018e+00
4.425638961565024510e+04 9.999861351092715012e+00 3.435199509455845401e+00 3.904152849960431215e+00
4.526883772303654405e+04 9.999858954033651770e+00 3.440558460949195041e+00 3.911401906378566551e+00
4.632652717205896624e+04 9.999856461579071265e+00 3.447122929409801362e+00 3.918975714335896754e+00
4.720642183516701334e+04 9.999854390302267859e+00 3.453315187144834653e+00 3.925291409107343199e+00
4.834797693861284642e+04 9.999851696769617604e+00 3.462302637172014919e+00 3.933523896150876720e+00
4.929432083314104239e+04 9.999849451813455303e+00 3.469935160820484032e+00 3.940198855094541042e+00
5.027662223790167627e+04 9.999847105688047577e+00 3.479227023589402279e+00 3.947382494887983651e+00
5.127202807027754898e+04 9.999844701581517725e+00 3.489336635413778698e+00 3.954730905588017986e+00
5.228714474039091147e+04 9.999842215914778620e+00 3.499866140675828241e+00 3.962168650372281498e+00
5.333621547365044535e+04 9.999839609545807306e+00 3.510977562826338882e+00 3.969801299871442701e+00
5.413467338473466225e+04 9.999837596174277365e+00 3.520386357956116985e+00 3.975852452736193143e+00
5.519372791393744410e+04 9.999834877198097161e+00 3.533341423713311169e+00 3.983962800992861375e+00
5.599141083183123556e+04 9.999832789603136263e+00 3.543368545084453647e+00 3.990128145209126842e+00
5.706934434917023464e+04 9.999829913477810805e+00 3.556660819893850523e+00 3.998341390953839003e+00
5.787454468215194356e+04 9.999827765744219832e+00 3.566686420092402887e+00 4.004487056067029371e+00
5.894851887730363524e+04 9.999825216178427567e+00 3.580986259516301562e+00 4.012987458321849665e+00
5.974425773921175278e+04 9.999823600724145223e+00 3.591778156663197663e+00 4.019346847623113561e+00
6.080818431792721094e+04 9.999821816273247066e+00 3.605455594894368510e+00 4.027613589614173151e+00
6.161478959572657186e+04 9.999820752397670987e+00 3.615937024657725374e+00 4.033950655470456503e+00
6.267697001227918372e+04 9.999819747530645841e+00 3.630399580134061388e+00 4.042533970435605362e+00
6.345709626183546061e+04 9.999819155427024597e+00 3.641275683881355363e+00 4.048937018623218975e+00
6.448464147162011068e+04 9.999818310620920414e+00 3.655568747831362764e+00 4.057422321745829841e+00
6.524631301398812502e+04 9.999817631338498103e+00 3.666066435277759439e+00 4.063737629426275255e+00
6.624840764645500167e+04 9.999816663277606210e+00 3.679728108729046987e+00 4.072074239337581503e+00
6.699077714251406724e+04 9.999815887816248861e+00 3.689731086876677058e+00 4.078268707756270040e+00
6.797027563850532169e+04 9.999814783085009040e+00 3.702757958560636720e+00 4.086462730513093611e+00
6.893777784612389223e+04 9.999813594268628592e+00 3.715409853984072086e+00 4.094576214518091284e+00
6.989343046751790098e+04 9.999812317699474207e+00 3.727670668674103460e+00 4.102605917211018749e+00
7.060209421387694601e+04 9.999811301181404488e+00 3.736264930399966211e+00 4.108453696629032592e+00
7.154517414699416258e+04 9.999809854924627928e+00 3.747591462274057594e+00 4.116311370273487036e+00
7.247472797111504769e+04 9.999808316105131212e+00 3.758310149560020186e+00 4.123941336357590970e+00
7.340754461798514239e+04 9.999806654846086218e+00 3.769176545261887057e+00 4.131719288993084049e+00
7.432870929949388665e+04 9.999804888249222756e+00 3.779799936906688806e+00 4.139411969608011610e+00
7.524350340676520136e+04 9.999803002491262305e+00 3.790019792288964240e+00 4.147032695740415775e+00
7.614984036227279285e+04 9.999800999127492318e+00 3.799774567066736886e+00 4.154554680984358761e+00
7.704791124128369847e+04 9.999798876048966889e+00 3.809080397576403598e+00 4.161974402058701727e+00
7.816095575192834076e+04 9.999796046406263628e+00 3.820126930742595128e+00 4.171115392738625971e+00
7.904605425322556403e+04 9.999793633696173245e+00 3.828532033233579046e+00 4.178334422551268190e+00
7.992768175464267551e+04 9.999791082402586184e+00 3.836573526878521712e+00 4.185475959742365859e+00
8.102598500848334515e+04 9.999787691059955463e+00 3.846134947072046284e+00 4.194298697133596043e+00
8.190283719836809905e+04 9.999784809196428981e+00 3.853408109180689323e+00 4.201279221281103204e+00
8.299700559677240381e+04 9.999780990393848157e+00 3.862040006668307157e+00 4.209905600471087972e+00
8.387203424159795395e+04 9.999777754822998688e+00 3.868591410969098199e+00 4.216732684276099263e+00
8.496594881756667746e+04 9.999773478710778818e+00 3.876346270911457115e+00 4.225172436817923760e+00
8.606139103807994979e+04 9.999768935521455404e+00 3.883632425258781939e+00 4.233512064510690287e+00
8.715956840413495956e+04 9.999764115849949064e+00 3.890460731145968243e+00 4.241754052450945167e+00
8.826161095996576478e+04 9.999759010696937622e+00 3.896839592585505940e+00 4.249899800459885135e+00
8.914699829651192704e+04 9.999754714056120264e+00 3.901624908597441710e+00 4.256349387362253545e+00
9.025595289793932170e+04 9.999749087902008782e+00 3.907198871191497780e+00 4.264303946071049012e+00
9.159671822775366309e+04 9.999741925690919686e+00 3.913324531031832088e+00 4.273730194108250835e+00
9.272364123562465829e+04 9.999735605541969719e+00 3.917965648830760816e+00 4.281485007306679691e+00
9.386066284174149041e+04 9.999728956704410976e+00 3.922190259235326604e+00 4.289148210364306379e+00
9.501000702204959816e+04 9.999721965383175259e+00 3.926003338295551259e+00 4.296724249644066518e+00
9.617395042933632794e+04 9.999714617298774755e+00 3.929406497986719149e+00 4.304216111563422764e+00
9.759122934907960007e+04 9.999705321661677360e+00 3.932938379575900534e+00 4.313083458648995894e+00
9.879238630354925408e+04 9.999697160317971623e+00 3.935409698492363439e+00 4.320369111615158353e+00
1.002619492858878803e+05 9.999686847362283970e+00 3.937775994183440709e+00 4.328979296349080741e+00
1.017685756826311699e+05 9.999675934853627268e+00 3.939421931303877411e+00 4.337433236001993819e+00
1.030575709817745665e+05 9.999666360169531032e+00 3.940151024316215889e+00 4.344335005403908490e+00
1.046544190637259453e+05 9.999654249915661097e+00 3.940040916803777549e+00 4.352396367263950516e+00
1.063255016361092712e+05 9.999641373048575588e+00 3.938375113227300162e+00 4.360115440704287693e+00
1.084164075357159018e+05 9.999625187136873095e+00 3.933128325144673365e+00 4.368390430756964982e+00
1.107654313824871497e+05 9.999607367146538195e+00 3.921565640191883695e+00 4.375280811425539262e+00
1.135823875993959082e+05 9.999587375696590286e+00 3.899100600368473835e+00 4.379807415202677134e+00
1.166394616828520666e+05 9.999568261822215476e+00 3.867091122212394705e+00 4.380933210171158443e+00
1.191779159112848720e+05 9.999554623077584026e+00 3.838619216645065002e+00 4.380069278527381371e+00
1.223323638535079954e+05 9.999540133543153075e+00 3.806865957854592253e+00 4.378324310059839242e+00
1.264578647550464520e+05 9.999524014381988124e+00 3.779955675376391877e+00 4.377457895347362182e+00
1.316672598509477102e+05 9.999505621392152932e+00 3.772948081001122667e+00 4.381236427976075376e+00
1.356120275504275924e+05 9.999491498393430433e+00 3.783043297056697618e+00 4.387987971676964527e+00
1.389387368726158747e+05 9.999478588594673312e+00 3.798284530614102206e+00 4.395982042469693596e+00
1.408245371441197931e+05 9.999470645233726529e+00 3.807934516863179297e+00 4.401042490072355484e+00
1.433900637456893746e+05 9.999459022963581134e+00 3.819594890456661229e+00 4.407737179480768930e+00
1.467060855371531798e+05 9.999455233574154889e+00 3.829066510635575682e+00 4.414996937099165741e+00
1.521550930260942259e+05 9.999453066034737603e+00 3.827906116776954804e+00 4.422037554260212389e+00
1.582893553987487394e+05 9.999450617726441948e+00 3.807351239669357845e+00 4.423318537387552318e+00
1.636896950845027459e+05 9.999448682646981723e+00 3.785227480660107169e+00 4.421555980401743469e+00
1.723453908152069489e+05 9.999446002605381523e+00 3.762050494750782459e+00 4.418655563790265361e+00
1.813987910394963983e+05 9.999443497973423689e+00 3.753121053095497928e+00 4.417246551718977621e+00
1.873429482108536758e+05 9.999441920710232523e+00 3.751191138308898498e+00 4.416867798785157007e+00
1.873899915074472083e+05 9.999441908404936186e+00 3.751185764824986002e+00 4.416866345008061856e+00
1.945593899083001597e+05 9.999440033281098650e+00 3.750376475345241989e+00 4.416646425193715864e+00
2.031739583805061411e+05 9.999437795626500147e+00 3.750132069437068338e+00 4.416505970731201103e+00
2.032417007276007789e+05 9.999437778085269457e+00 3.750131728640786033e+00 4.416505174955498880e+00
2.136062798330858350e+05 9.999435094493438925e+00 3.750080768941506104e+00 4.416383799852705572e+00
2.136875706495994527e+05 9.999435073487260794e+00 3.750080596412349365e+00 4.416382920637770937e+00
2.261575819027869729e+05 9.999431851518863823e+00 3.750053690365120040e+00 4.416248126288868647e+00
2.262551308826032910e+05 9.999431826365684728e+00 3.750053420462327036e+00 4.416247082262657386e+00
2.412581639783548599e+05 9.999427958508173120e+00 3.750012055214174467e+00 4.416086680375332918e+00
2.413752227541344473e+05 9.999427928402260690e+00 3.750011747530979989e+00 4.416085446359868882e+00
2.594256859793481417e+05 9.999423287307655173e+00 3.749965831702433583e+00 4.415895608285690166e+00
2.595661565102836466e+05 9.999423251293011461e+00 3.749965601475332200e+00 4.415894168113541518e+00
2.597066270412191516e+05 9.999423215278365973e+00 3.749965371248231261e+00 4.415892727941391982e+00
2.814514652300368762e+05 9.999417642313233046e+00 3.749932858997997442e+00 4.415670685207160773e+00
2.816200298671594937e+05 9.999417599245790100e+00 3.749932806075833014e+00 4.415669020994467786e+00
2.817885945042821113e+05 9.999417556178345379e+00 3.749932753153668585e+00 4.415667356781774799e+00
3.079835391131369979e+05 9.999410866991452096e+00 3.749929402685525659e+00 4.415410218896679950e+00
3.081858166776841390e+05 9.999410815516043272e+00 3.749929625863412941e+00 4.415408308945410809e+00
3.083880942422313383e+05 9.999410764040636224e+00 3.749929849041300223e+00 4.415406398994140780e+00
3.399433943115853472e+05 9.999402739082169589e+00 3.749971363275276026e+00 4.415110810621705184e+00
3.401861273890419398e+05 9.999402677571939790e+00 3.749971966012918489e+00 4.415108636881461379e+00
3.404288604664985323e+05 9.999402616061709992e+00 3.749972568750560953e+00 4.415106463141217574e+00
3.784408603961973567e+05 9.999392991716078427e+00 3.750075321654478877e+00 4.414769597873382523e+00
3.787321400891452795e+05 9.999392918258422469e+00 3.750076408600047539e+00 4.414767143404846550e+00
3.790234197820930858e+05 9.999392844800770064e+00 3.750077495545616202e+00 4.414764688936310577e+00
3.793146994750410086e+05 9.999392771343114106e+00 3.750078582491184420e+00 4.414762234467774604e+00
4.251621231450380292e+05 9.999381221307650947e+00 3.750260236991714180e+00 4.414381343623554166e+00
4.255116587765754084e+05 9.999381133610292238e+00 3.750261932780768248e+00 4.414378599835508510e+00
4.258611944081129041e+05 9.999381045912933530e+00 3.750263628569822316e+00 4.414375856047463742e+00
4.262107300396503415e+05 9.999380958215576598e+00 3.750265324358876384e+00 4.414373112259418974e+00
4.815072669488766696e+05 9.999367102064468327e+00 3.750546005024027352e+00 4.413946963987513961e+00
4.819267097067216528e+05 9.999366997394444567e+00 3.750548440191433741e+00 4.413943926893369785e+00
4.823461524645665777e+05 9.999366892724419031e+00 3.750550875358840131e+00 4.413940889799226497e+00
4.827655952224115608e+05 9.999366788054393496e+00 3.750553310526246520e+00 4.413937852705082321e+00
5.492595434391617309e+05 9.999350218660962852e+00 3.750953411576493757e+00 4.413467247534579307e+00
5.497572333119871328e+05 9.999350095146663620e+00 3.750956702618313710e+00 4.413463954244416954e+00
5.502549231848125346e+05 9.999349971632364387e+00 3.750959993660134550e+00 4.413460660954255488e+00
5.507526130576380529e+05 9.999349848118065154e+00 3.750963284701954503e+00 4.413457367664094022e+00
5.512503029304634547e+05 9.999349724603764145e+00 3.750966575743775344e+00 4.413454074373932556e+00
6.290619181786349509e+05 9.999330447686656242e+00 3.751495392363262127e+00 4.412952335939780646e+00
6.296136769159279065e+05 9.999330311603767285e+00 3.751499397861651985e+00 4.412949013691379818e+00
6.301654356532209786e+05 9.999330175520878328e+00 3.751503403360042288e+00 4.412945691442979879e+00
6.307171943905139342e+05 9.999330039437989370e+00 3.751507408858432147e+00 4.412942369194578163e+00
7.163657005439663772e+05 9.999308936919096169e+00 3.752142286185314646e+00 4.412440511317052838e+00
7.169579406013709959e+05 9.999308791338028968e+00 3.752146883537604616e+00 4.412437260065911637e+00
7.175501806587756146e+05 9.999308645756963543e+00 3.752151480889894586e+00 4.412434008814769548e+00
7.181424207161803497e+05 9.999308500175898118e+00 3.752156078242184112e+00 4.412430757563628347e+00
8.097851341001559049e+05 9.999286005281827983e+00 3.752879499371600147e+00 4.411941865009025854e+00
8.104111705046120333e+05 9.999285852063843905e+00 3.752884609715168018e+00 4.411938724124945033e+00
8.110372069090681616e+05 9.999285698845859827e+00 3.752889720058736778e+00 4.411935583240864212e+00
8.116632433135241736e+05 9.999285545627875749e+00 3.752894830402304649e+00 4.411932442356784279e+00
9.083864555065508466e+05 9.999261891126113966e+00 3.753695582278544940e+00 4.411461850668713325e+00
9.090426011170782149e+05 9.999261730881817911e+00 3.753701153769303467e+00 4.411458840990251318e+00
9.096987467276053503e+05 9.999261570637521856e+00 3.753706725260061106e+00 4.411455831311789311e+00
1.010957956964965211e+06 9.999236854319669021e+00 3.754576682080069894e+00 4.411004502197620525e+00
1.011641831256169127e+06 9.999236687544737379e+00 3.754582673393096037e+00 4.411001604192104963e+00
1.012325705547373043e+06 9.999236520769807512e+00 3.754588664706122625e+00 4.410998706186588514e+00
1.013009579838576959e+06 9.999236353994877646e+00 3.754594656019149213e+00 4.410995808181072064e+00
1.118456259838095866e+06 9.999210640424177399e+00 3.755528078772363720e+00 4.410562860840697041e+00
1.119165520362122217e+06 9.999210467483461429e+00 3.755534455562901996e+00 4.410560090792774446e+00
1.119874780886148568e+06 9.999210294542745459e+00 3.755540832353440273e+00 4.410557320744853627e+00
1.229179121393546462e+06 9.999183680631034576e+00 3.756532579808940842e+00 4.410143840849540808e+00
1.229912522899111500e+06 9.999183502417368530e+00 3.756539319104216013e+00 4.410141192856277037e+00
1.230645924404676538e+06 9.999183324203702483e+00 3.756546058399490740e+00 4.410138544863013266e+00
1.343618757142829243e+06 9.999155867008688858e+00 3.757592710947792902e+00 4.409743021312848121e+00
1.344375171015967615e+06 9.999155683122442184e+00 3.757599793007167399e+00 4.409740480572290622e+00
1.345131584889106220e+06 9.999155499236197286e+00 3.757606875066542340e+00 4.409737939831734010e+00
1.461575343040873762e+06 9.999127186043162752e+00 3.758713675045349589e+00 4.409354839436365303e+00
1.462353357640993316e+06 9.999126996826275260e+00 3.758721203089339546e+00 4.409352344168885551e+00
1.581915087115076371e+06 9.999086178915707279e+00 3.759867452906124896e+00 4.408986520127252007e+00
1.582711723290280439e+06 9.999085817456768055e+00 3.759875009337690255e+00 4.408984217097133396e+00
1.583508359465484042e+06 9.999085455997828831e+00 3.759882565769256502e+00 4.408981914067014785e+00
1.700483648771023843e+06 9.999014992147330361e+00 3.761010962381222456e+00 4.408646413058150415e+00
1.701223936873276252e+06 9.999014418056997755e+00 3.761018242360924635e+00 4.408644309474185619e+00
1.802643406881866511e+06 9.998921283911705871e+00 3.762015154452618138e+00 4.408363187467864819e+00
1.803235637363668298e+06 9.998920631522510760e+00 3.762020972501345817e+00 4.408361598853985264e+00
1.884134321177819744e+06 9.998818279078355076e+00 3.762816899313104813e+00 4.408147478105101769e+00
1.948758511352052446e+06 9.998715921952895158e+00 3.763455951409698574e+00 4.407980804862029700e+00
2.000382057989767985e+06 9.998621717382109253e+00 3.763970765147027109e+00 4.407849934692937843e+00
2.075143917003659997e+06 9.998464432084709586e+00 3.764729527818398758e+00 4.407662694857327423e+00
2.130355431442654692e+06 9.998333408195264838e+00 3.765297275231468177e+00 4.407527545482016862e+00
2.200186816424588673e+06 9.998153466029904735e+00 3.766006662039909081e+00 4.407360759542537920e+00
2.263615369425478857e+06 9.997978589483739853e+00 3.766642297255309302e+00 4.407213746017149880e+00
2.342684639794099145e+06 9.997746649702364152e+00 3.767378399975436221e+00 4.407031539658751385e+00
2.416423405295065604e+06 9.997515772676294432e+00 3.768171459388829803e+00 4.406872467378820879e+00
2.486285776319941971e+06 9.997284870782001676e+00 3.768871456232335326e+00 4.406721629047153144e+00
2.553454639329968952e+06 9.997052386635040477e+00 3.769516148069742556e+00 4.406576718084763478e+00
2.633352133769208100e+06 9.996762119917764977e+00 3.770346299089208486e+00 4.406414042619410054e+00
2.726789885653910227e+06 9.996417467874600504e+00 3.771279491437455444e+00 4.406225965666309641e+00
2.804879155127021484e+06 9.996128280877407235e+00 3.772058680614318149e+00 4.406072397832064169e+00
2.883301415547781158e+06 9.995836796708410077e+00 3.772843772755470226e+00 4.405921170273625620e+00
2.978173513709461316e+06 9.995482806380467267e+00 3.773716800279757866e+00 4.405751965937994896e+00
3.073062704895248637e+06 9.995127150368174895e+00 3.774764132821147200e+00 4.405567976657824403e+00
3.152736775001659058e+06 9.994827274944533713e+00 3.775547867886035469e+00 4.405420891293859498e+00
3.264148726854037493e+06 9.994405965405661618e+00 3.776714419605879058e+00 4.405226071906908736e+00
3.359985896064969711e+06 9.994041723692355106e+00 3.777699520222656648e+00 4.405059190331878760e+00
3.456044088496743236e+06 9.993674927872264746e+00 3.778693681669409443e+00 4.404894953012505887e+00
3.568095280527581926e+06 9.993244871820362363e+00 3.779857682232383276e+00 4.404706754745662423e+00
3.680286463672637008e+06 9.992811879242660567e+00 3.781029827487415673e+00 4.404521364835747299e+00
3.776484418013100512e+06 9.992438682324008781e+00 3.782037263219550027e+00 4.404364784475355066e+00
3.904938766678705812e+06 9.991937546153121019e+00 3.783316789124550716e+00 4.404165470544519678e+00
4.017235711695749313e+06 9.991496862865016482e+00 3.784585929473004207e+00 4.403981941575562331e+00
4.145305009959183633e+06 9.990991084694964997e+00 3.785949471819754386e+00 4.403782366251602909e+00
4.273813988188208081e+06 9.990480238297541504e+00 3.787325357321297048e+00 4.403584437790622808e+00
4.402761041553732008e+06 9.989964227073407699e+00 3.788678087372829850e+00 4.403405765819672801e+00
4.531652236126715317e+06 9.989445071392641040e+00 3.790107679558787801e+00 4.403193647026833801e+00
4.660734687157826498e+06 9.988921590262332728e+00 3.791434208584979260e+00 4.403004117109873050e+00
4.805660571685746312e+06 9.988329650348649835e+00 3.793097160668907009e+00 4.402785336150172313e+00
4.950416932584561408e+06 9.987733868552190586e+00 3.794686821072520644e+00 4.402571185555512301e+00
5.111239082196845673e+06 9.987066511574761662e+00 3.796469965029115379e+00 4.402335739764397182e+00
5.255918990224593319e+06 9.986461214991775748e+00 3.798079744372531152e+00 4.402124118199738589e+00
5.417022129301577806e+06 9.985781640358728950e+00 3.799882432752533568e+00 4.401889027244958008e+00
5.578283968458617106e+06 9.985095441091118573e+00 3.801699659512450591e+00 4.401653951088325023e+00
5.755855586628470570e+06 9.984332819450411733e+00 3.803711397017264240e+00 4.401394870999023823e+00
5.933711095305372030e+06 9.983561484971655631e+00 3.805741538759245923e+00 4.401135036508772025e+00
6.112188518720957451e+06 9.982779817708859582e+00 3.807791133587941523e+00 4.400873141868116178e+00
6.290007847394180484e+06 9.981993242280546852e+00 3.809847974721987995e+00 4.400610924537045499e+00
6.484460152473937720e+06 9.981124173930004062e+00 3.812037922195649298e+00 4.400320451984214287e+00
6.677988466715989634e+06 9.980249632101958923e+00 3.814385125044166713e+00 4.400032669286259690e+00
6.886540580098371953e+06 9.979296291545264097e+00 3.816850942513305256e+00 4.399717135631910914e+00
7.094754919533319771e+06 9.978333132774704239e+00 3.819325898697145227e+00 4.399398208955657807e+00
7.302655080090792850e+06 9.977359815152130551e+00 3.821816354367339574e+00 4.399076197557462820e+00
7.526025483373421244e+06 9.976300790203083579e+00 3.824509191691899179e+00 4.398725478812547607e+00
7.749252831907188520e+06 9.975228603671707717e+00 3.827216316404722818e+00 4.398368908116906617e+00
7.988559054890872911e+06 9.974063561440214443e+00 3.830065361286089765e+00 4.397982895932813996e+00
8.228479933782283217e+06 9.972878989740362243e+00 3.833085174873581469e+00 4.397581328685471469e+00
8.468871242281600833e+06 9.971674826665170244e+00 3.836060835294972549e+00 4.397173661347784090e+00
8.726078630855690688e+06 9.970367301747511846e+00 3.839270256622701716e+00 4.396727191837200621e+00
8.984237988670140505e+06 9.969034354586918667e+00 3.842518512626538651e+00 4.396267528459897100e+00
9.257307208300871775e+06 9.967601414445880437e+00 3.845987193611140942e+00 4.395767927142009590e+00
9.528863070948325098e+06 9.966152547082003821e+00 3.849468368512084737e+00 4.395256383040210046e+00
9.815271702123805881e+06 9.964597930181913199e+00 3.853169675780666825e+00 4.394699551527393666e+00
1.011747247858876176e+07 9.962927362216650096e+00 3.857115608052128941e+00 4.394091608428256635e+00
1.041919941381683573e+07 9.961227565527515537e+00 3.861101549693322532e+00 4.393462429950256265e+00
1.072040422990808636e+07 9.959498143496711364e+00 3.865119355294766912e+00 4.392810387470143851e+00
1.103876648353327997e+07 9.957633696705459059e+00 3.869414665910282380e+00 4.392093560215818648e+00
1.135695663657902740e+07 9.955731776686775447e+00 3.873763474305136789e+00 4.391346734069032642e+00
1.169270374456962943e+07 9.953681859289186917e+00 3.878409055146354589e+00 4.390523432124786574e+00
1.205407901343435049e+07 9.951421177947018748e+00 3.883332734201468295e+00 4.389606549249621459e+00
1.240142193533755466e+07 9.949196503304463590e+00 3.888288436032424578e+00 4.388668013857730088e+00
1.274529299376773089e+07 9.946942342463209741e+00 3.893270120960855785e+00 4.387690363180540842e+00
1.311236202110018767e+07 9.944477223420594925e+00 3.898672999057593014e+00 4.386590596174078982e+00
1.347963426198211126e+07 9.941947631658262452e+00 3.904171694716044083e+00 4.385426693238697382e+00
1.387270926755273715e+07 9.939167550720490851e+00 3.910165848490813278e+00 4.384104544107011669e+00
1.423995299421311729e+07 9.936499423198924319e+00 3.915875414538867005e+00 4.382791678002795344e+00
1.463738634203011356e+07 9.933531654241017250e+00 3.922176838977646796e+00 4.381278182395080378e+00
1.503316336225427501e+07 9.930489633332848953e+00 3.928590418676482621e+00 4.379666713193475225e+00
1.543377775814299285e+07 9.927318467630874110e+00 3.935204687436130833e+00 4.377926452080470376e+00
1.586555709876837023e+07 9.923792789902815770e+00 3.942432678342837615e+00 4.375930472185054931e+00
1.627412232428928651e+07 9.920349734850523404e+00 3.949375106046148165e+00 4.373913829471137937e+00
1.665833839340356924e+07 9.917013307601854066e+00 3.956006096589195664e+00 4.371891183487820243e+00
1.680757732918290794e+07 9.915690804859348617e+00 3.958610547564846982e+00 4.371069863683069379e+00
1.695733400274531543e+07 9.914348449774506022e+00 3.961242201766621118e+00 4.370223709039405158e+00
1.710705859662086144e+07 9.912990854914278671e+00 3.963891274917824781e+00 4.369355946379784861e+00
1.725775772303084657e+07 9.911608525035999762e+00 3.966575236295160956e+00 4.368458347999800040e+00
1.737890167169538140e+07 9.910485569137861717e+00 3.968748390018820515e+00 4.367719027403509813e+00
1.753095612331426144e+07 9.909061070041408570e+00 3.971494209020311583e+00 4.366767664359000989e+00
1.768251221509776637e+07 9.907624356235460894e+00 3.974253377379603158e+00 4.365791573005833648e+00
1.783422768020278960e+07 9.906168982598250849e+00 3.977037548299351410e+00 4.364786361791660241e+00
1.798659636488632858e+07 9.904689808877645163e+00 3.979858390316757255e+00 4.363746609919364694e+00
1.813909715253103897e+07 9.903191463581322296e+00 3.982703778639439030e+00 4.362674582305688276e+00
1.829232459270830452e+07 9.901667662630659450e+00 3.985590063389249593e+00 4.361563594076169892e+00
1.841548621651512012e+07 9.900429338273596613e+00 3.987930551004036150e+00 4.360645410404451638e+00
1.856993937261077017e+07 9.898859107266893886e+00 3.990889258198430323e+00 4.359460537952077885e+00
1.872543936582674086e+07 9.897258495519546173e+00 3.993899013443996893e+00 4.358228187340793092e+00
1.885071516232444346e+07 9.895954354754485038e+00 3.996346301039692683e+00 4.357204542693747129e+00
1.897582596146402135e+07 9.894638688377719760e+00 3.998811661870181666e+00 4.356154220952611844e+00
1.913266872405844554e+07 9.892970352272467238e+00 4.001931776891250792e+00 4.354796292956773840e+00
1.925870094842886180e+07 9.891614220557146453e+00 4.004464656107032283e+00 4.353669974515291585e+00
1.938524933669630438e+07 9.890238395825690532e+00 4.007032588656895378e+00 4.352505847312335696e+00
1.954467734977903217e+07 9.888484624775845333e+00 4.010302432120039562e+00 4.350990120053467969e+00
1.967350798417582363e+07 9.887050491123037688e+00 4.012974206677937694e+00 4.349723062871812651e+00
1.980314379609819874e+07 9.885591852031492266e+00 4.015690937115745207e+00 4.348408051942798558e+00
1.993273195168908313e+07 9.884117922236651310e+00 4.018435773423073343e+00 4.347051376962218328e+00
2.003011619789968804e+07 9.882999717963665276e+00 4.020517908355833114e+00 4.346003394656689167e+00
2.016048605530720204e+07 9.881488388828316261e+00 4.023332343443809300e+00 4.344559805366133176e+00
2.029129615564998239e+07 9.879955173662322565e+00 4.026190707670893154e+00 4.343063240472547548e+00
2.042237659168524668e+07 9.878401655551234839e+00 4.029085711756822619e+00 4.341514268367957285e+00
2.052113416274733096e+07 9.877219734554307351e+00 4.031286477136833746e+00 4.340315938498124027e+00
2.065342245979971811e+07 9.875620872734428346e+00 4.034258539872863203e+00 4.338667966565100009e+00
2.075324383398286253e+07 9.874402419709653600e+00 4.036519628474787069e+00 4.337390948995067497e+00
2.085305268269922584e+07 9.873173681825353043e+00 4.038797989505591879e+00 4.336085241395487344e+00
2.098692085847624391e+07 9.871509083726859757e+00 4.041877981586695867e+00 4.334287254082394902e+00
2.108787711629135162e+07 9.870241041489311584e+00 4.044222142054239022e+00 4.332895511084960738e+00
2.118878602670174837e+07 9.868962547741887192e+00 4.046583630936295251e+00 4.331472563035101864e+00
2.129049934086472541e+07 9.867662583906707141e+00 4.048982215032025600e+00 4.330006836014460347e+00
2.139269957292348146e+07 9.866344863889004557e+00 4.051412206213713674e+00 4.328501931936608038e+00
2.149484877719413117e+07 9.865016103966862460e+00 4.053861529116152163e+00 4.326965466713581066e+00
2.159717459300752729e+07 9.863673175537485349e+00 4.056336829007852529e+00 4.325394591580684178e+00
2.169995980966866761e+07 9.862312115780623500e+00 4.058846014146853420e+00 4.323784923423965587e+00
2.180328576034685969e+07 9.860931500487071233e+00 4.061392293504156648e+00 4.322136224694842710e+00
2.190720200464538485e+07 9.859530276738695420e+00 4.063980014655535378e+00 4.320448220989860033e+00
2.197694167535879090e+07 9.858582631052176026e+00 4.065731700662834847e+00 4.319300657514100195e+00
2.208197225483684242e+07 9.857144256928352277e+00 4.068396225266091903e+00 4.317552282846002676e+00
2.218759850880015641e+07 9.855683914677983992e+00 4.071109608525247836e+00 4.315773522167520859e+00
2.225837282896562666e+07 9.854697502124556863e+00 4.072949461636445889e+00 4.314573279264369177e+00
2.236516419351707771e+07 9.853196794953952065e+00 4.075760237709674882e+00 4.312756906161948400e+00
2.243699653307871521e+07 9.852178819523391695e+00 4.077677710000640943e+00 4.311536166699168504e+00
2.254556307779983431e+07 9.850626801490932394e+00 4.080623553556474548e+00 4.309705853641059292e+00
2.261891440647684783e+07 9.849568714380524170e+00 4.082651578522706437e+00 4.308488254815063812e+00
2.273021830413679034e+07 9.847947831808468777e+00 4.085797956084088689e+00 4.306694997113940104e+00
2.280572391718722880e+07 9.846837200623378195e+00 4.087989133820360443e+00 4.305535942144932626e+00
2.292142388957665116e+07 9.845116690814656124e+00 4.091462794376258927e+00 4.303901144868151007e+00
2.300118646617238969e+07 9.843916361921984048e+00 4.093961243685935614e+00 4.302924141443597250e+00
2.312584992414177209e+07 9.842014112252552849e+00 4.098108711235065371e+00 4.301792573885566462e+00
2.321429966153193265e+07 9.840642128868047678e+00 4.101312794046961585e+00 4.301457450855521003e+00
2.330843489739087969e+07 9.839157325178739200e+00 4.105110868209055575e+00 4.301830071818279144e+00
2.335463042187278718e+07 9.838417342890604544e+00 4.107201581603349361e+00 4.302440013206867420e+00
2.343396468867315352e+07 9.837123202524601595e+00 4.111402833767573206e+00 4.304598917840468886e+00
2.346629855961042270e+07 9.836584779507919762e+00 4.113481503703515507e+00 4.306116789179983861e+00
2.349378966439178213e+07 9.836120389708169043e+00 4.115534371565993332e+00 4.307873508384576944e+00
2.349404048609507829e+07 9.836116125047560388e+00 4.115554406100764950e+00 4.307891618627497365e+00
2.351713120725210011e+07 9.835720194829391971e+00 4.117589629719298649e+00 4.309843311701197166e+00
2.353642681804893166e+07 9.835384273994725035e+00 4.119621599163297176e+00 4.311943357522182829e+00
2.355248262508855015e+07 9.835100377922948667e+00 4.121666149648072874e+00 4.314152102475709682e+00
2.355262905550586432e+07 9.835097772043882358e+00 4.121686259928589280e+00 4.314174097818487041e+00
2.356593047619716823e+07 9.834858777371042748e+00 4.123755754062909062e+00 4.316452442544522761e+00
2.357695582737607881e+07 9.834657448950416381e+00 4.125863603671908741e+00 4.318765730723677976e+00
2.358609058086133748e+07 9.834487877255314814e+00 4.128016599168189416e+00 4.321082489843925956e+00
2.358617441504406929e+07 9.834486311445122197e+00 4.128037855537295187e+00 4.321105179337284774e+00
2.359373003709637001e+07 9.834343668582503639e+00 4.130244073576474051e+00 4.323399457643773758e+00
2.359999543415832147e+07 9.834223367407629368e+00 4.132498251509382214e+00 4.325645087063802130e+00
2.360005328466536105e+07 9.834222250217043992e+00 4.132520482095748626e+00 4.325666934027447397e+00
2.360524426548881084e+07 9.834120848833466155e+00 4.134820193578342185e+00 4.327843380941602369e+00
2.360955901179086417e+07 9.834035110887807463e+00 4.137149491795337752e+00 4.329931517381812256e+00
2.361315154552798718e+07 9.833962497811850056e+00 4.139493531000509208e+00 4.331917410506532562e+00
2.361318501108216122e+07 9.833961817983379206e+00 4.139516541370757530e+00 4.331936609565578244e+00
2.361617679054553807e+07 9.833900308748020791e+00 4.141851641979240384e+00 4.333806154570837954e+00
2.361867882559629530e+07 9.833848011027631841e+00 4.144157077120612875e+00 4.335553241446106654e+00
2.362077694210295379e+07 9.833803445273451516e+00 4.146409345869472851e+00 4.337173071250668421e+00
2.362254168086299300e+07 9.833765375399716291e+00 4.148585984928271131e+00 4.338663771840587380e+00
2.362403109583624452e+07 9.833732766073383758e+00 4.150676037498469917e+00 4.340029333743579798e+00
2.362529278528068215e+07 9.833704751928717513e+00 4.152650134198404785e+00 4.341269083138226570e+00
2.362636583047629148e+07 9.833680611143064354e+00 4.154492544785417962e+00 4.342388478026155241e+00
2.362806151995904744e+07 9.833641795077504355e+00 4.157769189926701081e+00 4.344290154973877272e+00
2.362874077057977393e+07 9.833625991488259999e+00 4.159208664605867689e+00 4.345096274812001447e+00
2.362983718401591480e+07 9.833600141103621795e+00 4.161694960905206742e+00 4.346448517910618037e+00
2.363067864835105091e+07 9.833579996634165710e+00 4.163673822318314066e+00 4.347507908311392555e+00
2.363133703153943643e+07 9.833564043738054039e+00 4.165242283524508871e+00 4.348336216715503078e+00
2.363186053854650259e+07 9.833551237277404766e+00 4.166478775042967264e+00 4.348982091001042605e+00
2.363246454381150752e+07 9.833536332632274224e+00 4.167760822351125327e+00 4.349675883508837160e+00
2.363304477953709289e+07 9.833521900012744510e+00 4.168725002127024126e+00 4.350245419772262423e+00
2.363362579762642458e+07 9.833507366830881224e+00 4.169284092825447097e+00 4.350665880359243509e+00
2.363405436896539479e+07 9.833496619528339977e+00 4.169321875765376717e+00 4.350836596606507456e+00
2.363455103731743991e+07 9.833484174133758415e+00 4.168791279321338195e+00 4.350829534914992358e+00
2.363507259381705150e+07 9.833471173039638913e+00 4.167045922844297756e+00 4.350461026436585499e+00
2.363564525119104236e+07 9.833457057534205958e+00 4.164260014644626473e+00 4.349713642337346364e+00
2.363624521760232747e+07 9.833442507010015987e+00 4.160552087640813745e+00 4.348597830043812174e+00
2.363664034517296031e+07 9.833433081872428261e+00 4.157797080446197668e+00 4.347702073558174618e+00
2.363711527811477333e+07 9.833421935412895110e+00 4.154268624799927423e+00 4.346475288722620789e+00
2.363768613347340375e+07 9.833408815656339286e+00 4.149836624136046481e+00 4.344799691209543901e+00
2.363769174844414368e+07 9.833408686654237840e+00 4.149793000430942236e+00 4.344783177690057840e+00
2.363835853361304849e+07 9.833393771647747528e+00 4.144603694785098824e+00 4.342573807765102600e+00
2.363967662819457054e+07 9.833365642654301908e+00 4.135149779519424307e+00 4.337580985673413103e+00
2.364080412650127336e+07 9.833342905859739247e+00 4.128666849810421979e+00 4.332789387243087376e+00
2.364217791726523638e+07 9.833316500898632739e+00 4.123590396516940260e+00 4.326488867931985283e+00
2.364332608149779588e+07 9.833295182868893036e+00 4.121991954411721615e+00 4.320960604121592219e+00
2.364435367499463633e+07 9.833276436050907066e+00 4.122504181548413804e+00 4.315890073301534180e+00
2.364561853553821519e+07 9.833253531512918144e+00 4.125203278831492959e+00 4.309560698832387793e+00
2.364652429685417563e+07 9.833237119536621051e+00 4.128153154130670188e+00 4.304995131733342362e+00
2.364770090517699718e+07 9.833215676765608038e+00 4.132740192653090006e+00 4.299042298815206387e+00
2.364886308131926507e+07 9.833194294082842291e+00 4.137645198354254816e+00 4.293148433142595088e+00
2.364973541123730689e+07 9.833178095256359441e+00 4.141341122603573233e+00 4.288713675073401177e+00
2.365090340453915671e+07 9.833156211635929012e+00 4.146099656959439272e+00 4.282762148791709578e+00
2.365208553580764681e+07 9.833133864126894608e+00 4.150558317214713355e+00 4.276714726455811189e+00
2.365298179837685823e+07 9.833116814333987321e+00 4.153650200190465824e+00 4.272108873588515543e+00
2.365418624035554379e+07 9.833093800862362954e+00 4.157388341246479158e+00 4.265879546192580030e+00
2.365509455822568014e+07 9.833076400602063671e+00 4.159904030925244633e+00 4.261145316270639860e+00
2.365631217491923645e+07 9.833053061047277055e+00 4.162890286229619541e+00 4.254736909950504575e+00
2.365722847412472963e+07 9.833035516780672225e+00 4.164865190489165592e+00 4.249859528102031270e+00
2.365845316018607095e+07 9.833012136451896978e+00 4.167170762268016304e+00 4.243256697142315126e+00
2.365937199860338494e+07 9.832994673789283269e+00 4.168671858034124433e+00 4.238230151617989883e+00
2.366059165512564033e+07 9.832971634922351711e+00 4.170379275648053330e+00 4.231449522099472560e+00
2.366150204107950628e+07 9.832954566234434424e+00 4.171460806332106586e+00 4.226299591367145503e+00
2.366240628122950345e+07 9.832937739591162796e+00 4.172374680205132691e+00 4.221100458604484018e+00
2.366330352318629250e+07 9.832921183834594459e+00 4.173133774071622781e+00 4.215853952598901166e+00
2.366448470278801396e+07 9.832899627566257905e+00 4.173909421653841711e+00 4.208799768223412840e+00
2.366535969706815109e+07 9.832883851731990532e+00 4.174327186871638062e+00 4.203457446967904687e+00
2.366622640242496133e+07 9.832868401022624383e+00 4.174611002254865255e+00 4.198060600641755791e+00
2.366708201942819357e+07 9.832853331568513156e+00 4.174764113076740557e+00 4.192621857975595390e+00
2.366792649314907566e+07 9.832838648442606910e+00 4.174791977034546520e+00 4.187138879664790814e+00
2.366903574995608628e+07 9.832819666718974005e+00 4.174642624821500725e+00 4.179750293511321324e+00
2.366985463059741259e+07 9.832805889389806708e+00 4.174389505943998380e+00 4.174148762709919858e+00
2.367065993849420547e+07 9.832792546368242625e+00 4.174019709649707366e+00 4.168508630165009166e+00
2.367145139286940917e+07 9.832779640859902415e+00 4.173542625700080499e+00 4.162832966182524075e+00
2.367222918669405580e+07 9.832767167173667389e+00 4.172956146846830805e+00 4.157119064705747213e+00
2.367299221148010343e+07 9.832755139694608459e+00 4.172267975346710678e+00 4.151375940063711134e+00
2.367374249912946671e+07 9.832743522419219673e+00 4.171471865065016438e+00 4.145587503611865898e+00
2.367448019288053736e+07 9.832732309755225941e+00 4.170574964355171943e+00 4.139752539649579788e+00
2.367520620975998789e+07 9.832721483952504116e+00 4.169574693820464972e+00 4.133858689576992873e+00
2.367591743068612739e+07 9.832711086766646957e+00 4.168476818685303620e+00 4.127926335702428062e+00
2.367661473898563161e+07 9.832701098746216672e+00 4.167286206868539011e+00 4.121945985069538132e+00
2.367729508697924763e+07 9.832691555752891333e+00 4.166008772747431976e+00 4.115939956038887182e+00
2.367795967481594533e+07 9.832682431833006831e+00 4.164644837198563820e+00 4.109896856684123634e+00
2.367861075421476364e+07 9.832673688107174570e+00 4.163188611118180837e+00 4.103806978319747500e+00
2.367903780293311179e+07 9.832668059898141522e+00 4.162172745325711354e+00 4.099726043477510018e+00
2.367966631081929430e+07 9.832659933244535466e+00 4.160581562160492020e+00 4.093584462559983095e+00
2.368028180075222254e+07 9.832652158990782709e+00 4.158905771026391918e+00 4.087402530421091029e+00
2.368088480644923821e+07 9.832644722602690734e+00 4.157140874151190602e+00 4.081172864233853836e+00
2.368147421348673850e+07 9.832637629773969934e+00 4.155297622984809536e+00 4.074907730697749031e+00
2.368205149247419834e+07 9.832630854370563611e+00 4.153373273928983700e+00 4.068591247310350489e+00
2.368242951235593110e+07 9.832626510988117019e+00 4.152046736406627581e+00 4.064353321881334580e+00
2.368298501811550930e+07 9.832620264337229798e+00 4.149996911458410764e+00 4.057971766160295424e+00
2.368352850088179111e+07 9.832614311610988977e+00 4.147871957995192815e+00 4.051541976007734469e+00
2.368405803440251946e+07 9.832608664953665922e+00 4.145680549063046172e+00 4.045089249568014189e+00
2.368440450527051836e+07 9.832605053220516922e+00 4.144178859782488011e+00 4.040761665968155114e+00
2.368491286984750256e+07 9.832599323385904810e+00 4.141874944401398473e+00 4.034253389374192977e+00
2.368540869800236821e+07 9.832592581556180988e+00 4.139508061373097014e+00 4.027715426414811617e+00
2.368573307257708162e+07 9.832587490214670822e+00 4.137890540497616065e+00 4.023330893178631129e+00
2.368620959245179594e+07 9.832578944330951032e+00 4.135413169928815691e+00 4.016729998077819275e+00
2.368667416990115494e+07 9.832569284056750902e+00 4.132875336170821257e+00 4.010102031709124937e+00
2.368697852881830931e+07 9.832562186318853037e+00 4.131144583547736282e+00 4.005652375531116860e+00
2.368742545409629121e+07 9.832550578515416362e+00 4.128502440905100990e+00 3.998958018413277582e+00
2.368786044301643968e+07 9.832538453008471180e+00 4.125810674898010788e+00 3.992251879529819192e+00
2.368814358810300380e+07 9.832530461644974906e+00 4.123989705948959639e+00 3.987780992393854973e+00
2.368855853314346075e+07 9.832518606204679656e+00 4.121219638092458837e+00 3.981072347301959802e+00
2.368896245645207167e+07 9.832506896516580497e+00 4.118401989773192717e+00 3.974355330382700835e+00
2.368922591242025793e+07 9.832499166559593107e+00 4.116496847248278357e+00 3.969870140105858702e+00
2.368961182562746108e+07 9.832487708298739193e+00 4.113608013516643069e+00 3.963145387538919096e+00
2.368998699050460756e+07 9.832476410690883739e+00 4.110678158425950635e+00 3.956421679800439684e+00
2.369023126182826608e+07 9.832468968490303496e+00 4.108702424607631798e+00 3.951940474507114942e+00
2.369058858508777618e+07 9.832457956035405289e+00 4.105713909419860030e+00 3.945230274704416562e+00
2.369082075249103084e+07 9.832450718635946885e+00 4.103704259646644203e+00 3.940766237086992252e+00
2.369115964908114821e+07 9.832440034740145052e+00 4.100675196868573735e+00 3.934095318780283179e+00
2.369148761981879175e+07 9.832429556423686989e+00 4.097626470947312249e+00 3.927453406477148246e+00
2.369170098285844922e+07 9.832422664299025783e+00 4.095576601334920852e+00 3.923028636363665278e+00
2.369201171701686084e+07 9.832412517496042170e+00 4.092492574116942450e+00 3.916428963537931907e+00
2.369231255397118628e+07 9.832402566803743582e+00 4.089390459582981308e+00 3.909853306499485370e+00
2.369250813803017884e+07 9.832396028573365143e+00 4.087304659168788490e+00 3.905473625761013423e+00
2.369279323889904469e+07 9.832386397758536845e+00 4.084166848452269960e+00 3.898933411379299052e+00
2.369306893889694288e+07 9.832376968313806032e+00 4.081013508705092718e+00 3.892422200727831516e+00
2.369333541097657382e+07 9.832367742369685359e+00 4.077845731996207590e+00 3.885942277062260253e+00
2.369350847677074745e+07 9.832361689727646237e+00 4.075721115134041561e+00 3.881629530823107910e+00
2.369376053822850436e+07 9.832352786454137572e+00 4.072525855032908204e+00 3.875195347111669797e+00
2.369400353739132732e+07 9.832344101925512447e+00 4.069322475554629115e+00 3.868810772330151693e+00
2.369423781506226957e+07 9.832335632113846202e+00 4.066111358237139761e+00 3.862476980479038868e+00
2.369438944645326957e+07 9.832330098168966970e+00 4.063965569471148953e+00 3.858280174505738458e+00
2.369460989488529041e+07 9.832321977952943826e+00 4.060741924078248744e+00 3.852033944452786685e+00
2.369482218438224867e+07 9.832314072655933046e+00 4.057514625156037447e+00 3.845849988612402903e+00
2.369502693980157003e+07 9.832306366353709137e+00 4.054276929774351501e+00 3.839718662883034206e+00
2.369522516816420481e+07 9.832298827707139921e+00 4.051015118374553303e+00 3.833619516018525353e+00
2.369541755005787313e+07 9.832291436482474722e+00 4.047720865288626513e+00 3.827536260068089558e+00
2.369560441662777215e+07 9.832284185044199987e+00 4.044388521653844215e+00 3.821465396731015929e+00
2.369578553705646843e+07 9.832277087544792238e+00 4.041024315260010269e+00 3.815420607227037131e+00
2.369596107916608453e+07 9.832270142690303416e+00 4.037621729184613706e+00 3.809402939982000191e+00
2.369607531887608021e+07 9.832265587853287414e+00 4.035328154676960821e+00 3.805399313992706922e+00
2.369624228698692098e+07 9.832258880154583380e+00 4.031853891024162806e+00 3.799416095875845834e+00
2.369640441083800048e+07 9.832252309146095826e+00 4.028333915890518924e+00 3.793451906490407310e+00
2.369656218631686270e+07 9.832245859198858184e+00 4.024755126203000799e+00 3.787494900049910740e+00
2.369671555900417268e+07 9.832239536895912124e+00 4.021119145316371934e+00 3.781551714024324440e+00
2.369686466782462969e+07 9.832233340833333557e+00 4.017419417730961229e+00 3.775625584118103006e+00
2.369700938442073762e+07 9.832227280911512324e+00 4.013661075638409237e+00 3.769728051977028649e+00
2.369715031695908308e+07 9.832221335938367446e+00 4.009831127830429054e+00 3.763841547041311131e+00
2.369728758404591680e+07 9.832215504964768371e+00 4.005922087644720797e+00 3.757969199875852429e+00
2.369742106112081930e+07 9.832209797438947518e+00 4.001934025017936492e+00 3.752122735276226084e+00
2.369755136412813887e+07 9.832204191049831010e+00 3.997853624126020300e+00 3.746284823599846714e+00
2.369767884438676387e+07 9.832198674420197904e+00 3.993664276067471874e+00 3.740447887960570483e+00
2.369780317886069790e+07 9.832193265334382204e+00 3.989373866734561958e+00 3.734635608222106384e+00
2.369792450892692059e+07 9.832187961710621593e+00 3.984976292342944593e+00 3.728854347295433858e+00
2.369804309082956612e+07 9.832182756370434262e+00 3.980456567211758223e+00 3.723100220809411276e+00
2.369815888985079527e+07 9.832177655002736216e+00 3.975812521315122527e+00 3.717389143035692456e+00
2.369827180403218791e+07 9.832172666348736101e+00 3.971047530183112073e+00 3.711741945194108716e+00
2.369841841990812868e+07 9.832166173328744208e+00 3.964486853031227387e+00 3.704318412781508307e+00
2.369852586399303377e+07 9.832161408923951740e+00 3.959384082106025105e+00 3.698835925710515227e+00
2.369863129097057134e+07 9.832156733867964959e+00 3.954112652407080652e+00 3.693460159386878772e+00
2.369873505402947217e+07 9.832152137904328626e+00 3.948652734399641151e+00 3.688236522052805277e+00
2.369887142345906422e+07 9.832146117622389880e+00 3.941038250139693666e+00 3.681643306731185117e+00
2.369897262001783773e+07 9.832141676098169469e+00 3.935054177733161129e+00 3.677069022471263438e+00
2.369910657362014428e+07 9.832135849754291002e+00 3.926679230458050007e+00 3.671485533530367107e+00
2.369927378272171691e+07 9.832128693951194265e+00 3.915526186028354783e+00 3.665232050577506229e+00
2.369940765329439193e+07 9.832123083081734549e+00 3.906151611825326331e+00 3.660748080722127540e+00
2.369960917425131798e+07 9.832114867644596856e+00 3.892147201280405255e+00 3.654965632840371459e+00
2.369985276231063902e+07 9.832105254237122338e+00 3.881711401122418081e+00 3.650455739324449667e+00
2.370018092856690288e+07 9.832092734583740778e+00 3.865410511192691523e+00 3.646021662086861959e+00
2.370051085684923455e+07 9.832080782962957954e+00 3.848639440462333638e+00 3.641809885318790574e+00
2.370086503952357173e+07 9.832068580008092695e+00 3.833372202344705215e+00 3.637267046625076716e+00
2.370126206238882989e+07 9.832055378056384853e+00 3.823550217253665728e+00 3.631916717553780316e+00
2.370165089876786619e+07 9.832042406205239615e+00 3.826304485562088686e+00 3.626103818786619915e+00
2.370194135475407168e+07 9.832032187429422976e+00 3.839759252942401169e+00 3.621186047990156975e+00
2.370215477549796179e+07 9.832024047313968396e+00 3.857484022361208797e+00 3.617164669665598797e+00
2.370230824303333834e+07 9.832017672246095685e+00 3.874869167936688008e+00 3.614026732364239880e+00
2.370245248853257298e+07 9.832011130248760722e+00 3.894922853587093670e+00 3.610874655473980344e+00
2.370258947557887807e+07 9.832004277043374429e+00 3.917242105422182430e+00 3.607700286872868034e+00
2.370270264612707123e+07 9.831998027709628829e+00 3.937868530069786210e+00 3.604956942433269251e+00
2.370281317881241813e+07 9.831991302885748851e+00 3.959603664071716267e+00 3.602196876495936007e+00
2.370292286268588901e+07 9.831983922357368400e+00 3.982235673141572896e+00 3.599423432388434652e+00
2.370301420963561535e+07 9.831977162468906073e+00 4.001517859048622228e+00 3.597124165319952827e+00
2.370312551454232633e+07 9.831968086517960614e+00 4.024981721364479625e+00 3.594382902194203311e+00
2.370322099027840048e+07 9.831959504649427473e+00 4.044646778170465140e+00 3.592121783434036431e+00
2.370334069401587918e+07 9.831947637612200808e+00 4.068152432506122906e+00 3.589451674827746075e+00
2.370344663426357880e+07 9.831936070627497415e+00 4.087471960975878282e+00 3.587275804680955194e+00
2.370358393733216450e+07 9.831919580834172834e+00 4.110056996577705846e+00 3.584746830297656839e+00
2.370373673864001408e+07 9.831899294447008941e+00 4.131724695557230653e+00 3.582328925521510943e+00
2.370391123406094685e+07 9.831873805173156455e+00 4.152194147955561299e+00 3.580047288633426916e+00
2.370415390795501322e+07 9.831834737355944043e+00 4.174207970011334368e+00 3.577589150452904043e+00
2.370450863239631802e+07 9.831771512197427398e+00 4.196560155108873147e+00 3.575085240680699883e+00
2.370506750105946511e+07 9.831661401288608104e+00 4.217772208106102205e+00 3.572714271299812339e+00
2.370613679925439879e+07 9.831429714117509988e+00 4.237656743914918422e+00 3.570504363748860044e+00
2.370829882884137705e+07 9.830917703773053518e+00 4.258057810085109196e+00 3.568255108288540089e+00
2.371087831522458419e+07 9.830250663766902264e+00 4.277785036848690048e+00 3.566107778750617907e+00
2.371402593229144439e+07 9.829356987294396220e+00 4.299510684490811308e+00 3.563799348593626348e+00
2.371842748234780133e+07 9.827979912743611379e+00 4.318746209970064420e+00 3.561778632291993762e+00
2.373206204963950068e+07 9.823367346694260149e+00 4.331920323068014334e+00 3.560452506618813739e+00
2.373383361315845698e+07 9.822756108863890390e+00 4.331997025391737033e+00 3.560453910232819208e+00
2.373712817910140008e+07 9.821619095226020946e+00 4.331864383515750205e+00 3.560481177192234004e+00
2.374002393895849586e+07 9.820620783738853277e+00 4.331431831821169531e+00 3.560538049940536354e+00
2.374271937357595190e+07 9.819693500082689042e+00 4.330903654015830995e+00 3.560598488136242246e+00
2.374639617306770757e+07 9.818432304613230244e+00 4.330116127677944959e+00 3.560649659540934042e+00
2.375034175906632841e+07 9.817084052684077022e+00 4.329220695793233986e+00 3.560758196273700271e+00
2.375420211624094844e+07 9.815770213508276498e+00 4.328352447424398619e+00 3.560862463804180589e+00
2.375719127956412360e+07 9.814756403293801057e+00 4.327686111373995281e+00 3.560942545860561026e+00
2.376129296450551599e+07 9.813370201893445000e+00 4.326780985073138908e+00 3.561049792117384705e+00
2.376552969054450095e+07 9.811944265889708916e+00 4.325857054284879766e+00 3.561158547382762052e+00
2.376881196221682802e+07 9.810843628214410472e+00 4.325148397530671929e+00 3.561242107922263145e+00
2.377329443196562678e+07 9.809346178950944406e+00 4.324189797273044533e+00 3.561354137677181342e+00
2.377676185537724942e+07 9.808192239046558569e+00 4.323455040791079895e+00 3.561439836598965236e+00
2.378149210481620580e+07 9.806624163677224004e+00 4.322462271915894938e+00 3.561557744305887674e+00
2.378515584484064579e+07 9.805414441920451196e+00 4.321698840094322591e+00 3.561646102048966256e+00
2.379015722714449093e+07 9.803769719355253542e+00 4.320665466044352421e+00 3.561764565251879233e+00
2.379402626395666972e+07 9.802502590511911862e+00 4.319872349393744315e+00 3.561855640091398101e+00
2.379931699632956088e+07 9.800777132801123059e+00 4.318794585651353657e+00 3.561978204392884706e+00
2.380340886786980554e+07 9.799448362724977102e+00 4.317966258071717967e+00 3.562072997133631347e+00
2.380759163561983407e+07 9.798095172855411761e+00 4.317122960594029557e+00 3.562167946603810087e+00
2.381185801090148091e+07 9.796720198579269123e+00 4.316266256278241009e+00 3.562264968091489070e+00
2.381622281664244831e+07 9.795318961858672679e+00 4.315393333675363152e+00 3.562366616683646292e+00
2.382219246952255443e+07 9.793411413566285972e+00 4.314200668655976401e+00 3.562505040191194627e+00
2.382680921084711328e+07 9.791943176011638883e+00 4.313279444142594343e+00 3.562607106629731124e+00
2.383150782962980121e+07 9.790455110436901975e+00 4.312343236860238349e+00 3.562710285305566771e+00
2.383471996741117164e+07 9.789441402015418348e+00 4.311705064901501849e+00 3.562787646606825120e+00
2.402898078528773040e+07 9.733508967905775577e+00 4.269095202724077609e+00 3.567499928737003501e+00
2.419469785771782324e+07 9.694270853220864126e+00 4.225419650908983193e+00 3.572485438996978679e+00
2.435742463420839608e+07 9.662736308525945006e+00 4.181932293018128632e+00 3.577763456586707580e+00
2.455479281889113411e+07 9.631425324161893897e+00 4.139831313770593546e+00 3.583541348591575026e+00
2.491002111842169985e+07 9.585152904755744885e+00 4.104324109993651604e+00 3.591317344373212261e+00
2.529945233993586525e+07 9.538302066589755768e+00 4.121868839697935272e+00 3.600966811404022749e+00
2.534994937484687567e+07 9.531709851112022847e+00 4.159881062867513357e+00 3.608596686366297490e+00
2.536262885455160215e+07 9.529812567766215992e+00 4.196542099144795479e+00 3.616740238114617423e+00
2.536874795413802564e+07 9.528799362770500991e+00 4.224728927357372932e+00 3.626798558537630779e+00
2.537073512224305049e+07 9.528454186449451413e+00 4.237426357702448243e+00 3.638162567921826795e+00
2.537194036951019242e+07 9.528245584107223110e+00 4.243914168833331502e+00 3.649087790457724356e+00
2.537298356178315729e+07 9.528068914412077817e+00 4.248663518005841411e+00 3.661801898280037992e+00
2.537378376988819242e+07 9.527937516219497027e+00 4.251776912754439586e+00 3.673379452678560586e+00
2.537455402030230686e+07 9.527815203609637962e+00 4.254410180846776690e+00 3.685242877613929213e+00
2.537531741099703684e+07 9.527698255438210140e+00 4.256722138495254271e+00 3.697235113993349920e+00
2.537608574076299369e+07 9.527584873082501460e+00 4.258770619869477692e+00 3.709264899539678417e+00
2.537687947601227462e+07 9.527472190646811612e+00 4.260633135053436327e+00 3.721472383334010647e+00
2.537770655544290319e+07 9.527359387254954015e+00 4.262328369786481552e+00 3.733862738824834882e+00
2.537857282896535844e+07 9.527246032840889001e+00 4.263847857448576306e+00 3.746350813290868942e+00
2.537949313626028970e+07 9.527130619478615614e+00 4.265217146684997296e+00 3.758987742279345845e+00
2.538047531306940317e+07 9.527012703344670541e+00 4.266425560150461926e+00 3.771700517506575423e+00
2.538152507901729643e+07 9.526892148740596866e+00 4.267464442854480566e+00 3.784395929069162001e+00
2.538242838486102596e+07 9.526792531938591324e+00 4.268175026437631026e+00 3.794595700720095888e+00
2.538364717717039585e+07 9.526663572201870878e+00 4.268892413381661477e+00 3.807338331541806564e+00
2.538498195372492447e+07 9.526528757154039795e+00 4.269420035153578930e+00 3.820011125347886782e+00
2.538645971777540073e+07 9.526386354345287799e+00 4.269745885631262006e+00 3.832587976368140303e+00
2.538812542712581903e+07 9.526233286477850726e+00 4.269866585213771160e+00 3.845092148686277689e+00
2.539004662229329720e+07 9.526065039986267635e+00 4.269772151882079925e+00 3.857542132222024023e+00
2.539233958297784254e+07 9.525873827399850668e+00 4.269466181181566178e+00 3.869989269608058446e+00
2.539455401895050704e+07 9.525697182357754755e+00 4.269080287824589703e+00 3.879891554107676832e+00
2.539804512813348323e+07 9.525431036756289771e+00 4.268458668673167367e+00 3.892103242815196040e+00
2.540401161892656237e+07 9.525000449910340450e+00 4.267687929155576043e+00 3.906118819421561916e+00
2.541192426112227142e+07 9.524457492510279621e+00 4.267394045195636920e+00 3.916872336682638345e+00
2.543469595653041452e+07 9.522968689644304874e+00 4.268919768082281685e+00 3.930792183128401618e+00
2.546500576841371506e+07 9.521055390081148317e+00 4.272069166827813902e+00 3.941779118999909848e+00
2.550292675591959059e+07 9.518731151419860481e+00 4.276001802224664416e+00 3.953933149066502395e+00
2.554461664619226754e+07 9.516253666996533411e+00 4.280039163540307001e+00 3.966186937543582758e+00
2.559084584299215674e+07 9.513588731062027293e+00 4.284011768147701460e+00 3.977923483522121106e+00
2.566089775224899128e+07 9.509671829772827323e+00 4.288631790604523708e+00 3.989993845131768690e+00
2.581599914700812846e+07 9.501087099841331707e+00 4.292266268652836558e+00 3.984629627610549285e+00
2.587851926471646875e+07 9.497459132128032167e+00 4.291658591663954248e+00 3.971779174229580267e+00
2.591815851144699380e+07 9.495051204871614914e+00 4.290507600137519972e+00 3.959973703983891813e+00
2.594860287147051096e+07 9.493125922435421415e+00 4.289140800873839865e+00 3.948610341958197711e+00
2.597937428836752474e+07 9.491096128484011629e+00 4.287233119603063969e+00 3.934734247512126082e+00
2.599991080579958856e+07 9.489684760256904994e+00 4.285575158995670542e+00 3.923805994728664537e+00
2.602213545968068391e+07 9.488095773450792692e+00 4.283610695087636699e+00 3.910514233662407690e+00
2.603855945744135603e+07 9.486875030145903054e+00 4.282031215428446558e+00 3.900110793041172919e+00
2.605737241268505529e+07 9.485423378180398046e+00 4.279799656949567321e+00 3.886983631130340733e+00
2.607387231697985530e+07 9.484096355648778953e+00 4.277357048098686221e+00 3.873662463051001481e+00
2.608534333981121331e+07 9.483138750786050508e+00 4.275292016291208697e+00 3.863004922605147939e+00
2.609762299873514473e+07 9.482075802504711604e+00 4.272617251067089228e+00 3.849855367421049834e+00
2.610602919417773560e+07 9.481321687668151199e+00 4.270409606082924192e+00 3.839473249932114918e+00
2.611504509658494964e+07 9.480484527151093133e+00 4.267583313867223005e+00 3.826672966574087731e+00
2.612273575100825727e+07 9.479743051538253695e+00 4.264672087704535208e+00 3.813973425643931492e+00
2.612930229421435297e+07 9.479086190334218287e+00 4.261695148461907223e+00 3.801417781720286548e+00
2.613496262839271128e+07 9.478499170667612717e+00 4.258641525740271661e+00 3.788947627553132858e+00
2.613983205223903805e+07 9.477976002748768281e+00 4.255533893207713803e+00 3.776652616577136357e+00
2.614401991160036623e+07 9.477510322768905482e+00 4.252391522067365592e+00 3.764605272276865033e+00
2.614766177451356500e+07 9.477091624367643519e+00 4.249194748900363194e+00 3.752744760146885739e+00
2.615084897934233025e+07 9.476713135389573495e+00 4.245932307082343371e+00 3.741070695415239733e+00
2.615366449923788384e+07 9.476368118249144601e+00 4.242572090358954995e+00 3.729546912051057816e+00
2.615666380549796298e+07 9.475988099422670174e+00 4.238328876595833350e+00 3.715768213377137030e+00
2.615888342186936736e+07 9.475697576693150381e+00 4.234589397524135101e+00 3.704394940351663834e+00
2.616087881927499920e+07 9.475428957166593946e+00 4.230635893870851483e+00 3.693181043508323214e+00
2.616299796336140856e+07 9.475135350483828489e+00 4.225598178353534351e+00 3.680152391833371617e+00
2.616486506288880855e+07 9.474869278468032618e+00 4.220162246031584630e+00 3.667835034505852576e+00
2.616653863616612554e+07 9.474625270166786351e+00 4.214175715413802870e+00 3.656722422335280775e+00
2.616854537277029082e+07 9.474327973433490868e+00 4.205031637893126728e+00 3.644428698765090235e+00
2.617076207201399282e+07 9.473998848209822299e+00 4.191506118881331844e+00 3.632590687970157273e+00
2.617406378670983016e+07 9.473520902919100095e+00 4.170639466745037716e+00 3.622301430091449337e+00
2.617811392834483087e+07 9.472976198469050146e+00 4.136930318166425202e+00 3.613840376957022205e+00
2.618213317224605754e+07 9.472492539165925152e+00 4.104035108610892379e+00 3.604903301002393423e+00
2.618655283607867733e+07 9.471976471517782770e+00 4.112740536287296855e+00 3.593988248197551805e+00
2.619152480583898351e+07 9.471294945156667922e+00 4.149960910861588026e+00 3.586307796275024717e+00
2.621488899974697083e+07 9.467512390198480787e+00 4.180205530916867751e+00 3.580614213462131712e+00
2.622324477260960639e+07 9.466018394226775712e+00 4.200785174193377713e+00 3.577109532893803401e+00
2.622405464155974239e+07 9.465863687505487789e+00 4.204811218003195350e+00 3.576478625396836364e+00
2.622478657423279807e+07 9.465720936539737451e+00 4.209332554140951643e+00 3.575797167084651562e+00
2.622550230856702104e+07 9.465578105865981584e+00 4.214950927322830054e+00 3.574988147546635631e+00
2.622612415959282219e+07 9.465450616655786575e+00 4.221125818296655119e+00 3.574143290121174044e+00
2.622674955022731796e+07 9.465318442761990525e+00 4.228388984669071426e+00 3.573191751597195598e+00
2.622744320053168759e+07 9.465166472617555726e+00 4.236903189678537629e+00 3.572116739836999955e+00
2.622808269244164973e+07 9.465021255466579575e+00 4.244212629528409053e+00 3.571223624620696313e+00
2.622912489582659304e+07 9.464775707286262829e+00 4.252579827327676476e+00 3.570246336762354034e+00
2.623033457499033585e+07 9.464483079118737763e+00 4.254646506004656104e+00 3.570057916596399039e+00
2.623210525663270801e+07 9.464056924263593018e+00 4.248470596476387584e+00 3.570818845308839862e+00
2.623320129616232961e+07 9.463800418961195504e+00 4.243002256877983491e+00 3.571444471931120468e+00
2.623457673606687412e+07 9.463486671411519779e+00 4.237524933666826144e+00 3.572041186976999683e+00
2.623638020039741695e+07 9.463083955127425284e+00 4.235219290109564660e+00 3.572175182004823757e+00
2.623788010713554174e+07 9.462748772131316599e+00 4.238396056656876354e+00 3.571644516095700439e+00
2.623921979143233970e+07 9.462442209661210413e+00 4.245692177248399091e+00 3.570671075640414305e+00
2.624017109015776217e+07 9.462216839759229003e+00 4.253368919364736378e+00 3.569659262302906200e+00
2.624103636068609729e+07 9.462004112942999257e+00 4.261886762178556332e+00 3.568572053954854884e+00
2.624175661158192158e+07 9.461820249117314674e+00 4.269833401504958381e+00 3.567579653366012682e+00
2.624246284383922443e+07 9.461633177732696964e+00 4.278121669523662796e+00 3.566560204355673669e+00
2.624327316194322705e+07 9.461409531868504530e+00 4.287904559696606555e+00 3.565373021547704635e+00
2.624400079977793247e+07 9.461200068275628539e+00 4.296667022123379809e+00 3.564320733350168524e+00
2.624464530415575951e+07 9.461007530909940400e+00 4.304252889408582305e+00 3.563416445549673739e+00
2.624542895969015732e+07 9.460764504380065887e+00 4.313131651762883934e+00 3.562364859565795960e+00
2.624625640913591906e+07 9.460497349645949683e+00 4.322027954455887055e+00 3.561316930601623909e+00
2.624713210495813563e+07 9.460203005880282845e+00 4.330906070324917145e+00 3.560276408458159292e+00
2.624805918081273139e+07 9.459878638788273619e+00 4.339755440490057126e+00 3.559244056349954111e+00
2.624889477326143533e+07 9.459575252090409947e+00 4.347307546399290956e+00 3.558366576346771559e+00
2.624992172512181848e+07 9.459188311954145334e+00 4.356122195186661550e+00 3.557346113025165124e+00
2.625084523615981638e+07 9.458827266647046983e+00 4.363667220600445873e+00 3.556475506484869431e+00
2.625197446349970996e+07 9.458369164261839046e+00 4.372470276959824709e+00 3.555462683019852577e+00
2.625298819204378128e+07 9.457942469595135293e+00 4.380023994204747417e+00 3.554595675286614576e+00
2.625404522174857557e+07 9.457482103269621021e+00 4.387587242879005700e+00 3.553729121235346788e+00
2.625514952652968839e+07 9.456984406358664330e+00 4.395184922146868622e+00 3.552860105456015383e+00
2.625630050351367146e+07 9.456447551074914415e+00 4.402807866182598673e+00 3.551989400692971088e+00
2.625749650813861936e+07 9.455870157961310696e+00 4.410439518900199474e+00 3.551118750801219193e+00
2.625873952424348891e+07 9.455249017632427311e+00 4.418089387575559357e+00 3.550247320434027909e+00
2.626003207396728545e+07 9.454580402636937109e+00 4.425770554407482571e+00 3.549373596816987053e+00
2.626137547298264131e+07 9.453860934295216012e+00 4.433484955783796089e+00 3.548497384621856821e+00
2.626253118192876130e+07 9.453221940213838437e+00 4.439922103061488379e+00 3.547767259575197674e+00
2.626372006863172352e+07 9.452545225982662558e+00 4.446368645793205232e+00 3.547037069089124195e+00
2.626519040121520683e+07 9.451681061754227287e+00 4.454115499318504590e+00 3.546161052639397404e+00
2.626645037096550316e+07 9.450916470799022306e+00 4.460571385554756851e+00 3.545432065401320720e+00
2.626774150827306509e+07 9.450109827355081649e+00 4.467026964899313946e+00 3.544704460465506912e+00
2.626906295173885673e+07 9.449259878604530982e+00 4.473479362105668322e+00 3.543978436249081376e+00
2.627041242912223935e+07 9.448366304815788652e+00 4.479920651384984964e+00 3.543254996753743669e+00
2.627151225757478178e+07 9.447618796837661037e+00 4.485066655291635840e+00 3.542678201699327900e+00
2.627291026279476285e+07 9.446643521386622666e+00 4.491482732822975166e+00 3.541960281743869565e+00
2.627404739447513223e+07 9.445829370713608952e+00 4.496604753654135145e+00 3.541388097779313959e+00
2.627548547544323280e+07 9.444772729899462149e+00 4.502965812728205286e+00 3.540678917046854668e+00
2.627664789104828984e+07 9.443896411240444877e+00 4.508018021876767811e+00 3.540116441440397388e+00
2.627781890847893804e+07 9.442993355972976843e+00 4.513031783642841077e+00 3.539559045442578267e+00
2.627899470471764356e+07 9.442066001194298508e+00 4.517992237458272164e+00 3.539008091726939753e+00
2.628017304759970680e+07 9.441115744161537648e+00 4.522896340202555265e+00 3.538464165980252929e+00
2.628134507348255813e+07 9.440149691278412192e+00 4.527701571966737504e+00 3.537931895836198493e+00
2.628250505107062683e+07 9.439172793422265784e+00 4.532400889780266340e+00 3.537412790794515871e+00
2.628337270083652809e+07 9.438428516909436183e+00 4.535877160241758688e+00 3.537028576495607979e+00
2.628452233811092749e+07 9.437424295214732695e+00 4.540434536959001122e+00 3.536525234277548613e+00
2.628537544810510427e+07 9.436665712464693101e+00 4.543774027507874180e+00 3.536156478776334211e+00
2.628649127213400602e+07 9.435656196327563805e+00 4.548093112003621208e+00 3.535679712153855903e+00
2.628730879319275171e+07 9.434904012602601142e+00 4.551222333741785420e+00 3.535334193784796852e+00
2.628810704954282939e+07 9.434159255864722482e+00 4.554251569443518832e+00 3.534999738730525198e+00
2.628888547439336032e+07 9.433423152800330058e+00 4.557174314420006311e+00 3.534677051684201210e+00
2.628964220073484629e+07 9.432698219641672210e+00 4.559985331509579076e+00 3.534366547209458531e+00
2.629037633310075104e+07 9.431986099257898104e+00 4.562682801139337663e+00 3.534068716559101375e+00
2.629108786431710795e+07 9.431287599946642786e+00 4.565260624334253947e+00 3.533783710703266578e+00
2.629177415049010515e+07 9.430606159258397625e+00 4.567707290688207245e+00 3.533513202818677978e+00
2.629221747657112405e+07 9.430161947181941784e+00 4.569260225705788159e+00 3.533341331850725631e+00
2.629285819746395200e+07 9.429514426346887745e+00 4.571464109232244333e+00 3.533097298096017802e+00
2.629327001643151790e+07 9.429094825896509491e+00 4.572851772532916748e+00 3.532943522812721504e+00
2.629386256499928981e+07 9.428486470676816111e+00 4.574789771837315833e+00 3.532728234369659326e+00
2.629424098766088113e+07 9.428095164155818608e+00 4.575990906582197759e+00 3.532594582834087671e+00
2.629478231155332550e+07 9.427531728018667678e+00 4.577646168705657104e+00 3.532410206410572684e+00
2.629512712354095280e+07 9.427170640366872689e+00 4.578651181295589012e+00 3.532298037365275256e+00
2.629561943039122224e+07 9.426652254279103360e+00 4.580038585727765010e+00 3.532142852085859541e+00
2.629602418638332561e+07 9.426223644950685099e+00 4.581035030130653496e+00 3.532030488073285124e+00
2.629631492502588406e+07 9.425914566124138361e+00 4.581589970253686417e+00 3.531967017409874288e+00
2.629644303163644671e+07 9.425778112142708665e+00 4.581861490607960441e+00 3.531936119601942980e+00
2.629652534230230004e+07 9.425690361323788125e+00 4.581964503539476041e+00 3.531923923150973366e+00
2.629660610138295591e+07 9.425604226209749470e+00 4.582040619000930626e+00 3.531914606754567032e+00
2.629668447977989540e+07 9.425520600998662957e+00 4.582141288247192357e+00 3.531902673405175719e+00
2.629684633232065290e+07 9.425347771192079449e+00 4.582555584938180715e+00 3.531856011650893912e+00
2.629706256208423898e+07 9.425116276615209898e+00 4.583632176305695971e+00 3.531737664471256366e+00
2.629731742368445545e+07 9.424841873725162245e+00 4.585438745185354215e+00 3.531540697930412698e+00
2.629783439904076234e+07 9.424277376017046848e+00 4.590403071179859573e+00 3.531001819983140777e+00
2.629843164229365438e+07 9.423607361548601347e+00 4.597638293112452423e+00 3.530218923002983900e+00
2.629912497258282080e+07 9.422800252207244043e+00 4.606648535056909743e+00 3.529246308742135518e+00
2.630004781195345894e+07 9.421678260092171797e+00 4.616196544783525368e+00 3.528215875144619318e+00
2.630301345126382262e+07 9.417894151952754811e+00 4.625221512397784451e+00 3.527225907640950453e+00
2.630570079068451375e+07 9.414382951086340157e+00 4.629540095780006581e+00 3.526740608329375970e+00
2.630663434921633080e+07 9.413146952268167666e+00 4.630745719930589033e+00 3.526603872323332389e+00
2.630712257866345719e+07 9.412498235028627036e+00 4.631017477366124346e+00 3.526571124913267852e+00
2.630741327509051561e+07 9.412111729760066936e+00 4.630937145216062589e+00 3.526577677055038329e+00
2.630754542019670829e+07 9.411936084959824811e+00 4.630792013964573073e+00 3.526592327034382190e+00
2.630766535549426079e+07 9.411776771924627027e+00 4.630590687313407727e+00 3.526613161399614338e+00
2.630766652186839283e+07 9.411775222691069587e+00 4.630588673480154682e+00 3.526613370081355114e+00
2.630777120555164292e+07 9.411636294844836215e+00 4.630305261128874861e+00 3.526643141087395961e+00
2.630777222310829535e+07 9.411634944506868550e+00 4.630302434781461862e+00 3.526643438159433597e+00
2.630781791450946778e+07 9.411574380781301485e+00 4.629848384212504442e+00 3.526691998084174440e+00
2.630786790842560679e+07 9.411508253687964398e+00 4.629384062830250279e+00 3.526741873392132742e+00
2.630791837275742739e+07 9.411441642787446327e+00 4.629013775423199029e+00 3.526781678526151875e+00
2.630791886755836383e+07 9.411440989696309600e+00 4.629010163613362039e+00 3.526782066794632353e+00
