# #MIST v1.1 [Fe/H] = 0, v_init = 0, reprocessed track 
# #star_age 	 star_mass 	 logL 	 logT
2.154885370921150241e+02 1.199999160101815221e+01 3.804337143511439923e+00 3.611055189041068925e+00
2.227387542921435681e+02 1.199999135952666585e+01 3.801953492703955551e+00 3.611295990407294099e+00
2.361500009047240383e+02 1.199999092278565804e+01 3.797648903534414533e+00 3.611712725355007869e+00
2.472631467760377291e+02 1.199999056595591007e+01 3.794051201072475177e+00 3.612054489120089418e+00
2.585690376369169599e+02 1.199999020866323995e+01 3.790500181447071348e+00 3.612412576373159379e+00
2.700208788341198556e+02 1.199998985243721883e+01 3.786927731188523882e+00 3.612763007076049249e+00
2.816938210845731305e+02 1.199998949502876933e+01 3.783411063678939534e+00 3.613097083230137230e+00
3.025084324213714240e+02 1.199998886949301280e+01 3.777351133272531580e+00 3.613699525183540651e+00
3.147524111699684681e+02 1.199998851018269264e+01 3.773826821807317433e+00 3.614033571771163356e+00
3.305389504405653156e+02 1.199998805674770708e+01 3.769227706958611979e+00 3.614469734080887342e+00
3.523913883029126737e+02 1.199998744024025754e+01 3.763027450991142331e+00 3.615084600660012359e+00
3.650570636965054518e+02 1.199998709154539966e+01 3.759631355508436190e+00 3.615419514518968036e+00
3.912214836106748521e+02 1.199998638745448609e+01 3.752705470475017346e+00 3.616090011280270744e+00
4.049497247542732907e+02 1.199998602644614820e+01 3.749137807847939374e+00 3.616433989225296131e+00
4.331442337159180624e+02 1.199998530244864092e+01 3.742057516067196499e+00 3.617142019408098541e+00
4.471837980544383981e+02 1.199998495022020428e+01 3.738580607245584275e+00 3.617479531328584130e+00
4.736696179864900387e+02 1.199998430023838480e+01 3.732382425456798103e+00 3.618122976389864576e+00
4.981732311534951236e+02 1.199998371568077360e+01 3.726548930655611436e+00 3.618678993866971449e+00
5.259958705782116795e+02 1.199998306924843128e+01 3.720051907831040339e+00 3.619300826108132529e+00
5.558595539148311673e+02 1.199998239539790212e+01 3.713165128661576109e+00 3.619965039125837780e+00
5.868353005206630542e+02 1.199998171737924757e+01 3.706212526112057759e+00 3.620630198686849432e+00
6.026937208785529947e+02 1.199998137826402100e+01 3.702669982174201735e+00 3.620965083665070861e+00
6.343933594897673629e+02 1.199998071602364647e+01 3.695840720148473757e+00 3.621627047722922654e+00
6.670081712230805806e+02 1.199998005497666931e+01 3.689113791099953410e+00 3.622260600417138487e+00
7.010755259397774353e+02 1.199997938485463322e+01 3.682163737157808203e+00 3.622938228278665740e+00
7.356068322790290495e+02 1.199997872639958629e+01 3.675241500302597775e+00 3.623609459871606653e+00
7.844915039459858690e+02 1.199997782665120916e+01 3.665978621708242180e+00 3.624497017172135571e+00
8.218016543400100318e+02 1.199997716446410223e+01 3.659008993353310757e+00 3.625165125942331201e+00
8.641763836771910974e+02 1.199997643756902121e+01 3.651187453757644974e+00 3.625920253721092834e+00
9.025467559166946785e+02 1.199997579997573460e+01 3.644299170096665819e+00 3.626577408083698106e+00
9.418800065354107574e+02 1.199997516596386760e+01 3.637614477602379992e+00 3.627220311368328787e+00
9.981669251036566948e+02 1.199997428963532542e+01 3.628238446973776732e+00 3.628124211184755588e+00
1.046196068299059789e+03 1.199997357091982941e+01 3.620699440097583377e+00 3.628856560031170631e+00
1.090418753410924637e+03 1.199997292918869363e+01 3.613764327759780848e+00 3.629521956056686705e+00
1.158765039733606272e+03 1.199997197436044516e+01 3.603681105963725706e+00 3.630499727585132064e+00
1.206280380912869987e+03 1.199997133498294311e+01 3.597079768783907561e+00 3.631141452754762078e+00
1.274494993223529036e+03 1.199997044833037307e+01 3.587572089470857595e+00 3.632071932129103953e+00
1.331337185011468137e+03 1.199996973834354108e+01 3.580222755775849031e+00 3.632789192796877398e+00
1.404156647712638232e+03 1.199996886008478114e+01 3.570966432215702646e+00 3.633685450495674818e+00
1.466207167482139994e+03 1.199996814029654146e+01 3.563543757439255444e+00 3.634414256889407557e+00
1.544410129285044832e+03 1.199996726440638461e+01 3.554209657044326676e+00 3.635331676834287151e+00
1.631967683805337174e+03 1.199996632584225331e+01 3.544434819754289201e+00 3.636287114384908481e+00
1.693212699317912438e+03 1.199996569265622881e+01 3.537758816230486936e+00 3.636950570097486679e+00
1.788336088137785737e+03 1.199996474491763898e+01 3.528048058979588841e+00 3.637911085022101254e+00
1.863787641517156771e+03 1.199996402199518641e+01 3.520603826853893725e+00 3.638658969496558093e+00
1.958065666060534795e+03 1.199996314959894406e+01 3.511526529451910239e+00 3.639563471815439932e+00
2.064944856828094544e+03 1.199996220217572862e+01 3.501918961243031703e+00 3.640535112553461072e+00
2.149671034911317292e+03 1.199996147955632075e+01 3.494668610350252891e+00 3.641279374659183610e+00
2.257333092993874288e+03 1.199996059190575259e+01 3.485965390321694723e+00 3.642178067815916798e+00
2.381209455166820135e+03 1.199995961200634653e+01 3.476505984958651485e+00 3.643167452824731534e+00
2.511203587767809950e+03 1.199995862646039413e+01 3.467027980013273947e+00 3.644166127772942687e+00
2.600614222115148550e+03 1.199995797186648083e+01 3.461050192794119074e+00 3.644820561101276279e+00
2.741756746155881956e+03 1.199995697310489007e+01 3.451887361446086100e+00 3.645823738539195169e+00
2.890928161706702213e+03 1.199995595974195517e+01 3.443069974254655552e+00 3.646809259532671987e+00
3.010676706663263758e+03 1.199995517483599272e+01 3.436375759721250756e+00 3.647578372239465683e+00
3.163209331710020251e+03 1.199995420567330484e+01 3.428495178927677411e+00 3.648503684083877818e+00
3.339022657071112917e+03 1.199995313031092437e+01 3.420046987363795310e+00 3.649535059503281609e+00
3.476351376482567503e+03 1.199995231892950898e+01 3.413746248169775566e+00 3.650327528559011103e+00
3.666873293088935952e+03 1.199995122833167471e+01 3.405928333571065725e+00 3.651357693659845527e+00
3.854635737809236161e+03 1.199995018870831132e+01 3.398913963234796221e+00 3.652330745745372198e+00
4.014805185202387293e+03 1.199994932906744438e+01 3.393401403363231594e+00 3.653144465757618864e+00
4.220382496409577470e+03 1.199994825388319342e+01 3.387178367678707058e+00 3.654108624249808202e+00
4.400591185233950455e+03 1.199994733740425445e+01 3.382308452401683319e+00 3.654929817946917403e+00
4.654496235046328366e+03 1.199994607840323013e+01 3.376442746522065885e+00 3.656037958424739109e+00
4.906821309965953333e+03 1.199994485852590032e+01 3.371676881416737714e+00 3.657080519350671466e+00
5.128049694785795509e+03 1.199994381267208965e+01 3.368335197954157589e+00 3.657958673275966355e+00
5.336836070929977723e+03 1.199994283989892452e+01 3.365843518720599281e+00 3.658752410423364854e+00
5.642820138188671081e+03 1.199994143398452628e+01 3.363389242946510649e+00 3.659893247281808648e+00
5.913627503983431779e+03 1.199994020627592484e+01 3.362546232245691158e+00 3.660852684398534507e+00
6.172202177278515592e+03 1.199993903970733733e+01 3.362741862728866771e+00 3.661743972383197931e+00
6.547530694012404638e+03 1.199993734655236288e+01 3.365194177453349145e+00 3.662983241936748513e+00
6.832524566184314608e+03 1.199993605321973789e+01 3.368666251432562486e+00 3.663893116105918502e+00
7.153170040266935757e+03 1.199993457968648869e+01 3.374446248527794179e+00 3.664892824092048862e+00
7.525019147350583808e+03 1.199993282649605142e+01 3.383792225909321161e+00 3.666019371534854798e+00
7.805803266884571713e+03 1.199993145950648810e+01 3.392901712732752983e+00 3.666859394313394027e+00
8.141977493846648940e+03 1.199992975386601302e+01 3.406254881724161354e+00 3.667862225132893172e+00
8.511300496995962021e+03 1.199992776666400118e+01 3.424219342785038922e+00 3.668991524782353242e+00
8.859097575533551208e+03 1.199992575367944525e+01 3.444341218730334386e+00 3.670094246440241292e+00
9.191732395877934323e+03 1.199992366475144578e+01 3.466312996112193012e+00 3.671239005580001269e+00
9.482489192337796339e+03 1.199992168100829915e+01 3.487055961418525474e+00 3.672334391705958989e+00
9.829245771489429899e+03 1.199991909274539736e+01 3.512539658412036303e+00 3.673813395556372097e+00
1.015054361583117498e+04 1.199991645779948080e+01 3.535799019188439196e+00 3.675386491490417740e+00
1.049321603894915825e+04 1.199991338718940526e+01 3.558608842936456629e+00 3.677312714660688098e+00
1.084887611092723637e+04 1.199990993155082464e+01 3.578902542418519683e+00 3.679567924396328849e+00
1.122915559836229295e+04 1.199990596662937747e+01 3.597131784846342661e+00 3.682307838697304270e+00
1.163635586891501953e+04 1.199990146395337121e+01 3.614596144213079398e+00 3.686129788993745215e+00
1.203600030985261947e+04 1.199989683101423665e+01 3.625771880039239559e+00 3.691479895519279353e+00
1.240249537916621375e+04 1.199989251526272227e+01 3.633582611574965426e+00 3.697108649848558581e+00
1.277169766065833028e+04 1.199988812662165039e+01 3.641284554710494170e+00 3.703468732967151844e+00
1.314306841337855258e+04 1.199988370743749933e+01 3.645834409686510291e+00 3.710115635831331637e+00
1.349952254391503811e+04 1.199987951165259048e+01 3.649070154307987313e+00 3.716926176425729533e+00
1.385292358885127396e+04 1.199987540923895502e+01 3.651971051715015903e+00 3.723968704503013427e+00
1.422507199699391640e+04 1.199987116332874848e+01 3.653886912263379028e+00 3.731270185464559574e+00
1.456223032368178428e+04 1.199986739291819937e+01 3.655319911974193037e+00 3.737814534002773303e+00
1.495395015812238125e+04 1.199986311280119722e+01 3.655623716175384175e+00 3.744979348349281256e+00
1.531864805558523949e+04 1.199985922176471576e+01 3.656635550174426985e+00 3.751638329040028363e+00
1.573140404743591353e+04 1.199985491079790023e+01 3.658865930425176494e+00 3.759199667164205838e+00
1.611866252497063033e+04 1.199985094106362382e+01 3.661310171194482876e+00 3.766170601874985202e+00
1.651439361664465105e+04 1.199984694618160219e+01 3.664701923374295234e+00 3.773316898347503390e+00
1.690899367226367031e+04 1.199984301394291464e+01 3.668503340734119877e+00 3.780375043285777004e+00
1.732582274831784889e+04 1.199983890449136936e+01 3.673247140128290233e+00 3.787860898052160863e+00
1.769385145768128859e+04 1.199983530607069682e+01 3.677781050733341939e+00 3.794462670729791043e+00
1.811538555991020621e+04 1.199983121413173848e+01 3.683150884869624164e+00 3.802002720654211743e+00
1.849838420840702747e+04 1.199982752095402105e+01 3.688021872819005509e+00 3.808820267055905262e+00
1.892245532264064968e+04 1.199982346135099043e+01 3.693208299397941374e+00 3.816305414839076704e+00
1.932228193566164555e+04 1.199981966300454772e+01 3.697763913017870774e+00 3.823283754868369577e+00
1.973758623765589437e+04 1.199981575751441731e+01 3.701423114010293336e+00 3.830247098107735670e+00
2.021299244348733555e+04 1.199981134210886680e+01 3.705757532679041955e+00 3.838267521595234655e+00
2.063331767723395023e+04 1.199980748959410448e+01 3.709006501741447970e+00 3.845210861955007609e+00
2.107070259497175357e+04 1.199980354206294031e+01 3.711294991071309557e+00 3.852127132436328871e+00
2.158051121654043527e+04 1.199979902683861432e+01 3.713786308376626266e+00 3.860107987067033175e+00
2.205354290559043875e+04 1.199979492145839544e+01 3.715488492243996355e+00 3.867289424170256673e+00
2.255032512864028831e+04 1.199979070430723915e+01 3.716293325224563127e+00 3.874458511549510931e+00
2.307279515449170867e+04 1.199978637774010259e+01 3.717227511405473361e+00 3.881882936447167864e+00
2.352709973799534782e+04 1.199978270185849460e+01 3.717859777199683080e+00 3.888146558090061156e+00
2.409926699291449040e+04 1.199977818279004183e+01 3.718544935218785152e+00 3.895796359300232048e+00
2.467659987999802979e+04 1.199977374221908732e+01 3.719304617501889343e+00 3.903271014563555852e+00
2.520465995059672423e+04 1.199976977576340076e+01 3.720226313318916844e+00 3.909926836248918125e+00
2.578593758370768046e+04 1.199976550434002576e+01 3.721652745568209575e+00 3.917088797563599289e+00
2.636444312713876570e+04 1.199976134053814292e+01 3.723633257626026705e+00 3.924076685180505120e+00
2.693740971571732371e+04 1.199975728867500990e+01 3.726236578195351257e+00 3.930891888091659681e+00
2.756767344709928147e+04 1.199975289769794173e+01 3.729910128654941204e+00 3.938306001968432390e+00
2.822533916174064507e+04 1.199974837173483522e+01 3.734691603904148227e+00 3.945982194573538493e+00
2.877141564053174079e+04 1.199974464353272552e+01 3.739404438380330209e+00 3.952331323855660550e+00
2.944208686579231289e+04 1.199974008563597572e+01 3.746100540290739023e+00 3.960118678373643952e+00
3.006244373081571757e+04 1.199973587466726421e+01 3.753135948251416831e+00 3.967336390902661325e+00
3.066198896043634886e+04 1.199973179736642592e+01 3.760666203966719578e+00 3.974330381864638717e+00
3.127551374217544799e+04 1.199972760522770976e+01 3.769055200999919197e+00 3.981517831786948847e+00
3.190240575758324849e+04 1.199972329070958565e+01 3.778160519028816111e+00 3.988857785296204828e+00
3.249892718165056067e+04 1.199971914567425380e+01 3.787136922405618389e+00 3.995797317726361264e+00
3.302956527501998062e+04 1.199971543516849337e+01 3.795741834437657225e+00 4.002073344522454335e+00
3.368350502483511082e+04 1.199971123272988827e+01 3.806960762283624788e+00 4.009906036537101315e+00
3.434341804467311886e+04 1.199970763260639828e+01 3.818623519174059844e+00 4.017824416688502431e+00
3.484140332933617901e+04 1.199970534894747409e+01 3.827293044738245165e+00 4.023699149555707955e+00
3.551116194733270095e+04 1.199970287038814831e+01 3.839813298346342663e+00 4.031853922020017578e+00
3.601028635394665616e+04 1.199970147953179733e+01 3.849015061704083251e+00 4.037846817693127477e+00
3.667785801936009375e+04 1.199970014674187979e+01 3.861838913018163844e+00 4.046028707325519669e+00
3.717534375615460158e+04 1.199969918292594251e+01 3.871526336734030682e+00 4.052162634813227804e+00
3.783768128897619317e+04 1.199969780010909837e+01 3.884220124227705018e+00 4.060261476702530459e+00
3.849600531025003875e+04 1.199969630351760941e+01 3.897160921786704701e+00 4.068452778296036243e+00
3.898555738696851768e+04 1.199969510379648341e+01 3.906818170620544706e+00 4.074570611143363053e+00
3.963403608971315407e+04 1.199969339119620848e+01 3.919555661776276789e+00 4.082697998888558999e+00
4.011694048153280164e+04 1.199969201816265851e+01 3.928963179894642721e+00 4.088763134629545881e+00
4.075435397513403586e+04 1.199969006880257183e+01 3.941249334856652631e+00 4.096782701176185704e+00
4.138572931968535704e+04 1.199968797360706674e+01 3.953242522529129666e+00 4.104739552640456424e+00
4.185490988796712190e+04 1.199968630376545420e+01 3.962022455256785314e+00 4.110660210138696868e+00
4.247464786883498164e+04 1.199968394135915162e+01 3.973424112781915873e+00 4.118475506074833703e+00
4.309118027060429449e+04 1.199968140395983163e+01 3.984521881357506956e+00 4.126234422140552027e+00
4.370485674599680351e+04 1.199967868179084363e+01 3.995301712311899678e+00 4.133939920697995873e+00
4.431561969488923933e+04 1.199967576694553451e+01 4.005746432999470308e+00 4.141589802367395379e+00
4.492239233572041849e+04 1.199967265736732891e+01 4.015825022931328370e+00 4.149168987976845635e+00
4.552453841930525232e+04 1.199966935058868067e+01 4.025519221916815660e+00 4.156666219023730235e+00
4.612233746274848818e+04 1.199966584024961236e+01 4.034829235849204387e+00 4.164079429918630559e+00
4.671646198800099955e+04 1.199966211778958325e+01 4.043762991134953744e+00 4.171411351015411384e+00
4.730761270052388136e+04 1.199965817411166036e+01 4.052331044575314678e+00 4.178665604083120932e+00
4.793310199006488983e+04 1.199965373065957053e+01 4.061042256654936011e+00 4.186290910696868650e+00
4.852007530093856622e+04 1.199964930206583880e+01 4.068887466456143187e+00 4.193395611306145909e+00
4.921538231390119472e+04 1.199964372207765528e+01 4.077767653735807407e+00 4.201742101821048792e+00
4.983638992829305062e+04 1.199963842066572717e+01 4.085319753877953097e+00 4.209128165269161670e+00
5.052995453036315303e+04 1.199963214198554340e+01 4.093342732974635467e+00 4.217296254471712302e+00
5.115054233817166823e+04 1.199962619289766863e+01 4.100154484129113541e+00 4.224527470934136275e+00
5.184501384381982643e+04 1.199961916329812794e+01 4.107380278401503659e+00 4.232529410312565687e+00
5.246758554566348903e+04 1.199961251822824693e+01 4.113504888226994893e+00 4.239617554507015385e+00
5.320217757342635014e+04 1.199960425937798014e+01 4.120315783472152660e+00 4.247873931655630209e+00
5.393982296339764434e+04 1.199959550555735888e+01 4.126711583031101860e+00 4.256043425234815381e+00
5.453274713377161243e+04 1.199958813298665206e+01 4.131537882134154849e+00 4.262519293962043321e+00
5.527772356444550678e+04 1.199957844456525891e+01 4.137212787575125894e+00 4.270537570397611837e+00
5.602774019367215078e+04 1.199956821355857706e+01 4.142498163054025184e+00 4.278473357109151110e+00
5.678175299719219038e+04 1.199955744883221875e+01 4.147389905168580526e+00 4.286309515779189283e+00
5.754172794668185816e+04 1.199954611843931751e+01 4.151903579100890695e+00 4.294060129916063673e+00
5.830974563316097192e+04 1.199953418600895461e+01 4.156053013264984664e+00 4.301739244943155960e+00
5.912476002392623923e+04 1.199952100010410305e+01 4.160015068424105955e+00 4.309714809240985822e+00
6.002905025206238497e+04 1.199950577099852644e+01 4.163911928959898923e+00 4.318356276973153385e+00
6.082687120132992277e+04 1.199949181762729822e+01 4.166922960973335144e+00 4.325792058570436360e+00
6.163633926536165382e+04 1.199947718759541537e+01 4.169589108591494231e+00 4.333154553963018962e+00
6.250098162422361202e+04 1.199946105312844580e+01 4.172018605981977046e+00 4.340811729109801398e+00
6.346608479609897768e+04 1.199944247122934549e+01 4.174250425600240177e+00 4.349106885605596773e+00
6.436637428217072738e+04 1.199942461214667588e+01 4.175875027843992449e+00 4.356592167577982622e+00
6.537559915287431795e+04 1.199940405268067600e+01 4.177191225863971624e+00 4.364691049667566602e+00
6.632240589734839159e+04 1.199938428201728158e+01 4.177917700426612591e+00 4.371986032626503871e+00
6.743873818423162447e+04 1.199936045976559740e+01 4.178111678977754373e+00 4.380189450295921993e+00
6.860066087118726864e+04 1.199933518243084052e+01 4.177424876877822157e+00 4.388209673368706376e+00
6.982230682350188727e+04 1.199930824586786393e+01 4.175431572952164494e+00 4.395951516280136140e+00
7.113026221851285663e+04 1.199927928038391300e+01 4.171297243818063549e+00 4.403237458644962743e+00
7.263823732956431923e+04 1.199925307418737219e+01 4.162951059768461803e+00 4.409945722846059013e+00
7.456553285331922234e+04 1.199924940599314738e+01 4.146424352111907297e+00 4.415710350444978616e+00
7.686272311386455840e+04 1.199924608659198100e+01 4.119199314848651206e+00 4.418774807301227625e+00
7.902554862054616387e+04 1.199924332192273013e+01 4.089637034843578434e+00 4.418965432269705396e+00
8.117636591436357412e+04 1.199924095219504672e+01 4.061739158559602991e+00 4.418076575696294306e+00
8.386053050418592466e+04 1.199923840565447009e+01 4.035857626191990732e+00 4.417460497316937129e+00
8.720858477997532464e+04 1.199923556005346725e+01 4.022325716909703530e+00 4.419650086286669222e+00
9.052804732090036850e+04 1.199923271876491526e+01 4.026399284157113456e+00 4.425796969208660059e+00
9.287882893658766989e+04 1.199923047935935827e+01 4.037129463020942666e+00 4.432559537079221457e+00
9.487579371046762390e+04 1.199922831046832705e+01 4.048799833461437458e+00 4.439370032874096594e+00
9.680910371019886225e+04 1.199922591284142293e+01 4.059176660522728852e+00 4.445936808940627927e+00
9.916713978035864420e+04 1.199922261979996918e+01 4.067267762243758966e+00 4.452721567553687976e+00
1.024927679340353789e+05 1.199921750874586834e+01 4.067640138777935732e+00 4.458877940818141816e+00
1.069211252637894795e+05 1.199921061033570169e+01 4.051620477656784125e+00 4.461227431076878247e+00
1.108449598946499027e+05 1.199920497950800780e+01 4.032226337117637449e+00 4.460212527885682121e+00
1.163508396625937894e+05 1.199919792857688527e+01 4.010956185634306337e+00 4.457800924609515825e+00
1.225557751552544796e+05 1.199919081215764294e+01 4.000175977556294171e+00 4.456188999943773155e+00
1.266297264766104345e+05 1.199918635526533883e+01 3.997794489322445965e+00 4.455857252858163697e+00
1.266619685749926139e+05 1.199918632052529333e+01 3.997787286964881392e+00 4.455856295803110712e+00
1.315756643684389710e+05 1.199918102672714504e+01 3.996699904226070466e+00 4.455711326059238253e+00
1.374798374241863203e+05 1.199917471034449967e+01 3.996170044375103814e+00 4.455603699552963093e+00
1.375262660458566679e+05 1.199917466086419537e+01 3.996167980510142659e+00 4.455602875951981900e+00
1.446298451614216028e+05 1.199916709127164616e+01 3.995858496677217708e+00 4.455476962826519838e+00
1.446855595074260491e+05 1.199916703207406954e+01 3.995857277540496355e+00 4.455475994070287271e+00
1.532321401845057553e+05 1.199915795247076566e+01 3.995676427092669680e+00 4.455327843059539106e+00
1.532989973997110501e+05 1.199915788162010344e+01 3.995675844860780757e+00 4.455326745722790527e+00
1.635816370982888329e+05 1.199914698665298118e+01 3.995591233991174107e+00 4.455158634221992209e+00
1.636618657565352041e+05 1.199914690183936727e+01 3.995591083801226961e+00 4.455157390628020408e+00
1.727176337898156780e+05 1.199913732798713006e+01 3.995573709903418091e+00 4.455016031550986355e+00
1.761293992480227607e+05 1.199913372456832406e+01 3.995571432122702049e+00 4.454964959540118841e+00
1.870244426823458343e+05 1.199912223227934049e+01 3.995586381327781655e+00 4.454803241533592306e+00
1.911289491937660496e+05 1.199911790791317401e+01 3.995593904931869389e+00 4.454744093454038989e+00
1.912444784616408870e+05 1.199911778635822479e+01 3.995594248290570416e+00 4.454742452560805255e+00
2.043691498127242667e+05 1.199910397706017662e+01 3.995633805654787096e+00 4.454555654815319343e+00
2.093132559572577011e+05 1.199909878217114034e+01 3.995650968507448830e+00 4.454487312880297978e+00
2.094518910787074128e+05 1.199909863671737931e+01 3.995651558121184443e+00 4.454485431809663609e+00
2.252622397758824809e+05 1.199908204987452010e+01 3.995719354557295766e+00 4.454270804731685018e+00
2.254211225892905495e+05 1.199908188354322114e+01 3.995720173712603351e+00 4.454268733647626988e+00
2.313839672920572048e+05 1.199907563650477549e+01 3.995749091453887569e+00 4.454190372291347622e+00
2.315503294377968705e+05 1.199907546246370416e+01 3.995750001677974339e+00 4.454188235285442943e+00
2.505193190942140063e+05 1.199905562257998604e+01 3.995854581257765048e+00 4.453944821336613735e+00
2.575970653103917721e+05 1.199904822928819037e+01 3.995897703220495867e+00 4.453857142379316514e+00
2.577881494383990939e+05 1.199904803004330134e+01 3.995898964996966285e+00 4.453854833248300338e+00
2.796559188481724123e+05 1.199902523259618192e+01 3.996044248973086521e+00 4.453591127155645424e+00
2.798594634249901283e+05 1.199902502087460476e+01 3.996045743601623457e+00 4.453588782460274231e+00
2.876501643801140017e+05 1.199901691188916075e+01 3.996101773582919403e+00 4.453498297867612088e+00
2.878567863377140602e+05 1.199901669712850527e+01 3.996103338752586609e+00 4.453495955550732965e+00
3.115427147718162159e+05 1.199899208354571201e+01 3.996283989279644011e+00 4.453228472363477408e+00
3.197891740340125980e+05 1.199898352564811255e+01 3.996350793618558939e+00 4.453138747522078944e+00
3.200060936749512912e+05 1.199898330078746156e+01 3.996352616333607166e+00 4.453136442832742681e+00
3.448900843431730755e+05 1.199895751197206550e+01 3.996563150405120002e+00 4.452873372157112541e+00
3.534553741676600184e+05 1.199894864533159655e+01 3.996638982958100161e+00 4.452786064655651188e+00
3.536799577918072464e+05 1.199894841306576332e+01 3.996641026003209252e+00 4.452783825827827613e+00
3.794587981790775666e+05 1.199892175891517176e+01 3.996883028642180591e+00 4.452525986316477002e+00
3.882718384516687947e+05 1.199891265462150969e+01 3.996966777557608097e+00 4.452441631538983202e+00
3.885026541343383724e+05 1.199891241636184525e+01 3.996969176431168336e+00 4.452439402072460695e+00
4.149699798641032539e+05 1.199888510228710281e+01 3.997242541883653910e+00 4.452188055423400570e+00
4.239963520778837847e+05 1.199887579359442391e+01 3.997332817251237458e+00 4.452106920655566569e+00
4.242316402229307569e+05 1.199887555110878345e+01 3.997335131453931822e+00 4.452104906863072920e+00
4.512186991306891432e+05 1.199884774438697477e+01 3.997599205399572142e+00 4.451875564395793461e+00
4.604408388852108037e+05 1.199883824762973816e+01 3.997695487750776433e+00 4.451797476884228999e+00
4.880316018057612237e+05 1.199880985573725667e+01 3.997979642627701224e+00 4.451570019575338932e+00
4.974329567114312667e+05 1.199880018619910516e+01 3.998083731798614426e+00 4.451493921355956118e+00
4.976785850184904411e+05 1.199879993369514608e+01 3.998086454662701961e+00 4.451491970810824483e+00
5.351935204384826357e+05 1.199876137550697308e+01 3.998512910874522763e+00 4.451197068982633454e+00
5.354429664635630324e+05 1.199876111922458577e+01 3.998515901416706875e+00 4.451195152076479644e+00
5.640843467683474300e+05 1.199873169936361350e+01 3.998859777212353528e+00 4.450977945449761108e+00
5.737471934471701970e+05 1.199872177759494463e+01 3.998970458898394309e+00 4.450909493092169100e+00
6.027034160932472441e+05 1.199869206159040047e+01 3.999305130194909630e+00 4.450709829394287276e+00
6.125149315695022233e+05 1.199868199130067659e+01 3.999413059633885936e+00 4.450645014394801535e+00
6.418924362217172747e+05 1.199865185632503106e+01 3.999739889322931674e+00 4.450455710227316786e+00
6.519082664931445615e+05 1.199864158116442603e+01 3.999856121689692845e+00 4.450390974147354406e+00
6.818940914137455402e+05 1.199861083371553505e+01 4.000207856088835001e+00 4.450202133834553209e+00
6.920767105768764159e+05 1.199860039178627247e+01 4.000330651477445265e+00 4.450139581957968993e+00
7.225634768507692497e+05 1.199856913573508344e+01 4.000701472665602942e+00 4.449957054284016778e+00
7.328662592600219650e+05 1.199855857032623163e+01 4.000831052400490861e+00 4.449895655073436096e+00
7.738156927083716728e+05 1.199851658048199532e+01 4.001341654366360245e+00 4.449662187692403847e+00
7.740866142873191275e+05 1.199851630265393787e+01 4.001345009556862564e+00 4.449660704769358155e+00
8.154475120722774882e+05 1.199847388254526237e+01 4.001863334158334062e+00 4.449436181150099756e+00
8.469268690680712461e+05 1.199844159187107095e+01 4.002262362929259965e+00 4.449271542160825987e+00
8.575308266709838063e+05 1.199843070882036500e+01 4.002401299426727732e+00 4.449215361973866578e+00
8.997550355559015879e+05 1.199838737169557845e+01 4.002940857968861010e+00 4.449005491142668411e+00
9.318830906395798083e+05 1.199835438151146327e+01 4.003366246592888089e+00 4.448847703035831103e+00
9.426843110178535571e+05 1.199834328271088424e+01 4.003504029217573645e+00 4.448796802935810923e+00
9.857130746553209610e+05 1.199829905942305075e+01 4.004082965282445450e+00 4.448593689873592716e+00
1.028985152464854531e+06 1.199825454727544027e+01 4.004656749309234876e+00 4.448401335143725710e+00
1.029270633756533964e+06 1.199825425345631302e+01 4.004660555746264450e+00 4.448400073001958610e+00
1.072832176214965293e+06 1.199820939384827057e+01 4.005238014163039928e+00 4.448212843629745450e+00
1.116770828264975455e+06 1.199816409765950276e+01 4.005808371579343330e+00 4.448035589277424151e+00
1.161142048089340329e+06 1.199811831048424438e+01 4.006388893853938704e+00 4.447861174068437506e+00
1.161435626132685924e+06 1.199811800735957235e+01 4.006392835661267249e+00 4.447860009263221670e+00
1.206215434772612993e+06 1.199807174569318491e+01 4.006997872575592368e+00 4.447686373935518134e+00
1.251251350874396972e+06 1.199802515923351720e+01 4.007622874716335382e+00 4.447515195905091367e+00
1.296446754661274143e+06 1.199797834000680119e+01 4.008252704489564167e+00 4.447349391935095930e+00
1.341810038866392104e+06 1.199793127561103745e+01 4.008863098760008015e+00 4.447194347203961229e+00
1.387493451227369718e+06 1.199788380029634283e+01 4.009480828858148271e+00 4.447040628072127966e+00
1.433529196836265735e+06 1.199783588010368618e+01 4.010128197336774392e+00 4.446885100475005181e+00
1.479735350946413120e+06 1.199778770690894447e+01 4.010787713444542213e+00 4.446733157629589428e+00
1.526019779804796912e+06 1.199773936504487537e+01 4.011427389618166472e+00 4.446591157014998963e+00
1.572517366817979142e+06 1.199769069834633051e+01 4.012079344945354009e+00 4.446448127600238109e+00
1.619285965253539383e+06 1.199764166566908230e+01 4.012753933074954205e+00 4.446304675721464150e+00
1.666176365244420944e+06 1.199759241841815793e+01 4.013406578027704619e+00 4.446172361043283949e+00
1.713286645366110839e+06 1.199754284232992596e+01 4.014075638693951120e+00 4.446037242243207288e+00
1.760650014419791754e+06 1.199749290169024718e+01 4.014766615006699624e+00 4.445901969163823964e+00
1.808075877977875061e+06 1.199744278957035704e+01 4.015447091873217467e+00 4.445773690541956036e+00
1.855621548906440847e+06 1.199739241893098374e+01 4.016118542146279502e+00 4.445649691807467718e+00
1.951005264618162531e+06 1.199729106464598871e+01 4.017513103497728721e+00 4.445398568306656806e+00
1.998940415433219634e+06 1.199723996301274198e+01 4.018213644398719531e+00 4.445277802882134921e+00
2.046945894776695408e+06 1.199718866792441929e+01 4.018914677827630122e+00 4.445158854339215537e+00
2.106998253903812263e+06 1.199712430725299228e+01 4.019794611931079231e+00 4.445013209579886215e+00
2.191322871657110751e+06 1.199703363577039994e+01 4.021015961876664768e+00 4.444817456646547704e+00
2.239826160899564624e+06 1.199698131080347352e+01 4.021734425224464893e+00 4.444703417290305936e+00
2.336806481346704066e+06 1.199687629779317000e+01 4.023187585317472781e+00 4.444482304164576902e+00
2.385514829427329823e+06 1.199682334716642984e+01 4.023915658294728637e+00 4.444373736556775256e+00
2.482945148858369794e+06 1.199671701130577972e+01 4.025380344361662033e+00 4.444160885200846067e+00
2.531924613250774331e+06 1.199666334459130113e+01 4.026102941655670620e+00 4.444059163779638055e+00
2.629875927746136673e+06 1.199655560641633301e+01 4.027596443067090526e+00 4.443850211096188829e+00
2.691158821492249612e+06 1.199648784199654372e+01 4.028530104764650233e+00 4.443723684850142241e+00
2.776964471209930256e+06 1.199639263287294355e+01 4.029838543576845566e+00 4.443548587410901085e+00
2.875333510513793677e+06 1.199628292427487608e+01 4.031325836084787895e+00 4.443354965940363499e+00
2.974119948239061516e+06 1.199617213687164252e+01 4.032866657185985915e+00 4.443156492061294927e+00
3.072739536104912870e+06 1.199606088933175307e+01 4.034399686651532591e+00 4.442964723661273929e+00
3.134518055858534761e+06 1.199599084588401254e+01 4.035361763173932026e+00 4.442845825500851831e+00
3.233393736067809165e+06 1.199587824284116522e+01 4.036904266684042675e+00 4.442657348405806061e+00
3.332439989455528092e+06 1.199576475398487219e+01 4.038465906244043779e+00 4.442469877820251156e+00
3.468710871981643140e+06 1.199560753786960987e+01 4.040620822986194405e+00 4.442214477155754793e+00
3.568138106833477970e+06 1.199549197607332474e+01 4.042203304989227419e+00 4.442029587654895195e+00
3.667710789246768691e+06 1.199537553973550352e+01 4.043796028194691417e+00 4.441845300325302226e+00
3.779856414506668225e+06 1.199524350450622379e+01 4.045594989608564340e+00 4.441639319805953612e+00
3.879874659295467660e+06 1.199512497210421991e+01 4.047212402751050320e+00 4.441455424873273827e+00
4.017746716849428602e+06 1.199496036884112371e+01 4.049461274804402322e+00 4.441201589186530185e+00
4.130609031095818616e+06 1.199482451170546327e+01 4.051310248981809359e+00 4.440994123456541764e+00
4.268901853070243262e+06 1.199465674111997160e+01 4.053587236701907237e+00 4.440739102662312199e+00
4.420024427406796254e+06 1.199447165476574106e+01 4.056098018704339836e+00 4.440459531493235801e+00
4.533595555555876344e+06 1.199433130693151384e+01 4.057996368395301090e+00 4.440247928051463511e+00
4.672500877916529775e+06 1.199415829920196508e+01 4.060323154292102110e+00 4.439987326269335455e+00
4.824240670300960541e+06 1.199396743674507171e+01 4.062901455679794438e+00 4.439699816172471891e+00
4.976098271151167341e+06 1.199377447935432883e+01 4.065477061930815594e+00 4.439409185933461899e+00
5.128172047078695148e+06 1.199357924915431894e+01 4.068108865978043553e+00 4.439113496057381703e+00
5.280199367323915474e+06 1.199338212707025875e+01 4.070737731019996808e+00 4.438814318566892680e+00
5.444516041805666871e+06 1.199316675654212894e+01 4.073591312975274548e+00 4.438485876988763401e+00
5.596292760440269485e+06 1.199296569723807870e+01 4.076255291116295254e+00 4.438177492112588496e+00
5.785741333136089146e+06 1.199271183619176639e+01 4.079596291763834870e+00 4.437785008578678969e+00
5.949667465016588569e+06 1.199248945220292839e+01 4.082509897506450436e+00 4.437437920689260018e+00
6.151355347687933594e+06 1.199221243974238327e+01 4.086120352145903745e+00 4.437000400398807720e+00
6.340431067821592093e+06 1.199194928826746320e+01 4.089534134603722393e+00 4.436579243354275448e+00
6.504052657048646361e+06 1.199171876773328194e+01 4.092511423854203301e+00 4.436205104307783920e+00
6.705187050860772841e+06 1.199143183723888129e+01 4.096182351418279133e+00 4.435732186397352450e+00
6.906237419615102001e+06 1.199114107260946760e+01 4.099923284195235773e+00 4.435244549709883799e+00
7.107106345652114600e+06 1.199084654347051959e+01 4.103676434732906664e+00 4.434740875622914302e+00
7.357496181244003586e+06 1.199047364818070349e+01 4.108389172356400998e+00 4.434089045233116977e+00
7.557789743003870361e+06 1.199017076129508830e+01 4.112225609857187436e+00 4.433545623964372240e+00
7.807514097195333801e+06 1.198978724675708740e+01 4.117057795276064525e+00 4.432841089779824273e+00
8.019744849252353422e+06 1.198945609676391655e+01 4.121207876700183625e+00 4.432215665725836473e+00
8.256621613793473691e+06 1.198908093275971076e+01 4.125893400082948581e+00 4.431487433164614131e+00
8.505352922669177875e+06 1.198868041544251817e+01 4.130880566602173509e+00 4.430685452077006481e+00
8.764062605758644640e+06 1.198825462083005888e+01 4.136118372409244515e+00 4.429812914995437723e+00
9.047624558162851259e+06 1.198777833030483464e+01 4.141972598666506578e+00 4.428803551362088697e+00
9.283704403481679037e+06 1.198737514848268049e+01 4.146930439440215110e+00 4.427909994696753060e+00
9.604640731785718352e+06 1.198681710561070979e+01 4.153788149514376471e+00 4.426619492063457173e+00
9.845268536670122296e+06 1.198639114593348687e+01 4.159022892173172892e+00 4.425590182572173958e+00
1.016345606537183002e+07 1.198581793871388612e+01 4.166075281723895074e+00 4.424140778823504760e+00
1.040066594832110591e+07 1.198538327283516658e+01 4.171434424062115731e+00 4.422988875172570111e+00
1.071376306220241822e+07 1.198480003500800350e+01 4.178647728892787683e+00 4.421366448776987035e+00
1.102371616556293704e+07 1.198421216286743096e+01 4.185954705903319528e+00 4.419634645347088941e+00
1.133065071903463081e+07 1.198361999522904142e+01 4.193317119512226299e+00 4.417799912663957329e+00
1.155924457150216214e+07 1.198317272683085655e+01 4.198868280221283555e+00 4.416354457284840329e+00
1.186272887574350461e+07 1.198257109209684224e+01 4.206337442851666886e+00 4.414319709718287577e+00
1.216371975062850118e+07 1.198196610263177675e+01 4.213867631250002965e+00 4.412157748588773742e+00
1.223922781206234172e+07 1.198181311280138850e+01 4.215777583926010763e+00 4.411590936905074756e+00
1.231465019526666030e+07 1.198165983359780462e+01 4.217695117022782547e+00 4.411014286340487089e+00
1.246444269660321996e+07 1.198135215659729091e+01 4.221528547779655582e+00 4.409837129995443306e+00
1.253934162156784162e+07 1.198111923154764114e+01 4.223451829682241865e+00 4.409230479307252537e+00
1.267791664222153835e+07 1.197964157779064287e+01 4.226944389253231016e+00 4.408056752409208912e+00
1.280549811602894589e+07 1.197696609257957512e+01 4.230080987108923551e+00 4.406916558677735019e+00
1.291941414366702363e+07 1.197359661274310128e+01 4.232837388316701421e+00 4.405849461530793931e+00
1.302261392377885431e+07 1.197043543597440518e+01 4.235352795895597211e+00 4.404854597530284188e+00
1.313418373302521557e+07 1.196697969577259002e+01 4.238093132145699826e+00 4.403748578263672719e+00
1.323478399702704698e+07 1.196382906255822220e+01 4.240584524409459988e+00 4.402722784292519620e+00
1.333610043054151721e+07 1.196062234229148302e+01 4.243114014137404411e+00 4.401660573987092206e+00
1.343867876531405374e+07 1.195734077636762649e+01 4.245698228832611498e+00 4.400554823461437337e+00
1.354259710827230290e+07 1.195398002081982014e+01 4.248337369489213700e+00 4.399401680800258063e+00
1.364703300651337393e+07 1.195056513550256305e+01 4.251015219016425206e+00 4.398207655497486712e+00
1.375254740818346664e+07 1.194707633298605387e+01 4.253747268665629910e+00 4.396964215532046971e+00
1.384692345477381721e+07 1.194392240763466262e+01 4.256213746363797235e+00 4.395818783767600380e+00
1.395287618422062509e+07 1.194034342824825856e+01 4.259009420325732265e+00 4.394493437893711274e+00
1.404778420332716778e+07 1.193710276555648164e+01 4.261538607935234424e+00 4.393269315929702046e+00
1.414326355372371338e+07 1.193380896010561898e+01 4.264109018260811013e+00 4.392001167805924311e+00
1.423907437099867687e+07 1.193046930161235863e+01 4.266714355659558144e+00 4.390689732813971347e+00
1.433261196377033368e+07 1.192717527583927684e+01 4.269281575443939047e+00 4.389370632641849568e+00
1.442177639754043333e+07 1.192400361493308125e+01 4.271756831027791357e+00 4.388074723763908835e+00
1.451768140512228385e+07 1.192055767290195334e+01 4.274445545793078338e+00 4.386638272917549486e+00
1.460530114490235224e+07 1.191737741241432857e+01 4.276928941183763655e+00 4.385284853150630546e+00
1.469380152857639641e+07 1.191413382560520873e+01 4.279463373337137000e+00 4.383876513149930432e+00
1.478294181773651950e+07 1.191083448269927558e+01 4.282044647036289398e+00 4.382413799273314758e+00
1.486044151415414736e+07 1.190793931123617533e+01 4.284311886605799202e+00 4.381105019379113230e+00
1.494160107324973121e+07 1.190488033633146614e+01 4.286706146442808674e+00 4.379698892421755474e+00
1.502987518666685000e+07 1.190152184799006108e+01 4.289332929346818979e+00 4.378128371318908307e+00
1.510910365318526514e+07 1.189847902319406181e+01 4.291710294721653440e+00 4.376680273259360376e+00
1.518922079298964143e+07 1.189537450548952435e+01 4.294132741901297123e+00 4.375178998135472952e+00
1.527017698936447687e+07 1.189220903615352043e+01 4.296601123502110653e+00 4.373623108162200346e+00
1.534150020847702026e+07 1.188939617520398428e+01 4.298792081974420753e+00 4.372219261173584393e+00
1.542040352265373245e+07 1.188625829592120553e+01 4.301236123665379552e+00 4.370629307553974385e+00
1.549328406537073106e+07 1.188333487513503073e+01 4.303510413609683560e+00 4.369126187756675606e+00
1.556350131909670122e+07 1.188049565698294607e+01 4.305719684712773443e+00 4.367645527227333346e+00
1.563439801367842592e+07 1.187760607193446560e+01 4.307966213003258105e+00 4.366119062223027036e+00
1.570632724917751551e+07 1.187465070794403843e+01 4.310264909963093416e+00 4.364536659206800451e+00
1.577887189148801565e+07 1.187164561222307668e+01 4.312601854415959224e+00 4.362907584999445199e+00
1.584792352047709748e+07 1.186876226743589058e+01 4.314845201480831172e+00 4.361325837998538901e+00
1.592126584327899665e+07 1.186567474938368782e+01 4.317249647646503874e+00 4.359612844981651136e+00
1.598071910179066658e+07 1.186315291078229528e+01 4.319214520069398766e+00 4.358200439973184181e+00
1.605592411089891568e+07 1.185993822438248735e+01 4.321723950769761124e+00 4.356384320196257320e+00
1.611676474052648246e+07 1.185731708570711618e+01 4.323773427529808089e+00 4.354892509443128112e+00
1.617816181999675930e+07 1.185465314083387867e+01 4.325860163110711198e+00 4.353369543857164459e+00
1.624039999389648810e+07 1.185193310726393356e+01 4.327997553857695578e+00 4.351808786004102814e+00
1.630308426643533632e+07 1.184917325627455220e+01 4.330173615280411781e+00 4.350224052312144707e+00
1.636620269850899838e+07 1.184637324865907893e+01 4.332390402668663043e+00 4.348619630351602261e+00
1.643013918237208202e+07 1.184351492703009257e+01 4.334665352576501540e+00 4.346991197338322621e+00
1.649490922894099727e+07 1.184059609128639501e+01 4.337004326923633357e+00 4.345347451901875324e+00
1.656078817028278857e+07 1.183760247653281539e+01 4.339423290017851542e+00 4.343693139010849080e+00
1.661497945770813897e+07 1.183512024492031323e+01 4.341448494744293285e+00 4.342356863767610875e+00
1.667859043343024328e+07 1.183218354433254937e+01 4.343872682305933708e+00 4.340832748684128717e+00
1.674772057508472912e+07 1.182896140158172571e+01 4.346578339373400546e+00 4.339263221461888698e+00
1.681863252847548202e+07 1.182562078864169486e+01 4.349449971106436053e+00 4.337795731113092579e+00
1.687775687484223396e+07 1.182280522537622680e+01 4.351943191929601440e+00 4.336739782472363913e+00
1.695335107921681181e+07 1.181916096952127937e+01 4.355308283559683247e+00 4.335729885740200018e+00
1.702806778251782060e+07 1.181550169877855438e+01 4.358928090201681371e+00 4.335337499105071046e+00
1.709053280800002813e+07 1.181238804963607691e+01 4.362325203686380881e+00 4.335813593896743257e+00
1.713291387070395425e+07 1.181023997592741637e+01 4.364956835347153508e+00 4.336840244766820618e+00
1.715851606890163943e+07 1.180892456645870681e+01 4.366757466778100394e+00 4.337900145411019537e+00
1.719179088291138411e+07 1.180719050800738934e+01 4.369470626459653673e+00 4.340014520412930565e+00
1.720863889701370150e+07 1.180629887509105913e+01 4.371103177535980322e+00 4.341561941455822193e+00
1.722351766718336195e+07 1.180550186375777066e+01 4.372772377076928230e+00 4.343315827405151097e+00
1.722698419998800009e+07 1.180531456604630236e+01 4.373205034461750351e+00 4.343794733653332685e+00
1.723936479743973166e+07 1.180464057223532848e+01 4.374913889959398006e+00 4.345751710957191705e+00
1.724747128903894126e+07 1.180419403616873808e+01 4.376222975480276389e+00 4.347304652828696270e+00
1.725673792456678301e+07 1.180367725845130344e+01 4.377993143075630478e+00 4.349440235833986534e+00
1.726452275143739581e+07 1.180323686550449480e+01 4.379807522383114105e+00 4.351627662150717057e+00
1.726630463731089979e+07 1.180313508150613444e+01 4.380281552553096702e+00 4.352193808373573169e+00
1.727109763506931812e+07 1.180285941229400670e+01 4.381689592494385721e+00 4.353855453224751315e+00
1.727652665851392597e+07 1.180254301245135373e+01 4.383603557359219138e+00 4.356049837628523491e+00
1.728105372517377883e+07 1.180227514269920874e+01 4.385570120143484019e+00 4.358208991587540382e+00
1.728208826257365569e+07 1.180221330555904657e+01 4.386083398273200373e+00 4.358755109302498099e+00
1.728486249490708113e+07 1.180204627678695495e+01 4.387599792652709496e+00 4.360329098007344584e+00
1.728800345409142971e+07 1.180185458034681290e+01 4.389645052830667638e+00 4.362350304503661569e+00
1.729062508138620853e+07 1.180169209208678360e+01 4.391714947905776434e+00 4.364280327137558757e+00
1.729122550661296397e+07 1.180165449975680048e+01 4.392248247554332075e+00 4.364759774304473261e+00
1.729331874189622700e+07 1.180152224430024255e+01 4.394321437405586117e+00 4.366557771032084645e+00
1.729507239114606008e+07 1.180140976737432013e+01 4.396378186602692750e+00 4.368243597329757755e+00
1.729654500283894315e+07 1.180131392038358662e+01 4.398392564644607816e+00 4.369811183268279109e+00
1.729778510586535558e+07 1.180123205528739305e+01 4.400347625425935050e+00 4.371259194320329833e+00
1.729883283068368584e+07 1.180116194512537042e+01 4.402233050709803308e+00 4.372591715410486302e+00
1.729972111933941022e+07 1.180110173051538780e+01 4.404033793558157939e+00 4.373811027962905662e+00
1.730096662084232643e+07 1.180101592419172363e+01 4.406932661770881055e+00 4.375680620211124250e+00
1.730154322260476276e+07 1.180097558058048790e+01 4.408447302070062079e+00 4.376616871366844741e+00
1.730215179149557278e+07 1.180093252003351090e+01 4.410187830396781195e+00 4.377659994157936829e+00
1.730284049577284604e+07 1.180088314154267159e+01 4.412335282977247530e+00 4.378908394922621738e+00
1.730345325067757815e+07 1.180083856745620707e+01 4.414421585868301356e+00 4.380081851094900891e+00
1.730393187349466234e+07 1.180080329640015080e+01 4.416137981761464104e+00 4.381029635634718034e+00
1.730435514538596570e+07 1.180077175412706580e+01 4.417694278044651313e+00 4.381880949100631639e+00
1.730478716888193041e+07 1.180073921409671200e+01 4.419289510183867620e+00 4.382746015134920015e+00
1.730518458085497096e+07 1.180070897603703273e+01 4.420656876452098594e+00 4.383505657539146227e+00
1.730555837941581011e+07 1.180068028919156475e+01 4.421781203728783360e+00 4.384154088984134390e+00
1.730586540732685477e+07 1.180065657704941984e+01 4.422473347368374164e+00 4.384600384482181035e+00
1.730620312320368737e+07 1.180063038690201083e+01 4.422911266348907411e+00 4.384961371510366135e+00
1.730657469683574513e+07 1.180060152567991238e+01 4.422578118234724798e+00 4.385094751878538588e+00
1.730701144381383806e+07 1.180056773321053853e+01 4.421109260923334894e+00 4.384853178060184931e+00
1.730745320696860552e+07 1.180053384828868701e+01 4.418768197282670229e+00 4.384250505368827433e+00
1.730771956015459076e+07 1.180051362683190774e+01 4.417002663878529134e+00 4.383727153732996484e+00
1.730803970795125887e+07 1.180048956954581030e+01 4.414597870116542033e+00 4.382956949888713538e+00
1.730888138688325882e+07 1.180042785154701868e+01 4.407312530866892786e+00 4.380276149197513291e+00
1.730990833583288267e+07 1.180035606991027919e+01 4.397827758862249858e+00 4.375900329431304137e+00
1.731081814521363005e+07 1.180029602496465913e+01 4.389977593317164306e+00 4.371169721689566856e+00
1.731190200273051113e+07 1.180022848373526401e+01 4.382394607084028948e+00 4.364609014529552411e+00
1.731277315133031085e+07 1.180017675408510591e+01 4.378373507410344700e+00 4.358712183095116544e+00
1.731352578239553422e+07 1.180013341043085084e+01 4.376655510958567419e+00 4.353255748608480857e+00
1.731420500992874801e+07 1.180009503851232999e+01 4.376476316169175540e+00 4.348094197105342396e+00
1.731503791838079691e+07 1.180004857997749568e+01 4.377838112719297570e+00 4.341518967081698932e+00
1.731567612201924250e+07 1.180001320161927403e+01 4.379948900566581926e+00 4.336357270501238759e+00
1.731638684135347977e+07 1.179997382206384238e+01 4.383243966264447344e+00 4.330550294278967982e+00
1.731712926479901746e+07 1.179993251009859989e+01 4.387523052645907917e+00 4.324465302719642246e+00
1.731786569975746050e+07 1.179989121050794054e+01 4.392188895556643047e+00 4.318421617557731018e+00
1.731860224763164669e+07 1.179984953132930592e+01 4.396859626807081867e+00 4.312363342280063350e+00
1.731934456263753027e+07 1.179980717247755173e+01 4.401308631052341269e+00 4.306246440232960104e+00
1.731995323260400817e+07 1.179977221872995585e+01 4.404590816222389904e+00 4.301196913427454582e+00
1.732070945682072267e+07 1.179972862222328978e+01 4.408251555663184718e+00 4.294895747334571467e+00
1.732142575226515904e+07 1.179968725152334841e+01 4.411199498207642122e+00 4.288857788220849621e+00
1.732205049955081940e+07 1.179965118100941268e+01 4.413394022308203546e+00 4.283538502838521111e+00
1.732282048031686619e+07 1.179960687214260240e+01 4.415593053741437402e+00 4.276866504659958323e+00
1.732354045662301406e+07 1.179956569350970419e+01 4.417215325515791768e+00 4.270499809241461442e+00
1.732416205860741064e+07 1.179953040720560153e+01 4.418290016337598658e+00 4.264883333932527165e+00
1.732487274149065837e+07 1.179949045384448780e+01 4.419234751828450491e+00 4.258309860367250899e+00
1.732548175711275637e+07 1.179945659547927050e+01 4.419801061786641228e+00 4.252528439667931259e+00
1.732603679769977555e+07 1.179942608425122863e+01 4.420159184138513275e+00 4.247130270297624577e+00
1.732671878246232122e+07 1.179938908888487958e+01 4.420412781659678991e+00 4.240315303316360307e+00
1.732729777664653212e+07 1.179935814421607532e+01 4.420476948819183960e+00 4.234357082482405055e+00
1.732782370141042769e+07 1.179933042640570839e+01 4.420435112198446426e+00 4.228800853999387321e+00
1.732846812622905150e+07 1.179929699764172568e+01 4.420262050999568260e+00 4.221793855493939596e+00
1.732901347388170287e+07 1.179926919108776673e+01 4.420013829455684551e+00 4.215681283029058868e+00
1.732950710529828072e+07 1.179924441722245909e+01 4.419709232659815967e+00 4.209998123244038659e+00
1.732999142058833316e+07 1.179922048927894096e+01 4.419337818468606294e+00 4.204276853818457838e+00
1.733058356867909059e+07 1.179919176093093824e+01 4.418774240158158229e+00 4.197075855120805166e+00
1.733108588467236608e+07 1.179916785949117752e+01 4.418199191149962068e+00 4.190780412284979661e+00
1.733154017094327882e+07 1.179914662736789310e+01 4.417592606962317703e+00 4.184930956949480141e+00
1.733198598322349787e+07 1.179912615584725444e+01 4.416915163077034912e+00 4.179038832389423419e+00
1.733242277660665289e+07 1.179910645843431638e+01 4.416165770727644713e+00 4.173113448947752602e+00
1.733285116933702677e+07 1.179908749525719003e+01 4.415341878097068573e+00 4.167147161909459996e+00
1.733340873612596840e+07 1.179906335661930683e+01 4.414132709656374942e+00 4.159141511031789307e+00
1.733381741781374812e+07 1.179904606403945699e+01 4.413138361440298141e+00 4.153092056410537580e+00
1.733421720539982617e+07 1.179902948440662591e+01 4.412072936010345892e+00 4.147018266391053309e+00
1.733460874941262603e+07 1.179901357665473327e+01 4.410934562397724079e+00 4.140912269194346962e+00
1.733499223449999839e+07 1.179899831989227721e+01 4.409722840970424329e+00 4.134770165358853333e+00
1.733536774508145452e+07 1.179898369736031327e+01 4.408441087833647742e+00 4.128589644178387807e+00
1.733573569110764563e+07 1.179896967988385725e+01 4.407086179893759947e+00 4.122360764191999039e+00
1.733609577134915441e+07 1.179895626581260082e+01 4.405662852669671281e+00 4.116086226251727709e+00
1.733644713681627065e+07 1.179894347185870274e+01 4.404175988374761985e+00 4.109779796328891344e+00
1.733679040756204724e+07 1.179893125983184632e+01 4.402623525669650206e+00 4.103443692150413824e+00
1.733712659966418147e+07 1.179891957918769663e+01 4.401003052807382687e+00 4.097073101383408300e+00
1.733745609962040558e+07 1.179890840353261972e+01 4.399314255907847304e+00 4.090657022140792520e+00
1.733769832137535512e+07 1.179890036588343882e+01 4.398004449015280315e+00 4.085822003433497329e+00
1.733801469464824349e+07 1.179889008886645740e+01 4.396206858085630387e+00 4.079352167922053241e+00
1.733832417751183361e+07 1.179888028601062899e+01 4.394349933054741086e+00 4.072841651690753295e+00
1.733860196019325405e+07 1.179887169792367985e+01 4.392594552723161350e+00 4.066837925820909305e+00
1.733889769528605044e+07 1.179886278273542999e+01 4.390626833657494288e+00 4.060264799315369544e+00
1.733918757944818214e+07 1.179885427129036835e+01 4.388594527337299489e+00 4.053631912873537857e+00
1.733947102238999680e+07 1.179884616916061191e+01 4.386504583094290588e+00 4.046954352768763918e+00
1.733967913710184395e+07 1.179884035967179301e+01 4.384900655373565215e+00 4.041922266975213951e+00
1.733995051751526445e+07 1.179883241047725306e+01 4.382719602828977656e+00 4.035192582792495486e+00
1.734019352481411397e+07 1.179882389916953400e+01 4.380675643719360579e+00 4.028996880641367184e+00
1.734045203019226715e+07 1.179881311017742362e+01 4.378400551989410694e+00 4.022216866082472642e+00
1.734064186450887844e+07 1.179880393368358327e+01 4.376659873592883443e+00 4.017106767455393523e+00
1.734088989411751926e+07 1.179879024708666435e+01 4.374294655702902546e+00 4.010261312977115189e+00
1.734113178192657605e+07 1.179877485535997650e+01 4.371880492468675605e+00 4.003389123293950469e+00
1.734134855432511866e+07 1.179875929227478082e+01 4.369624815916353988e+00 3.997062749888511846e+00
1.734152206204020232e+07 1.179874630000501412e+01 4.367749861983158510e+00 3.991869417499002370e+00
1.734174847382096946e+07 1.179872910330369606e+01 4.365211160796855339e+00 3.984928059305955728e+00
1.734195087696963921e+07 1.179871348910987727e+01 4.362846417057768988e+00 3.978559641124699731e+00
1.734216582725881040e+07 1.179869664365321036e+01 4.360229045684711480e+00 3.971606580995775460e+00
1.734232318394837901e+07 1.179868413320696163e+01 4.358238526488245945e+00 3.966382713926911663e+00
1.734251085210970789e+07 1.179866901983581506e+01 4.355782422111845520e+00 3.960026526338015440e+00
1.734271029328037798e+07 1.179865270959874302e+01 4.353063250903938197e+00 3.953082006703346529e+00
1.734285621860190853e+07 1.179864060644105983e+01 4.350998497957975886e+00 3.947866093364635454e+00
1.734302977292510122e+07 1.179862603433008772e+01 4.348457437047992258e+00 3.941545296710094348e+00
1.734321391961684823e+07 1.179861033977381268e+01 4.345648347540309153e+00 3.934648188686020731e+00
1.734339251516753063e+07 1.179859488658613387e+01 4.342807485846293503e+00 3.927772897190678236e+00
1.734350868911490589e+07 1.179858470855155517e+01 4.340893740562418834e+00 3.923196768796028522e+00
1.734367821610263735e+07 1.179856967307076232e+01 4.338000399908285232e+00 3.916364731324979864e+00
1.734384278325057775e+07 1.179855486405946507e+01 4.335069577580616063e+00 3.909547803353389916e+00
1.734398931032033637e+07 1.179854150126038981e+01 4.332350607925434360e+00 3.903324102601554824e+00
1.734414459745698050e+07 1.179852714256556823e+01 4.329349956302677604e+00 3.896541199617814311e+00
1.734425802123352140e+07 1.179851652035461385e+01 4.327072781471171581e+00 3.891459301932086667e+00
1.734440441341587529e+07 1.179850265330632553e+01 4.324018441703096904e+00 3.884747416729660063e+00
1.734453419427948818e+07 1.179849020787943559e+01 4.321195251484660105e+00 3.878639492549148748e+00
1.734467133950802684e+07 1.179847688311864928e+01 4.318083228903679682e+00 3.872004420526538926e+00
1.734480385564467311e+07 1.179846384189286290e+01 4.314936807033737054e+00 3.865411807122901777e+00
1.734493175978984684e+07 1.179845109597391684e+01 4.311760500531676144e+00 3.858870597325839036e+00
1.734505490521041304e+07 1.179843867372945532e+01 4.308561347210737580e+00 3.852396727005949373e+00
1.734516353730942681e+07 1.179842759508672501e+01 4.305610993015702270e+00 3.846534023387187418e+00
1.734525036380781978e+07 1.179841864635941207e+01 4.303164645812638689e+00 3.841743172326274269e+00
1.734536205911535025e+07 1.179840702717441658e+01 4.299885612711752181e+00 3.835432312549121647e+00
1.734547002940721065e+07 1.179839567276517798e+01 4.296564630200744084e+00 3.829168328392057674e+00
1.734557426159855723e+07 1.179838459560500397e+01 4.293205267328151109e+00 3.822960712525505400e+00
1.734569988010835648e+07 1.179837109791430727e+01 4.288933772121307442e+00 3.815256814292166343e+00
1.734580453715097904e+07 1.179835971564169839e+01 4.285179361898983963e+00 3.808648411577673087e+00
1.734589812503020465e+07 1.179834944254767493e+01 4.281645986975135543e+00 3.802580535126864003e+00
1.734598898159151524e+07 1.179833938014620287e+01 4.278046604879339299e+00 3.796543734719703078e+00
1.734607739054981619e+07 1.179832950517932133e+01 4.274370308629692694e+00 3.790525205794542885e+00
1.734616324556382000e+07 1.179831983723554600e+01 4.270621870968225764e+00 3.784538370218648140e+00
1.734625346438038349e+07 1.179830959141086311e+01 4.266474626089030942e+00 3.778093182889323831e+00
1.734633445905847847e+07 1.179830032841048570e+01 4.262554842563441859e+00 3.772162693033161318e+00
1.734641333091344684e+07 1.179829124688001052e+01 4.258541919760578054e+00 3.766254486376692689e+00
1.734649000018575415e+07 1.179828236317635692e+01 4.254440555306409522e+00 3.760382549909845551e+00
1.734657073507977650e+07 1.179827294756717571e+01 4.249887275953885712e+00 3.754065622897215793e+00
1.734666126118762791e+07 1.179826233537583491e+01 4.244475663735309823e+00 3.746799928522748679e+00
1.734673166957435012e+07 1.179825403557881636e+01 4.240016203163475161e+00 3.741028011857101099e+00
1.734680583712621033e+07 1.179824525420512416e+01 4.235065717471271363e+00 3.734839488801905194e+00
1.734687272222096846e+07 1.179823731139771503e+01 4.230357380635390463e+00 3.729148123434860906e+00
1.734694348766695708e+07 1.179822888284876647e+01 4.225105945613653269e+00 3.723031715972902500e+00
1.734702366897229850e+07 1.179821931832968929e+01 4.218795062950020380e+00 3.715960812557977277e+00
1.734708623822031915e+07 1.179821184475874318e+01 4.213576516054446941e+00 3.710362848625170962e+00
1.734715247850788757e+07 1.179820393101252485e+01 4.207746942148784086e+00 3.704368158238176445e+00
1.734721247614898160e+07 1.179819677071920303e+01 4.202177398994050961e+00 3.698871632051502711e+00
1.734729079451341927e+07 1.179818744446358991e+01 4.194469592707902095e+00 3.691631042671366547e+00
1.734734840906890482e+07 1.179818060765554399e+01 4.188454147236997827e+00 3.686287564325471777e+00
1.734742396347917616e+07 1.179817168828410345e+01 4.180095744668878233e+00 3.679335554903189642e+00
1.734747994597211480e+07 1.179816512568131159e+01 4.173535451790121975e+00 3.674306483664816270e+00
1.734755380800003558e+07 1.179815654930366975e+01 4.164386482171554604e+00 3.667996351403277622e+00
1.734762738795819134e+07 1.179814812847062555e+01 4.154712697743285332e+00 3.662239054636122315e+00
1.734770076817484200e+07 1.179813988717943118e+01 4.144524991226246513e+00 3.657068362243139248e+00
1.734779216845163703e+07 1.179812988814045482e+01 4.131152513572179608e+00 3.651328959149078734e+00
1.734788314865902811e+07 1.179812026950157389e+01 4.117454504176315311e+00 3.646335017830721004e+00
1.734800439856606349e+07 1.179810799130301113e+01 4.101039863908168215e+00 3.640969756930581447e+00
1.734819498563048989e+07 1.179808943012471900e+01 4.087434360617185014e+00 3.635947812736928242e+00
1.734839069110630825e+07 1.179807124038428867e+01 4.069932861959832948e+00 3.631557188727709384e+00
1.734860069505681098e+07 1.179805273799514254e+01 4.053531987279562543e+00 3.626814706690201007e+00
1.734882698509632051e+07 1.179803352759510204e+01 4.043981365086060542e+00 3.621282626548933070e+00
1.734903991887285188e+07 1.179801529327010812e+01 4.048916545372852838e+00 3.615238837697672292e+00
1.734918652503598109e+07 1.179800192887340771e+01 4.064501562367277998e+00 3.610335960593370253e+00
1.734928982426076010e+07 1.179799163865212819e+01 4.083910828733678500e+00 3.606372783879087329e+00
1.734937296254622564e+07 1.179798250084081523e+01 4.105881573599901024e+00 3.602796507423540184e+00
1.734944012821705639e+07 1.179797431598958823e+01 4.128320709143654454e+00 3.599612264214944624e+00
1.734949427433369309e+07 1.179796702173819156e+01 4.149554760115826468e+00 3.596840375407588830e+00
1.734954597237109765e+07 1.179795932515134993e+01 4.172231801853797606e+00 3.594037353519936584e+00
1.734959607813067362e+07 1.179795104220371371e+01 4.195521521626537798e+00 3.591271445850891642e+00
1.734964541598760709e+07 1.179794196976246923e+01 4.219392799106151948e+00 3.588531194421117121e+00
1.734968807393901050e+07 1.179793328942509589e+01 4.240689818748012208e+00 3.586153997622842482e+00
1.734973467519223318e+07 1.179792278924948334e+01 4.264234254865652218e+00 3.583565447209961174e+00
1.734978372367297858e+07 1.179791047470440901e+01 4.288830546853666270e+00 3.580901448612615390e+00
1.734982755572722852e+07 1.179789827820452430e+01 4.310230907102518216e+00 3.578619926757536263e+00
1.734987720273024589e+07 1.179788299851111688e+01 4.333461004014420581e+00 3.576139499987990522e+00
1.734993153802429512e+07 1.179786441394602114e+01 4.357199182800090220e+00 3.573616385093353554e+00
1.734998959042777866e+07 1.179784233669756510e+01 4.380630182700596009e+00 3.571143333261028729e+00
1.735005316288422793e+07 1.179781552834990421e+01 4.403154178313193334e+00 3.568764165338046190e+00
1.735013713133693486e+07 1.179777607598434663e+01 4.428227259349550415e+00 3.566113646959682804e+00
1.735023318702989817e+07 1.179772580358162593e+01 4.450798613590415620e+00 3.563713786018467111e+00
1.735036204646805674e+07 1.179765120002931766e+01 4.472937611492045384e+00 3.561356686485837475e+00
1.735057839792584255e+07 1.179751209014926516e+01 4.495999136757633963e+00 3.558873585029881603e+00
1.735103622645829618e+07 1.179718432948452644e+01 4.518914355114056036e+00 3.556408702949866552e+00
1.735252504377922416e+07 1.179600037753085395e+01 4.541405216542109713e+00 3.553988345182426123e+00
1.735538427060460672e+07 1.179350076386096191e+01 4.562788751225162365e+00 3.551652516096135415e+00
1.736662991979030147e+07 1.178265373184181897e+01 4.579917091043614441e+00 3.549860627087204179e+00
1.736791368103450164e+07 1.178138669636443758e+01 4.579896559300989267e+00 3.549869485916933964e+00
1.737008684813223407e+07 1.177924228024478914e+01 4.579621942161759662e+00 3.549909082666807603e+00
1.737241740020247549e+07 1.177694614590959254e+01 4.579263711961758077e+00 3.549954021239773994e+00
1.737476548912665248e+07 1.177463731243394207e+01 4.578740023273891069e+00 3.550014024619070341e+00
1.737674489700248465e+07 1.177269527723929698e+01 4.578243623730753775e+00 3.550059185417038687e+00
1.737936147693762928e+07 1.177013465841665152e+01 4.577577632737114932e+00 3.550107398756026100e+00
1.738215913118672371e+07 1.176740533087692953e+01 4.576860691010251614e+00 3.550186885748602972e+00
1.738459848861681297e+07 1.176503298961591248e+01 4.576238525231981491e+00 3.550254756787719845e+00
1.738692121181255579e+07 1.176278005358086531e+01 4.575647960166832284e+00 3.550317515391082424e+00
1.738931645226296037e+07 1.176046296886157094e+01 4.575041171967029641e+00 3.550380014195684275e+00
1.739239282199636102e+07 1.175749600161544706e+01 4.574264869073215500e+00 3.550465260314688010e+00
1.739492555498001724e+07 1.175506117934637373e+01 4.573627594510843331e+00 3.550532559189956139e+00
1.739774017442309856e+07 1.175236361953633946e+01 4.572921714481684496e+00 3.550608299192287376e+00
1.740041703492215648e+07 1.174980581043628902e+01 4.572252017957720405e+00 3.550677307688774320e+00
1.740316464411995187e+07 1.174718831186990897e+01 4.571566341224880148e+00 3.550748775027725124e+00
1.740598250377127528e+07 1.174451218220416138e+01 4.570864256696314243e+00 3.550822701492919009e+00
1.740887471032068506e+07 1.174177415164055915e+01 4.570144053734983558e+00 3.550899597532378493e+00
1.741159554753088206e+07 1.173920623542830199e+01 4.569466940659291154e+00 3.550970502184236821e+00
1.741387465531525761e+07 1.173706141924968804e+01 4.568899361730271558e+00 3.551027005083193355e+00
1.741696605235140771e+07 1.173416062101378898e+01 4.568129445679911527e+00 3.551104619619722680e+00
1.742012851184622198e+07 1.173120341551293855e+01 4.567340343665637903e+00 3.551186530170580280e+00
1.742229265585315973e+07 1.172918571028444390e+01 4.566799116853704987e+00 3.551241485974284462e+00
1.742558166386904567e+07 1.172612854437451979e+01 4.565975683969633714e+00 3.551325848735634949e+00
1.742894046276843548e+07 1.172301807147519526e+01 4.565131817216292021e+00 3.551413570084413607e+00
1.743123465857497975e+07 1.172090020622069062e+01 4.564553413941077054e+00 3.551473334910646429e+00
1.743356371588345617e+07 1.171875573743800025e+01 4.563964572951583420e+00 3.551535117712789180e+00
1.745316679758656025e+07 1.170092943662809759e+01 4.558925707007109196e+00 3.552045528141903219e+00
1.747234235093673319e+07 1.168388016101170201e+01 4.553818404123847863e+00 3.552560895441942534e+00
1.749184042535762489e+07 1.166694377830379459e+01 4.548417716914583409e+00 3.553105145251975294e+00
1.751000450427677110e+07 1.165153491005562003e+01 4.543185150557160767e+00 3.553633021099532385e+00
1.752832297179940715e+07 1.163636003105265004e+01 4.537714551429923304e+00 3.554194491492301822e+00
1.754610874149533361e+07 1.162198225492127435e+01 4.532226069286173775e+00 3.554766876070556858e+00
1.756261956559988856e+07 1.160895080234559984e+01 4.526983794021753660e+00 3.555310336549979411e+00
1.757952375839304179e+07 1.159592502894657429e+01 4.521485866452835900e+00 3.555895772869002158e+00
1.759481431488670409e+07 1.158441833532252652e+01 4.516411483589633846e+00 3.556431976061856126e+00
1.761078257007001340e+07 1.157267954439624269e+01 4.511032337026977146e+00 3.557011154100750527e+00
1.762647453322417289e+07 1.156141795917533521e+01 4.505682109443256422e+00 3.557584444438355753e+00
1.764231797776235268e+07 1.155031974719740262e+01 4.500232225364971583e+00 3.558182481585748569e+00
1.765777340210344642e+07 1.153975338618971591e+01 4.494887999067646689e+00 3.558771816413721201e+00
1.767385343181386590e+07 1.152902628899298065e+01 4.489320743894388066e+00 3.559395299412821068e+00
1.768847143748146668e+07 1.151950439536487103e+01 4.484268851431533420e+00 3.559959440483038140e+00
1.770470362440158427e+07 1.150918212800565854e+01 4.478689080594540961e+00 3.560592869182586995e+00
1.771902399976213276e+07 1.150028811509018922e+01 4.473809412897674420e+00 3.561151210431454661e+00
1.773550915705403313e+07 1.149028815584722452e+01 4.468262466136224909e+00 3.561797823013086894e+00
1.775212249372094870e+07 1.148045913740764234e+01 4.462768368372090677e+00 3.562440461741774200e+00
1.776899222006145492e+07 1.147072313039383396e+01 4.457311546187497697e+00 3.563084672981593481e+00
1.778446595515220985e+07 1.146199903687412558e+01 4.452437828279712129e+00 3.563671503233179383e+00
1.780177360453595966e+07 1.145246474528308056e+01 4.447148347893195464e+00 3.564331648659065266e+00
1.781932236386570707e+07 1.144302560992192497e+01 4.441970340982217991e+00 3.564973043951186860e+00
1.783895375945069268e+07 1.143272270647290156e+01 4.436415669721425203e+00 3.565674292259937594e+00
1.785788522410140932e+07 1.142302472469416585e+01 4.431304821497170643e+00 3.566330067909603940e+00
1.787897649121217802e+07 1.141247840235064359e+01 4.425912545940775544e+00 3.567043463477538090e+00
1.790002489085497707e+07 1.140220465538575745e+01 4.420852615264815988e+00 3.567729461914587397e+00
1.792291431278110296e+07 1.139128980861473828e+01 4.415716749994155421e+00 3.568442197753113554e+00
1.794610145526472852e+07 1.138048578763488905e+01 4.410903517485047054e+00 3.569133210885993890e+00
1.797315721080614254e+07 1.136816789869971878e+01 4.405781578673211740e+00 3.569914130895084359e+00
1.800170394584913552e+07 1.135547134652670209e+01 4.400936221461749120e+00 3.570677192756003926e+00
1.803263319599570706e+07 1.134201803456891255e+01 4.396312405265506484e+00 3.571448698922659926e+00
1.806897298532149941e+07 1.132655768143418129e+01 4.391663165373207889e+00 3.572282790484343273e+00
1.811110715226493031e+07 1.130902252281921605e+01 4.387240004139975724e+00 3.573166830124520743e+00
1.816238420569791272e+07 1.128812859389352496e+01 4.383106712723805032e+00 3.574113789590251944e+00
1.821989363296538219e+07 1.126513102763169805e+01 4.379864007745082333e+00 3.575026140790858342e+00
1.829633433924332634e+07 1.123504049719705833e+01 4.377377562375325937e+00 3.576000358504715315e+00
1.838147898731486499e+07 1.120187049761601727e+01 4.376434418386330627e+00 3.576745979760774574e+00
1.846199085748647153e+07 1.117061226802466223e+01 4.376756607181603087e+00 3.577067125231931932e+00
1.854516333114467561e+07 1.113825267230612148e+01 4.377957632866277038e+00 3.576925988324950900e+00
1.859902442504326999e+07 1.111717037098948424e+01 4.379205324896873641e+00 3.576560711014391103e+00
1.865748238047499582e+07 1.109413899705464601e+01 4.380990922818442712e+00 3.575961520328374998e+00
1.870246845687399805e+07 1.107622628900590556e+01 4.382738364966122901e+00 3.575389010176663440e+00
1.874305541663122922e+07 1.105990878583620685e+01 4.384684100228882109e+00 3.574773122148008575e+00
1.878245894277187437e+07 1.104388543567872816e+01 4.387053417685945256e+00 3.574070696428401472e+00
1.881497439274268597e+07 1.103049780718085415e+01 4.389460271996487251e+00 3.573413646428059032e+00
1.884850166377547011e+07 1.101650288929747745e+01 4.392480449632303774e+00 3.572643683143975846e+00
1.887322125186655670e+07 1.100603572972855382e+01 4.395151088927489624e+00 3.572010873732057057e+00
1.889548767920713872e+07 1.099647862447273106e+01 4.397976873785932383e+00 3.571385209305903974e+00
1.891587898098864406e+07 1.098760188928447690e+01 4.400871999629424991e+00 3.570773696682679965e+00
1.893532733074291795e+07 1.097901326077702677e+01 4.403933660926372617e+00 3.570158791051869063e+00
1.895297328381756321e+07 1.097110188366031558e+01 4.407191219313782327e+00 3.569529189881950337e+00
1.896616140403649956e+07 1.096509987368247252e+01 4.410089413915784462e+00 3.568992935065821381e+00
1.897896818164016306e+07 1.095918712276011675e+01 4.413447926460614568e+00 3.568390628584379165e+00
1.899041192489526421e+07 1.095381408416423774e+01 4.417090281567243260e+00 3.567759323320327969e+00
1.899829317711059749e+07 1.095005501986348406e+01 4.420066163594715825e+00 3.567257999816074499e+00
1.900679240674914792e+07 1.094593654969676066e+01 4.423858408829577371e+00 3.566635929941329053e+00
1.901262477770567313e+07 1.094306411683309044e+01 4.426943874453826311e+00 3.566142138505474346e+00
1.901883886742489785e+07 1.093995356506589722e+01 4.430853837055738431e+00 3.565536101947269110e+00
1.902305564133314416e+07 1.093780749467748237e+01 4.434019438363348442e+00 3.565049242753357106e+00
1.902749484839145839e+07 1.093551052522088973e+01 4.438005397595405022e+00 3.564449408230422112e+00
1.903047699990748614e+07 1.093394129947138538e+01 4.441209686468036821e+00 3.563970218454498351e+00
1.903360175309484825e+07 1.093226942536178115e+01 4.445221515444623961e+00 3.563387031343824063e+00
1.903605465695953369e+07 1.093093304003992472e+01 4.449029905960570019e+00 3.562836402208988673e+00
1.903789852052803338e+07 1.092991142287032602e+01 4.452432532153595801e+00 3.562358565226976914e+00
1.903963106423471868e+07 1.092893555556309693e+01 4.456211040516190991e+00 3.561823921119958491e+00
1.904094185814329237e+07 1.092818484964017856e+01 4.459580023531207971e+00 3.561357412952639745e+00
1.904218325845153257e+07 1.092746223159951313e+01 4.463321462744759494e+00 3.560843054154192444e+00
1.904313071917882189e+07 1.092690158573913273e+01 4.466648364637445745e+00 3.560388043839159522e+00
1.904403592215693370e+07 1.092635729225422025e+01 4.470336720445994949e+00 3.559886004048204100e+00
1.904484429715193808e+07 1.092586270054712649e+01 4.474186965637593438e+00 3.559369121359263310e+00
1.904540185649428517e+07 1.092551608030109378e+01 4.477249311853005231e+00 3.558963913144526980e+00
1.904592205613871664e+07 1.092518797062815317e+01 4.480480966523492370e+00 3.558534401972559991e+00
1.904642875458917022e+07 1.092486336493795740e+01 4.484082198098773731e+00 3.558063253964767192e+00
1.904680583637140691e+07 1.092461807387116224e+01 4.487117731540112509e+00 3.557666478977437485e+00
1.904714637628284469e+07 1.092439343950942998e+01 4.490193406760699446e+00 3.557268829251097664e+00
1.904760053866028041e+07 1.092408854381707428e+01 4.494889279254363323e+00 3.556670206730669470e+00
1.904803248352547362e+07 1.092379188957148273e+01 4.500190304728792334e+00 3.556012513620364857e+00
1.904841718642487749e+07 1.092352098995809051e+01 4.505691414772803327e+00 3.555322051619056456e+00
1.904874918101758510e+07 1.092328143003143914e+01 4.511226685669927683e+00 3.554650668416671877e+00
1.904906351266663522e+07 1.092304865728696939e+01 4.517130585221063477e+00 3.553936299535289667e+00
1.904941600050104782e+07 1.092277975388679856e+01 4.524332743431314086e+00 3.553075359896793461e+00
1.904969566192285717e+07 1.092256002546979943e+01 4.530242294219187116e+00 3.552378711764535346e+00
1.905002537471322715e+07 1.092229328038855662e+01 4.537204691665833955e+00 3.551577367819579667e+00
1.905037332314515859e+07 1.092200269619736552e+01 4.544301133517178570e+00 3.550759871134717027e+00
1.905073337509877235e+07 1.092169229709119804e+01 4.551179534334036880e+00 3.549970959967037043e+00
1.905109570376997069e+07 1.092137063505763805e+01 4.557397197786537291e+00 3.549262394063401604e+00
1.905157357754545659e+07 1.092093346891366501e+01 4.564126763830919309e+00 3.548496675195396133e+00
1.905214520631689206e+07 1.092039590839488206e+01 4.569387636646187190e+00 3.547909395558220158e+00
1.905306640603774786e+07 1.091951303508191984e+01 4.571053829500134391e+00 3.547733710495102777e+00
1.905393633191551641e+07 1.091868207862195206e+01 4.567336255743736473e+00 3.548107701083615950e+00
1.905473242405308038e+07 1.091793756781439129e+01 4.561917281532002377e+00 3.548725009720147483e+00
1.905550564965514466e+07 1.091723242516289893e+01 4.556379567891360338e+00 3.549352631381280432e+00
1.905628282064249367e+07 1.091654004968949110e+01 4.551625054916329738e+00 3.549881906028276468e+00
1.905714794130703807e+07 1.091578389909662405e+01 4.548033354803589390e+00 3.550273437558863598e+00
1.905798220112157986e+07 1.091506359764419543e+01 4.546474765498992099e+00 3.550428934561445704e+00
1.905917349090033025e+07 1.091403966444822693e+01 4.547160784436149683e+00 3.550307106396481061e+00
1.906005721538098156e+07 1.091327418363232837e+01 4.550014839231285357e+00 3.549947550273297558e+00
1.906088861585465446e+07 1.091254161006670209e+01 4.554761890243449685e+00 3.549374576454919161e+00
1.906164465265213698e+07 1.091185896642030428e+01 4.560770663151590298e+00 3.548692750887052494e+00
1.906227472051454708e+07 1.091127461417334921e+01 4.566748012870754714e+00 3.548014272353841037e+00
1.906289774801510200e+07 1.091068016377401051e+01 4.573384554019541248e+00 3.547244331147840768e+00
1.906343857226023450e+07 1.091014910457084852e+01 4.579527661917918380e+00 3.546539854102217504e+00
1.906403916841773316e+07 1.090954140111496073e+01 4.586588219939057964e+00 3.545733363907186408e+00
1.906462343793784827e+07 1.090893111042124630e+01 4.593544435509485879e+00 3.544941277683580694e+00
1.906515417598366365e+07 1.090836002328632759e+01 4.599838356152619490e+00 3.544230793847465311e+00
1.906572207198351622e+07 1.090773100150871144e+01 4.606476754172978971e+00 3.543487467800564339e+00
1.906635500295762718e+07 1.090700741738929480e+01 4.613704340447113417e+00 3.542676476822872900e+00
1.906693909171391279e+07 1.090631887515346499e+01 4.620189485139786001e+00 3.541954294638335998e+00
1.906754588626321033e+07 1.090558229139014301e+01 4.626729955043346720e+00 3.541228572660406471e+00
1.906809711037284881e+07 1.090489457136605722e+01 4.632499218762468729e+00 3.540593608872541154e+00
1.906872196883477271e+07 1.090409306022385394e+01 4.638849262383758720e+00 3.539891149664948777e+00
1.906940068737532571e+07 1.090319677264773013e+01 4.645529520210931906e+00 3.539157145920102998e+00
1.906998725537695363e+07 1.090240052428028861e+01 4.651131970923377601e+00 3.538543262746087770e+00
1.907062562362848967e+07 1.090151143719843319e+01 4.657059202363414308e+00 3.537898200127401971e+00
1.907135114095075428e+07 1.090047178181012022e+01 4.663595109168512387e+00 3.537182697637113016e+00
1.907200641746133566e+07 1.089950679799149924e+01 4.669324498541246982e+00 3.536559419984357522e+00
1.907265058503212780e+07 1.089853352139482112e+01 4.674807649609377336e+00 3.535961000396034226e+00
1.907324621559972316e+07 1.089761320406914535e+01 4.679776387991582354e+00 3.535425650929524544e+00
1.907397708763238415e+07 1.089645524116645348e+01 4.685767282748257045e+00 3.534777850959244461e+00
1.907459542353810370e+07 1.089545139656673811e+01 4.690656352440063515e+00 3.534250982025164411e+00
1.907523373435228318e+07 1.089439210977793238e+01 4.695578532899056690e+00 3.533720805341039384e+00
1.907588597910306603e+07 1.089328554165939167e+01 4.700476615776624456e+00 3.533193233673168621e+00
1.907654726423596218e+07 1.089213876414771676e+01 4.705338933613707475e+00 3.532669940261102148e+00
1.907721429212742671e+07 1.089095664054251600e+01 4.710136455810916445e+00 3.532153552916298622e+00
1.907784265752471611e+07 1.088981901937597208e+01 4.714563140672984431e+00 3.531674117258467582e+00
1.907851575742509216e+07 1.088857601098548322e+01 4.719211438158081862e+00 3.531173991116499433e+00
1.907906290434309095e+07 1.088754715278863827e+01 4.722919181037223524e+00 3.530777932272959774e+00
1.907968949529328942e+07 1.088634627070666028e+01 4.727091525052781407e+00 3.530325982334785007e+00
1.908022900973775238e+07 1.088529553147360218e+01 4.730623592743427253e+00 3.529948512911752712e+00
1.908084342607800290e+07 1.088407700141937973e+01 4.734575782983547754e+00 3.529520264891793602e+00
1.908132851956197247e+07 1.088310018663359813e+01 4.737645613885680618e+00 3.529189798270959244e+00
1.908196360472752899e+07 1.088180090181924697e+01 4.741595258695287640e+00 3.528764548272240731e+00
1.908243081871392950e+07 1.088083028533077723e+01 4.744453702790199401e+00 3.528456645936413949e+00
1.908288882426338270e+07 1.087986665532818797e+01 4.747211197135590588e+00 3.528159659970112827e+00
1.908333662489144132e+07 1.087891291923466675e+01 4.749868847791246296e+00 3.527873457328349005e+00
1.908377369382270798e+07 1.087797101867676730e+01 4.752418604251674950e+00 3.527598761367693569e+00
1.908419911867888644e+07 1.087704381320179081e+01 4.754862719171626395e+00 3.527335502607955586e+00
1.908461249323233962e+07 1.087613308733228834e+01 4.757197295768250456e+00 3.527084024279639518e+00
1.908501390286589414e+07 1.087523954976396112e+01 4.759420521054440911e+00 3.526844441993395307e+00
1.908540285980658233e+07 1.087436519130998391e+01 4.761528743429940036e+00 3.526617130678433742e+00
1.908574750403916091e+07 1.087358270856261910e+01 4.763361936249177475e+00 3.526417706183110123e+00
1.908611148108195141e+07 1.087275018746081834e+01 4.765251895618595412e+00 3.526213871283889301e+00
1.908637646793017164e+07 1.087214036609980461e+01 4.766599515050638836e+00 3.526069851068503347e+00
1.908668978154932708e+07 1.087141292861769060e+01 4.768159053491448418e+00 3.525899882245267403e+00
1.908693949411822855e+07 1.087083080772732302e+01 4.769366116395142186e+00 3.525770889284042475e+00
1.908723432527592033e+07 1.087013789927442353e+01 4.770750722981370373e+00 3.525619703321849929e+00
1.908744322030416504e+07 1.086964484534442832e+01 4.771704069835701389e+00 3.525516314124904405e+00
1.908774605266116932e+07 1.086892634568931548e+01 4.773034520160694960e+00 3.525372067601259651e+00
1.908794211810343340e+07 1.086845886492688074e+01 4.773862331175015683e+00 3.525282163259416901e+00
1.908822768241293728e+07 1.086777488886740528e+01 4.775011469911177642e+00 3.525157144115569352e+00
1.908850722866447270e+07 1.086710199460217297e+01 4.775990490362401530e+00 3.525049788862760991e+00
1.908869563850859180e+07 1.086664686766391519e+01 4.776528080968804879e+00 3.524990203976384073e+00
1.908881290533629432e+07 1.086636365498488388e+01 4.776861115069650054e+00 3.524953898771989724e+00
1.908906872508793324e+07 1.086574229073862341e+01 4.777802152152499815e+00 3.524849951637489376e+00
1.908932533954674006e+07 1.086511588961261054e+01 4.779165699726904748e+00 3.524701665112172311e+00
1.908983248049000278e+07 1.086386519917139459e+01 4.782923417591846693e+00 3.524299103407044775e+00
1.909053319050787389e+07 1.086209723583014508e+01 4.789854011875736006e+00 3.523567050146371393e+00
1.909124928882098943e+07 1.086022724821448548e+01 4.798024739101079739e+00 3.522709429129213365e+00
1.909205580044358969e+07 1.085803799848933515e+01 4.806500486118282289e+00 3.521821515167739669e+00
1.909286680758482218e+07 1.085576340188163158e+01 4.812779224197030636e+00 3.521167696049074092e+00
1.909350463219997287e+07 1.085393661358124540e+01 4.816012034866100855e+00 3.520829215669815326e+00
1.909382883151080459e+07 1.085299854416122756e+01 4.817148217426897361e+00 3.520708728101655360e+00
1.909403504518866539e+07 1.085239964576778959e+01 4.817718814449809095e+00 3.520647902627306536e+00
1.909414727588208020e+07 1.085207392343083654e+01 4.817972041324090959e+00 3.520621218258703333e+00
1.909414811788647249e+07 1.085207147206279821e+01 4.817973812696791924e+00 3.520621026462904535e+00
1.909422162083479017e+07 1.085185733317429424e+01 4.818140515604520502e+00 3.520603119010579540e+00
1.909422232677874714e+07 1.085185527631890956e+01 4.818142133382631087e+00 3.520602945409496698e+00
1.909428209095598012e+07 1.085168103260582484e+01 4.818305220646726283e+00 3.520585657658226175e+00
1.909428266526438668e+07 1.085167935806803285e+01 4.818306817714049117e+00 3.520585488568531929e+00
1.909428323957279325e+07 1.085167768353024265e+01 4.818308414781372839e+00 3.520585319478838127e+00
1.909430873886595294e+07 1.085160328754479053e+01 4.818101685007145640e+00 3.520605944517270380e+00
1.909431526565536112e+07 1.085158448663117703e+01 4.818062674639380205e+00 3.520609610671876943e+00
1.909433332148050517e+07 1.085153163285488276e+01 4.817939805859124291e+00 3.520622649706340201e+00
1.909433356060292572e+07 1.085153093588353457e+01 4.817938268992913109e+00 3.520622808666828085e+00
1.909435515939177573e+07 1.085146802371489372e+01 4.817794428967714815e+00 3.520637580245664200e+00
1.909435537059721351e+07 1.085146740853263481e+01 4.817793021304787260e+00 3.520637724782242906e+00
