# #MIST v1.1 [Fe/H] = 0, v_init = 0, reprocessed track 
# #star_age 	 star_mass 	 logL 	 logT
1.765409776165781466e+02 1.699998133901421227e+01 4.044664946122156657e+00 3.609422736119711317e+00
1.856040055638212039e+02 1.699998053574597634e+01 4.041252809594586104e+00 3.609751619453017479e+00
1.947540711473231454e+02 1.699997973697182374e+01 4.037866001258103132e+00 3.610080406574882161e+00
2.040671226172550519e+02 1.699997893612590971e+01 4.034368655222919209e+00 3.610423115222851198e+00
2.134761302902353179e+02 1.699997813952506576e+01 4.030989357089476144e+00 3.610754813000081498e+00
2.229844135045726148e+02 1.699997734654080261e+01 4.027600123735286530e+00 3.611078679338625808e+00
2.326315057297868236e+02 1.699997655400309782e+01 4.024237794567126159e+00 3.611411333300555526e+00
2.424561403504983161e+02 1.699997575888060553e+01 4.020746378594928672e+00 3.611752952469217348e+00
2.623328310543527664e+02 1.699997418716179709e+01 4.013805439461250124e+00 3.612422359273279593e+00
2.723343496533653365e+02 1.699997341441905263e+01 4.010530030178815153e+00 3.612751325069781583e+00
2.825253495079331287e+02 1.699997263846326589e+01 4.007214702287345887e+00 3.613074991317372309e+00
3.036596315796936096e+02 1.699997106465012209e+01 4.000486233593974816e+00 3.613734807157746864e+00
3.145615035611050416e+02 1.699997027084781820e+01 3.996976042753069613e+00 3.614076325695254166e+00
3.363686297585729221e+02 1.699996871942090948e+01 3.990263679741171465e+00 3.614744623516942923e+00
3.475668780128868320e+02 1.699996794035180159e+01 3.986935412509418963e+00 3.615073039478547301e+00
3.707144435315109945e+02 1.699996636557227703e+01 3.980072493720398619e+00 3.615743974099292490e+00
3.824606124765773529e+02 1.699996558461354823e+01 3.976637785016441828e+00 3.616084443680670280e+00
4.062660849639211165e+02 1.699996403728809469e+01 3.970034501751309008e+00 3.616738202738040808e+00
4.309611001537908237e+02 1.699996247873391653e+01 3.963404712597059731e+00 3.617400707202014676e+00
4.437194647098542646e+02 1.699996169120899125e+01 3.960053641989748741e+00 3.617738463521740666e+00
4.695004461684003445e+02 1.699996013531330163e+01 3.953228907397550174e+00 3.618421196457697775e+00
4.955974401744920215e+02 1.699995860737594455e+01 3.946565268943392546e+00 3.619095093210168201e+00
5.224688458943369369e+02 1.699995707984164994e+01 3.940082038708772938e+00 3.619741535429452206e+00
5.504477419176786270e+02 1.699995553502662560e+01 3.933456358684555454e+00 3.620405325256472295e+00
5.792085530894283920e+02 1.699995399315162814e+01 3.926905700724719672e+00 3.621072518098297888e+00
5.939386927555593729e+02 1.699995322055517732e+01 3.923655388087048834e+00 3.621399709525477739e+00
6.240173505367914686e+02 1.699995167706707733e+01 3.917032036493198088e+00 3.622078442665190856e+00
6.704127736820987593e+02 1.699994938212075724e+01 3.907350444522028621e+00 3.623073504547085655e+00
7.026941988984981435e+02 1.699994784192049480e+01 3.900803383225287302e+00 3.623737175894543139e+00
7.356759627626715883e+02 1.699994631343902185e+01 3.894382560121287362e+00 3.624395652332450979e+00
7.696961611812185993e+02 1.699994478099809214e+01 3.888137043256305603e+00 3.625056687815735312e+00
8.051626246047587756e+02 1.699994322762465870e+01 3.881929918051763906e+00 3.625708395880296031e+00
8.421192904398586734e+02 1.699994165372730137e+01 3.875527305581250914e+00 3.626381374902825527e+00
8.799786654175964031e+02 1.699994008643352572e+01 3.869437840607611978e+00 3.627034922046093790e+00
9.402049025633714336e+02 1.699993767748548024e+01 3.860203050035763805e+00 3.628029689932716462e+00
9.820482673030733167e+02 1.699993606064553830e+01 3.853964167189691370e+00 3.628713207564724819e+00
1.024857507512262146e+03 1.699993445176821893e+01 3.847919131526998271e+00 3.629373589481231122e+00
1.069076849072145478e+03 1.699993283416750955e+01 3.842137096872934698e+00 3.630043304669276605e+00
1.139499712075890329e+03 1.699993034138185166e+01 3.833276155858521328e+00 3.631057388199433245e+00
1.187855063520536305e+03 1.699992868564786264e+01 3.827614902867410684e+00 3.631736782213909720e+00
1.238564759108848875e+03 1.699992699305446919e+01 3.822044624307706862e+00 3.632411440487905985e+00
1.319030130894795320e+03 1.699992439063356642e+01 3.813842051364499497e+00 3.633438778397875879e+00
1.375562706303786399e+03 1.699992261797058291e+01 3.808495414541241075e+00 3.634124813067452386e+00
1.434155907542821978e+03 1.699992082463109710e+01 3.803338413426523790e+00 3.634816940448541089e+00
1.495466771015058384e+03 1.699991899178123944e+01 3.798308360581797771e+00 3.635511906707092677e+00
1.592078106114038746e+03 1.699991618496242296e+01 3.791121643329774749e+00 3.636579564086895644e+00
1.659528045719182046e+03 1.699991427835501057e+01 3.786718786501205081e+00 3.637288549855170139e+00
1.731188232256585252e+03 1.699991229391239855e+01 3.782501575608552713e+00 3.638012748143825359e+00
1.846296153110050682e+03 1.699990918325316258e+01 3.776726766624192599e+00 3.639125541730314772e+00
1.928204541840779711e+03 1.699990701923285386e+01 3.773245876366631890e+00 3.639884859866302946e+00
2.013621591459550473e+03 1.699990479951484446e+01 3.770385976930509031e+00 3.640645953444506588e+00
2.105316353443649859e+03 1.699990245018112844e+01 3.768013292990505025e+00 3.641427745719372222e+00
2.202932139987126902e+03 1.699989997912628326e+01 3.766255138100222499e+00 3.642213529180845732e+00
2.307581251381939182e+03 1.699989735470266083e+01 3.765374318311630830e+00 3.643034911320977010e+00
2.421035501821446815e+03 1.699989452577564819e+01 3.765549312887533695e+00 3.643886964184232191e+00
2.542389883195278799e+03 1.699989150365371415e+01 3.767092469000061783e+00 3.644758913288932867e+00
2.669582828323237663e+03 1.699988832163994701e+01 3.770274744594459548e+00 3.645629828068774891e+00
2.799555173727293095e+03 1.699988503266224882e+01 3.775317364457769553e+00 3.646484308749236014e+00
2.927073203822248615e+03 1.699988174367140559e+01 3.782135737035011047e+00 3.647284296862516761e+00
3.102651421519470659e+03 1.699987705976462848e+01 3.794888825583069281e+00 3.648328085911112240e+00
3.206795115448912838e+03 1.699987416250994343e+01 3.804503359704191734e+00 3.648920656649675465e+00
3.345876670994916822e+03 1.699987010620238692e+01 3.819950534069039172e+00 3.649682602452285707e+00
3.507016253506238172e+03 1.699986505606154452e+01 3.841898189142041176e+00 3.650546682790576813e+00
3.614817260018098295e+03 1.699986140663982681e+01 3.859069025450754253e+00 3.651120585088074133e+00
3.745959077555551630e+03 1.699985659783371617e+01 3.882556001497729170e+00 3.651826052959275870e+00
3.867632128482581720e+03 1.699985169516187256e+01 3.906694228690706261e+00 3.652529173124205997e+00
3.982693560509645522e+03 1.699984659032405077e+01 3.931107552158459306e+00 3.653243967443478013e+00
4.093902293812324388e+03 1.699984115361016990e+01 3.955670128042128475e+00 3.654015304518524410e+00
4.230697830337758205e+03 1.699983369309479286e+01 3.986277979368160196e+00 3.655091865895540693e+00
4.339709631250354505e+03 1.699982707202812193e+01 4.010414435127414912e+00 3.656060859420419362e+00
4.449360537813018709e+03 1.699981975614225860e+01 4.034568906857665560e+00 3.657238649807804443e+00
4.550933344990824480e+03 1.699981226906780662e+01 4.064383236753998041e+00 3.659817112272521378e+00
4.662290777462604638e+03 1.699980309240577014e+01 4.091421277655314270e+00 3.663865434746300664e+00
4.771319928321450789e+03 1.699979334204092041e+01 4.112312056512188008e+00 3.668408020892679033e+00
4.872179957194246526e+03 1.699978376437889338e+01 4.129416893631076668e+00 3.673241169909002846e+00
4.997034187518411272e+03 1.699977126246049153e+01 4.148406677063766423e+00 3.680130997581965602e+00
5.093859953104621127e+03 1.699976115916210517e+01 4.161616240781286002e+00 3.686179641050409295e+00
5.198538931684696763e+03 1.699974991809935432e+01 4.174424155752369359e+00 3.693195990429746445e+00
5.297201338455872246e+03 1.699973909461776245e+01 4.185382880959063634e+00 3.700129566835181905e+00
5.391524371092260481e+03 1.699972858653044838e+01 4.194688189948181822e+00 3.706852939486735998e+00
5.495194775625855982e+03 1.699971691934030105e+01 4.203547674859930083e+00 3.714316188947493380e+00
5.595946350576956320e+03 1.699970552730781037e+01 4.210932304953658445e+00 3.721622531568430148e+00
5.694372668739200890e+03 1.699969439625850498e+01 4.217086979831978333e+00 3.728763420553210306e+00
5.802897549158617949e+03 1.699968217984611130e+01 4.222934764642637617e+00 3.736664610824504074e+00
5.911459418934949099e+03 1.699967006597239205e+01 4.227385400027941387e+00 3.744429695859790463e+00
6.021628735932741620e+03 1.699965794607678049e+01 4.230365202121854296e+00 3.752100657015053464e+00
6.121000699200098097e+03 1.699964720681627028e+01 4.232700223821161067e+00 3.759030931431880163e+00
6.235536389260383658e+03 1.699963506831877424e+01 4.234395856274769443e+00 3.766778660031507187e+00
6.353585261967084080e+03 1.699962285828551245e+01 4.235230738230091774e+00 3.774520677853694828e+00
6.476806919445343738e+03 1.699961046859483105e+01 4.235168723621911546e+00 3.782311192411640377e+00
6.606660848034242917e+03 1.699959782715076528e+01 4.234121100995198894e+00 3.790175476477460670e+00
6.727804269213274893e+03 1.699958642543355580e+01 4.232625840064856426e+00 3.797222000969715516e+00
6.871552661103301944e+03 1.699957339485525765e+01 4.229774415618201999e+00 3.805102906260926510e+00
7.007437653792401761e+03 1.699956157275699553e+01 4.226854254467472316e+00 3.812254311565063780e+00
7.150429115861379614e+03 1.699954960653198555e+01 4.224397066618896801e+00 3.819639747744041358e+00
7.304633316301548803e+03 1.699953720184694816e+01 4.221616542402592209e+00 3.827273174354933083e+00
7.449030102094912763e+03 1.699952603034309107e+01 4.218917820257313878e+00 3.834125223119086101e+00
7.607044840296654002e+03 1.699951426743446703e+01 4.215924186756853764e+00 3.841311595369080401e+00
7.777979339727487968e+03 1.699950204978637558e+01 4.212777133447468181e+00 3.848746793678844647e+00
7.966904053577327431e+03 1.699948912700183712e+01 4.208868387165464853e+00 3.856379526120981893e+00
8.140896137889365491e+03 1.699947769703483758e+01 4.206510550065386767e+00 3.863318538761888021e+00
8.327898650619536056e+03 1.699946584691534923e+01 4.204666878439136113e+00 3.870533139043358162e+00
8.529174250175943598e+03 1.699945352891198525e+01 4.203139562939337104e+00 3.877963909872520265e+00
8.710242115753291728e+03 1.699944279537194092e+01 4.202504273260930567e+00 3.884470097490419604e+00
8.899649954077380244e+03 1.699943185759843089e+01 4.202982258768912516e+00 3.891268684789197074e+00
9.098926091414017719e+03 1.699942062077681726e+01 4.203815041270725139e+00 3.898200769881279282e+00
9.307502667465507329e+03 1.699940911775635399e+01 4.205694276375632867e+00 3.905472292045577110e+00
9.524702476915723310e+03 1.699939738120055566e+01 4.207719454305927975e+00 3.912823302713396068e+00
9.750192406011221465e+03 1.699938543639225230e+01 4.210148328990588773e+00 3.920339396312416902e+00
9.934287745918847577e+03 1.699937584217500586e+01 4.212522264065583499e+00 3.926475103504551534e+00
1.016960360528247475e+04 1.699936376963048446e+01 4.215558031317494958e+00 3.934188535733895709e+00
1.041073195366248183e+04 1.699935161300381736e+01 4.218575116909656586e+00 3.941929636586421815e+00
1.060812786276503903e+04 1.699934181953023327e+01 4.220613548977613760e+00 3.948023671299075055e+00
1.086343278325262509e+04 1.699932937285614187e+01 4.223389505156808887e+00 3.955775284474859710e+00
1.112243012396592530e+04 1.699931696865368380e+01 4.226336749554009842e+00 3.963500187902225136e+00
1.133608166408558645e+04 1.699930690056579863e+01 4.228889141826470244e+00 3.969747500263303586e+00
1.160772130048748477e+04 1.699929428816646038e+01 4.232419279664734191e+00 3.977585662147977708e+00
1.183192633902674061e+04 1.699928402842184383e+01 4.235211057807918067e+00 3.983816493442533080e+00
1.211805125790852617e+04 1.699927110451173817e+01 4.239488513135761139e+00 3.991764132728663483e+00
1.235264721512041979e+04 1.699926062762085976e+01 4.243313010466413182e+00 3.998173776007125646e+00
1.265591672184349773e+04 1.699924769096624999e+01 4.248470296549995417e+00 4.006230516763124250e+00
1.290448208714707107e+04 1.699923860190515512e+01 4.253388089618819201e+00 4.012839977503419142e+00
1.315835023036168241e+04 1.699923075972046860e+01 4.258851267162594212e+00 4.019528733026351830e+00
1.341804395959242902e+04 1.699922419166528798e+01 4.264904937410719299e+00 4.026320295955406081e+00
1.368345619565204106e+04 1.699921895262570359e+01 4.271561868976355036e+00 4.033219441344368050e+00
1.395651321084652591e+04 1.699921506185999220e+01 4.278625754903019107e+00 4.040177767944108211e+00
1.423343927029396946e+04 1.699921221181460140e+01 4.286503973421434743e+00 4.047313131165378053e+00
1.451448044883625698e+04 1.699920923418034135e+01 4.294945972843517978e+00 4.054537801842162281e+00
1.479977757177031162e+04 1.699920601843516721e+01 4.303917682931949429e+00 4.061861118823510530e+00
1.508874081364870472e+04 1.699920254372759842e+01 4.313345443978371385e+00 4.069270473915057806e+00
1.538071664233001138e+04 1.699919878928138672e+01 4.323155223671062863e+00 4.076751428420122281e+00
1.567504972404132786e+04 1.699919473408415627e+01 4.333270417416803078e+00 4.084288904762484407e+00
1.589854592143918489e+04 1.699919146168940998e+01 4.340826122881647819e+00 4.089911770203146446e+00
1.619687329397707072e+04 1.699918681292054501e+01 4.351287282862838168e+00 4.097537230787779094e+00
1.649483025626339077e+04 1.699918182226240404e+01 4.361841502586257135e+00 4.105151343159703536e+00
1.679334283293919725e+04 1.699917644565145736e+01 4.372454420781869189e+00 4.112777491482970227e+00
1.701723610189468673e+04 1.699917214834803403e+01 4.380393176092511887e+00 4.118493139459173946e+00
1.731542123399310003e+04 1.699916604989874358e+01 4.390891324285526309e+00 4.126096763147898194e+00
1.761298666412357488e+04 1.699915951072479459e+01 4.401240955075597761e+00 4.133672031024350879e+00
1.790966026983704069e+04 1.699915251194344989e+01 4.411394373674863090e+00 4.141208573841230312e+00
1.820527215506924404e+04 1.699914503442323976e+01 4.421313494862996407e+00 4.148698566072011928e+00
1.842632492813806675e+04 1.699913909786334898e+01 4.428583566978248953e+00 4.154284342198354629e+00
1.871991765096190284e+04 1.699913073555259757e+01 4.438023595563527657e+00 4.161680134358227257e+00
1.901236438180644836e+04 1.699912184088905320e+01 4.447161712531180200e+00 4.169017348641212983e+00
1.930369089677735974e+04 1.699911239549325259e+01 4.455983297998892034e+00 4.176292950013729133e+00
1.966632434186481260e+04 1.699909978822210377e+01 4.466549918474113312e+00 4.185296660917317446e+00
1.995548186578761306e+04 1.699908903429862050e+01 4.474633260563667392e+00 4.192429150757121192e+00
2.024388160777246230e+04 1.699907766797637620e+01 4.482385240512853031e+00 4.199497162854006760e+00
2.053170353192983021e+04 1.699906566903340632e+01 4.489808810304029230e+00 4.206501542820278772e+00
2.081912647011021545e+04 1.699905301745098996e+01 4.496908882363794824e+00 4.213443192851461738e+00
2.117806390893219213e+04 1.699903625735253598e+01 4.505338110179816447e+00 4.222032341361066088e+00
2.146532294433137940e+04 1.699902206048031417e+01 4.511738232928200532e+00 4.228838525984468077e+00
2.182468384604993844e+04 1.699900330177179342e+01 4.519320057970295679e+00 4.237263120227718005e+00
2.211282734192649150e+04 1.699898744826204222e+01 4.525067044634682567e+00 4.243942717206552473e+00
2.247396005150406927e+04 1.699896654628313541e+01 4.531865127221234246e+00 4.252215283274734858e+00
2.276401042266579316e+04 1.699894892002357594e+01 4.537009954496932451e+00 4.258777081670238829e+00
2.312820360150210399e+04 1.699892572410762170e+01 4.543087923718807986e+00 4.266908974525145837e+00
2.349466725842390952e+04 1.699890118394534255e+01 4.548792554135361321e+00 4.274967968491076853e+00
2.378979783411001699e+04 1.699888054500434365e+01 4.553099975776938813e+00 4.281366227150069648e+00
2.416129662367767014e+04 1.699885345666897862e+01 4.558175460390768485e+00 4.289301641723043623e+00
2.453608206157274253e+04 1.699882488128436009e+01 4.562921710623077942e+00 4.297171541719102983e+00
2.491455018735496196e+04 1.699879476239573961e+01 4.567351593750286654e+00 4.304978941770657208e+00
2.529712812117602880e+04 1.699876303934165023e+01 4.571475990138826440e+00 4.312727034511279811e+00
2.568324336293224769e+04 1.699872973725938152e+01 4.575295007876908571e+00 4.320399116566164821e+00
2.607362152295451233e+04 1.699869477502706872e+01 4.578820684410019659e+00 4.328004350794504518e+00
2.646920572866527800e+04 1.699865804616558407e+01 4.582064509678155595e+00 4.335555046503468901e+00
2.687046072435702445e+04 1.699861948330896411e+01 4.585032272826757627e+00 4.343053496242257339e+00
2.727780883418094163e+04 1.699857902267704191e+01 4.587728194321013753e+00 4.350500410616989555e+00
2.769171667171681838e+04 1.699853659608078260e+01 4.590157034586354712e+00 4.357896894878466654e+00
2.811280767089310029e+04 1.699849211858006370e+01 4.592324860881680237e+00 4.365246443917033758e+00
2.862822401149231519e+04 1.699843594416021020e+01 4.594587786371413074e+00 4.374002964358593815e+00
2.906718786059186823e+04 1.699838666277218735e+01 4.596199306667211992e+00 4.381254522926090189e+00
2.951552419572839426e+04 1.699833502754152192e+01 4.597567358328106479e+00 4.388467038872835957e+00
2.997345978092335281e+04 1.699828099509952040e+01 4.598694993532133957e+00 4.395633315107875028e+00
3.053745848128208672e+04 1.699821275675341781e+01 4.599736446799390421e+00 4.404182809836362900e+00
3.102021722545960802e+04 1.699817167437483434e+01 4.600367967226744348e+00 4.411263522592889785e+00
3.160565059667877358e+04 1.699816622583894699e+01 4.600792983350253884e+00 4.419549794398720088e+00
3.210535269120277371e+04 1.699816115163661934e+01 4.600869507194659036e+00 4.426360535023789566e+00
3.272344490273690462e+04 1.699815433966930556e+01 4.600602301796508087e+00 4.434443178994814438e+00
3.325666632513047080e+04 1.699814799730818748e+01 4.600029012466090528e+00 4.441098404209647299e+00
3.392256519215861044e+04 1.699813949797840351e+01 4.598788510749147740e+00 4.448958673709698886e+00
3.462456265124524361e+04 1.699812989852338774e+01 4.596658346222429969e+00 4.456619255409117741e+00
3.537650104978847958e+04 1.699811900141670407e+01 4.593083583896110156e+00 4.463960105161314473e+00
3.620258501195899589e+04 1.699810651002966111e+01 4.587113140042562875e+00 4.470777628256191960e+00
3.714501286354173499e+04 1.699809198353773354e+01 4.577229971614565684e+00 4.476756013007537227e+00
3.850168066324571555e+04 1.699807154127435282e+01 4.557248029553300661e+00 4.481967621769956445e+00
3.971105336862178228e+04 1.699805452262268091e+01 4.536345669276158787e+00 4.484319413802130505e+00
4.125212486770914256e+04 1.699803507618088005e+01 4.508206265349320674e+00 4.485119002373805230e+00
4.277700658564865444e+04 1.699801809430579524e+01 4.485733740179902895e+00 4.485735598043734562e+00
4.461617174697346491e+04 1.699799952194791786e+01 4.469574710632651993e+00 4.487670557320272202e+00
4.660067746332957176e+04 1.699798011737251713e+01 4.466363903545178538e+00 4.492681354015746642e+00
4.799841930066169880e+04 1.699796587075786647e+01 4.471532301888466066e+00 4.498350747486964174e+00
4.921368076350260526e+04 1.699795251857102230e+01 4.479207830611832364e+00 4.504462153290194060e+00
5.030103748946958513e+04 1.699793954280448105e+01 4.486665838345198942e+00 4.510284435806597436e+00
5.171182476672181656e+04 1.699792121937159450e+01 4.493855366747297353e+00 4.517100686983993363e+00
5.373129218075911922e+04 1.699789295731998706e+01 4.495457682002924393e+00 4.523759064219547099e+00
5.593111531603986805e+04 1.699786160318808115e+01 4.486405820698490921e+00 4.526780372723295365e+00
5.843677972286639124e+04 1.699782759716307368e+01 4.469819293168261432e+00 4.526748974958994864e+00
6.101769228668042342e+04 1.699779533243447460e+01 4.453108975437775285e+00 4.524677877225434131e+00
6.473728992473427206e+04 1.699775311385776533e+01 4.442099388877608135e+00 4.523339510600734137e+00
6.717945848474068043e+04 1.699772648285553700e+01 4.440677942121133093e+00 4.523648938175162115e+00
7.011248274209712690e+04 1.699769466996992051e+01 4.439464884837465597e+00 4.523749267471787405e+00
7.013569530631392263e+04 1.699769441960521377e+01 4.439457975239688992e+00 4.523749100824235647e+00
7.367329009295256401e+04 1.699765626734399859e+01 4.438409117208689025e+00 4.523721802709741446e+00
7.370114517001272179e+04 1.699765596856626004e+01 4.438402908026441551e+00 4.523720652218917060e+00
7.794997146286365751e+04 1.699761040303521753e+01 4.437469171896990972e+00 4.523544936025109209e+00
7.798154018485096458e+04 1.699761006642868466e+01 4.437465477607801745e+00 4.523543575137143335e+00
8.278856949294079095e+04 1.699755881952623326e+01 4.436917731008541921e+00 4.523337727755938786e+00
8.282156880926483427e+04 1.699755846913478052e+01 4.436916334278931728e+00 4.523336534799558883e+00
8.783701260029981495e+04 1.699750522061390257e+01 4.436713574379099967e+00 4.523156594031553901e+00
9.284142042705805216e+04 1.699745220379780264e+01 4.436686590830719368e+00 4.523002443317069243e+00
9.287404156928867451e+04 1.699745185856408725e+01 4.436686831679958587e+00 4.523001512293998161e+00
9.783028912684289389e+04 1.699739940847673481e+01 4.436725002890141489e+00 4.522860441452594138e+00
9.786271335439156974e+04 1.699739906555553404e+01 4.436725385750822426e+00 4.522859550853657318e+00
1.027903560036310519e+05 1.699734695274517193e+01 4.436784196801546010e+00 4.522724470579835732e+00
1.077088710814168735e+05 1.699729496361430137e+01 4.436849925546368034e+00 4.522592755213818982e+00
1.077412202201790642e+05 1.699729462182675377e+01 4.436850379295085745e+00 4.522591905264571999e+00
1.126580999463254120e+05 1.699724267452729265e+01 4.436919581855918615e+00 4.522462995049497891e+00
1.175734508844195370e+05 1.699719076624010938e+01 4.436990988597868224e+00 4.522336779965423048e+00
1.224909872626792931e+05 1.699713885631566512e+01 4.437063316223232690e+00 4.522209201425281933e+00
1.225234150774900045e+05 1.699713851412179366e+01 4.437063749360450338e+00 4.522208179595366140e+00
1.274505180040469713e+05 1.699708652517756846e+01 4.437140232537347906e+00 4.522061710445071547e+00
1.323667696290123276e+05 1.699703467710696003e+01 4.437275304466846926e+00 4.521970516853841993e+00
1.373025727968018618e+05 1.699698261649400166e+01 4.437335403993989402e+00 4.521854158734347706e+00
1.422845834929317352e+05 1.699693008971389929e+01 4.437394970789101833e+00 4.521709288197968135e+00
1.472576419764782477e+05 1.699687768941545229e+01 4.437522635442305408e+00 4.521598694561645537e+00
1.522211749791705515e+05 1.699682539115431368e+01 4.437636923737160899e+00 4.521514130687910971e+00
1.572296581956542504e+05 1.699677261636477610e+01 4.437684616106713165e+00 4.521386601164962826e+00
1.622636274188598327e+05 1.699671960211966848e+01 4.437789700167559026e+00 4.521304617630730327e+00
1.673186494343847153e+05 1.699666636519021168e+01 4.437838727248387016e+00 4.521196525749925144e+00
1.724041711768044042e+05 1.699661282944155261e+01 4.437903523400048122e+00 4.521070129604213506e+00
1.774752939422248164e+05 1.699655946872605128e+01 4.438026383460846880e+00 4.520986564919209805e+00
1.825557948567511339e+05 1.699650600453039573e+01 4.438098493539773592e+00 4.520870187142872254e+00
1.876484717334774323e+05 1.699645243027615038e+01 4.438215638984781997e+00 4.520797012853017272e+00
1.927616071398942149e+05 1.699639863439579557e+01 4.438274313872358157e+00 4.520696929834846500e+00
2.030127701572816586e+05 1.699629083410935237e+01 4.438473654216483766e+00 4.520504727661064592e+00
2.081537371149028186e+05 1.699623677283484824e+01 4.438552576793599158e+00 4.520397814229104583e+00
2.133086086164672161e+05 1.699618257924345244e+01 4.438671538311536935e+00 4.520331451709248327e+00
2.184853430015006161e+05 1.699612814560233076e+01 4.438734546792854729e+00 4.520237606265787633e+00
2.288454097003383213e+05 1.699601925109287137e+01 4.438944127231320813e+00 4.520068264134652125e+00
2.340434119793711579e+05 1.699596460742495196e+01 4.439017017014479372e+00 4.519987004755214421e+00
2.444834090534208226e+05 1.699585488338640715e+01 4.439189004831602503e+00 4.519785287958041131e+00
2.496951975765097013e+05 1.699580012296245002e+01 4.439336824261081560e+00 4.519701801059207824e+00
2.600714406507015228e+05 1.699569106266578800e+01 4.439585862854507070e+00 4.519547454784728302e+00
2.653065445049228147e+05 1.699563602713737609e+01 4.439692319300776902e+00 4.519470530547432752e+00
2.758034417528316844e+05 1.699552566224709338e+01 4.439884242780459012e+00 4.519352835843854166e+00
2.811209553362805163e+05 1.699546974340428207e+01 4.439931955911901262e+00 4.519279239696979644e+00
2.917649877223354997e+05 1.699535784655247284e+01 4.440102395149239989e+00 4.519104932475064729e+00
3.023436816713621956e+05 1.699524663212767805e+01 4.440334935160635155e+00 4.518953820527954690e+00
3.129205082936275867e+05 1.699513540854738380e+01 4.440587465359984165e+00 4.518838153480720266e+00
3.235681327622366371e+05 1.699502340430015579e+01 4.440796980202224908e+00 4.518678955076155468e+00
3.288977480516072828e+05 1.699496733310117591e+01 4.440923345705255265e+00 4.518613181013454216e+00
3.395690376459034160e+05 1.699485502247204138e+01 4.441135172824730581e+00 4.518517802248618764e+00
3.503945861756749218e+05 1.699474105963195569e+01 4.441287446643928938e+00 4.518366656706578333e+00
3.665382548569517676e+05 1.699457108659247950e+01 4.441641290906765960e+00 4.518189648483783571e+00
3.773367046843031421e+05 1.699445733961137961e+01 4.441882693362321888e+00 4.518047409638482392e+00
3.881327165315949824e+05 1.699434355849012945e+01 4.442118352373396917e+00 4.517953304579193308e+00
3.990196139654479339e+05 1.699422877653820407e+01 4.442336911026503188e+00 4.517814724022575668e+00
4.098747879615366692e+05 1.699411427599864410e+01 4.442568998393743307e+00 4.517724234429369545e+00
4.262988240053412737e+05 1.699394094369709762e+01 4.442873998228016319e+00 4.517550012297705919e+00
4.372718904166293796e+05 1.699382508254836921e+01 4.443103592006817593e+00 4.517442386576918878e+00
4.537592821687839460e+05 1.699365089175622501e+01 4.443459927341325333e+00 4.517290895856436173e+00
4.647675086959340842e+05 1.699353451609917443e+01 4.443717489722719627e+00 4.517181197559348327e+00
4.813738217458418803e+05 1.699335881656556779e+01 4.444051494969219362e+00 4.517038097414011411e+00
4.980727609244961059e+05 1.699318200601238971e+01 4.444448682621855440e+00 4.516872366904728153e+00
5.148730232627816731e+05 1.699300392071595311e+01 4.444753218041274323e+00 4.516749869323277267e+00
5.317959784826769028e+05 1.699282441843060454e+01 4.445127764713399543e+00 4.516589287529283681e+00
5.486398436356888851e+05 1.699264556954951999e+01 4.445554355018488835e+00 4.516453744620797295e+00
5.656448231308943359e+05 1.699246478490456624e+01 4.445858982159649031e+00 4.516339434290522092e+00
5.827496944605562603e+05 1.699228280492290111e+01 4.446244379020651394e+00 4.516189436636219412e+00
5.997902140403584344e+05 1.699210130041835143e+01 4.446678241484333327e+00 4.516063098868734471e+00
6.169067587861649226e+05 1.699191875370861737e+01 4.447061498987270767e+00 4.515939179702079365e+00
6.398130416575608542e+05 1.699167412774672670e+01 4.447543701448882558e+00 4.515808093114587862e+00
6.571041547966562212e+05 1.699148925708934854e+01 4.447920352714275438e+00 4.515670412412968737e+00
6.800610213129802141e+05 1.699124345488063170e+01 4.448461546073865236e+00 4.515504873923154250e+00
7.031780461794403382e+05 1.699099549411274523e+01 4.448948411567414496e+00 4.515356447237148352e+00
7.205583982452971395e+05 1.699080881201059867e+01 4.449353533847800080e+00 4.515275993579720648e+00
7.437973108265667688e+05 1.699055884595809829e+01 4.449900629174729616e+00 4.515102000261437709e+00
7.670102982449696865e+05 1.699030867622853336e+01 4.450442999112059539e+00 4.514964079880991576e+00
7.961782062785772141e+05 1.698999370444195733e+01 4.451100990165213211e+00 4.514793285984686655e+00
8.195400767845935188e+05 1.698974089241040275e+01 4.451605386326917824e+00 4.514662210114534169e+00
8.429044776123268530e+05 1.698948760125979973e+01 4.452183955927228709e+00 4.514547888521804886e+00
8.722657503121484770e+05 1.698916859741368413e+01 4.452833782523093475e+00 4.514389141922817927e+00
9.016877779817993287e+05 1.698884817688668747e+01 4.453511534894138535e+00 4.514234839375966146e+00
9.252044987364351982e+05 1.698859149232783139e+01 4.454097222254999267e+00 4.514102034571484623e+00
9.547415222918908112e+05 1.698826832254836461e+01 4.454791411128174339e+00 4.513955420967801224e+00
9.844170364148392109e+05 1.698794280258413636e+01 4.455486364081076900e+00 4.513811432726066109e+00
1.020206505612885579e+06 1.698754910766329829e+01 4.456284703611792963e+00 4.513641691604290074e+00
1.049987243112847675e+06 1.698722055014308197e+01 4.456968047236580688e+00 4.513517917398518264e+00
1.085791145581959281e+06 1.698682441385046005e+01 4.457887867446622465e+00 4.513345150325932309e+00
1.115726014829259133e+06 1.698649214914492589e+01 4.458601526896917910e+00 4.513229437075916728e+00
1.151701063255721936e+06 1.698609166259791792e+01 4.459458093008755952e+00 4.513059137486012062e+00
1.187721055289780255e+06 1.698568929117474013e+01 4.460313239710028022e+00 4.512907668170334397e+00
1.229752129699234152e+06 1.698521801626865724e+01 4.461310868637837324e+00 4.512736699239045635e+00
1.265837184642225038e+06 1.698481191596637530e+01 4.462204511311380628e+00 4.512591407050027037e+00
1.308051536200836068e+06 1.698433499268805491e+01 4.463248371307285467e+00 4.512427228916463307e+00
1.344446172538087238e+06 1.698392224781638049e+01 4.464126624348402572e+00 4.512301952575676012e+00
1.386967481966144405e+06 1.698343819296051649e+01 4.465157609159458474e+00 4.512141212254636713e+00
1.435457792590357363e+06 1.698288359692118021e+01 4.466375995553585554e+00 4.511948309100690224e+00
1.477989569321888499e+06 1.698239490036815624e+01 4.467388645603055153e+00 4.511792789905526568e+00
1.526531418013799470e+06 1.698183454493423739e+01 4.468635073676518132e+00 4.511620743985405468e+00
1.575231374131247634e+06 1.698126957171248108e+01 4.469849282922359279e+00 4.511449866218286253e+00
1.623935610367897432e+06 1.698070165338952364e+01 4.471063791216099759e+00 4.511280962022097718e+00
1.672633076862070244e+06 1.698013091302604494e+01 4.472278837868114643e+00 4.511114271905907636e+00
1.727482348875576863e+06 1.697948454058897738e+01 4.473671271245929226e+00 4.510945093625454483e+00
1.782412754854049534e+06 1.697883346318468512e+01 4.475074070022902362e+00 4.510748175462104825e+00
1.837250676727373153e+06 1.697817961675933418e+01 4.476458381958162036e+00 4.510566513428877045e+00
1.897604400336322142e+06 1.697745551370623218e+01 4.478020283130467405e+00 4.510370653239408334e+00
1.957879818013244076e+06 1.697672758187825082e+01 4.479572139035197686e+00 4.510175559179700144e+00
2.018096490755202714e+06 1.697599557058930841e+01 4.481088711788295598e+00 4.509987308660636351e+00
2.078329527815232053e+06 1.697525849168801670e+01 4.482690473083877691e+00 4.509788876019828585e+00
2.144543216381299309e+06 1.697444249120695048e+01 4.484424412025444617e+00 4.509578281951117873e+00
2.210767338331769221e+06 1.697362028194250527e+01 4.486158715536820552e+00 4.509367087900054472e+00
2.282886711194383912e+06 1.697271788157167904e+01 4.488038653550447954e+00 4.509137081033858685e+00
2.355254268839480821e+06 1.697180493345953778e+01 4.489949842809256353e+00 4.508911403610797564e+00
2.428120071178035345e+06 1.697087810335577984e+01 4.491929748736716022e+00 4.508674966262455897e+00
2.507568611940531060e+06 1.696985868088336602e+01 4.494034208280724307e+00 4.508418468616179453e+00
2.580855967877999879e+06 1.696890998033346776e+01 4.496040849431654607e+00 4.508183095366931070e+00
2.666928330797317438e+06 1.696778549352070797e+01 4.498379778374302695e+00 4.507902632614214866e+00
2.746972331615447067e+06 1.696672965388782828e+01 4.500568218531432407e+00 4.507639132934968984e+00
2.832766567871022504e+06 1.696558696894332030e+01 4.502896082316354409e+00 4.507354726919222898e+00
2.924893293157251552e+06 1.696434697791057289e+01 4.505482485396773207e+00 4.507042109884351611e+00
3.016836629125826526e+06 1.696309592271233413e+01 4.508047534404849621e+00 4.506726562776625755e+00
3.108259610231449362e+06 1.696183845494339693e+01 4.510613802684043883e+00 4.506407830907177114e+00
3.205693371004623361e+06 1.696048305684278645e+01 4.513363328548664732e+00 4.506061967711614713e+00
3.309043238023017533e+06 1.695902816337370922e+01 4.516287827611864536e+00 4.505686849582012599e+00
3.412096067164450884e+06 1.695755948595516927e+01 4.519237248107205396e+00 4.505305724722251881e+00
3.514870288593742065e+06 1.695607662544695060e+01 4.522191255474043103e+00 4.504915976517228415e+00
3.623563244824640453e+06 1.695448836904145651e+01 4.525335191771632459e+00 4.504493150805900292e+00
3.738225116074206308e+06 1.695279024668399970e+01 4.528673274528422610e+00 4.504034528809795823e+00
3.853406094274987467e+06 1.695106074018255171e+01 4.532051486918057037e+00 4.503560024004402251e+00
3.974753352655634750e+06 1.694921248488176957e+01 4.535641553909405488e+00 4.503044136301316058e+00
4.095419883660285268e+06 1.694734771032369736e+01 4.539233057430169360e+00 4.502513170724052216e+00
4.222276640091939829e+06 1.694535775113303444e+01 4.543052516398992324e+00 4.501936103008154610e+00
4.349707125775320455e+06 1.694332796121104678e+01 4.546916438969912377e+00 4.501333801523413669e+00
4.483862133177555166e+06 1.694115708118356878e+01 4.551023525211245868e+00 4.500674903794628534e+00
4.624768174612660892e+06 1.693883884225783021e+01 4.555358720943613271e+00 4.499958906954876880e+00
4.766344094801483676e+06 1.693646981812976549e+01 4.559796702610164232e+00 4.499194839994270723e+00
4.908188217522213235e+06 1.693405548714855868e+01 4.564297879383594214e+00 4.498401408828447856e+00
5.056611876487297937e+06 1.693148475633353911e+01 4.569015232379944891e+00 4.497531537780281141e+00
5.214045280022255145e+06 1.692870681599188387e+01 4.574083998873125445e+00 4.496569428578711225e+00
5.366832273039380088e+06 1.692596060669781721e+01 4.579108357267298146e+00 4.495577000331541839e+00
5.529923351672552526e+06 1.692297373469323674e+01 4.584546992781863395e+00 4.494458588982129577e+00
5.693733447617893107e+06 1.691991535811225589e+01 4.590093147274362018e+00 4.493269136141385012e+00
5.861525134121620096e+06 1.691672138558793392e+01 4.595865530148418365e+00 4.491976713312703318e+00
6.031521659329782240e+06 1.691342160720301280e+01 4.601812997478647027e+00 4.490584360163545341e+00
6.203356469012557529e+06 1.691002037743913178e+01 4.607931693209636137e+00 4.489084503812018845e+00
6.384882248075813055e+06 1.690635516132289240e+01 4.614519577731307720e+00 4.487390367687865478e+00
6.556875115597141907e+06 1.690281405961362182e+01 4.620885720103363070e+00 4.485670955643739077e+00
6.742316642824853770e+06 1.689892194503079637e+01 4.627868542143325215e+00 4.483689767715828722e+00
6.918718770360018127e+06 1.689514935957717157e+01 4.634591008850287075e+00 4.481684868567336721e+00
7.110952657119690441e+06 1.689096233405702208e+01 4.642016532454709576e+00 4.479352725037673899e+00
7.281935011697213165e+06 1.688717401320294442e+01 4.648719960062096312e+00 4.477134918437911892e+00
7.348878759047961794e+06 1.688567490692414097e+01 4.651372037090895084e+00 4.476226756510323312e+00
7.416158404247817583e+06 1.688415953779561107e+01 4.654055551864770379e+00 4.475289435844889141e+00
7.483619772595082410e+06 1.688263147876469006e+01 4.656761501860564145e+00 4.474324941475210871e+00
7.551735018837571144e+06 1.688108010881803622e+01 4.659512507789417057e+00 4.473324191095780833e+00
7.620568517551039346e+06 1.687950395990535668e+01 4.662311647690253302e+00 4.472284209048337011e+00
7.690120312480351888e+06 1.687790305014734926e+01 4.665160848125179172e+00 4.471203331181657248e+00
7.760283098039894365e+06 1.687627992090860118e+01 4.668057150118973375e+00 4.470080256530453156e+00
7.831440009925893508e+06 1.687462579022355413e+01 4.671018747239071622e+00 4.468905911950212584e+00
7.902667492608277127e+06 1.687296233351597508e+01 4.674005539216032012e+00 4.467694302958699737e+00
7.960414255677487701e+06 1.687160836681700005e+01 4.676447816537243618e+00 4.466683512194713934e+00
8.033449927118242718e+06 1.686988948344468398e+01 4.679561757925204013e+00 4.465366692606821175e+00
8.092822793553508818e+06 1.686848719719240464e+01 4.682113437913024256e+00 4.464263434010105058e+00
8.167245095279211178e+06 1.686672370501777252e+01 4.685340729849951202e+00 4.462837207967599973e+00
8.227807853809569031e+06 1.686528432545175704e+01 4.687991700544878348e+00 4.461638373633436849e+00
8.288980188625022769e+06 1.686382695584665825e+01 4.690692507227846697e+00 4.460391853409428009e+00
8.350668679834144190e+06 1.686235416129167319e+01 4.693439315630607567e+00 4.459096845047806568e+00
8.413033631032163277e+06 1.686086250080441218e+01 4.696241885919442360e+00 4.457746941646517413e+00
8.476475845788266510e+06 1.685934280316306300e+01 4.699120828280337392e+00 4.456329035373284952e+00
8.540538749850412831e+06 1.685780650690601590e+01 4.702055263678800223e+00 4.454850196327531542e+00
8.605254779956709594e+06 1.685625344051527108e+01 4.705052470221122718e+00 4.453304825307823123e+00
8.654467387307992205e+06 1.685507211598994459e+01 4.707351775645989278e+00 4.452093760301125691e+00
8.720320287300728261e+06 1.685349156434448048e+01 4.710459034096865949e+00 4.450422879059758863e+00
8.770129532802300528e+06 1.685229671696950859e+01 4.712832234944745124e+00 4.449118418380820117e+00
8.836985252370089293e+06 1.685069456519486053e+01 4.716050035114193406e+00 4.447310097171376597e+00
8.887838055167913437e+06 1.684947771721673249e+01 4.718524064682179109e+00 4.445887985657785535e+00
8.939115664060106501e+06 1.684825281043272582e+01 4.721041050062134481e+00 4.444412906221888448e+00
8.990550143605822697e+06 1.684702679031357775e+01 4.723590724495613458e+00 4.442888130134905467e+00
9.042512688443891704e+06 1.684579140797078978e+01 4.726188899447372194e+00 4.441303486722448568e+00
9.094909485982909799e+06 1.684454955665058407e+01 4.728828707401300235e+00 4.439661204828303731e+00
9.148025430469272658e+06 1.684329521704140120e+01 4.731524542343053419e+00 4.437949935133443269e+00
9.201575654083907604e+06 1.684203592565066643e+01 4.734264909244230601e+00 4.436174715817537084e+00
9.237633146817822009e+06 1.684119134141246477e+01 4.736122864683128597e+00 4.434950425015593112e+00
9.292114668619461358e+06 1.683992085537391148e+01 4.738947983996316893e+00 4.433057509227709581e+00
9.347338052220840007e+06 1.683864069976768008e+01 4.741836847800028565e+00 4.431080978645098867e+00
9.384483616322478279e+06 1.683778435008279217e+01 4.743792901513961269e+00 4.429719298404473093e+00
9.440423257807541639e+06 1.683650255500310777e+01 4.746761470068323163e+00 4.427618203033161670e+00
9.478120909551583230e+06 1.683564444424650830e+01 4.748776046997200240e+00 4.426167577273746545e+00
9.516171921898910776e+06 1.683478325807542575e+01 4.750822560451599230e+00 4.424674620770177924e+00
9.554564336997915059e+06 1.683391969153232992e+01 4.752900374943668460e+00 4.423138889949587593e+00
9.612559858711346984e+06 1.683262601652939239e+01 4.756064716751398969e+00 4.420762922209509505e+00
9.651609956892454997e+06 1.683176272797017603e+01 4.758213191809939069e+00 4.419124662378085766e+00
9.690976519453777000e+06 1.683089913656488790e+01 4.760394020645468238e+00 4.417442570711107130e+00
9.730623820378925651e+06 1.683003648150543441e+01 4.762606254618126478e+00 4.415717707596449770e+00
9.770555146281566471e+06 1.682917514653901492e+01 4.764851982237091832e+00 4.413950588242525619e+00
9.810701455008033663e+06 1.682831705411235035e+01 4.767127483669991506e+00 4.412142534778526581e+00
9.851088387773783877e+06 1.682746208610496552e+01 4.769435820169352525e+00 4.410296152699112682e+00
9.891285664441632107e+06 1.682548954355906901e+01 4.771699708854367117e+00 4.408411531503765524e+00
9.922761988641500473e+06 1.681988340435911766e+01 4.773314413258464839e+00 4.406847079940431122e+00
9.955649790936205536e+06 1.681019562427292868e+01 4.774913445322066963e+00 4.405134249164015969e+00
9.992002739696513861e+06 1.679908793708307968e+01 4.776713855193303715e+00 4.403220219187657491e+00
1.002701687777955830e+07 1.678833282139944671e+01 4.778470460833139200e+00 4.401352275631292166e+00
1.005878712322638370e+07 1.677852521855222534e+01 4.780084912997454083e+00 4.399652397328015496e+00
1.009126195753444731e+07 1.676845081378653646e+01 4.781757747470592790e+00 4.397913542923543417e+00
1.012801136724110134e+07 1.675698819930572370e+01 4.783680039199611045e+00 4.395957417875743900e+00
1.016196634785108641e+07 1.674633621963592134e+01 4.785489220143396949e+00 4.394170781704184847e+00
1.019264412823178247e+07 1.673665944623868285e+01 4.787153110851339655e+00 4.392588761127651509e+00
1.022779068569305539e+07 1.672550771555737015e+01 4.789103029492808972e+00 4.390833267792535466e+00
1.026365887618746236e+07 1.671404970715912697e+01 4.791147560399744876e+00 4.389137647762471062e+00
1.030048985329106823e+07 1.670219503286756435e+01 4.793323281124884261e+00 4.387546250455159225e+00
1.034225522479791194e+07 1.668862825569263464e+01 4.795911572276930102e+00 4.386029222571772301e+00
1.038519510593436286e+07 1.667451726720718241e+01 4.798772580540056509e+00 4.384985800100999143e+00
1.042501661058240198e+07 1.666124581441021490e+01 4.801718524317914571e+00 4.384824607333404956e+00
1.045629985964108631e+07 1.665065466396220017e+01 4.804384028302304266e+00 4.385669430493637222e+00
1.047361599719414487e+07 1.664470901900721955e+01 4.806094622525422189e+00 4.386761975257596369e+00
1.049028236105813831e+07 1.663891302104012837e+01 4.808014190971143798e+00 4.388489740669903050e+00
1.050179265617071465e+07 1.663485617627743096e+01 4.809598101158359285e+00 4.390273582213609416e+00
1.050901462634346075e+07 1.663228242569622495e+01 4.810761759821351902e+00 4.391755509483525444e+00
1.051576593347410299e+07 1.662985216551315304e+01 4.812028905048359562e+00 4.393488247263682922e+00
1.052199462716218643e+07 1.662758476502722260e+01 4.813424755917513842e+00 4.395487677429864348e+00
1.052492459770271368e+07 1.662650821101210141e+01 4.814187487229667717e+00 4.396602462560891489e+00
1.053031521404767409e+07 1.662450734610790448e+01 4.815851720925713231e+00 4.399042304973242778e+00
1.053279567504103854e+07 1.662357630804298125e+01 4.816774871245126377e+00 4.400380497759597276e+00
1.053511906929844990e+07 1.662269716956672028e+01 4.817764516347091686e+00 4.401791373633786364e+00
1.053728406518593803e+07 1.662187091516780768e+01 4.818829765141870780e+00 4.403274606162372429e+00
1.054112848433684930e+07 1.662038337023627221e+01 4.821213377636816233e+00 4.406432007374386117e+00
1.054282457859801501e+07 1.661975343935501215e+01 4.822565227696534507e+00 4.408107911804334478e+00
1.054434479471401125e+07 1.661939838380165924e+01 4.824039731898016825e+00 4.409809595477765853e+00
1.054568081709071621e+07 1.661930594844110587e+01 4.825595155839227601e+00 4.411499506987137664e+00
1.054683861811831594e+07 1.661927265925775998e+01 4.827167400541765296e+00 4.413145036152528178e+00
1.054783326334721968e+07 1.661924327327691131e+01 4.828747486472333428e+00 4.414725370010266658e+00
1.054868338289775699e+07 1.661921748664859777e+01 4.830324986030595014e+00 4.416226674848006795e+00
1.054940816318113357e+07 1.661919493823900140e+01 4.831884126998474471e+00 4.417640335462654555e+00
1.055002579293893464e+07 1.661917525424916775e+01 4.833413181397787639e+00 4.418964458697739239e+00
1.055055257544996589e+07 1.661915807745583606e+01 4.834896575943894881e+00 4.420197045365151567e+00
1.055100276622531563e+07 1.661914307898099352e+01 4.836326536585805691e+00 4.421340770417402588e+00
1.055171731091419421e+07 1.661911857646886759e+01 4.838986966543061818e+00 4.423364922294434010e+00
1.055200434836253524e+07 1.661910845952671423e+01 4.840222540425438424e+00 4.424265458686557295e+00
1.055246817672597431e+07 1.661909172602786100e+01 4.842471382501559063e+00 4.425850166108289407e+00
1.055282432320875116e+07 1.661907851293949179e+01 4.844447071778369640e+00 4.427192757688592550e+00
1.055310324659017473e+07 1.661906791434538277e+01 4.846170063457204691e+00 4.428332240866668101e+00
1.055342062317758054e+07 1.661905555513948940e+01 4.848330099124893877e+00 4.429728905905562009e+00
1.055365660018273443e+07 1.661904613887013227e+01 4.850069213276700708e+00 4.430834900967269618e+00
1.055383854624720663e+07 1.661903873645605856e+01 4.851467522104297991e+00 4.431718580605740421e+00
1.055406418116338365e+07 1.661902937647952072e+01 4.853236893748045233e+00 4.432832576646755562e+00
1.055425680917884782e+07 1.661902122599863674e+01 4.854690810186028216e+00 4.433766218810601956e+00
1.055443822436831333e+07 1.661901342032581397e+01 4.855953261198496129e+00 4.434591441715930671e+00
1.055466593463830836e+07 1.661900346927701122e+01 4.857092850799628714e+00 4.435463936826494091e+00
1.055492063338554837e+07 1.661899220410285238e+01 4.857644657681611911e+00 4.436126068222071339e+00
1.055513792469437048e+07 1.661898253044235574e+01 4.857549081405149849e+00 4.436431932504287801e+00
1.055545134028259292e+07 1.661896855902621795e+01 4.856628348685531726e+00 4.436486682977901275e+00
1.055565774415320717e+07 1.661895939185137649e+01 4.855588838206071678e+00 4.436299097930461066e+00
1.055590535416583344e+07 1.661894847465929814e+01 4.853957037035623756e+00 4.435858416348651190e+00
1.055620287663041241e+07 1.661893552561011589e+01 4.851550327592921263e+00 4.435048952457960603e+00
1.055655975235119835e+07 1.661892031235537104e+01 4.848175470143780252e+00 4.433698348205978412e+00
1.055695516721082292e+07 1.661890397531922758e+01 4.844004268143121905e+00 4.431729093006030240e+00
1.055733105350646935e+07 1.661888908357997252e+01 4.839856345804111726e+00 4.429422647769288623e+00
1.055766524842371233e+07 1.661887643542920046e+01 4.836173885706735120e+00 4.427020985174024759e+00
1.055795711100156792e+07 1.661886587257869863e+01 4.833053463717881471e+00 4.424645898902894281e+00
1.055821329154017195e+07 1.661885698159031222e+01 4.830456432281759582e+00 4.422344637636195230e+00
1.055844113533841260e+07 1.661884937445039867e+01 4.828296101975359633e+00 4.420122025353428796e+00
1.055864683829627745e+07 1.661884274874154954e+01 4.826498421906412872e+00 4.417971816423079900e+00
1.055883501032107323e+07 1.661883688736269704e+01 4.825015712220582564e+00 4.415888673230079498e+00
1.055900924136578850e+07 1.661883162781711576e+01 4.823802023344942569e+00 4.413861765959060435e+00
1.055932510709232278e+07 1.661882249400845879e+01 4.822068913396043932e+00 4.409958609645148186e+00
1.055947120866214298e+07 1.661881602044136841e+01 4.821549763328579097e+00 4.408077245266871280e+00
1.055961079210188054e+07 1.661878373066329573e+01 4.821235765962300412e+00 4.406243806790008044e+00
1.055986990149273537e+07 1.661868216162447354e+01 4.821305298990771426e+00 4.402791775157601784e+00
1.056010944078917056e+07 1.661858891049829623e+01 4.822237186268692355e+00 4.399585722989964864e+00
1.056022558812186122e+07 1.661854378960211420e+01 4.822996856536597932e+00 4.398035486439537678e+00
1.056045201173342019e+07 1.661845577686144537e+01 4.825040817523276182e+00 4.395036238688348362e+00
1.056067437323278934e+07 1.661836901036800640e+01 4.827676198710704192e+00 4.392121354417159118e+00
1.056078511835880205e+07 1.661832558487545342e+01 4.829187432088624554e+00 4.390684525896455526e+00
1.056100640889393166e+07 1.661823823883000983e+01 4.832552290526685113e+00 4.387859305352563410e+00
1.056122868987862207e+07 1.661814955890611856e+01 4.836271078518751487e+00 4.385080932694926048e+00
1.056145307133577019e+07 1.661805892113903482e+01 4.840223044222222271e+00 4.382330912131334522e+00
1.056156673183480278e+07 1.661801254511211212e+01 4.841965471344301442e+00 4.380843081219909507e+00
1.056179292725522071e+07 1.661791943922038683e+01 4.845822481203938992e+00 4.378075041108075993e+00
1.056202245031748340e+07 1.661782373808027558e+01 4.849729815391169652e+00 4.375337955485437469e+00
1.056213946447980031e+07 1.661777448042601080e+01 4.851821528201183398e+00 4.374022696117814135e+00
1.056237801905588992e+07 1.661767299734603398e+01 4.855790066711210606e+00 4.371316928588125705e+00
1.056262508712443896e+07 1.661756646375807023e+01 4.859739846821730325e+00 4.368606115784150923e+00
1.056288076490099542e+07 1.661745472525556622e+01 4.863654097356818973e+00 4.365905008897086326e+00
1.056301319876250625e+07 1.661739625659465958e+01 4.865514567174547444e+00 4.364510216418405975e+00
1.056328538583966717e+07 1.661727493920856347e+01 4.869320532193702533e+00 4.361791601435164090e+00
1.056356766837930493e+07 1.661714754098680658e+01 4.872973492793733818e+00 4.359070994753568407e+00
1.056386120171621814e+07 1.661701350393991206e+01 4.876474376717943926e+00 4.356349208937462691e+00
1.056401283350053430e+07 1.661694370643833452e+01 4.878216932044064258e+00 4.355004771486284731e+00
1.056432456506622210e+07 1.661679910901118973e+01 4.881343726363255975e+00 4.352237575348698151e+00
1.056464860781703144e+07 1.661664749323693968e+01 4.884106963634849308e+00 4.349405263489321882e+00
1.056481494391006604e+07 1.661656924623246567e+01 4.885247962971919655e+00 4.347928377454715942e+00
1.056515246941993572e+07 1.661640991351396934e+01 4.887361054883964329e+00 4.345007946989389858e+00
1.056532456928366050e+07 1.661632848893040659e+01 4.888282209319383398e+00 4.343530973169075438e+00
1.056566972396123409e+07 1.661616505737965355e+01 4.889602288530412011e+00 4.340485930176082974e+00
1.056601533004095033e+07 1.661600165436152565e+01 4.890331457854678376e+00 4.337334986073604348e+00
1.056618738078243099e+07 1.661592055985746441e+01 4.890501789730759441e+00 4.335723931592124103e+00
1.056652702004253119e+07 1.661576119460995216e+01 4.890668716180640807e+00 4.332505174760728828e+00
1.056669579983185790e+07 1.661568244625580348e+01 4.890575461115290068e+00 4.330844593446971480e+00
1.056702772779836878e+07 1.661552865479334429e+01 4.890236741855284563e+00 4.327491262410237738e+00
1.056719161770397611e+07 1.661545329106395386e+01 4.889997078672359443e+00 4.325783223902130104e+00
1.056751262955760583e+07 1.661530686512648813e+01 4.889473159610612463e+00 4.322344491397141830e+00
1.056767083011927828e+07 1.661523531143713939e+01 4.889195493656322000e+00 4.320599803827335883e+00
1.056797999357532337e+07 1.661509667516071787e+01 4.888606565763803147e+00 4.317071256666139334e+00
1.056813163897583261e+07 1.661502926812492476e+01 4.888315525919292526e+00 4.315284363054330719e+00
1.056828098315368034e+07 1.661496327305413345e+01 4.888043559958918927e+00 4.313491753455926947e+00
1.056857215655621514e+07 1.661483571014472460e+01 4.887541936950313470e+00 4.309889882547024875e+00
1.056871521289637685e+07 1.661477357250709375e+01 4.887318958733963825e+00 4.308069721579084188e+00
1.056899473430358246e+07 1.661465316762020450e+01 4.886938205179880867e+00 4.304420218543791421e+00
1.056913217370315269e+07 1.661459444854862610e+01 4.886778664388200966e+00 4.302580631237868936e+00
1.056940086439129338e+07 1.661448056025332320e+01 4.886524342830903755e+00 4.298899877735659736e+00
1.056953343994390965e+07 1.661442480125916887e+01 4.886426664332637060e+00 4.297044205643522297e+00
1.056966447327204049e+07 1.661436996923892906e+01 4.886347934934184956e+00 4.295184825332709622e+00
1.056992129221656919e+07 1.661426329262599211e+01 4.886242935383751984e+00 4.291471090012510814e+00
1.057004822039202042e+07 1.661421095119189673e+01 4.886214434152302388e+00 4.289602743995598821e+00
1.057029808925752155e+07 1.661410863732908183e+01 4.886198875068686220e+00 4.285863127896599067e+00
1.057042182628432289e+07 1.661405832259011817e+01 4.886209972786400790e+00 4.283981716847533150e+00
1.057066547158407420e+07 1.661395992252682419e+01 4.886264421496917976e+00 4.280222162707024935e+00
1.057078648084403202e+07 1.661391137950031549e+01 4.886305358777860874e+00 4.278328251783881875e+00
1.057090674269355461e+07 1.661386335060803532e+01 4.886353958046665724e+00 4.276429257651699345e+00
1.057114371820475161e+07 1.661376933239474241e+01 4.886469977274495946e+00 4.272638593960320641e+00
1.057126145837291889e+07 1.661372292581516419e+01 4.886535852057587448e+00 4.270731871508813171e+00
1.057149433984318748e+07 1.661363173267282889e+01 4.886678299656458613e+00 4.266916497946604103e+00
1.057161024475035071e+07 1.661358664070326796e+01 4.886754117504263917e+00 4.264996163887508018e+00
1.057172573901117779e+07 1.661354190324863112e+01 4.886832479735074841e+00 4.263069052127314684e+00
1.057195471601511538e+07 1.661345378199974121e+01 4.886993305613093419e+00 4.259209274903540177e+00
1.057206889171416685e+07 1.661341012774362724e+01 4.887074954171864327e+00 4.257264974170346328e+00
1.057229479585789889e+07 1.661332431754559025e+01 4.887238580831697377e+00 4.253379823501485468e+00
1.057240715979371034e+07 1.661328191523167419e+01 4.887320330873242469e+00 4.251428431069426139e+00
1.057251912845565006e+07 1.661323984719828672e+01 4.887401237844202662e+00 4.249471500626047060e+00
1.057274118796596117e+07 1.661315696516537344e+01 4.887558109369656734e+00 4.245554203504420698e+00
1.057284920047341660e+07 1.661311691559187054e+01 4.887631514178945480e+00 4.243630904533421067e+00
1.057304335883756354e+07 1.661304537681544957e+01 4.887760195919672590e+00 4.240146950045208030e+00
1.057313153997565061e+07 1.661301307967407226e+01 4.887817416126894798e+00 4.238554359598853516e+00
1.057329378468083590e+07 1.661295397088028380e+01 4.887920645808836895e+00 4.235607891991280738e+00
1.057344212779343128e+07 1.661290028281596420e+01 4.888012829145123916e+00 4.232895978227737999e+00
1.057364562753203325e+07 1.661282718465776398e+01 4.888136756759086765e+00 4.229148323131284748e+00
1.057377219746175408e+07 1.661278204139484416e+01 4.888213211099929900e+00 4.226801634168024790e+00
1.057389324483551830e+07 1.661273909785599656e+01 4.888286010380422653e+00 4.224545794279533695e+00
1.057406685036758333e+07 1.661267789996016830e+01 4.888393217733415952e+00 4.221291146147354567e+00
1.057417888475188054e+07 1.661263865048609034e+01 4.888465111046830458e+00 4.219178845991450544e+00
1.057434287312245555e+07 1.661258154281138388e+01 4.888576334285774649e+00 4.216070817596772713e+00
1.057450406000232510e+07 1.661252580505878029e+01 4.888694346501825549e+00 4.212997391574345052e+00
1.057461098638691008e+07 1.661248904428922657e+01 4.888778807680131067e+00 4.210948381175898980e+00
1.057480971329900436e+07 1.661242115499460326e+01 4.888956350518678384e+00 4.207120729435128936e+00
1.057494831609865651e+07 1.661237414087506181e+01 4.889099854831163938e+00 4.204437106761397480e+00
1.057509135968761891e+07 1.661232590806022102e+01 4.889269237544772828e+00 4.201655162888097372e+00
1.057517305296663567e+07 1.661229848605479020e+01 4.889377135460492241e+00 4.200061844439070491e+00
1.057534197767886333e+07 1.661224206881665211e+01 4.889628451519931751e+00 4.196757033678207627e+00
1.057553953096753918e+07 1.661217655960124517e+01 4.889979826526834827e+00 4.192877315736003752e+00
1.057564654294917360e+07 1.661214127840538168e+01 4.890198056729223808e+00 4.190770518833953240e+00
1.057575606904414855e+07 1.661210531488759301e+01 4.890442653337846224e+00 4.188611008148685144e+00
1.057586722272717394e+07 1.661206896504651809e+01 4.890713585505171324e+00 4.186416693624640750e+00
1.057609219623107091e+07 1.661199583309230832e+01 4.891332797769198493e+00 4.181971364718108930e+00
1.057620625552856736e+07 1.661195897106497199e+01 4.891682704144054483e+00 4.179717126803237370e+00
1.057632096272381209e+07 1.661192203916542809e+01 4.892058637931500087e+00 4.177450808731940413e+00
1.057643654484862089e+07 1.661188496185881291e+01 4.892461307614334842e+00 4.175169124540182075e+00
1.057666913050575182e+07 1.661181074529768154e+01 4.893339626030980938e+00 4.170587869827925509e+00
1.057678662787001207e+07 1.661177344272788048e+01 4.893815738945084703e+00 4.168280485780429423e+00
1.057690495223971829e+07 1.661173599988521588e+01 4.894315407773998317e+00 4.165963653775215825e+00
1.057702422865431383e+07 1.661169837493839196e+01 4.894837867823374822e+00 4.163636041693946410e+00
1.057714421659369767e+07 1.661166064159354505e+01 4.895381077769012101e+00 4.161303751423704789e+00
1.057738548383795470e+07 1.661158510334613680e+01 4.896519530246132845e+00 4.156647112138601941e+00
1.057750822077480517e+07 1.661154683812690891e+01 4.897118250950634355e+00 4.154297414340815564e+00
1.057763233675811812e+07 1.661150824880019528e+01 4.897734249749591484e+00 4.151937191845124886e+00
1.057775775127319060e+07 1.661146935996421803e+01 4.898365349359744769e+00 4.149569755825720740e+00
1.057788436717899889e+07 1.661143020122725389e+01 4.899009689768889508e+00 4.147198079521526637e+00
1.057814122016698681e+07 1.661135106670964134e+01 4.900330005664973676e+00 4.142450383199950181e+00
1.057827273118173331e+07 1.661131069935695592e+01 4.901008421630424827e+00 4.140055014859248317e+00
1.057840620244388096e+07 1.661126983040254501e+01 4.901696492522489734e+00 4.137650522164647349e+00
1.057854147905578464e+07 1.661122850869650236e+01 4.902391101512298732e+00 4.135241898626427215e+00
1.057867842235992104e+07 1.661118677797291809e+01 4.903089688046533112e+00 4.132833562670058747e+00
1.057881730242513493e+07 1.661114455749660124e+01 4.903791537179853499e+00 4.130423329153644296e+00
1.057895815627268329e+07 1.661110183803658202e+01 4.904495773966361938e+00 4.128013123087907132e+00
1.057924572385472059e+07 1.661101492929267565e+01 4.905902468311334808e+00 4.123201745291630971e+00
1.057939408459134959e+07 1.661097024878939976e+01 4.906609577878664474e+00 4.120778645761275172e+00
1.057954539345011301e+07 1.661092478821193197e+01 4.907316018019120207e+00 4.118350166652803068e+00
1.057969985357181914e+07 1.661087849137976846e+01 4.908021223466091598e+00 4.115915491269751314e+00
1.057985758129464462e+07 1.661083132874854940e+01 4.908723969990478331e+00 4.113475544762318137e+00
1.058001900551762432e+07 1.661078317807167437e+01 4.909424325668686251e+00 4.111027637428592563e+00
1.058018403814870305e+07 1.661073407212704822e+01 4.910120144181288282e+00 4.108575651990511446e+00
1.058052348600173928e+07 1.661063344784989226e+01 4.911487983042232663e+00 4.103693986353295742e+00
1.058069923747506365e+07 1.661058154605431980e+01 4.912162143346535892e+00 4.101250895507197569e+00
1.058087954089854471e+07 1.661052843750520935e+01 4.912829580848941724e+00 4.098803448628615342e+00
1.058106483186161146e+07 1.661047400318625478e+01 4.913490210186608920e+00 4.096349841512807011e+00
1.058125508617069945e+07 1.661041826024831636e+01 4.914142418841237259e+00 4.093894039912814087e+00
1.058145065958205052e+07 1.661036111491902290e+01 4.914786263541730982e+00 4.091435751793967235e+00
1.058165183427034877e+07 1.661030249585611429e+01 4.915421116783457833e+00 4.088975618496447417e+00
1.058207096936942078e+07 1.661018088829664663e+01 4.916656885521685005e+00 4.084066304470104214e+00
1.058229050532917865e+07 1.661011746825029789e+01 4.917259683100002832e+00 4.081606937993055517e+00
1.058251598153372109e+07 1.661005252637869845e+01 4.917848813105542227e+00 4.079157947147705521e+00
1.058274914889833890e+07 1.660998557259820174e+01 4.918427107107160801e+00 4.076705496185217825e+00
1.058299041874076612e+07 1.660991650619339310e+01 4.918993589779727671e+00 4.074250443947023292e+00
1.058323938328442350e+07 1.660984546189330402e+01 4.919545725866858454e+00 4.071801509959449561e+00
1.058349723168814741e+07 1.660977211893530026e+01 4.920084871435085994e+00 4.069352679899372660e+00
1.058376532469702512e+07 1.660969611199220708e+01 4.920611398579390006e+00 4.066896528667740540e+00
1.058433456628767215e+07 1.660953555111374769e+01 4.921622099397050754e+00 4.061968762581168235e+00
1.058463824264867604e+07 1.660945034241007434e+01 4.922105806216986679e+00 4.059488645558422704e+00
1.058495412456773967e+07 1.660936203108117937e+01 4.922570765367941803e+00 4.057010444998879528e+00
1.058528302796259895e+07 1.660927042183672597e+01 4.923016391178740570e+00 4.054533954728452017e+00
1.058562522922810726e+07 1.660917547266338445e+01 4.923442167503857547e+00 4.052061217087659983e+00
1.058598052550830506e+07 1.660907727544482171e+01 4.923847110373453795e+00 4.049598849403161616e+00
1.058635060674710944e+07 1.660897539998503092e+01 4.924232766025067320e+00 4.047138641115848756e+00
1.058673699543548748e+07 1.660886946953444365e+01 4.924600989140603069e+00 4.044675205168020149e+00
1.058715289947435074e+07 1.660875594208541628e+01 4.924962340842776953e+00 4.042136746653788748e+00
1.058802349048965983e+07 1.660851267000921894e+01 4.925622238676745646e+00 4.037156735127839013e+00
1.058849654711836576e+07 1.660836735441085565e+01 4.925932289532908293e+00 4.034623936482160111e+00
1.058948816373581439e+07 1.660802980202010204e+01 4.926491326413691141e+00 4.029659917990707996e+00
1.059002933127140813e+07 1.660782680763253083e+01 4.926750080389313169e+00 4.027130269406418606e+00
1.059116551647253707e+07 1.660735849535160469e+01 4.927201805250987832e+00 4.022173376248876053e+00
1.059240135603855178e+07 1.660678529501053546e+01 4.927574110746614444e+00 4.017243978633006307e+00
1.059307264700566232e+07 1.660644659797930700e+01 4.927733531319463012e+00 4.014734925599222848e+00
1.059447503617701121e+07 1.660567853912519709e+01 4.927988436105559700e+00 4.009804651962131317e+00
1.059523072080053575e+07 1.660523107462373815e+01 4.928089761434339522e+00 4.007294326295605558e+00
1.059679436009661108e+07 1.660423179263779048e+01 4.928238429422206579e+00 4.002357487677833170e+00
1.059845885766511410e+07 1.660306641299624886e+01 4.928329093508262204e+00 3.997403064719367904e+00
1.059934068985928409e+07 1.660242658169613605e+01 4.928358101764306554e+00 3.994876499244078172e+00
1.060114194520889968e+07 1.660110031023251764e+01 4.928387582914371734e+00 3.989886548294499846e+00
1.060209422014877200e+07 1.660038888745535246e+01 4.928390385628503623e+00 3.987326579277109317e+00
1.060401929167850874e+07 1.659892941610054606e+01 4.928376400198136054e+00 3.982286929186355184e+00
1.060601347636790574e+07 1.659738797292709478e+01 4.928341917869416555e+00 3.977226220380194022e+00
1.060705374745141156e+07 1.659657209911932796e+01 4.928318034908539147e+00 3.974641435527357824e+00
1.060913241981305927e+07 1.659491771413418348e+01 4.928262067270529734e+00 3.969571783304027157e+00
1.061021301518241316e+07 1.659404511807383642e+01 4.928229837014576731e+00 3.966982151100054033e+00
1.061238006714598089e+07 1.659226928214647145e+01 4.928161549373792916e+00 3.961873372716082198e+00
1.061350555610552244e+07 1.659133344685579559e+01 4.928125066417589295e+00 3.959261722363359048e+00
1.061575241683372296e+07 1.658943734864141817e+01 4.928051555716585597e+00 3.954127123648685238e+00
1.061691368007186800e+07 1.658844295146161585e+01 4.928014137449228116e+00 3.951512416445900122e+00
1.061921983336996287e+07 1.658643873121814849e+01 4.927942585198144876e+00 3.946397294265411304e+00
1.062041925373629108e+07 1.658538106457729810e+01 4.927907363547918251e+00 3.943778007157258347e+00
1.062277515873631276e+07 1.658327248158559186e+01 4.927843512819985783e+00 3.938713807153450652e+00
1.062515701566742733e+07 1.658109926416708291e+01 4.927787205080808697e+00 3.933704517248274968e+00
1.062879006322474591e+07 1.657770451733347272e+01 4.927719826629454403e+00 3.926285491805137529e+00
1.063129557964899391e+07 1.657530741915595485e+01 4.927687452203632468e+00 3.921334632927675479e+00
1.063513005696807802e+07 1.657155109804986637e+01 4.927659358283263735e+00 3.914032821088548442e+00
1.063775835818643682e+07 1.656891570109868184e+01 4.927655026803598126e+00 3.909228726809200083e+00
1.064181427000736818e+07 1.656475381154296400e+01 4.927669950206028382e+00 3.902143227297954375e+00
1.064460932027989998e+07 1.656181983763730159e+01 4.927693655744284307e+00 3.897493396105325747e+00
1.064892497050726973e+07 1.655718683722538742e+01 4.927747116297346963e+00 3.890671930059115713e+00
1.065337762653690204e+07 1.655227936154586033e+01 4.927817186291047591e+00 3.884050487042518540e+00
1.065646146300709806e+07 1.654880692491419225e+01 4.927870666872180117e+00 3.879683155442068987e+00
1.066121446228360198e+07 1.654333998937529771e+01 4.927955271326712072e+00 3.873242244687987945e+00
1.066610727169589698e+07 1.653757111277297298e+01 4.928046357977932779e+00 3.867209491030513036e+00
1.067118302823749743e+07 1.653144642181494461e+01 4.928134808343038742e+00 3.861504839706185521e+00
1.067816130340591632e+07 1.652280601001684701e+01 4.928231604829456103e+00 3.854080218122414525e+00
1.068336597759405337e+07 1.651619628593171640e+01 4.928273011810483162e+00 3.848383705907523655e+00
1.068838211343992874e+07 1.650968266025794762e+01 4.928286435723203240e+00 3.842573899308566965e+00
1.069321366161260754e+07 1.650326542702038779e+01 4.928272432435149675e+00 3.836650883015055413e+00
1.069784529042021371e+07 1.649697138505048244e+01 4.928231394800556053e+00 3.830637193957972197e+00
1.070225054434770346e+07 1.649084537225449765e+01 4.928165049531268771e+00 3.824585062797477786e+00
1.070640980945638195e+07 1.648492663954926485e+01 4.928074741052657082e+00 3.818545526374366617e+00
1.071033294349864870e+07 1.647921475565180316e+01 4.927961372540279328e+00 3.812531143973366898e+00
1.071404968743421510e+07 1.647367900004472929e+01 4.927825009465673034e+00 3.806517440155457344e+00
1.071754988738873228e+07 1.646834682967708119e+01 4.927667010740669262e+00 3.800548353485138087e+00
1.072083962747714296e+07 1.646322242046761986e+01 4.927488140344926215e+00 3.794657502287959616e+00
1.072393280417883396e+07 1.645829752486858411e+01 4.927288816447911834e+00 3.788826672272372242e+00
1.072682958961125277e+07 1.645358479218902659e+01 4.927070241281635177e+00 3.783073605260696581e+00
1.072956899135532416e+07 1.644903235399286245e+01 4.926830290601730056e+00 3.777344674794266943e+00
1.073298908589347452e+07 1.644320784358202658e+01 4.926475624327306235e+00 3.769744370328201200e+00
1.073538089800523035e+07 1.643903413437531214e+01 4.926183466147868728e+00 3.764097244940008302e+00
1.073761546517305635e+07 1.643505417933395307e+01 4.925870933579378885e+00 3.758533249312702385e+00
1.073970415579289198e+07 1.643125860812231664e+01 4.925537235393619540e+00 3.753044762281466440e+00
1.074226812564261444e+07 1.642649190453931141e+01 4.925060111589667500e+00 3.745884758943339499e+00
1.074406107890503481e+07 1.642308295236460225e+01 4.924672144189817580e+00 3.740550609633629175e+00
1.074573872588854656e+07 1.641983242456808867e+01 4.924258888961640324e+00 3.735276457943213835e+00
1.074777305928851850e+07 1.641580566771183314e+01 4.923676188186071556e+00 3.728460653108184086e+00
1.074955255604902655e+07 1.641220028673264508e+01 4.923075593351309287e+00 3.722054875204070967e+00
1.075107321726873890e+07 1.640905234679891933e+01 4.922476340129398054e+00 3.716200975282171193e+00
1.075245206694172882e+07 1.640614073281228613e+01 4.921845651356878903e+00 3.710531029736565678e+00
1.075372282276203111e+07 1.640340554264901129e+01 4.921171780899315173e+00 3.704940752116145042e+00
1.075489241371873766e+07 1.640083994535844880e+01 4.920422138809493973e+00 3.699105446546618658e+00
1.075595501392307319e+07 1.639846294085718625e+01 4.919627702464550723e+00 3.693172829905398302e+00
1.075692452625341341e+07 1.639625110220077886e+01 4.918778531913442720e+00 3.687191093059159819e+00
1.075780882343500108e+07 1.639419382991678376e+01 4.917870916566569051e+00 3.681177370768474510e+00
1.075861382353603654e+07 1.639228414592894723e+01 4.916907227867442387e+00 3.675140959051375500e+00
1.075934877801141888e+07 1.639050670027176437e+01 4.915876309864970040e+00 3.669087149856656627e+00
1.076001932861686125e+07 1.638885385916976389e+01 4.914783387627423394e+00 3.663049433382591147e+00
1.076062903415000066e+07 1.638732250780143573e+01 4.913630190637667816e+00 3.657037958260742627e+00
1.076118313839193061e+07 1.638590518794270423e+01 4.912441665309817296e+00 3.651236253170196289e+00
1.076180932120900415e+07 1.638427325958759795e+01 4.910939123111644378e+00 3.644685542436040038e+00
1.076236835387956724e+07 1.638278992428896430e+01 4.909401680475091290e+00 3.638861589576584343e+00
1.076294900264414027e+07 1.638122387224588294e+01 4.907561394808547917e+00 3.632844614151681917e+00
1.076357117740538530e+07 1.637951926787077994e+01 4.905256004719489304e+00 3.626503165927579708e+00
1.076415347533515096e+07 1.637790179023001258e+01 4.902713887224706468e+00 3.620711296744975272e+00
1.076477422151653096e+07 1.637615791951591504e+01 4.899506924609855929e+00 3.614740185548341422e+00
1.076535174260381237e+07 1.637452195041009517e+01 4.895972850008223354e+00 3.609418732764726911e+00
1.076602071017527208e+07 1.637261776412363901e+01 4.891106136780726921e+00 3.603572112336851596e+00
1.076675458393407054e+07 1.637052823499064047e+01 4.884774300942256176e+00 3.597642273391553847e+00
1.076755161917937174e+07 1.636827174861823053e+01 4.877614934025278792e+00 3.592074486130906408e+00
1.076898644751467928e+07 1.636423208730656853e+01 4.870025783155382371e+00 3.586226751710119842e+00
1.077061217222248018e+07 1.635973627481217108e+01 4.859240269773206222e+00 3.580935910080636830e+00
1.077240217588459328e+07 1.635490064601243532e+01 4.849154710374707911e+00 3.575506737857863548e+00
1.077445998368378542e+07 1.634939285808409437e+01 4.845403634881441768e+00 3.569794735322589396e+00
1.077719559531510435e+07 1.634183920608223062e+01 4.853244103419276811e+00 3.564161415588423143e+00
1.078504964463034458e+07 1.631832808341943064e+01 4.868158663277615261e+00 3.559467682892984985e+00
1.093678974468636699e+07 1.583232204637344864e+01 4.882652445520266227e+00 3.555637441295017798e+00
1.110748047768950835e+07 1.524674671651977143e+01 4.896435921781002065e+00 3.551900469128347115e+00
1.126468178045229428e+07 1.467002340188020604e+01 4.908947681320344536e+00 3.548422525103983816e+00
1.139583756884679757e+07 1.415865500202584393e+01 4.920211043785889693e+00 3.545306998778069651e+00
1.150406004012432136e+07 1.371233682884283489e+01 4.931015197477704781e+00 3.542459794155020436e+00
1.158300437455801666e+07 1.336935499916426195e+01 4.940915626133615568e+00 3.540055164958288536e+00
1.163378888993484341e+07 1.313828562005160094e+01 4.949692504024493900e+00 3.538114599185725240e+00
1.166089570209789276e+07 1.301006456307220205e+01 4.956989893927743474e+00 3.536604703256762239e+00
1.167181725669824518e+07 1.295674596867907624e+01 4.962253849336733857e+00 3.535532750815522984e+00
1.167612505222122371e+07 1.293527657015542331e+01 4.965289667272435814e+00 3.534880905839131948e+00
1.167781081567272916e+07 1.292676475050825147e+01 4.967440534270234131e+00 3.534456381767302258e+00
1.167811647393071651e+07 1.292521134284887552e+01 4.967883619422824637e+00 3.534361578996014774e+00
1.167838374051888846e+07 1.292384988383593836e+01 4.968328390576531639e+00 3.534269032197656202e+00
1.167864940713084489e+07 1.292249460356127067e+01 4.968638694697624203e+00 3.534191611138844280e+00
1.167888874363803677e+07 1.292126902713216019e+01 4.969879584915003257e+00 3.534012001664072589e+00
1.167911921051149070e+07 1.292008222789504934e+01 4.971149103626228971e+00 3.533832825729095628e+00
1.167938434449665435e+07 1.291870769774119942e+01 4.973001805979540002e+00 3.533591006499624321e+00
1.167962864001233503e+07 1.291742856217183189e+01 4.975544308808287575e+00 3.533284260198596982e+00
1.167985714933414012e+07 1.291621741282218139e+01 4.978390169869380877e+00 3.532958204606927666e+00
1.168008784740498103e+07 1.291497733981878504e+01 4.981674207428448575e+00 3.532591725023213058e+00
1.168029409361889586e+07 1.291385243811916084e+01 4.984968755617009251e+00 3.532233068010874000e+00
1.168053129525206797e+07 1.291253845221996954e+01 4.988687505939545019e+00 3.531832364485075981e+00
1.168077645373359881e+07 1.291115688305425380e+01 4.992561720049637053e+00 3.531420491784479587e+00
1.168100466481458955e+07 1.290984908368678497e+01 4.996114676109515429e+00 3.531050031285216217e+00
1.168124880285130255e+07 1.290842693057005697e+01 4.999857836246221154e+00 3.530663097388810456e+00
1.168151717309990153e+07 1.290683680834501601e+01 5.003756813113257707e+00 3.530264373360213703e+00
1.168178405735912919e+07 1.290522906731633412e+01 5.007262371492839037e+00 3.529910953784739291e+00
1.168210771334998496e+07 1.290324738977371943e+01 5.010994987589346472e+00 3.529538535324001636e+00
1.168241004522423260e+07 1.290136948822419427e+01 5.013728536770384103e+00 3.529270061312196560e+00
1.168286666000543535e+07 1.289849797477769044e+01 5.016363357912870136e+00 3.529016375837615183e+00
1.168316333093630895e+07 1.289661825797395700e+01 5.017179072782497862e+00 3.528943307545370445e+00
1.168372230488824472e+07 1.289306589984966855e+01 5.017151845354487882e+00 3.528961465835304789e+00
1.168419921420008875e+07 1.289004054473686089e+01 5.015961415632069986e+00 3.529089711892757109e+00
1.168459528703576326e+07 1.288754277607753806e+01 5.014354756082206599e+00 3.529254059216595962e+00
1.168493299947911128e+07 1.288542859156977016e+01 5.012738963988031315e+00 3.529415859728476157e+00
1.168539172029319033e+07 1.288258150739066821e+01 5.010480002210024431e+00 3.529640294009944501e+00
1.168583102233174816e+07 1.287988333433302302e+01 5.008057410872407189e+00 3.529877356418311685e+00
1.168631525489697605e+07 1.287694217647984196e+01 5.005434173591942759e+00 3.530091032784988592e+00
1.168668584357175231e+07 1.287471306954425643e+01 5.003601821155602813e+00 3.530257072491425507e+00
1.168714915992617421e+07 1.287194925886338837e+01 5.001683624350793167e+00 3.530427657567167365e+00
1.168742192967400327e+07 1.287033206920070683e+01 5.000776425206839626e+00 3.530506634429204205e+00
1.168790714027857222e+07 1.286747061090970590e+01 4.999559494314146590e+00 3.530599511864256801e+00
1.168835370106032118e+07 1.286485019071629310e+01 4.998894884126597660e+00 3.530630605804358169e+00
1.168872255782406777e+07 1.286269040784619477e+01 4.998725105239740785e+00 3.530616497320361535e+00
1.168911799544166960e+07 1.286037468592890676e+01 4.999009163075218254e+00 3.530557144599663744e+00
1.168951587111314200e+07 1.285803909249356636e+01 4.999762916824924019e+00 3.530479835559130919e+00
1.168989101262095571e+07 1.285583003381405831e+01 5.000520359418100469e+00 3.530350858948248849e+00
1.169024705036968365e+07 1.285372178227020257e+01 5.002233093582084678e+00 3.530125357861757962e+00
1.169057368692729250e+07 1.285176914100776280e+01 5.004737010713705914e+00 3.529824287844401720e+00
1.169088509286371246e+07 1.284988321135589118e+01 5.008018974742602936e+00 3.529449870547630042e+00
1.169116980322377011e+07 1.284813127811463040e+01 5.011816164124820006e+00 3.529031872969296213e+00
1.169141506744313240e+07 1.284659588390266904e+01 5.015660883406524384e+00 3.528621989321846009e+00
1.169166662850587070e+07 1.284499300870695393e+01 5.019897691027098041e+00 3.528179297770871692e+00
1.169189065420961753e+07 1.284353771768196850e+01 5.024132844764164219e+00 3.527745088865818612e+00
1.169211163659545407e+07 1.284207435534134767e+01 5.028339785947414597e+00 3.527316267034803943e+00
1.169233484171143547e+07 1.284056632213347093e+01 5.033291122939965057e+00 3.526818193257325262e+00
1.169254454318481684e+07 1.283912027082029539e+01 5.037435985122799664e+00 3.526405651887609238e+00
1.169275728519184515e+07 1.283762477587334772e+01 5.041779784720905155e+00 3.525975829623503977e+00
1.169295347689295933e+07 1.283622072533233549e+01 5.045623123955051526e+00 3.525597251493148399e+00
1.169316300921465643e+07 1.283469380427715123e+01 5.049974157420487941e+00 3.525171025232427535e+00
1.169337979986383952e+07 1.283308581973372853e+01 5.053630613569829677e+00 3.524815272329438365e+00
1.169357876790627465e+07 1.283158588176434023e+01 5.056807925971812168e+00 3.524506357748061980e+00
1.169378200123349391e+07 1.283003101627338438e+01 5.060607465814515038e+00 3.524138513746789769e+00
1.169397681654059887e+07 1.282851684691473082e+01 5.063897224771586991e+00 3.523821903519809950e+00
1.169406097704619542e+07 1.282785675225938249e+01 5.060371266547988967e+00 3.524140787599108204e+00
1.169411904409701750e+07 1.282741201464074621e+01 5.059346602629386069e+00 3.524252846919565307e+00
1.169424128055702709e+07 1.282646229597436971e+01 5.064740072010492256e+00 3.523741440898752408e+00
1.169439170337049104e+07 1.282526812915936532e+01 5.069001040589179219e+00 3.523337535653634944e+00
1.169458510049296170e+07 1.282370607352164882e+01 5.072931742283601331e+00 3.523213600412543833e+00
1.169472639426225796e+07 1.282255013467768734e+01 5.075674814522414202e+00 3.523753138518406658e+00
1.169490105195884779e+07 1.282110962917944086e+01 5.078221370431881709e+00 3.524466736755955676e+00
1.169504313887848333e+07 1.281993048751401076e+01 5.079905903409349222e+00 3.524917229050902101e+00
1.169518868073554710e+07 1.281871624906271023e+01 5.081615832641007913e+00 3.525361519551582390e+00
1.169533876539680362e+07 1.281745756706953543e+01 5.083279212500663391e+00 3.525788369819097490e+00
1.169549003595239297e+07 1.281618238952242095e+01 5.084820284440011662e+00 3.526115038713908412e+00
1.169563989287870750e+07 1.281491286709620780e+01 5.086443237083964064e+00 3.526460892163026273e+00
1.169574154445064254e+07 1.281404792126066283e+01 5.087404368403381838e+00 3.526718098461403272e+00
1.169589788263589330e+07 1.281271252607874445e+01 5.088934106788785883e+00 3.527114697640044927e+00
1.169600527920153737e+07 1.281179178967013499e+01 5.089717404865881534e+00 3.527327884243725897e+00
1.169611193776726723e+07 1.281087518290360272e+01 5.090442728286147300e+00 3.527486975077360754e+00
1.169621763981794193e+07 1.280996481354901206e+01 5.091121998365535362e+00 3.527654750479686463e+00
1.169627089844644815e+07 1.280950536376793103e+01 5.091353051665214124e+00 3.527711422315444878e+00
1.169637702064902708e+07 1.280858882904423801e+01 5.091921718593732216e+00 3.527848586741382242e+00
1.169648324249674380e+07 1.280766993509907792e+01 5.092420696913709577e+00 3.527973264980673207e+00
1.169653644903851673e+07 1.280720906834687511e+01 5.092586488672537826e+00 3.528030717023590501e+00
1.169664113803452253e+07 1.280630133064208565e+01 5.093160207903032699e+00 3.528169872252816752e+00
1.169669299746542610e+07 1.280585112023890026e+01 5.093411945574277233e+00 3.528207920285143295e+00
1.169674340960984305e+07 1.280541309145296225e+01 5.093603693047856318e+00 3.528232192731909134e+00
1.169683834551106021e+07 1.280458704502031608e+01 5.094294601806350187e+00 3.528386080085614385e+00
1.169688431971819885e+07 1.280418641261510970e+01 5.094757977390157677e+00 3.528513989462840783e+00
1.169697106121730618e+07 1.280342912584529635e+01 5.095508131163438037e+00 3.528761195743917334e+00
1.169709089159242436e+07 1.280238055831643962e+01 5.096220819169634098e+00 3.528967178558799045e+00
1.169725399695728347e+07 1.280094885876437871e+01 5.097311314667769544e+00 3.529150735955733698e+00
1.169745428311940655e+07 1.279918163908168793e+01 5.099661562846510954e+00 3.529457123982221223e+00
1.169752646752693877e+07 1.279854078376990323e+01 5.100706924408753729e+00 3.529601752580360685e+00
1.169755770005031303e+07 1.279826272667222575e+01 5.101245647892315382e+00 3.529668140312513636e+00
1.169758504745573364e+07 1.279801878758129519e+01 5.101633848514324221e+00 3.529736083735937502e+00
1.169760836597875692e+07 1.279781050961970834e+01 5.102262418062655236e+00 3.529835024674362831e+00
1.169762790517099574e+07 1.279763561186648779e+01 5.102546875160522966e+00 3.529879200140658924e+00
1.169762809175608680e+07 1.279763394110068830e+01 5.102549054888978475e+00 3.529879539685494727e+00
1.169764422301803157e+07 1.279748939948908948e+01 5.102836549925231502e+00 3.529896268576422802e+00
1.169764437737626582e+07 1.279748801623995647e+01 5.102839453684063109e+00 3.529896409180343753e+00
1.169765760737243854e+07 1.279736933895122242e+01 5.103010631422087329e+00 3.529927718527974712e+00
1.169765773439867422e+07 1.279736819933386016e+01 5.103012176423714408e+00 3.529928043563935969e+00
1.169765786142491363e+07 1.279736705971649613e+01 5.103013721425341487e+00 3.529928368599897226e+00
1.169766375227847695e+07 1.279731418701290657e+01 5.103312238739657225e+00 3.530045965849421208e+00
1.169766380492763408e+07 1.279731371442993648e+01 5.103315267184951765e+00 3.530047179765187337e+00
1.169766949869416654e+07 1.279726256905187931e+01 5.103124856971452239e+00 3.530067899170656887e+00
1.169766955467891693e+07 1.279726206613988637e+01 5.103122737874132397e+00 3.530068050199797192e+00
1.169766961066366732e+07 1.279726156322789521e+01 5.103120618776813444e+00 3.530068201228937497e+00
1.169767479657032527e+07 1.279721502053661730e+01 5.102719410198571559e+00 3.530034327425522811e+00
1.169767484730969742e+07 1.279721456516794476e+01 5.102715440494735688e+00 3.530033985666905849e+00
