# #MIST v1.1 [Fe/H] = 0, v_init = 0, reprocessed track 
# #star_age 	 star_mass 	 logL 	 logT
1.532050077806501349e+02 2.599994708699258084e+01 4.337034047941885184e+00 3.611773873522623024e+00
1.608161254384086476e+02 2.599994488762668610e+01 4.333788137906965154e+00 3.612108320935346395e+00
1.685130580300919974e+02 2.599994269550737869e+01 4.330588878389813878e+00 3.612447834501933297e+00
1.763477775015765303e+02 2.599994049592199019e+01 4.327377006362598699e+00 3.612785131772386027e+00
1.843526610857963419e+02 2.599993828065750634e+01 4.324140178193404793e+00 3.613120891806465895e+00
1.924794129951714012e+02 2.599993606399710089e+01 4.320942653567354519e+00 3.613463996526237842e+00
2.007258707686419541e+02 2.599993384672989194e+01 4.317732098917741901e+00 3.613800165283852728e+00
2.090925487622148466e+02 2.599993162924308976e+01 4.314560827708469049e+00 3.614142604204460874e+00
2.261771309730916641e+02 2.599992719682315112e+01 4.308240453706946305e+00 3.614818556128114757e+00
2.349640427108618326e+02 2.599992496507032413e+01 4.305083873788790427e+00 3.615158249320483463e+00
2.438974558389451772e+02 2.599992272802268189e+01 4.301933892860420272e+00 3.615497550929262616e+00
2.620903804282368696e+02 2.599991826746719426e+01 4.295725180911282415e+00 3.616176828545057731e+00
2.714519231434080666e+02 2.599991601974320332e+01 4.292564650181538433e+00 3.616521807092462737e+00
2.904183896734180621e+02 2.599991156125863156e+01 4.286435448020221806e+00 3.617201736384532129e+00
3.001470122155565718e+02 2.599990932103095886e+01 4.283415495170705967e+00 3.617538506297358847e+00
3.202060754786914458e+02 2.599990479524620568e+01 4.277403860029925120e+00 3.618218291109217333e+00
3.305621282445140423e+02 2.599990250567059391e+01 4.274404946154907847e+00 3.618561773854261254e+00
3.517738606429048787e+02 2.599989791069909373e+01 4.268380358679067399e+00 3.619256837369580815e+00
3.625623918894501685e+02 2.599989562077695382e+01 4.265479332552210678e+00 3.619596135202313825e+00
3.848192569954566125e+02 2.599989098872689297e+01 4.259717801603077447e+00 3.620278630618803284e+00
4.080358592886995552e+02 2.599988628164075166e+01 4.253929430615147389e+00 3.620976852360920262e+00
4.198881745365722509e+02 2.599988392542582005e+01 4.251144802496378716e+00 3.621318367374564584e+00
4.443726751015725540e+02 2.599987914935531919e+01 4.245664192419658534e+00 3.622010809874393722e+00
4.699795921992704280e+02 2.599987427728947154e+01 4.240266166236017931e+00 3.622705393475979641e+00
4.831579085479245350e+02 2.599987181576364748e+01 4.237631241150586092e+00 3.623055123843258674e+00
5.104026576183185284e+02 2.599986681805251010e+01 4.232406651364271077e+00 3.623759499317968924e+00
5.385733347752844793e+02 2.599986177171302160e+01 4.227486553333142716e+00 3.624464447702922421e+00
5.680031548323225934e+02 2.599985661764330658e+01 4.222749351124091000e+00 3.625169691467939881e+00
5.990108701741384039e+02 2.599985130449307746e+01 4.218163582596154093e+00 3.625889224899717433e+00
6.313670767275173148e+02 2.599984587634235922e+01 4.213935407787564813e+00 3.626610679174731011e+00
6.482528603647781438e+02 2.599984308545223399e+01 4.211912139273334077e+00 3.626973500345016532e+00
6.834276524809010880e+02 2.599983735441993460e+01 4.208136529876248311e+00 3.627710382371114761e+00
7.207746521704349334e+02 2.599983137714274761e+01 4.204728088182482004e+00 3.628457793911562312e+00
7.603161094920378673e+02 2.599982515080886714e+01 4.201843951435177971e+00 3.629225224477975242e+00
8.026847932530653225e+02 2.599981857344910452e+01 4.199506366585870509e+00 3.630004765848544146e+00
8.250471519248266077e+02 2.599981513362747876e+01 4.198603218272115356e+00 3.630402836918484422e+00
8.722748185890052355e+02 2.599980792270065422e+01 4.197451518479211607e+00 3.631214672456297698e+00
9.236417437200508402e+02 2.599980013309094673e+01 4.197364263974935561e+00 3.632050010182564570e+00
9.509840686531878191e+02 2.599979599636560934e+01 4.197825168857345801e+00 3.632476087000546805e+00
1.008392841789181034e+03 2.599978730023535078e+01 4.200015835688851951e+00 3.633340399939867016e+00
1.068915244323212164e+03 2.599977806326161556e+01 4.204141188057354483e+00 3.634195882938344724e+00
1.099984445055962851e+03 2.599977327075196953e+01 4.207016808114629747e+00 3.634613433333572452e+00
1.161157461955401459e+03 2.599976368116535852e+01 4.214264702854012334e+00 3.635394232408874160e+00
1.218564871249951011e+03 2.599975442441857609e+01 4.223094988204779909e+00 3.636075694514276702e+00
1.270899620028085337e+03 2.599974568870319658e+01 4.233001368794702124e+00 3.636656916782957438e+00
1.318493831633161790e+03 2.599973742834028911e+01 4.243630337142191955e+00 3.637150230790686223e+00
1.382647843043130251e+03 2.599972568990951771e+01 4.260543898968167653e+00 3.637763980647307882e+00
1.440187429775021201e+03 2.599971442063623783e+01 4.278294573362909858e+00 3.638255042432343433e+00
1.492791969970498030e+03 2.599970335352312034e+01 4.296718150536478653e+00 3.638662556488186262e+00
1.557164194324438540e+03 2.599968857972897496e+01 4.322125252981713572e+00 3.639130157093055207e+00
1.602302808120373584e+03 2.599967724304083561e+01 4.341660175757585449e+00 3.639433068580060215e+00
1.659397627405685853e+03 2.599966151830383509e+01 4.368129340997990440e+00 3.639785182983220846e+00
1.700574179440030093e+03 2.599964906260850839e+01 4.388298175656421662e+00 3.640034555252297022e+00
1.753905885004957781e+03 2.599963131646542536e+01 4.415502146282723750e+00 3.640357557264334076e+00
1.792426543935544942e+03 2.599961717779847703e+01 4.439964290011742420e+00 3.640977332635915609e+00
1.835625722369946288e+03 2.599959931574290195e+01 4.475412538162194309e+00 3.642830860423435180e+00
1.865871097665440175e+03 2.599958526203419495e+01 4.498960159855059260e+00 3.644530617874155443e+00
1.909186039731711389e+03 2.599956298012576283e+01 4.528592306395724520e+00 3.647237421865028750e+00
1.956364631719271983e+03 2.599953595806288575e+01 4.557325166386759108e+00 3.650565104478702416e+00
1.992934727996956553e+03 2.599951306930233841e+01 4.578123632276655641e+00 3.653468340592658237e+00
2.040533133627065126e+03 2.599948071436699237e+01 4.603976041762236626e+00 3.657710423269999289e+00
2.085725256654656732e+03 2.599944727504889386e+01 4.627573449510506975e+00 3.662254171571889483e+00
2.128195481022255535e+03 2.599941340445637650e+01 4.649029940020513507e+00 3.666953832065341867e+00
2.168001771513580934e+03 2.599937948749409600e+01 4.668532654891113687e+00 3.671676371342582179e+00
2.214158942293116525e+03 2.599933751698036488e+01 4.690387145416953452e+00 3.677486894829613995e+00
2.256409652711983199e+03 2.599929661963439997e+01 4.709617758725971548e+00 3.683106310092281177e+00
2.295476246045240259e+03 2.599925673348387178e+01 4.726674718923102425e+00 3.688550356975713651e+00
2.338296871335025571e+03 2.599921080224888925e+01 4.744477352944471704e+00 3.694789960838045673e+00
2.377544067298947994e+03 2.599916677847187785e+01 4.759879663736947819e+00 3.700767078691716172e+00
2.419386055521949856e+03 2.599911797634541344e+01 4.775229217633853551e+00 3.707421814024599804e+00
2.463330481640735343e+03 2.599906488803438975e+01 4.790035435364742966e+00 3.714750948114570850e+00
2.503636667942429995e+03 2.599901479862844766e+01 4.802609775873511566e+00 3.721853262966451581e+00
2.541333538457758550e+03 2.599896696732501056e+01 4.813378108435689029e+00 3.728795119576915784e+00
2.577346414012073183e+03 2.599892061901670459e+01 4.822339125534964133e+00 3.735636330483204315e+00
2.615989123051909246e+03 2.599887052332378090e+01 4.830444723707666199e+00 3.743268701710273927e+00
2.653094205841310213e+03 2.599882238085896802e+01 4.837228682504481014e+00 3.750930323147614764e+00
2.689379766049220052e+03 2.599877547107428200e+01 4.842930615249737336e+00 3.758602648399360646e+00
2.724949867252460081e+03 2.599872990466497669e+01 4.847208470165821126e+00 3.766275126043923560e+00
2.760461780664907565e+03 2.599868507290418762e+01 4.850300422924409105e+00 3.774064706968591310e+00
2.800083285167571375e+03 2.599863609658306629e+01 4.852198758987505300e+00 3.782747493243221015e+00
2.835657544070449603e+03 2.599859326882361543e+01 4.853219433977654873e+00 3.790651301106053417e+00
2.868190611680318398e+03 2.599855509609614757e+01 4.853551323369721615e+00 3.797797828934767583e+00
2.906523435664245881e+03 2.599851148008276169e+01 4.852781353453293534e+00 3.806127943869690888e+00
2.942603242683659118e+03 2.599847183648074633e+01 4.851403674669068522e+00 3.813812170363227061e+00
2.981429348744291474e+03 2.599843074663516163e+01 4.849292840470068811e+00 3.821884977309719211e+00
3.022947902995021650e+03 2.599838857239727830e+01 4.846620580727184269e+00 3.830253818444521841e+00
3.062990536773957956e+03 2.599834960613917190e+01 4.843393573050862599e+00 3.838018251847307827e+00
3.100215478036430341e+03 2.599831484695221206e+01 4.840244355220022499e+00 3.844988235473359772e+00
3.147134875186003228e+03 2.599827294989032822e+01 4.835936867740151968e+00 3.853404299670816435e+00
3.190268040572037080e+03 2.599823621531590589e+01 4.831941558534298409e+00 3.860827000125234942e+00
3.236287479845661437e+03 2.599819876740905045e+01 4.827563420157698459e+00 3.868391500648433734e+00
3.285679912642082400e+03 2.599816046690588678e+01 4.822576929077763808e+00 3.876090778522962577e+00
3.338499420450979414e+03 2.599812153576189289e+01 4.817389709482181814e+00 3.883959317691879853e+00
3.394937053962826212e+03 2.599808206932815580e+01 4.811512885212115620e+00 3.891845310035369820e+00
3.455003803840970704e+03 2.599804230405339922e+01 4.805547697758550285e+00 3.899836056523029448e+00
3.507905409116852297e+03 2.599800902232641420e+01 4.800307062564165506e+00 3.906498365408108242e+00
3.574729179197170652e+03 2.599796909880423357e+01 4.794415948280478901e+00 3.914629796365653114e+00
3.633047291453622620e+03 2.599793597722747407e+01 4.789301782479711278e+00 3.921335832010312661e+00
3.707120160145030695e+03 2.599789603317606890e+01 4.782941930049140922e+00 3.929365850643856017e+00
3.772163499705528011e+03 2.599786273196883357e+01 4.777631956972200555e+00 3.936033201138691151e+00
3.854808811452644477e+03 2.599782257254756246e+01 4.771518657299674615e+00 3.944100564166756584e+00
3.927132143304040255e+03 2.599778917192662675e+01 4.766563148288449625e+00 3.950779703913496199e+00
4.003285141159026352e+03 2.599775557421437355e+01 4.761698719327141838e+00 3.957428176548702492e+00
4.100297852513129328e+03 2.599771484186207715e+01 4.756318306840499943e+00 3.965445246553600533e+00
4.186413573357307541e+03 2.599768037630317963e+01 4.752123416048766202e+00 3.972112382038321066e+00
4.277507960163013195e+03 2.599764540554666681e+01 4.748913088700133400e+00 3.978950131489313868e+00
4.373829924327939807e+03 2.599760983050593310e+01 4.746082035659982878e+00 3.985734172369233441e+00
4.476062709307196201e+03 2.599757340116807569e+01 4.744746931417637370e+00 3.992830692871302212e+00
4.583931367360099102e+03 2.599753616087954455e+01 4.744253328877613640e+00 3.999983332250131696e+00
4.697905685339183037e+03 2.599750012202420635e+01 4.745137330681275856e+00 4.007388682521987988e+00
4.793342974103528832e+03 2.599747460803308030e+01 4.746608761034309509e+00 4.013416667459541287e+00
4.917409316970100008e+03 2.599744734284920611e+01 4.749495147392241989e+00 4.021112850976701125e+00
5.020896353967224059e+03 2.599742934688774199e+01 4.752572456048572036e+00 4.027409852209133945e+00
5.127578809087995978e+03 2.599741505070199565e+01 4.756410503192642025e+00 4.033862308294867915e+00
5.236756294934834841e+03 2.599740470409772541e+01 4.760740861676115543e+00 4.040369981304078983e+00
5.377042095568103832e+03 2.599739528568871094e+01 4.766813305779841414e+00 4.048603952905332370e+00
5.492259538291305944e+03 2.599738734899516146e+01 4.772073683438184943e+00 4.055234850579339856e+00
5.610638358169299863e+03 2.599737882891549390e+01 4.777827959511599332e+00 4.061975347158885086e+00
5.730941642507028519e+03 2.599736975544754358e+01 4.783883496735563234e+00 4.068730793601594620e+00
5.854151990940785254e+03 2.599736000451524376e+01 4.790393531894681090e+00 4.075583853476883789e+00
5.979086680683849409e+03 2.599734960140070328e+01 4.797254943707885744e+00 4.082476935412208796e+00
6.106109562277779332e+03 2.599733845316951886e+01 4.804458813980946985e+00 4.089413779790015191e+00
6.235229608606652619e+03 2.599732648658240208e+01 4.812005592795825848e+00 4.096399226068279553e+00
6.366346784654549992e+03 2.599731363127501993e+01 4.819875179379165431e+00 4.103431162530048582e+00
6.499327389670748744e+03 2.599729981482815333e+01 4.828039615265087292e+00 4.110505926065964211e+00
6.600237589064833628e+03 2.599728877193254561e+01 4.834338383059609612e+00 4.115839576806258115e+00
6.736096326898899861e+03 2.599727309247623452e+01 4.842931000297404864e+00 4.122977226656773908e+00
6.873327346500867861e+03 2.599725624663455648e+01 4.851705686755160229e+00 4.130140956421738174e+00
7.011714524958802940e+03 2.599723816172548396e+01 4.860610107652719947e+00 4.137322201816195033e+00
7.151036987297839005e+03 2.599721876729989845e+01 4.869588414032660850e+00 4.144511728595924538e+00
7.291094324368025809e+03 2.599719799334547332e+01 4.878585074839735469e+00 4.151701190771904137e+00
7.431709523074035133e+03 2.599717577077470310e+01 4.887545544603495884e+00 4.158882884143636716e+00
7.572697462998717128e+03 2.599715203756730020e+01 4.896417129720212813e+00 4.166048672616172510e+00
7.678625787426870374e+03 2.599713320354534574e+01 4.902985412408998656e+00 4.171410017995706987e+00
7.819885656535832823e+03 2.599710668898684673e+01 4.911587147497369799e+00 4.178529926949700268e+00
7.961140117556669793e+03 2.599707851087994470e+01 4.919980220524849734e+00 4.185615523842622920e+00
8.102295040134810733e+03 2.599704862118834114e+01 4.928131959390283257e+00 4.192661418009368646e+00
8.243279554342614574e+03 2.599701697567343217e+01 4.936016074005858734e+00 4.199663103793847441e+00
8.419170749163207802e+03 2.599697489455479271e+01 4.945463500075783614e+00 4.208346120114162758e+00
8.559681752628905087e+03 2.599693913919265853e+01 4.952683715447419033e+00 4.215238608233875084e+00
8.700016203750670684e+03 2.599690148189600336e+01 4.959594933184920507e+00 4.222081079035860718e+00
8.840228403306025939e+03 2.599686187362676648e+01 4.966194626576056592e+00 4.228873688380589968e+00
9.015338668842532570e+03 2.599680956996777681e+01 4.974004345914077696e+00 4.237291286135653756e+00
9.155459910299694457e+03 2.599676541327503898e+01 4.979908055503655007e+00 4.243971059052329409e+00
9.295669027642798028e+03 2.599671915466661076e+01 4.985511246926516371e+00 4.250602244141838959e+00
9.471157798616748551e+03 2.599665830818154788e+01 4.992103728651016148e+00 4.258823298182965900e+00
9.611938081964595767e+03 2.599660711384522216e+01 4.997062732523138706e+00 4.265351536648788411e+00
9.788465478296224319e+03 2.599653991503692652e+01 5.002880374873934777e+00 4.273448842833106553e+00
9.930330988163503207e+03 2.599648348806751841e+01 5.007244854719483662e+00 4.279881533381141523e+00
1.010856682335506412e+04 2.599640954290133266e+01 5.012353225179802862e+00 4.287865009261342841e+00
1.028803085107385232e+04 2.599633167280413204e+01 5.017095924791082240e+00 4.295788637362243811e+00
1.043266633760903824e+04 2.599626643997441988e+01 5.020641482043455284e+00 4.302088030425665011e+00
1.061490358918714810e+04 2.599618113383091611e+01 5.024777562578860213e+00 4.309912228658271616e+00
1.079900909290688469e+04 2.599609146853372366e+01 5.028604592059386924e+00 4.317686170517290201e+00
1.098524170023642728e+04 2.599599725569419206e+01 5.032141345580891212e+00 4.325414135961453077e+00
1.117380744233426230e+04 2.599589832325689542e+01 5.035404234199634566e+00 4.333100182742393613e+00
1.132637836728360526e+04 2.599581571078296705e+01 5.037826466797456604e+00 4.339242125964167585e+00
1.151888853267167360e+04 2.599570824915379319e+01 5.040624124835601627e+00 4.346880193619885091e+00
1.171385025581264199e+04 2.599559582137234770e+01 5.043183979633555580e+00 4.354469625282270329e+00
1.191197372011276639e+04 2.599547794431536119e+01 5.045524710938331658e+00 4.362024327047848260e+00
1.211366232919018694e+04 2.599535428250791114e+01 5.047657892047315187e+00 4.369550168381176825e+00
1.231903762986105539e+04 2.599522466062910198e+01 5.049590619024588278e+00 4.377043072230845766e+00
1.252840542373276185e+04 2.599508878380935428e+01 5.051329866306607741e+00 4.384505812773474176e+00
1.274206573108196608e+04 2.599494635039744850e+01 5.052881443336941558e+00 4.391941143192756414e+00
1.296036088459844177e+04 2.599479702046555829e+01 5.054250331193934187e+00 4.399353397335672433e+00
1.318374272357366863e+04 2.599464036560391378e+01 5.055440866632271657e+00 4.406748720656530338e+00
1.341093277225023849e+04 2.599458433293987625e+01 5.056505679787967722e+00 4.414084260018920070e+00
1.363974951099840655e+04 2.599457179266455142e+01 5.057353626347618203e+00 4.421276719858692417e+00
1.392055249564717815e+04 2.599455490053245654e+01 5.058146382344113512e+00 4.429845217175066630e+00
1.416049852043003193e+04 2.599453913444509823e+01 5.058630220979608794e+00 4.436948187639155883e+00
1.440614785682612273e+04 2.599452171137225776e+01 5.058958559961133084e+00 4.444015411545995775e+00
1.465787960833300531e+04 2.599450250867226231e+01 5.059136122147795511e+00 4.451048778131286632e+00
1.496853912864656741e+04 2.599447693890741462e+01 5.059155914048851344e+00 4.459444684320076568e+00
1.523521463489643975e+04 2.599445335949902258e+01 5.059015419206945197e+00 4.466407975638654548e+00
1.550954593330576245e+04 2.599442756242208930e+01 5.058733623063634610e+00 4.473341210454811367e+00
1.584909328473997448e+04 2.599439352845645246e+01 5.058207301808656631e+00 4.481605073754897361e+00
1.614169198912360844e+04 2.599436240177861279e+01 5.057604238194674195e+00 4.488446614564841397e+00
1.644446967121366470e+04 2.599432852307477049e+01 5.056833024223405637e+00 4.495252426013757407e+00
1.682340524094734792e+04 2.599428388031503090e+01 5.055635122431134221e+00 4.503367171675351166e+00
1.715476732584118145e+04 2.599424296876177465e+01 5.054326397060753706e+00 4.510071920674517898e+00
1.750382140133034773e+04 2.599419820146690085e+01 5.052594891921713405e+00 4.516696318381952402e+00
1.795384414435746658e+04 2.599413839741016119e+01 5.049630126310252543e+00 4.524475878253365835e+00
1.836591055295927072e+04 2.599408215027384372e+01 5.045960477147207079e+00 4.530732524818753326e+00
1.892912591739312120e+04 2.599400419518283911e+01 5.039048645019647665e+00 4.537741630984178265e+00
1.949263707916416388e+04 2.599392660531480104e+01 5.030034542277928900e+00 4.543032253566849477e+00
2.018836605911240622e+04 2.599383351634602590e+01 5.016482368677205983e+00 4.547518019686864754e+00
2.108657748001979053e+04 2.599372043152568779e+01 4.996992829490427113e+00 4.551099143551034842e+00
2.198851452595253795e+04 2.599361589460353272e+01 4.977788698800233114e+00 4.553364340335676275e+00
2.280281001724432281e+04 2.599352852528210533e+01 4.963218859654662474e+00 4.555070114453071639e+00
2.375267122058403402e+04 2.599343262857540893e+01 4.951916186019765576e+00 4.557612897408347408e+00
2.477972708187686294e+04 2.599333224976616918e+01 4.947310753877206757e+00 4.561902632369965183e+00
2.575839593166863779e+04 2.599323575194661728e+01 4.949231367698123663e+00 4.567852531246797021e+00
2.661122791210231298e+04 2.599314815984442006e+01 4.954434003293711086e+00 4.574408682597765008e+00
2.737374544491325287e+04 2.599306574058663344e+01 4.959751586004727208e+00 4.580621374961190817e+00
2.812987192937206055e+04 2.599298029986809766e+01 4.963315060530093525e+00 4.586063932316724490e+00
2.924792530257771796e+04 2.599284998658685453e+01 4.963202793090693454e+00 4.591624344282485559e+00
3.062893750221553273e+04 2.599268943916270658e+01 4.955386304781962181e+00 4.594616795648336804e+00
3.194058952151228368e+04 2.599254320437565724e+01 4.942809744821309081e+00 4.594052751863983985e+00
3.355841165790567175e+04 2.599237579845136281e+01 4.930577130449566248e+00 4.592563415914210800e+00
3.533689832965885580e+04 2.599219931131126060e+01 4.927701745382919718e+00 4.593672165031161825e+00
3.717038971220450912e+04 2.599201926261010698e+01 4.925409746958991697e+00 4.593997815888331893e+00
3.846043892178602255e+04 2.599189375775251776e+01 4.923918495517028759e+00 4.593910137170067465e+00
3.911896718274649902e+04 2.599183006892031500e+01 4.923320429311365487e+00 4.593844977672693730e+00
4.043542006994118128e+04 2.599170333232103047e+01 4.922382379322004731e+00 4.593681148611763021e+00
4.174622946288637468e+04 2.599157771754116197e+01 4.921865160718023269e+00 4.593560474927137705e+00
4.369856615541264182e+04 2.599139113673706447e+01 4.921598653953965119e+00 4.593457029107415046e+00
4.499970344207937160e+04 2.599126691841511416e+01 4.921496537368343915e+00 4.593369772648971505e+00
4.629182221323071280e+04 2.599114363118164661e+01 4.921539950158223320e+00 4.593329942780956188e+00
4.758388570185990102e+04 2.599102034127792038e+01 4.921548754430387085e+00 4.593271843182241021e+00
4.950736989731785434e+04 2.599083688370315670e+01 4.921483001600602591e+00 4.593117805702240375e+00
5.078573304678667773e+04 2.599071497772769490e+01 4.921556989310746921e+00 4.593062545587187628e+00
5.270841576499406801e+04 2.599053157378790146e+01 4.921623635970359345e+00 4.592976640600845428e+00
5.462699601963466557e+04 2.599034858103789603e+01 4.921685554695768516e+00 4.592891198420070431e+00
5.591174951638127823e+04 2.599022602453249675e+01 4.921729147664132498e+00 4.592841575627301332e+00
5.783601595402439125e+04 2.599004249103373709e+01 4.921696721175108813e+00 4.592711809549015811e+00
5.975633229343508719e+04 2.598985935304211026e+01 4.921753670333530728e+00 4.592620992822778803e+00
6.167471375675289892e+04 2.598967639215698711e+01 4.921800522339855100e+00 4.592528701747315090e+00
6.359398636821427499e+04 2.598949336704412616e+01 4.921875631135240958e+00 4.592444668277760655e+00
6.616109012842622178e+04 2.598924851977871242e+01 4.921978965952042984e+00 4.592342991987007572e+00
6.808688111684707110e+04 2.598906484991121602e+01 4.921986814870999538e+00 4.592229899229145929e+00
7.065091560610855231e+04 2.598882033452154872e+01 4.922043052331007473e+00 4.592078383126261265e+00
7.258468440115076373e+04 2.598863583899876417e+01 4.922215470855860531e+00 4.592053920784298526e+00
7.518239219897001749e+04 2.598838790456907688e+01 4.922216756784902891e+00 4.591952756869916108e+00
7.777748345894116210e+04 2.598814031550034187e+01 4.922207031511427466e+00 4.591819083017449010e+00
7.972856676544426591e+04 2.598795417848294420e+01 4.922288833924055140e+00 4.591752301813393444e+00
8.233394759357777366e+04 2.598770561334055174e+01 4.922349719029749160e+00 4.591636390196921269e+00
8.559627980128648051e+04 2.598739434895597000e+01 4.922433913206063494e+00 4.591485556327699946e+00
8.822184453768498497e+04 2.598714379694158794e+01 4.922541612388298127e+00 4.591381559489186692e+00
9.084589730293554021e+04 2.598689332055052503e+01 4.922642335526806079e+00 4.591286740096512275e+00
9.414048443786290591e+04 2.598657870250977808e+01 4.922658964922947078e+00 4.591153395531887504e+00
9.676088366454871721e+04 2.598632859870192391e+01 4.922722311222138991e+00 4.591013573598022646e+00
1.000674268881390744e+05 2.598601281275938035e+01 4.922976039808433235e+00 4.590955671482226386e+00
1.033976225733379979e+05 2.598569465173839532e+01 4.923004156647722951e+00 4.590820455597871330e+00
1.067339494846852904e+05 2.598537587406363514e+01 4.923055673517686692e+00 4.590687235271571076e+00
1.100604232333185646e+05 2.598505806666673834e+01 4.923178971604582621e+00 4.590553985857726893e+00
1.140907795164257550e+05 2.598467270961555897e+01 4.923355914273471967e+00 4.590486972184848469e+00
1.174678592844113446e+05 2.598434983075793525e+01 4.923319959731263573e+00 4.590327307054075767e+00
1.215267987823292206e+05 2.598396166724536727e+01 4.923492484311829287e+00 4.590244330143878670e+00
1.255642212153888104e+05 2.598357556938915991e+01 4.923574891719840529e+00 4.590086910700508227e+00
1.295983016625939199e+05 2.598318964772392548e+01 4.923791247483360500e+00 4.589987824691623253e+00
1.336416087393238558e+05 2.598280268407583549e+01 4.923873041178914889e+00 4.589845233321392826e+00
1.377037153535891557e+05 2.598241377512446704e+01 4.923953808408408683e+00 4.589707863690243528e+00
1.424433428081275779e+05 2.598195988831225023e+01 4.924197991723438861e+00 4.589600865133940388e+00
1.471849672752281767e+05 2.598150560146960331e+01 4.924306964233299055e+00 4.589439486398894985e+00
1.519530449109954061e+05 2.598104843397269548e+01 4.924396859645893798e+00 4.589340833191441149e+00
1.566852984421570436e+05 2.598059482249684038e+01 4.924580616416710299e+00 4.589186858416139714e+00
1.621317813054681465e+05 2.598007222626324975e+01 4.924798919020846988e+00 4.589112577033583662e+00
1.669053873003534391e+05 2.597961412050564434e+01 4.924849462043736636e+00 4.588965715180553850e+00
1.723742240275014192e+05 2.597908908089389257e+01 4.924984510485449718e+00 4.588818545781045088e+00
1.785514079430592828e+05 2.597849566402685184e+01 4.925156547840244592e+00 4.588682909208534610e+00
1.840192945512017177e+05 2.597797026360641581e+01 4.925375960320817370e+00 4.588535050289448414e+00
1.902153916259503458e+05 2.597737437372175151e+01 4.925630725443466140e+00 4.588427338131943145e+00
1.964543578546382487e+05 2.597677401562744848e+01 4.925754066942395148e+00 4.588256690760836420e+00
2.027230526820252708e+05 2.597617034136814240e+01 4.925895826034088820e+00 4.588126426270644487e+00
2.089598876547177788e+05 2.597556949408045313e+01 4.926155918419080848e+00 4.587988448254440854e+00
2.159102904608214740e+05 2.597489931586400758e+01 4.926418105889411869e+00 4.587857972791232086e+00
2.228835147975719301e+05 2.597422632003602416e+01 4.926669450066777145e+00 4.587776406529224360e+00
2.305259016484990716e+05 2.597348834726214761e+01 4.926842661029628090e+00 4.587582110193515916e+00
2.374801515288061346e+05 2.597281621733005608e+01 4.927095031119920421e+00 4.587468233452263178e+00
2.451438339758178627e+05 2.597207494222060475e+01 4.927375028897320597e+00 4.587313758752141979e+00
2.535266954371795000e+05 2.597126316843806393e+01 4.927620459910799333e+00 4.587188672127184397e+00
2.619158948025766294e+05 2.597045011101021572e+01 4.927778610738607235e+00 4.587019206516516512e+00
2.703187302546961000e+05 2.596963503739506862e+01 4.928123069526605171e+00 4.586897422902575627e+00
2.787821837867865106e+05 2.596881319106962849e+01 4.928398974597484106e+00 4.586755927322764492e+00
2.879823451631312491e+05 2.596791884119130600e+01 4.928715592335768392e+00 4.586616410140049283e+00
2.972392935715816566e+05 2.596701791023546946e+01 4.929007640762403497e+00 4.586454402953416221e+00
3.072412083088381914e+05 2.596604320786515174e+01 4.929292155422135835e+00 4.586307156519398021e+00
3.172237123830582714e+05 2.596506926396303783e+01 4.929690953985677027e+00 4.586156210070194916e+00
3.271834829065758968e+05 2.596409617328504282e+01 4.930073974244713497e+00 4.586036573816000939e+00
3.378479333498677588e+05 2.596305283472934633e+01 4.930387972930050822e+00 4.585904439190363391e+00
3.491769971389523125e+05 2.596194291460880876e+01 4.930746666933268685e+00 4.585740334497286241e+00
3.598177679371499689e+05 2.596089890553793111e+01 4.931018931289218088e+00 4.585594839839250980e+00
3.718809637926336145e+05 2.595971362429471085e+01 4.931508114217604266e+00 4.585467182283611720e+00
3.840005672908455017e+05 2.595852077153002213e+01 4.931912666263666978e+00 4.585315637896927754e+00
3.962202575709304074e+05 2.595731606029278282e+01 4.932306415518828757e+00 4.585135489228314043e+00
4.092381886879547965e+05 2.595603026659647838e+01 4.932682647103501239e+00 4.585012639184249394e+00
4.222242600539402920e+05 2.595474556716933989e+01 4.933178870418563733e+00 4.584851649173685928e+00
4.360324171070590965e+05 2.595337676434276020e+01 4.933655319111375448e+00 4.584699762523622546e+00
4.499188568189807702e+05 2.595199735166133337e+01 4.934106733679699097e+00 4.584551513224272234e+00
4.645798358364497544e+05 2.595053805261167312e+01 4.934603375868501729e+00 4.584417574855981670e+00
4.800324594216902042e+05 2.594899668518311131e+01 4.935139118795897062e+00 4.584273631020879591e+00
4.954511595124742016e+05 2.594745522761310497e+01 4.935682467052517453e+00 4.584116457247779941e+00
5.116180484608851257e+05 2.594583522084845839e+01 4.936197113921972246e+00 4.583914631215168178e+00
5.282999660433115205e+05 2.594415940599924397e+01 4.936804255162993371e+00 4.583742712157505395e+00
5.448921616534985369e+05 2.594248819078786283e+01 4.937378362299427614e+00 4.583607292628213870e+00
5.629541304997998523e+05 2.594066433206998568e+01 4.938089552756922629e+00 4.583468509667532942e+00
5.811194942667793948e+05 2.593882484656427323e+01 4.938598988515513710e+00 4.583304560295881735e+00
5.994775756408126326e+05 2.593696066956822222e+01 4.939333902184070979e+00 4.583135810645194042e+00
6.194869956052267225e+05 2.593492260222098622e+01 4.939983596327737203e+00 4.582977967820568210e+00
6.388876147553535411e+05 2.593294060049639072e+01 4.940648916750097541e+00 4.582814920249074220e+00
6.596254114764377009e+05 2.593081541615575247e+01 4.941408130995181835e+00 4.582617553052850567e+00
6.810994539716981817e+05 2.592860717714317786e+01 4.942182474443937323e+00 4.582464640336905148e+00
7.032314512515508104e+05 2.592632328813112963e+01 4.942906374458366336e+00 4.582296532581191073e+00
7.260938354372339090e+05 2.592395573778754070e+01 4.943759162743278424e+00 4.582104618658771500e+00
7.497388248460988980e+05 2.592149759201284809e+01 4.944664444011530158e+00 4.581959726877217420e+00
7.732763272655536421e+05 2.591904136966530103e+01 4.945469285679654270e+00 4.581776995739790692e+00
7.987987738583135651e+05 2.591636716446791411e+01 4.946355924515435376e+00 4.581609593006908732e+00
8.243638878050695639e+05 2.591367743490000564e+01 4.947261251321991793e+00 4.581411536699654619e+00
8.508061574990090448e+05 2.591088351213642937e+01 4.948233464275453741e+00 4.581211915473435425e+00
8.780698754267988261e+05 2.590798961634730091e+01 4.949209380284188775e+00 4.581029659328741843e+00
9.068773227622997947e+05 2.590491767956945779e+01 4.950276169845551522e+00 4.580847679570728914e+00
9.356069073979217792e+05 2.590183922187618748e+01 4.951319983886449450e+00 4.580660671753346236e+00
9.663164034248089883e+05 2.589853212774388425e+01 4.952467126474854098e+00 4.580457341125534931e+00
9.972513232321717078e+05 2.589518314915060415e+01 4.953547358966152281e+00 4.580251935888295378e+00
1.029043349125325563e+06 2.589172302776815471e+01 4.954794740588441826e+00 4.580074279241085122e+00
1.062172003504421096e+06 2.588809742036869821e+01 4.956047538168101063e+00 4.579839085450962521e+00
1.096806105448722607e+06 2.588428455319382948e+01 4.957288117747419953e+00 4.579612949779866327e+00
1.131726524991442682e+06 2.588041713450882497e+01 4.958532387505379724e+00 4.579394827295958592e+00
1.168130398032561410e+06 2.587636041208279991e+01 4.959920739685378166e+00 4.579155470273287065e+00
1.205807758282332681e+06 2.587213436582762327e+01 4.961393082062663495e+00 4.578955186403064204e+00
1.244464909993581008e+06 2.586776929784238277e+01 4.962782855868076659e+00 4.578690679191541157e+00
1.284181255407274002e+06 2.586325333229688539e+01 4.964308913029759296e+00 4.578458145912254196e+00
1.326068528647482162e+06 2.585845617471283120e+01 4.965912246035165900e+00 4.578198556828716903e+00
1.368477977834101766e+06 2.585356242397639193e+01 4.967570382944694884e+00 4.577936095974356689e+00
1.412909545318337157e+06 2.584839536625506184e+01 4.969230169901981853e+00 4.577660141868791221e+00
1.457908364587889984e+06 2.584312040503770547e+01 4.970949309424323559e+00 4.577378354464840093e+00
1.504766756355727790e+06 2.583758142537422842e+01 4.972825061956378079e+00 4.577086487854061581e+00
1.553550524179267464e+06 2.583176494114400867e+01 4.974736699860811129e+00 4.576776252813121282e+00
1.603656261766930111e+06 2.582573653840598382e+01 4.976658241278335559e+00 4.576449468454852010e+00
1.655202320162087679e+06 2.581947711014819902e+01 4.978719525090130382e+00 4.576112928188585727e+00
1.708429014981716638e+06 2.581295126886515945e+01 4.980823312371653877e+00 4.575763102096956025e+00
1.763123279605571646e+06 2.580617832000947942e+01 4.983035488079560871e+00 4.575412262761920701e+00
1.819970280807510484e+06 2.579906603710999846e+01 4.985287526677898207e+00 4.575013254030961818e+00
1.878792995721661486e+06 2.579162705130051592e+01 4.987676391710685664e+00 4.574608477122077410e+00
1.938952856318531791e+06 2.578393435388369070e+01 4.990090865297529987e+00 4.574184218320594297e+00
2.000969150590579491e+06 2.577591365953000846e+01 4.992573255420484912e+00 4.573739102780442600e+00
2.065779562563524116e+06 2.576743161156189998e+01 4.995273876565209825e+00 4.573257970388065807e+00
2.131419075067079626e+06 2.575873584992779897e+01 4.997964892877106990e+00 4.572763281834793858e+00
2.199924668327315710e+06 2.574954606547618852e+01 5.000792158126047937e+00 4.572231850605977144e+00
2.270367563630573452e+06 2.573997269853973080e+01 5.003704808010881244e+00 4.571669196824317716e+00
2.343081319457578938e+06 2.572995689300916311e+01 5.006747014442564314e+00 4.571069422156988082e+00
2.417590862855521031e+06 2.571955072803141107e+01 5.009864475125137773e+00 4.570439985575449171e+00
2.495016648887635209e+06 2.570858221370976082e+01 5.013152253153606352e+00 4.569758435950109110e+00
2.574129677899614908e+06 2.569720852833361135e+01 5.016536173877849336e+00 4.569040930214528728e+00
2.655551927885343321e+06 2.568532467133310604e+01 5.020020175706214616e+00 4.568270593034415405e+00
2.739804993594135623e+06 2.567283376985392351e+01 5.023687764573695702e+00 4.567443632583067625e+00
2.825637594095089473e+06 2.565990307820123917e+01 5.027428606350478724e+00 4.566567996940605667e+00
2.914721637940244749e+06 2.564626028057046980e+01 5.031349077598052943e+00 4.565620740948693523e+00
3.005075756132367998e+06 2.563218734230520823e+01 5.035362340410983073e+00 4.564617759979411105e+00
3.098764930316518992e+06 2.561734043085538204e+01 5.039561529142322804e+00 4.563529425859644384e+00
3.194739192868731916e+06 2.560186209745448593e+01 5.043843918710230412e+00 4.562380583660510247e+00
3.293487844303752296e+06 2.558564354695021237e+01 5.048380373221903916e+00 4.561117565942836904e+00
3.394448609964154661e+06 2.556874949592165436e+01 5.053077583684372875e+00 4.559757061716963378e+00
3.497772605527933687e+06 2.555112841509449950e+01 5.057946383798007872e+00 4.558289381102504478e+00
3.602724675568035804e+06 2.553288154485778350e+01 5.062961818013058668e+00 4.556710677553549083e+00
3.710253066717275418e+06 2.551381849472505081e+01 5.068177511114653200e+00 4.554997843166440852e+00
3.818901593448120169e+06 2.549417422751845308e+01 5.073532731813294561e+00 4.553155874671779735e+00
3.929771847211875487e+06 2.547372859164334002e+01 5.079088748258275388e+00 4.551157751776479188e+00
4.040362131046755705e+06 2.545293044046960773e+01 5.084727362546840546e+00 4.549029593654995374e+00
4.154517423050079029e+06 2.543103860005328443e+01 5.090636767322196832e+00 4.546688504519431184e+00
4.267983333284530789e+06 2.540885779570002612e+01 5.096568690094981591e+00 4.544217918674865686e+00
4.382084818294445053e+06 2.538613740583171818e+01 5.102597487976012758e+00 4.541573561723638797e+00
4.494532025152131915e+06 2.536334996836712463e+01 5.108618277653150130e+00 4.538800262364391713e+00
4.541195776622273959e+06 2.535378118161547789e+01 5.111140814952371159e+00 4.537592909187672774e+00
4.590144126739161089e+06 2.534367488481847630e+01 5.113804782425472872e+00 4.536289557779997317e+00
4.636217502950870432e+06 2.533409903922146356e+01 5.116327280650179610e+00 4.535031143498070350e+00
4.684409363369551487e+06 2.532401887373085714e+01 5.118981673731545889e+00 4.533671081600448183e+00
4.731537825425244868e+06 2.531409960645662593e+01 5.121601070359402819e+00 4.532304429207236751e+00
4.779157003109822981e+06 2.530401703703930494e+01 5.124262094348255303e+00 4.530881800572989171e+00
4.824732874456794932e+06 2.529431270700867884e+01 5.126832361203002897e+00 4.529476006224643747e+00
4.870398981286675669e+06 2.528453773693308548e+01 5.129423772762793377e+00 4.528026570745968371e+00
4.916628180700430647e+06 2.527459217408598136e+01 5.132069541197804341e+00 4.526513557267567656e+00
4.961770805667054839e+06 2.526483416012741756e+01 5.134675116531931316e+00 4.524990936514468487e+00
5.006065031594652683e+06 2.525521768153959812e+01 5.137253796964044383e+00 4.523445698854618335e+00
5.051282013731765561e+06 2.524536087211236079e+01 5.139910595427640949e+00 4.521818378321320608e+00
5.095114750596102327e+06 2.523577009620075629e+01 5.142508666420877894e+00 4.520194946243432099e+00
5.138020734765856527e+06 2.522635104506731452e+01 5.145076456306099999e+00 4.518549884807870676e+00
5.181019557628330775e+06 2.521688395304742869e+01 5.147670279308676378e+00 4.516850633724192043e+00
5.222779812909292057e+06 2.520766621781731587e+01 5.150216587628232645e+00 4.515145383733683460e+00
5.263022444826333784e+06 2.519876499592911046e+01 5.152692150998314347e+00 4.513452253265511693e+00
5.304425203906821087e+06 2.518959152553677683e+01 5.155266164910080384e+00 4.511653021715980927e+00
5.341976920371815562e+06 2.518126080997394922e+01 5.157620162929390517e+00 4.509970456254129623e+00
5.382970669741371647e+06 2.517215891522847926e+01 5.160215721580872383e+00 4.508073166852097025e+00
5.420815931548189372e+06 2.516375260355090404e+01 5.162635113061620373e+00 4.506267708335267130e+00
5.456793368091073819e+06 2.515576147431672283e+01 5.164953801381437337e+00 4.504498167688444354e+00
5.495300779780851677e+06 2.514721259782649909e+01 5.167465311259491045e+00 4.502543232095828962e+00
5.529398152577227913e+06 2.513964977896397102e+01 5.169707737429814820e+00 4.500757355794992698e+00
5.564772148355876096e+06 2.513181440955830226e+01 5.172056411880561200e+00 4.498852067987746395e+00
5.600818679209647700e+06 2.512384502023001076e+01 5.174478201375432462e+00 4.496845331872681761e+00
5.634451526352267712e+06 2.511642680035030040e+01 5.176701882974429125e+00 4.494943933467377306e+00
5.666445115002015606e+06 2.510938962632789639e+01 5.178853410102407295e+00 4.493071878594087742e+00
5.702083893798618577e+06 2.510157677980965474e+01 5.181299853912142872e+00 4.490919433249723980e+00
5.732330697373040020e+06 2.509497043655004589e+01 5.183402420722666548e+00 4.489035280846727538e+00
5.763288808879387565e+06 2.508823545181045489e+01 5.185575731721166370e+00 4.487052185401010362e+00
5.794788221278104931e+06 2.508141392197723007e+01 5.187786033256982066e+00 4.484993319490965469e+00
5.823734831106432714e+06 2.507517603180145471e+01 5.189838007666892850e+00 4.483052356801706217e+00
5.853562140398419462e+06 2.506878247553338923e+01 5.191895014672782693e+00 4.481039916179843097e+00
5.884302612038209103e+06 2.506223309037656577e+01 5.194059959895723111e+00 4.478892276817640905e+00
5.911472100392615423e+06 2.505648131345963137e+01 5.196023830211220940e+00 4.476922717283952302e+00
5.939567636581266299e+06 2.505057272982620731e+01 5.198069305468271395e+00 4.474842691977501730e+00
5.964806559596445411e+06 2.504530118465217470e+01 5.199926209068671312e+00 4.472928730809140774e+00
5.995114617673339322e+06 2.503901942419578575e+01 5.202169896247335501e+00 4.470572970604707486e+00
6.021672816645918414e+06 2.503356170783760604e+01 5.204158527923102184e+00 4.468457337795237017e+00
6.044372922367360443e+06 2.502893345164944705e+01 5.205826963327231383e+00 4.466641353233018918e+00
6.072459076450470835e+06 2.502325601045916414e+01 5.207881256375818779e+00 4.464362140129379597e+00
6.096861624708531424e+06 2.501836955949125496e+01 5.209693132627670309e+00 4.462321795241869893e+00
6.121886679545601830e+06 2.501340593481483410e+01 5.211597550827548275e+00 4.460165408669128695e+00
6.142315953366441652e+06 2.500939122075428500e+01 5.213176459843763766e+00 4.458370115434755476e+00
6.168958033652668819e+06 2.500420779521153847e+01 5.215235352061814211e+00 4.455989185830230070e+00
6.190303917819576338e+06 2.500009936568005742e+01 5.216906737046280718e+00 4.454049853272176840e+00
6.212326029209702276e+06 2.499590363414647598e+01 5.218634874057917372e+00 4.452020130009595178e+00
6.234771393175251782e+06 2.499167339867596738e+01 5.220403973727582247e+00 4.449925814044958017e+00
6.257908943917212076e+06 2.498736302860784875e+01 5.222272203654536149e+00 4.447708332281233190e+00
6.281681029504644684e+06 2.498298854031747140e+01 5.224108244947609947e+00 4.445499801299671816e+00
6.306361202023336664e+06 2.497850501696283487e+01 5.226024805098250070e+00 4.443173547190593098e+00
6.325165680970365182e+06 2.497512989730476107e+01 5.227515961958357771e+00 4.441362976689137376e+00
6.350893922922711819e+06 2.497057073470563182e+01 5.229583844855097752e+00 4.438859130661146679e+00
6.370699537777444348e+06 2.496710789303794797e+01 5.231214320500237491e+00 4.436903148899225435e+00
6.391073436289009638e+06 2.496358860703137950e+01 5.232938608055145657e+00 4.434872265261302182e+00
6.412015046353839338e+06 2.496001639908782721e+01 5.234707767744096962e+00 4.432812913595645554e+00
6.433633304831776768e+06 2.495637583356716505e+01 5.236580931463860722e+00 4.430687562937698942e+00
6.455764199890948832e+06 2.495269757644599551e+01 5.238542380033709200e+00 4.428546678543742843e+00
6.478387005577243865e+06 2.494898564574648958e+01 5.240578135896541312e+00 4.426455227728609110e+00
6.501987466074892320e+06 2.494515999569687636e+01 5.242754380858926311e+00 4.424401689522577286e+00
6.526884363973019645e+06 2.494116773400043741e+01 5.245128958702322208e+00 4.422472139705257987e+00
6.553178302059117705e+06 2.493698497823942262e+01 5.247752771581323472e+00 4.420850707250274958e+00
6.580910171963410452e+06 2.493258199823085874e+01 5.250721134310392557e+00 4.419957890426759128e+00
6.600301510164661333e+06 2.492948049520910558e+01 5.253003042656306576e+00 4.420215291619962628e+00
6.618148994508916512e+06 2.492657585532604969e+01 5.255381598940771504e+00 4.421617496519093748e+00
6.625740222104879096e+06 2.492531311334447963e+01 5.256537860072749702e+00 4.422770612675140711e+00
6.637900310016789474e+06 2.492323192046902136e+01 5.258742591625141571e+00 4.425794342568378781e+00
6.642675161228133366e+06 2.492238581467393388e+01 5.259817178180345110e+00 4.427586175995172901e+00
6.646693361810456030e+06 2.492165571864237350e+01 5.260882466791287015e+00 4.429500373015879511e+00
6.650060900924021378e+06 2.492102760357582980e+01 5.261949489022796023e+00 4.431493611351086770e+00
6.652875824998547323e+06 2.492048825437805704e+01 5.263025936653598080e+00 4.433531266229837620e+00
6.655225296826452948e+06 2.492002566596712398e+01 5.264115948398034206e+00 4.435581385703121882e+00
6.657185039822638966e+06 2.491962916357871904e+01 5.265226060248087592e+00 4.437619622259092012e+00
6.658819643749749288e+06 2.491928939564118650e+01 5.266356144815886431e+00 4.439622561543697721e+00
6.660183622425071895e+06 2.491899825776757638e+01 5.267505293712390291e+00 4.441570642227541832e+00
6.661322782996314578e+06 2.491874873504326970e+01 5.268671511386420647e+00 4.443450058705574079e+00
6.662275371799189597e+06 2.491853478195180216e+01 5.269853184912977717e+00 4.445254422073775302e+00
6.663073176484044641e+06 2.491835120131992554e+01 5.271038554465413917e+00 4.446974564604372127e+00
6.663742590590003878e+06 2.491819354303229517e+01 5.272223248910195004e+00 4.448607908851582415e+00
6.664305628034460358e+06 2.491805795771819731e+01 5.273403420624862115e+00 4.450154985261634444e+00
6.665178495995586738e+06 2.491784126553189083e+01 5.275692252580693520e+00 4.452968530045391837e+00
6.665520134888608009e+06 2.491775388856299855e+01 5.276806474150304460e+00 4.454255600486122901e+00
6.665811242516685277e+06 2.491767807898609277e+01 5.277883301546888895e+00 4.455462016919426560e+00
6.666272327081261203e+06 2.491755503981010378e+01 5.279912127928529486e+00 4.457632790733865313e+00
6.666616463258271106e+06 2.491746040795151984e+01 5.281779587213918603e+00 4.459525849428336741e+00
6.666878374200547114e+06 2.491738645380054606e+01 5.283478782893316961e+00 4.461177594998921414e+00
6.667081761759393848e+06 2.491732767404696247e+01 5.285001648499569882e+00 4.462619369576081851e+00
6.667242925840052776e+06 2.491728013757294491e+01 5.286368875866980233e+00 4.463877562658320031e+00
6.667428905505363829e+06 2.491722408476928763e+01 5.288147102270097655e+00 4.465477917459973689e+00
6.667569425539279357e+06 2.491718078032123174e+01 5.289644761189176592e+00 4.466803071762232236e+00
6.667710848241258413e+06 2.491713627811149223e+01 5.291270282821231241e+00 4.468241075205827251e+00
6.667841171023236588e+06 2.491709438180433622e+01 5.292865986007964985e+00 4.469642459870009077e+00
6.667972592280279845e+06 2.491705121910400322e+01 5.294506078587454034e+00 4.471094760712510663e+00
6.668092432415962219e+06 2.491701104749892792e+01 5.295961855837941989e+00 4.472408579140759954e+00
6.668234103609630838e+06 2.491696263778611353e+01 5.297491826320732677e+00 4.473861094210247913e+00
6.668377505946714431e+06 2.491691277721847442e+01 5.298673015963733413e+00 4.475161710247381741e+00
6.668527746110063978e+06 2.491685975214924653e+01 5.299559770334670183e+00 4.476293671477503011e+00
6.668744449380581267e+06 2.491678217632945547e+01 5.300212850285038080e+00 4.477486511770645272e+00
6.668887163545240648e+06 2.491673059908378463e+01 5.300270010295066392e+00 4.477991730423564576e+00
6.669058701292007230e+06 2.491666832398032838e+01 5.299991508154849207e+00 4.478315362147593959e+00
6.669264484563011676e+06 2.491659352220396784e+01 5.299070431996280917e+00 4.478235994593483760e+00
6.669511561080575921e+06 2.491650419721732845e+01 5.296815353628143264e+00 4.477214265318407271e+00
6.669513414093691856e+06 2.491650354014304725e+01 5.296793968735480362e+00 4.477200094298964927e+00
6.669794060692681931e+06 2.491640410035218522e+01 5.293567179523270383e+00 4.475043226124611806e+00
6.670035889503184706e+06 2.491632132164675539e+01 5.291223825188831498e+00 4.472770747378480571e+00
6.670235355956506915e+06 2.491625514995911672e+01 5.289097172397872804e+00 4.470238491136777625e+00
6.670401736621581018e+06 2.491620173580534114e+01 5.287964370837391570e+00 4.468041141036220409e+00
6.670544480271865614e+06 2.491615704810703136e+01 5.287082241138846506e+00 4.465860985921287885e+00
6.670545323429493234e+06 2.491615678999769301e+01 5.287074852320078122e+00 4.465844034366885928e+00
6.670672146007382311e+06 2.491611802845967816e+01 5.286012755169460675e+00 4.463286415264860807e+00
6.670863327728509903e+06 2.491606176039343623e+01 5.287569018962659406e+00 4.459558371741263016e+00
6.670938615106870420e+06 2.491603998556436395e+01 5.289774666645591594e+00 4.457906199698371985e+00
6.671012574907407165e+06 2.491601868638375805e+01 5.293066532669379320e+00 4.456130065950560493e+00
6.671084577061007731e+06 2.491599795369277004e+01 5.297163486458071446e+00 4.454324054449566361e+00
6.671153370028368197e+06 2.491597807565186784e+01 5.301704517364306923e+00 4.452683808826193967e+00
6.671285444163792767e+06 2.491593948841644490e+01 5.310634832939539862e+00 4.449761637270929882e+00
6.671352713589018211e+06 2.491591958046426214e+01 5.314863621719065456e+00 4.448412829228771237e+00
6.671422841814700514e+06 2.491589865749678978e+01 5.318952811658514968e+00 4.447151338175262758e+00
6.671576181309589185e+06 2.491585236110958235e+01 5.326386911254343381e+00 4.444768071245949415e+00
6.671751787421113811e+06 2.491579873388904076e+01 5.332362333496929452e+00 4.442494312373472809e+00
6.671850012293192558e+06 2.491576856244434524e+01 5.335160203563597214e+00 4.441686731391772724e+00
6.672095013589181937e+06 2.491569262919544059e+01 5.339756360400596868e+00 4.440364489523516589e+00
6.672436793786980212e+06 2.491558608730366942e+01 5.341048829176436641e+00 4.438784027356811102e+00
6.672626321098774672e+06 2.491552754323084429e+01 5.341104969154018001e+00 4.438180270705895047e+00
6.672828022743010893e+06 2.491546561777349567e+01 5.340780261345519087e+00 4.437382058419054864e+00
6.673276512893705629e+06 2.491533017249158277e+01 5.340023956813466199e+00 4.434785566130654111e+00
6.673277975923786871e+06 2.491532973961268027e+01 5.340019573250659235e+00 4.434773566069309503e+00
6.673496603115512058e+06 2.491526529784578159e+01 5.339418870069538414e+00 4.432975336063276650e+00
6.673695310914564878e+06 2.491520801037196264e+01 5.339014375559477443e+00 4.431238305810513367e+00
6.674041650571346283e+06 2.491511132507667625e+01 5.337638960665608501e+00 4.427438242129776214e+00
6.674193472699088976e+06 2.491507046138467629e+01 5.336929434677094797e+00 4.425526414590447821e+00
6.674334647788250819e+06 2.491503338677670953e+01 5.336392327028012694e+00 4.423691305453365530e+00
6.674466568654353730e+06 2.491499953117055099e+01 5.335717550421319899e+00 4.421766539545012975e+00
6.674590780347447842e+06 2.491496843879947676e+01 5.335177967423351042e+00 4.419890684667776348e+00
6.674708397964810953e+06 2.491493969133099284e+01 5.334638585394745114e+00 4.417979005614006027e+00
6.674820478528650478e+06 2.491491295897018077e+01 5.334250158605198244e+00 4.416113212214403561e+00
6.674927776118674316e+06 2.491488795818469626e+01 5.333874747056705168e+00 4.414220024807443465e+00
6.675130919322309084e+06 2.491484225351316439e+01 5.333323794182051714e+00 4.410443504854916874e+00
6.675227878106662072e+06 2.491480210484585101e+01 5.333162259361060364e+00 4.408569763574541334e+00
6.675321903714121319e+06 2.491466976825983082e+01 5.333013181935601921e+00 4.406697503451184161e+00
6.675412949691561051e+06 2.491442279021919504e+01 5.332923403632266357e+00 4.404856424953155880e+00
6.675582502140389755e+06 2.491390218092956843e+01 5.332919711381011396e+00 4.401296468794814842e+00
6.675662802281934768e+06 2.491365722693450024e+01 5.332972824961429659e+00 4.399558971414338160e+00
6.675741305641131476e+06 2.491341871058927993e+01 5.333057578639477825e+00 4.397837263481241266e+00
6.675818505926955491e+06 2.491318504287109192e+01 5.333157242525018660e+00 4.396107536495044599e+00
6.675969414500050247e+06 2.491273079957736414e+01 5.333405731815847872e+00 4.392652098082255208e+00
6.676043833895049989e+06 2.491250800605955007e+01 5.333547539432014872e+00 4.390912199440768937e+00
6.676117394699019380e+06 2.491228856390526403e+01 5.333697549370677748e+00 4.389171369551883473e+00
6.676261927985815331e+06 2.491185965190216223e+01 5.334019247925315454e+00 4.385687874764240490e+00
6.676333770451859571e+06 2.491164756181447615e+01 5.334190787260833844e+00 4.383927621823126231e+00
6.676405305799698457e+06 2.491143710646732856e+01 5.334368122436577764e+00 4.382156199797455187e+00
6.676547037373404950e+06 2.491102227712300987e+01 5.334737912829717210e+00 4.378608799853664912e+00
6.676617470922037959e+06 2.491081718318761062e+01 5.334930385272929954e+00 4.376816971020300429e+00
6.676687492438457906e+06 2.491061398636440316e+01 5.335126813239796206e+00 4.375016085556130641e+00
6.676757221715426072e+06 2.491041232975351249e+01 5.335328183271303537e+00 4.373204193366919235e+00
6.676895373588970862e+06 2.491001483717981557e+01 5.335743695047650448e+00 4.369569199637324708e+00
6.676964259966591373e+06 2.490981764929309961e+01 5.335956797203586177e+00 4.367740367408371682e+00
6.677032817663975060e+06 2.490962207046545984e+01 5.336172265877744181e+00 4.365909176408431236e+00
6.677101084592813626e+06 2.490942798318959817e+01 5.336389757521446953e+00 4.364067356247091745e+00
6.677236417348654941e+06 2.490904518886473795e+01 5.336828372909771190e+00 4.360370145396101904e+00
6.677303973863992840e+06 2.490885508507842871e+01 5.337050198883087404e+00 4.358504413202547667e+00
6.677371280535209924e+06 2.490866633806688668e+01 5.337272057678877246e+00 4.356635610512812562e+00
6.677438368609840050e+06 2.490847885501538173e+01 5.337494293031852521e+00 4.354766926023274642e+00
6.677571671000178903e+06 2.490810825839236387e+01 5.337938128365316004e+00 4.351013288667985535e+00
6.677638403036838397e+06 2.490792370590600058e+01 5.338161296235543141e+00 4.349110510406879015e+00
6.677705037957614288e+06 2.490774007362964682e+01 5.338384312469944604e+00 4.347199159049392136e+00
6.677771596259400249e+06 2.490755730522543132e+01 5.338607009400663017e+00 4.345279100658784976e+00
6.677903909135078080e+06 2.490719592467648980e+01 5.339048376149365893e+00 4.341419395837325723e+00
6.677969910747129470e+06 2.490701663685342737e+01 5.339268040672028093e+00 4.339478485852356293e+00
6.678035674054281786e+06 2.490683864820169902e+01 5.339486161178353285e+00 4.337535575758605155e+00
6.678100013370478526e+06 2.490666514450929725e+01 5.339698862774435284e+00 4.335624724615939840e+00
6.678160767171654850e+06 2.490650189738643050e+01 5.339899278212223876e+00 4.333811032366149618e+00
6.678271152602004819e+06 2.490620677644388792e+01 5.340262062046235769e+00 4.330482861347723755e+00
6.678322387317644432e+06 2.490607045052325574e+01 5.340429514606951145e+00 4.328925686187457877e+00
6.678418128490978852e+06 2.490581681413006265e+01 5.340740915542843581e+00 4.326001559363158222e+00
6.678507094485541806e+06 2.490558242336723538e+01 5.341028190391028829e+00 4.323273070606327373e+00
6.678549669426341541e+06 2.490547069720825846e+01 5.341165271751883381e+00 4.321962196014117019e+00
6.678631180691016838e+06 2.490525759061437938e+01 5.341430905519484185e+00 4.319441673412544702e+00
6.678708980085767806e+06 2.490505516280622800e+01 5.341685527195906502e+00 4.317018755462615154e+00
6.678783789469921030e+06 2.490486141444555912e+01 5.341931361957472646e+00 4.314672633673232838e+00
6.678856175706030801e+06 2.490467478086392816e+01 5.342171362363634657e+00 4.312392865014192722e+00
6.678926596369527280e+06 2.490449400614474840e+01 5.342406126870985261e+00 4.310158369488257257e+00
6.679029237742982805e+06 2.490423191622600285e+01 5.342749738776168655e+00 4.306891859702518310e+00
6.679096270507007837e+06 2.490406164340172879e+01 5.342974966054155672e+00 4.304751052571490710e+00
6.679162435944826342e+06 2.490389426357464586e+01 5.343197107729913853e+00 4.302629743992817168e+00
6.679227968586362898e+06 2.490372915956584521e+01 5.343417774005260412e+00 4.300518733263107407e+00
6.679293083450112492e+06 2.490356577460306653e+01 5.343637620953789913e+00 4.298412542087625354e+00
6.679393844249428250e+06 2.490331425163645918e+01 5.343978382017069428e+00 4.295153474327156218e+00
6.679435531707005575e+06 2.490321062942452812e+01 5.344119951009050240e+00 4.293810011545099670e+00
6.679519922634041868e+06 2.490300165825146905e+01 5.344408632503371948e+00 4.291067405082138464e+00
6.679602687699541450e+06 2.490279778562177171e+01 5.344696761597973023e+00 4.288390396661617032e+00
6.679684612988664769e+06 2.490259700773491147e+01 5.344988077006770588e+00 4.285744757997696830e+00
6.679769510546905920e+06 2.490239000517061640e+01 5.345298171598651393e+00 4.282987999378260469e+00
6.679818558398219757e+06 2.490227088272004607e+01 5.345482268492986577e+00 4.281391091944140470e+00
6.679917448624016717e+06 2.490203176673784213e+01 5.345866073582408617e+00 4.278166116718742806e+00
6.679966788444526494e+06 2.490191299808227399e+01 5.346064824425032391e+00 4.276559788574977539e+00
6.680018854612596333e+06 2.490178804174805549e+01 5.346280395416735942e+00 4.274866965083651493e+00
6.680139030597608536e+06 2.490150100935562705e+01 5.346802809908377085e+00 4.270964247302760697e+00
6.680201548673810437e+06 2.490135245378061768e+01 5.347088890255202287e+00 4.268944675602732275e+00
6.680265396923443303e+06 2.490120127479987744e+01 5.347391658087341959e+00 4.266884879247733409e+00
6.680332468671523035e+06 2.490104302449982754e+01 5.347721428302397051e+00 4.264724457952413061e+00
6.680402209076544270e+06 2.490087907203492534e+01 5.348076975473645689e+00 4.262489204290066169e+00
6.680473309789472260e+06 2.490071253474976132e+01 5.348452417713129847e+00 4.260204199085847243e+00
6.680545379535031505e+06 2.490054435283231982e+01 5.348846295607810220e+00 4.257899744162109812e+00
6.680618733022853732e+06 2.490037380195284911e+01 5.349260567035392988e+00 4.255579437675692134e+00
6.680693497008052655e+06 2.490020059595415702e+01 5.349695854858179445e+00 4.253232271918633955e+00
6.680769638553634286e+06 2.490002482496114666e+01 5.350151891464857812e+00 4.250855003893923900e+00
6.680847131587667391e+06 2.489984656375813188e+01 5.350628280087602384e+00 4.248457892245350642e+00
6.680925948496745899e+06 2.489966588541310699e+01 5.351124055489862918e+00 4.246039175515598174e+00
6.681006040951477364e+06 2.489948291088037990e+01 5.351637979105088760e+00 4.243601190071530027e+00
6.681087498473896645e+06 2.489929744611273321e+01 5.352169868916062612e+00 4.241155729609650926e+00
6.681170349522972479e+06 2.489910943140674959e+01 5.352718335652308923e+00 4.238700602484559710e+00
6.681254699080278166e+06 2.489891863685339146e+01 5.353282480911264685e+00 4.236230201444010746e+00
6.681340750588556752e+06 2.489872461565570205e+01 5.353862041447708719e+00 4.233740933459701594e+00
6.681428459444815293e+06 2.489852748386252301e+01 5.354454755140878319e+00 4.231247699311517785e+00
6.681517789004081860e+06 2.489832733390118591e+01 5.355058290431617962e+00 4.228749602986481726e+00
6.681608920870712958e+06 2.489812377233556262e+01 5.355671835262123537e+00 4.226261588867697760e+00
6.681701372394731268e+06 2.489791788000904305e+01 5.356289044376319808e+00 4.223755362568172522e+00
6.681795229018615559e+06 2.489770948969919573e+01 5.356909291967420828e+00 4.221268837883869196e+00
6.681891204084012657e+06 2.489749702606733450e+01 5.357534500096878816e+00 4.218785106153234210e+00
6.681989780073881149e+06 2.489727944258001813e+01 5.358165397945136910e+00 4.216310136281488319e+00
6.682091629597072490e+06 2.489705527954257036e+01 5.358803294014478524e+00 4.213814152229106824e+00
6.682196749622009695e+06 2.489682458601356529e+01 5.359445582397720287e+00 4.211298559751769588e+00
6.682304949503377080e+06 2.489658782480497479e+01 5.360088336112879936e+00 4.208789307877697006e+00
6.682416515316704288e+06 2.489634440507145641e+01 5.360730263702429887e+00 4.206276368767595031e+00
6.682531840647684410e+06 2.489609351435159468e+01 5.361370775554363810e+00 4.203756554351221197e+00
6.682651006303383037e+06 2.489583502865056630e+01 5.362007830092501592e+00 4.201244826038307068e+00
6.682774030157906935e+06 2.489556895521625535e+01 5.362638818512002636e+00 4.198744420297892965e+00
6.682901419063928537e+06 2.489529424887136955e+01 5.363263402721401008e+00 4.196254008383067280e+00
6.683033919690611772e+06 2.489500935929465442e+01 5.363882376227845583e+00 4.193763033855635314e+00
6.683034796350190416e+06 2.489500747516095558e+01 5.363886443244169300e+00 4.193746643608795566e+00
6.683172613863089122e+06 2.489471203847455527e+01 5.364497983102570089e+00 4.191271217196888443e+00
6.683315797167215496e+06 2.489440600952552884e+01 5.365099628913197805e+00 4.188813521838609333e+00
6.683465249563209713e+06 2.489408753138060604e+01 5.365692229883417319e+00 4.186356574367296801e+00
6.683621903237918392e+06 2.489375471459535660e+01 5.366276569468500846e+00 4.183907467265579605e+00
6.683785852080563083e+06 2.489340745664459220e+01 5.366850150116946772e+00 4.181482173150553372e+00
6.683957587769217789e+06 2.489304480864480595e+01 5.367411609060366295e+00 4.179083451739980859e+00
6.684138014232590795e+06 2.489266496254161964e+01 5.367960664053142317e+00 4.176700246328127974e+00
6.684328156189212576e+06 2.489226588462614131e+01 5.368497038395984688e+00 4.174322357415761076e+00
6.684529299004690722e+06 2.489184502757943562e+01 5.369020924246838966e+00 4.171964797063876240e+00
6.684742350033822469e+06 2.489140064287533249e+01 5.369530629151657131e+00 4.169666454551830270e+00
6.684968979236024432e+06 2.489092937351884061e+01 5.370025399329604987e+00 4.167371053704680861e+00
6.685467025701601058e+06 2.488989856996725081e+01 5.370961511505659480e+00 4.162868783037914078e+00
6.685743187816035934e+06 2.488932966247492828e+01 5.371402381508390000e+00 4.160706716104941805e+00
6.686040381335175596e+06 2.488871929470284883e+01 5.371821460852792107e+00 4.158500694508735940e+00
6.686360855952598155e+06 2.488806326106516664e+01 5.372218235054641688e+00 4.156371859932636248e+00
6.686707382630011998e+06 2.488735615566582382e+01 5.372589755407249257e+00 4.154212871856882927e+00
6.687082025182033889e+06 2.488659426516436213e+01 5.372934579635547436e+00 4.152061518976910115e+00
6.687485657384753227e+06 2.488577629032863925e+01 5.373250214931218238e+00 4.149945336787346228e+00
6.687922386717765592e+06 2.488489439004375470e+01 5.373538065992875978e+00 4.147898130526271210e+00
6.688395455430659465e+06 2.488394247455643793e+01 5.373797936726269597e+00 4.145880650680179080e+00
6.688415011686372571e+06 2.488390326440309153e+01 5.373806864243930725e+00 4.145806399606851933e+00
6.688946397163397633e+06 2.488283813960966384e+01 5.374046066058232540e+00 4.143797090565577435e+00
6.689525188525742851e+06 2.488168226594426713e+01 5.374259866156521070e+00 4.141737008053268276e+00
6.689548202643095516e+06 2.488163645856161565e+01 5.374267077364820899e+00 4.141662442714865833e+00
6.690178731576396152e+06 2.488038237896547145e+01 5.374458120913628179e+00 4.139641343299724774e+00
6.690861150872346014e+06 2.487903044087618198e+01 5.374629458686498218e+00 4.137583891777724787e+00
6.690887934575599618e+06 2.487897753988575644e+01 5.374635337105622135e+00 4.137507446569927971e+00
6.691625888887079433e+06 2.487752181904058091e+01 5.374790051079174624e+00 4.135445828844900085e+00
6.692416001439848915e+06 2.487596975732328275e+01 5.374931317300342570e+00 4.133410727093457915e+00
6.692446525736073963e+06 2.487590995652813319e+01 5.374936257544591811e+00 4.133336894370855497e+00
6.693292868818283081e+06 2.487425466196160073e+01 5.375065555036831810e+00 4.131359962116039064e+00
6.694197112240031362e+06 2.487249339062568509e+01 5.375185563737568728e+00 4.129380612534362172e+00
6.694231789228668436e+06 2.487242599095119289e+01 5.375189853828056030e+00 4.129306076814659221e+00
6.695198543506391346e+06 2.487055108191587749e+01 5.375303846973453759e+00 4.127301820872293803e+00
6.696227080208533444e+06 2.486856480754059362e+01 5.375414633984925139e+00 4.125336139745914288e+00
6.697321489135353826e+06 2.486646010356239245e+01 5.375524284497055660e+00 4.123381164376203500e+00
6.697363018026622012e+06 2.486638036197523149e+01 5.375528347207679580e+00 4.123308399964429327e+00
6.698524215155502781e+06 2.486415674641138551e+01 5.375639099270488330e+00 4.121376900054258385e+00
6.699751062282411382e+06 2.486181694679814314e+01 5.375752522199809036e+00 4.119496015319316307e+00
6.701051561193928123e+06 2.485934638969393617e+01 5.375869827266456902e+00 4.117655779344982392e+00
6.701100433177520521e+06 2.485925363406674293e+01 5.375874210534448139e+00 4.117587963561641473e+00
6.702486702339881100e+06 2.485663045378217362e+01 5.375996562037325788e+00 4.115834281675054385e+00
6.703973666237343103e+06 2.485382669492157603e+01 5.376123575874268035e+00 4.114090584870012002e+00
6.705569598010146990e+06 2.485082794632778658e+01 5.376255459042091900e+00 4.112451448858558400e+00
6.707292441138025373e+06 2.484760105293675636e+01 5.376392265792894420e+00 4.110924075300162350e+00
6.707356591327100992e+06 2.484748092470789516e+01 5.376397345736235067e+00 4.110867797841807558e+00
6.717983301866057329e+06 2.482774227001963752e+01 5.377084551811560864e+00 4.104161161757002851e+00
6.734927679920154624e+06 2.479663822831499687e+01 5.377945366306915886e+00 4.096782702497918649e+00
6.753300584111871198e+06 2.476332422634418151e+01 5.378827440663297210e+00 4.088826667539747106e+00
6.771451165061340667e+06 2.473086083034916527e+01 5.379697203021001961e+00 4.080673333864695884e+00
6.786496251834619790e+06 2.470429804305754118e+01 5.380418795518892239e+00 4.073698340974937437e+00
6.801455112414964475e+06 2.467821146931994392e+01 5.381135796557869888e+00 4.066482174155429341e+00
6.819352507510676980e+06 2.464744277674065032e+01 5.381989553386592462e+00 4.057555286643780512e+00
6.831144034524278715e+06 2.462744595218243759e+01 5.382548404197041947e+00 4.051249366694974263e+00
6.845720101275998168e+06 2.460304879831110725e+01 5.383238796555469108e+00 4.043285639934314446e+00
6.860145732924209908e+06 2.457776498212827221e+01 5.383889469948352158e+00 4.035205281205577421e+00
6.872948156499834731e+06 2.454969680228106554e+01 5.384383948099761952e+00 4.027376688681462369e+00
6.884012054470404983e+06 2.451999468004908067e+01 5.384748097649614706e+00 4.020147683346040779e+00
6.895409258550739847e+06 2.448310582668741375e+01 5.385051171789737801e+00 4.012202349272540047e+00
6.905167360076390207e+06 2.444562928531068735e+01 5.385242961656169669e+00 4.004762829398428536e+00
6.915142270148054697e+06 2.440104110354380396e+01 5.385376820718652979e+00 3.996656170420643583e+00
6.924177646690191701e+06 2.435819171592696364e+01 5.385490646215574273e+00 3.988906195175997649e+00
6.932861603419432417e+06 2.431574853896501054e+01 5.385584830701713344e+00 3.981227839093875343e+00
6.941377233187041245e+06 2.427286339267951831e+01 5.385663814460878385e+00 3.973703639498172180e+00
6.949584736161765642e+06 2.423031788388505703e+01 5.385725199774188177e+00 3.966560049331738558e+00
6.958481198628540151e+06 2.418285365491420436e+01 5.385773788785959582e+00 3.958777066343340145e+00
6.968017820608527400e+06 2.413037699950312742e+01 5.385807763829358663e+00 3.950659776580642379e+00
6.976320392803179100e+06 2.408333009297370353e+01 5.385821378567166917e+00 3.943697903509942648e+00
6.986177642873969860e+06 2.402579753284976505e+01 5.385813629150862702e+00 3.935366525523720238e+00
6.995028003217140213e+06 2.397254369983975053e+01 5.385785919542232847e+00 3.927913781123048231e+00
7.004066684782480821e+06 2.391654711476267892e+01 5.385736126757739939e+00 3.920227707315781629e+00
7.012573348225597292e+06 2.386230273503174715e+01 5.385669901145974769e+00 3.912908980143125603e+00
7.021539852090509608e+06 2.380343542918945232e+01 5.385572636045491635e+00 3.904840112143507902e+00
7.029443933112294413e+06 2.374996722960617035e+01 5.385462625356129962e+00 3.897245478588828860e+00
7.036354585116398521e+06 2.370189147588049394e+01 5.385344267657481865e+00 3.889991969001762584e+00
7.042980459133354947e+06 2.365449784562671454e+01 5.385207166276885005e+00 3.882495072966123395e+00
7.049362948341634125e+06 2.360750316604800858e+01 5.385050583771882948e+00 3.874643398573981656e+00
7.055398755864969455e+06 2.356170962068713237e+01 5.384886426622434996e+00 3.866873721857654544e+00
7.061114326199900359e+06 2.351705941997967386e+01 5.384704427568769880e+00 3.859050572449911343e+00
7.066549018068632111e+06 2.347333669116146382e+01 5.384507058536744495e+00 3.851190916324868319e+00
7.071172644226456061e+06 2.343508144316204778e+01 5.384319848412784992e+00 3.844120218199664762e+00
7.076042406877700239e+06 2.339366984907383795e+01 5.384109819376443618e+00 3.836631848867596783e+00
7.081231677927113138e+06 2.334824001664642168e+01 5.383857264556358047e+00 3.828437698313799764e+00
7.085706989265643060e+06 2.330790396696763622e+01 5.383617799401194226e+00 3.821112868601253432e+00
7.090417646994771436e+06 2.326423049397347143e+01 5.383356043498762844e+00 3.813461270948598880e+00
7.095390985147775151e+06 2.321676040285827014e+01 5.383084392059840795e+00 3.805716068789469997e+00
7.108985509646821767e+06 2.308335542588412181e+01 5.382488917649739690e+00 3.798219013743365569e+00
7.120467715802459046e+06 2.296771657740761086e+01 5.381871966386831296e+00 3.790793521242230568e+00
7.129407263005143031e+06 2.287529613973233467e+01 5.381295293914505784e+00 3.783103675406993993e+00
7.134819493683187291e+06 2.281785365163113966e+01 5.380802365856139247e+00 3.775672462207555924e+00
7.137798053589809686e+06 2.278538804787091010e+01 5.380204608282111778e+00 3.767205538982540070e+00
7.138690339091943577e+06 2.277540431589846293e+01 5.379551681023285070e+00 3.760631563276796818e+00
7.139103812266086228e+06 2.277067418053244552e+01 5.378268876589157088e+00 3.752753356531140838e+00
7.139540102425919846e+06 2.276551145439128732e+01 5.378398998332803771e+00 3.744928107064256828e+00
7.142835447886488400e+06 2.272514869665800319e+01 5.378987843543503011e+00 3.737097629450980563e+00
7.148420916586816311e+06 2.265484456602462870e+01 5.378517407806262085e+00 3.729700369822390726e+00
7.155818360795861110e+06 2.255926778280755940e+01 5.377721623310732113e+00 3.722051062217285988e+00
7.164054136783098802e+06 2.245007769145235343e+01 5.376815719960134743e+00 3.714530498136305425e+00
7.173932067670628428e+06 2.231571593110185603e+01 5.375752136184610563e+00 3.706794131889282973e+00
7.186353566979900002e+06 2.214246302963680790e+01 5.374532853746269545e+00 3.699245666501287833e+00
7.214262883403200656e+06 2.174405113625682517e+01 5.371886502376076677e+00 3.691924028908672106e+00
7.225691606182655320e+06 2.157853884939628486e+01 5.369840783664024286e+00 3.684369015531014924e+00
7.234138530437452719e+06 2.145332137769606007e+01 5.368252640992100311e+00 3.676859152642355966e+00
7.243831383293701336e+06 2.130632542244214989e+01 5.366565938896341592e+00 3.669181209211123118e+00
7.254381592328624800e+06 2.114276433669464694e+01 5.364658662267176581e+00 3.661672048710796545e+00
7.265322502438968047e+06 2.096943860595498421e+01 5.362758805856175925e+00 3.654102516971609482e+00
7.281511243048287928e+06 2.070736953987738360e+01 5.360279534276604529e+00 3.646500883245280100e+00
7.297001854877205566e+06 2.045372698461994432e+01 5.355962264712894161e+00 3.639274838911815468e+00
7.303079286519844085e+06 2.035269219277152430e+01 5.353281604671905392e+00 3.631673482233328532e+00
7.308598113945115358e+06 2.025903971700672912e+01 5.351203371543020282e+00 3.624055070248104027e+00
7.314980249268142506e+06 2.014835634892489225e+01 5.349206297349772932e+00 3.616397738030043829e+00
7.323815682604266331e+06 1.999213524501320904e+01 5.346095849517463527e+00 3.609003727882379220e+00
7.332043413300819695e+06 1.984482579050492035e+01 5.341771686605226499e+00 3.601489935168256551e+00
7.338563484114957042e+06 1.972693411358732618e+01 5.336607868197282833e+00 3.594070356384280185e+00
7.343606592204581015e+06 1.963534403534398365e+01 5.329752968323821172e+00 3.586575051538398728e+00
7.347164501391546801e+06 1.957053361428013716e+01 5.323977993137258835e+00 3.579145892343133628e+00
7.351051860060033388e+06 1.949953462312995356e+01 5.317158728504161935e+00 3.571826978709178757e+00
7.354814307033429854e+06 1.943064331940770018e+01 5.311853607429275037e+00 3.564347658504151806e+00
7.362983491047881544e+06 1.927770449280440701e+01 5.312515492617583490e+00 3.557338581169418479e+00
7.375654930940943770e+06 1.903524353368747057e+01 5.312987138407832433e+00 3.552884725225366580e+00
7.381636462189149112e+06 1.891891344561746280e+01 5.315323414139507818e+00 3.551456662442776135e+00
7.383409693093875423e+06 1.888401831584996771e+01 5.316232612697672444e+00 3.550630054463136620e+00
7.383635666274035349e+06 1.887955312773630467e+01 5.316299150880901436e+00 3.550550861011583237e+00
7.383834134386673570e+06 1.887563009461063857e+01 5.315915704069397840e+00 3.550124302120775788e+00
7.383940752281473018e+06 1.887352458828818058e+01 5.314654638900285555e+00 3.548641661729493357e+00
7.384120160506355576e+06 1.886996287350575585e+01 5.315905282837738000e+00 3.548304305522021362e+00
7.384318938914167695e+06 1.886600600241494519e+01 5.316429932874860320e+00 3.548768954358143102e+00
7.384501311007620767e+06 1.886237536145092264e+01 5.316961672843588893e+00 3.549219487021642472e+00
7.384699680458388291e+06 1.885842196606303034e+01 5.317472637665536794e+00 3.549204464432444528e+00
7.384900857185563073e+06 1.885439203792457263e+01 5.319269330498960002e+00 3.548932116747257393e+00
7.385087979561746120e+06 1.885060927518641094e+01 5.321757928948669836e+00 3.548904967480042139e+00
7.385226496907951310e+06 1.884778029149451939e+01 5.325114737588560132e+00 3.549881890105705651e+00
7.385308977647379041e+06 1.884608344478471054e+01 5.327506265816643882e+00 3.551447929173133122e+00
7.385376310182639398e+06 1.884469461017061320e+01 5.329394186743083850e+00 3.552988038743295718e+00
7.385444669617604464e+06 1.884328249014834000e+01 5.331349680238436584e+00 3.554793939892583410e+00
7.385513999061972834e+06 1.884184928242801860e+01 5.333312652720583635e+00 3.556759348446888236e+00
7.385566661329217255e+06 1.884076064948486007e+01 5.334669695812439549e+00 3.558316171738032274e+00
7.385620129052011296e+06 1.883965578652726336e+01 5.336106625557583527e+00 3.559948673274956121e+00
7.385674739317115396e+06 1.883852748433308832e+01 5.337649340290623989e+00 3.561705798943378465e+00
7.385729714915750548e+06 1.883739275787561596e+01 5.339230592379248463e+00 3.563551442806831560e+00
7.385785976820386946e+06 1.883623226353850200e+01 5.340931528375662651e+00 3.565622075384752065e+00
7.385823831495364197e+06 1.883545214136437451e+01 5.342208888799413913e+00 3.567158636948409622e+00
7.385861863878270611e+06 1.883466907034969751e+01 5.343508320716539473e+00 3.568809018337815608e+00
7.385899966636205092e+06 1.883388555960749500e+01 5.344704360489051176e+00 3.570562138686861786e+00
7.385938142573020421e+06 1.883310194156296191e+01 5.345970109637823597e+00 3.572353820173798322e+00
7.385996178555296734e+06 1.883191386981241067e+01 5.347682725316963648e+00 3.575040969045919503e+00
7.386016323872622102e+06 1.883150229180361990e+01 5.346348707174229276e+00 3.576095853568546978e+00
7.386050952602501027e+06 1.883080955330074246e+01 5.340638624882460661e+00 3.577675318206032795e+00
7.386064443313404918e+06 1.883054432549847590e+01 5.344113949891782234e+00 3.578520966780174284e+00
7.386097476841535419e+06 1.882988576915450452e+01 5.348275049671675774e+00 3.580289576100322169e+00
7.386139003417904489e+06 1.882905148267578710e+01 5.350410518032476581e+00 3.581919321227991837e+00
7.386239918632704765e+06 1.882702141946306895e+01 5.352469525614059975e+00 3.584219901840546285e+00
7.386352247881284915e+06 1.882476101658218681e+01 5.354290147503494524e+00 3.585490969106909454e+00
7.386520846010590903e+06 1.882135309294792336e+01 5.357110190118699045e+00 3.586394070945839729e+00
7.386699057011328638e+06 1.881771625870501907e+01 5.360396021838950809e+00 3.587330157636098527e+00
7.386890507495273836e+06 1.881377020477850337e+01 5.363814542700167110e+00 3.588224772035346177e+00
7.387098522308675572e+06 1.880943779247153458e+01 5.367068789591745492e+00 3.588928908661317863e+00
7.387288029144861735e+06 1.880545103580615773e+01 5.369985379180695517e+00 3.589525019886858015e+00
7.387496835993222892e+06 1.880101538256057125e+01 5.372941432942035078e+00 3.590258079615841424e+00
7.387733613939606585e+06 1.879593961970468996e+01 5.375718398255468600e+00 3.590686027797779900e+00
7.387946414454500191e+06 1.879133974689528230e+01 5.377303000215215789e+00 3.590724826682513360e+00
7.388256499380469322e+06 1.878458039685024517e+01 5.379929463118259036e+00 3.590915479817820888e+00
7.388499799035027623e+06 1.877923835421827903e+01 5.381292559599927472e+00 3.590991180138246364e+00
7.388842626920940354e+06 1.877167345793907671e+01 5.382366822554430996e+00 3.591126246929427612e+00
7.388998461668677628e+06 1.876822710228693936e+01 5.382545020150387494e+00 3.591185685149939744e+00
7.389405266315661371e+06 1.875922857765583984e+01 5.382114325868993632e+00 3.591294887047689954e+00
7.389673338771029375e+06 1.875331100750829094e+01 5.381292560304858696e+00 3.591342414199071520e+00
7.389978175039342605e+06 1.874660535574138720e+01 5.380148258621471058e+00 3.591330899182384684e+00
7.390292722183603793e+06 1.873971735599748101e+01 5.378991462163980941e+00 3.591197560343199147e+00
7.390585838160270825e+06 1.873332477278381702e+01 5.378139024648667998e+00 3.590962993212359677e+00
7.390588495196453296e+06 1.873326694350329547e+01 5.378133097499393500e+00 3.590960172463509181e+00
7.390832942525304854e+06 1.872794974491869624e+01 5.377635485516375269e+00 3.590621825419806790e+00
7.391182480949273333e+06 1.872035055724499841e+01 5.377752445840961570e+00 3.590160756003403897e+00
7.391307093820635229e+06 1.871763624451239139e+01 5.378146871728661793e+00 3.590144124823645200e+00
7.391485273901851848e+06 1.871374591156142131e+01 5.379322512443088122e+00 3.590610045695663999e+00
7.391648153210751712e+06 1.871017815504244908e+01 5.380835175295677786e+00 3.591809353814781502e+00
7.391769307470258325e+06 1.870752233933200159e+01 5.381498093421049234e+00 3.592090428660561940e+00
7.391934285364407115e+06 1.870388996279234561e+01 5.383869691202077590e+00 3.592598005238521353e+00
7.392055893145862967e+06 1.870119257240337518e+01 5.386025566648975804e+00 3.593104314163324986e+00
7.392172631861085072e+06 1.869858471157930069e+01 5.388338928573849884e+00 3.593600856489564066e+00
7.392257511396259069e+06 1.869667568251746559e+01 5.390278874398962472e+00 3.594036222113252688e+00
7.392369080468379892e+06 1.869414820109006925e+01 5.392831054531949775e+00 3.594622974842142771e+00
7.392452427499886602e+06 1.869224630117491515e+01 5.394965594775611883e+00 3.595153649230411030e+00
7.392537993326175027e+06 1.869028070837142153e+01 5.397195939976690227e+00 3.595791507453204972e+00
7.392627368353387341e+06 1.868821424485767224e+01 5.399354648116393207e+00 3.596450530876918350e+00
7.392688878826275468e+06 1.868678467374287777e+01 5.400804155849597166e+00 3.596892854950559659e+00
7.392751834407508373e+06 1.868531521964111874e+01 5.402344055059399963e+00 3.597388830937861215e+00
7.392816645676684566e+06 1.868379591624618996e+01 5.403895918112432639e+00 3.597937497291870734e+00
7.392883041634674184e+06 1.868223295784027727e+01 5.405425205333162175e+00 3.598512711706652656e+00
7.392916703630576842e+06 1.868143820333822447e+01 5.406150350039639285e+00 3.598794636750200837e+00
7.392983335563443601e+06 1.867986058843541386e+01 5.407601315713183254e+00 3.599354975050331085e+00
7.393016302339337766e+06 1.867907787193490776e+01 5.408311965716730008e+00 3.599638250617856805e+00
7.393048689989255741e+06 1.867830752048437759e+01 5.409034860902391273e+00 3.599930619478142635e+00
7.393080369612451643e+06 1.867755264099615431e+01 5.409741735981572930e+00 3.600229311052782322e+00
7.393111088223552331e+06 1.867681939864735341e+01 5.410436184973372420e+00 3.600537759353687139e+00
7.393140668453854509e+06 1.867611217228176557e+01 5.411108049168820600e+00 3.600849246904013423e+00
7.393140955331308767e+06 1.867610531029928111e+01 5.411114559563915627e+00 3.600852299812889346e+00
7.393169179122911766e+06 1.867542946978171514e+01 5.411711315250474108e+00 3.601157489833770153e+00
7.393195882688224316e+06 1.867478923020318504e+01 5.412258847065480438e+00 3.601457331898387793e+00
7.393196140778880566e+06 1.867478304044179538e+01 5.412264131631883579e+00 3.601460261262221962e+00
7.393221032038272358e+06 1.867418560643360337e+01 5.412729294075303343e+00 3.601751051148632587e+00
7.393243633153166622e+06 1.867364272055490559e+01 5.413273409920128287e+00 3.602066249692317257e+00
7.393243849683901295e+06 1.867363751858410126e+01 5.413279015231613478e+00 3.602069411965347356e+00
7.393263323200350627e+06 1.867316929281728122e+01 5.413647234983254286e+00 3.602358347601510413e+00
7.393263507869884372e+06 1.867316485152031902e+01 5.413650358318887079e+00 3.602361099920724730e+00
7.393279241714151576e+06 1.867278638969120053e+01 5.413930489600251583e+00 3.602630897272150801e+00
7.393291799242441542e+06 1.867248429938391041e+01 5.414048343881703751e+00 3.602856301047984378e+00
7.393291917430942878e+06 1.867248145613859123e+01 5.414049197280661474e+00 3.602858428439003280e+00
7.393301916178172454e+06 1.867224101217490073e+01 5.413943753636781153e+00 3.603011882343542638e+00
7.393302010728973895e+06 1.867223873866588946e+01 5.413942394503123090e+00 3.603013279389970513e+00
7.393309971906437539e+06 1.867204748776535794e+01 5.413660734587397272e+00 3.603102579306652675e+00
7.393310047547078691e+06 1.867204567096442247e+01 5.413657768394384284e+00 3.603103378613541796e+00
7.393316386232793331e+06 1.867189362549688525e+01 5.413265294574676645e+00 3.603142152321861857e+00
7.393316446745306253e+06 1.867189217428087034e+01 5.413261340226362961e+00 3.603142481787054763e+00
7.393316507257819176e+06 1.867189072306485897e+01 5.413257385878049277e+00 3.603142811252247668e+00
7.393321541898882948e+06 1.867177017327613342e+01 5.412790007239054901e+00 3.603148449114502494e+00
7.393321590308892541e+06 1.867176901433932201e+01 5.412785371666156919e+00 3.603148481052169227e+00
7.393325598657739349e+06 1.867167322505714111e+01 5.412245775594019648e+00 3.603121749676719610e+00
7.393325637385747395e+06 1.867167229968567099e+01 5.412240444524907268e+00 3.603121469228787621e+00
7.393328828573620878e+06 1.867159620010367149e+01 5.411644628448328831e+00 3.603073086281153081e+00
7.393328859556028619e+06 1.867159546134758585e+01 5.411638766287103053e+00 3.603072604024460279e+00
7.393328890538435429e+06 1.867159472259150377e+01 5.411632904125877275e+00 3.603072121767767033e+00
7.393328921520841308e+06 1.867159398383542168e+01 5.411627041964651497e+00 3.603071639511074231e+00
