# #MIST v1.1 [Fe/H] = 0, v_init = 0, reprocessed track 
# #star_age 	 star_mass 	 logL 	 logT
1.805370497501939440e+02 4.499988331467792335e+01 4.838443407610443892e+00 3.683035291822736923e+00
1.805796576562136977e+02 4.499988324257888905e+01 4.838554277196114306e+00 3.683046603076716163e+00
1.891989318286976527e+02 4.499986864333485670e+01 4.860963442987993766e+00 3.685332465336661478e+00
1.990515762339696550e+02 4.499985052436113619e+01 4.884668142952017789e+00 3.687710999724640004e+00
1.990956409127514064e+02 4.499985043605565238e+01 4.884767295787084684e+00 3.687720730960140081e+00
2.080407707054478976e+02 4.499983246955957128e+01 4.904853789576001155e+00 3.689691462224052199e+00
2.187684789632393176e+02 4.499980926130822922e+01 4.927252684910440550e+00 3.691863350761317886e+00
2.188290949312930422e+02 4.499980911933766237e+01 4.927370383631714645e+00 3.691874636764525430e+00
2.310261766560529395e+02 4.499978045833022833e+01 4.951000870344758553e+00 3.694139149234925146e+00
2.420670725439832438e+02 4.499975213594794354e+01 4.971059474764299324e+00 3.696026746100159688e+00
2.530419044719604926e+02 4.499972178718163462e+01 4.989865454092199393e+00 3.697778567892596513e+00
2.531064623068309629e+02 4.499972159669741956e+01 4.989969939579741443e+00 3.697788310008329304e+00
2.662782591402386174e+02 4.499968251523959850e+01 5.011199189148851652e+00 3.699768089507275537e+00
2.814443147750816934e+02 4.499963388018284149e+01 5.034183388380387925e+00 3.701916483579795525e+00
2.954084514350911945e+02 4.499958509693933451e+01 5.054242985765773355e+00 3.703775479545557303e+00
2.954766570459743207e+02 4.499958484159280658e+01 5.054336737679726355e+00 3.703784155743761630e+00
3.094724483991835768e+02 4.499953208885890632e+01 5.073488963361779014e+00 3.705558861701782725e+00
3.261774987535803234e+02 4.499946449008186278e+01 5.095259832231835873e+00 3.707605058203910620e+00
3.262694637381892449e+02 4.499946409008648374e+01 5.095374448076987584e+00 3.707615964534836106e+00
3.447072275159474657e+02 4.499938327286903217e+01 5.118269786129963528e+00 3.709794553366255077e+00
3.617735218670021027e+02 4.499930181254686801e+01 5.138578617575518592e+00 3.711728175168994781e+00
3.618566070314824970e+02 4.499930138818243108e+01 5.138674174445135634e+00 3.711737338076225079e+00
3.789190339871399260e+02 4.499921344704102211e+01 5.158205578743906727e+00 3.713616262717118310e+00
3.984739848348106079e+02 4.499910512366338367e+01 5.179735465973012154e+00 3.715744553199711309e+00
4.194572687569822733e+02 4.499897944625234913e+01 5.201953020815622608e+00 3.718004720586899126e+00
4.195541635103501790e+02 4.499897882198021648e+01 5.202052387726565641e+00 3.718014998670416293e+00
4.390193377401702719e+02 4.499885222894450720e+01 5.221934861215781432e+00 3.720078686221222064e+00
4.576921747385213166e+02 4.499872157707008569e+01 5.240396727645530106e+00 3.722052847845462864e+00
4.759077633739129851e+02 4.499858520824947306e+01 5.257861592477000912e+00 3.723994703774734738e+00
4.938396648734562291e+02 4.499844213980587426e+01 5.274547787065857030e+00 3.725941980421788369e+00
5.115847595021485859e+02 4.499829173932815252e+01 5.290573490544382196e+00 3.727923938029563011e+00
5.292016358217857714e+02 4.499813356953553978e+01 5.306010906909548019e+00 3.729967481873735391e+00
5.467285093952669968e+02 4.499796731355300494e+01 5.320913578448131176e+00 3.732104418211569463e+00
5.641935558482012993e+02 4.499779272414507147e+01 5.335353703028323125e+00 3.734391594751651944e+00
5.816209750494555237e+02 4.499760958313278536e+01 5.349362874551855107e+00 3.736876903699145380e+00
5.992285985753810564e+02 4.499741547416644494e+01 5.363068743090993351e+00 3.739632619642067723e+00
6.178843713392680002e+02 4.499720034710271221e+01 5.377033588691283228e+00 3.742865934136021533e+00
6.368867224004455920e+02 4.499697139507118493e+01 5.390682330744138717e+00 3.746524883742067935e+00
6.551213984855231729e+02 4.499674236167085439e+01 5.403258883463958995e+00 3.750436032224489402e+00
6.729588125302899471e+02 4.499651008960607612e+01 5.415009420939507656e+00 3.754701357995664512e+00
6.902139935261246819e+02 4.499627826403848019e+01 5.425829894296111178e+00 3.759292906713255000e+00
7.064828234715778308e+02 4.499605386531592899e+01 5.435529321369096500e+00 3.764098335748829793e+00
7.216086848730938073e+02 4.499584080999486702e+01 5.444083941184113762e+00 3.769033099703128276e+00
7.356304318852944562e+02 4.499564015540423156e+01 5.451575327032567309e+00 3.774056254535001820e+00
7.486477060824022374e+02 4.499545178482916441e+01 5.458106885413163134e+00 3.779143364215733936e+00
7.607695699630331774e+02 4.499527513867924711e+01 5.463780465757567484e+00 3.784276252506382665e+00
7.828934534930904192e+02 4.499495165706332500e+01 5.472946717515918991e+00 3.794711750581696741e+00
7.932423934690259557e+02 4.499480078508459258e+01 5.476622356026595639e+00 3.800094767880926039e+00
8.032225023647745275e+02 4.499465613048096913e+01 5.479753054336704565e+00 3.805599066456740509e+00
8.128486265344848789e+02 4.499451778348540643e+01 5.482364919273090109e+00 3.811185775389851038e+00
8.220928977636164063e+02 4.499438636426426541e+01 5.484478489686424929e+00 3.816797408213581377e+00
8.393670126209683531e+02 4.499414570836768945e+01 5.487312235754566281e+00 3.827875645191525678e+00
8.475118914333667135e+02 4.499403492994987630e+01 5.487988757363753578e+00 3.833183133901327366e+00
8.554690407040856144e+02 4.499392862278668304e+01 5.487966142603815101e+00 3.838040019723236718e+00
8.719371521199145718e+02 4.499371495890623862e+01 5.486730467601913297e+00 3.848002652701251858e+00
8.803615687520148185e+02 4.499360919801182490e+01 5.485609168174626404e+00 3.853172268981212234e+00
8.886875391523001326e+02 4.499350720438182805e+01 5.484197933360420940e+00 3.858336040824103641e+00
9.050287458485424850e+02 4.499331464353217314e+01 5.480593399805308685e+00 3.868614945482117484e+00
9.130957039090644685e+02 4.499322342262436791e+01 5.478426139229529923e+00 3.873732983464381441e+00
9.210977910561082354e+02 4.499313548551340602e+01 5.476046341529954731e+00 3.878817430934061505e+00
9.370826693999573536e+02 4.499296744894262190e+01 5.470693340380170078e+00 3.888928292713758506e+00
9.455279535590436808e+02 4.499288265995579650e+01 5.467607100579765955e+00 3.894215283945117179e+00
9.540568780458013407e+02 4.499279977152082211e+01 5.464342984627431399e+00 3.899479182211745609e+00
9.707527420819471899e+02 4.499264548418992860e+01 5.457634490104124936e+00 3.909475959749360463e+00
9.797210610793947581e+02 4.499256662651907135e+01 5.453971929775838667e+00 3.914674021922764258e+00
9.888788012666896066e+02 4.499248882677957795e+01 5.450212846620338780e+00 3.919839641486491999e+00
1.007743631348768076e+03 4.499233691339541963e+01 5.442497828751202249e+00 3.929970324049325558e+00
1.017722202006155385e+03 4.499226065024041077e+01 5.438484809246128648e+00 3.935051591974886520e+00
1.027778437514583857e+03 4.499218656425971119e+01 5.434514868366192353e+00 3.939975095530390270e+00
1.049522280593131200e+03 4.499203462822548261e+01 5.426314559861470599e+00 3.950034021838300546e+00
1.060729772752467170e+03 4.499196046936845050e+01 5.422293917525494500e+00 3.954917845373250085e+00
1.072994729717493101e+03 4.499188215372610955e+01 5.418022398080419855e+00 3.960033153753397261e+00
1.099560155675725127e+03 4.499172162788882190e+01 5.409264468874221521e+00 3.970402323024520452e+00
1.112944470516924866e+03 4.499164524944589516e+01 5.405088453506154522e+00 3.975281891572651549e+00
1.127500148352411998e+03 4.499156514341537161e+01 5.400737902389128209e+00 3.980351449068225911e+00
1.143223063734253856e+03 4.499148171534755392e+01 5.396240417400777645e+00 3.985580676679633783e+00
1.174884390935251531e+03 4.499132299491864018e+01 5.387716044924871994e+00 3.995405941559185159e+00
1.192194649803728680e+03 4.499124086650280674e+01 5.383354016460778269e+00 4.000414420037090579e+00
1.210831483867431416e+03 4.499115791842797307e+01 5.378872255502979982e+00 4.005559061576009938e+00
1.229618846287408815e+03 4.499108414133799272e+01 5.374550681771331995e+00 4.010506909814328225e+00
1.269250730624546804e+03 4.499096141930507997e+01 5.366072734553272383e+00 4.020223283462229347e+00
1.291405752965917600e+03 4.499090886753255347e+01 5.361695381509501424e+00 4.025282312872151991e+00
1.314237149459663897e+03 4.499086542084942408e+01 5.357431831583860493e+00 4.030246698369276181e+00
1.338385609664717776e+03 4.499082994092848509e+01 5.353198851858824270e+00 4.035241979593567230e+00
1.363986154277927199e+03 4.499080247148194900e+01 5.349008269354401435e+00 4.040282690478528949e+00
1.417990367416376102e+03 4.499076590756388327e+01 5.341151443026852519e+00 4.050145980147568991e+00
1.447440635786115081e+03 4.499074803954933088e+01 5.337425670208050477e+00 4.055141525476910758e+00
1.477798156009440390e+03 4.499072974333528663e+01 5.333990244842569339e+00 4.060044065537101510e+00
1.509945864814183096e+03 4.499071047330251361e+01 5.330813145161911848e+00 4.064987732021810629e+00
1.543977369593908179e+03 4.499069015367496149e+01 5.327948516989579275e+00 4.069979804465872597e+00
1.579105043346976117e+03 4.499066922698565918e+01 5.325522008694868248e+00 4.074900264821575746e+00
1.616406288931882955e+03 4.499064700957686114e+01 5.323541638775327378e+00 4.079894654385888941e+00
1.655867582354413571e+03 4.499062345293492626e+01 5.322077092227086581e+00 4.084958858410630889e+00
1.739629485069253860e+03 4.499057298499631941e+01 5.321028009994087427e+00 4.095083053155594399e+00
1.785355938949194297e+03 4.499054500532434986e+01 5.321545278462043171e+00 4.100321361169913637e+00
1.830954005455541392e+03 4.499051667123522691e+01 5.322727954314332877e+00 4.105383517956292749e+00
1.877400810102678861e+03 4.499048725806456162e+01 5.324588138782502256e+00 4.110393813171983268e+00
1.926538061114139737e+03 4.499045545518925593e+01 5.327201855637786032e+00 4.115560612059450563e+00
1.976244471449465891e+03 4.499042244945009372e+01 5.330416923374794891e+00 4.120670176031923759e+00
2.027099959833181629e+03 4.499038766330825467e+01 5.334267637214137103e+00 4.125800995897254353e+00
2.081046352550646588e+03 4.499034955758423848e+01 5.338854951893592826e+00 4.131143167572651542e+00
2.135093073871945307e+03 4.499030999130552289e+01 5.343843300157470999e+00 4.136395104051944216e+00
2.187703119578699443e+03 4.499026996042469762e+01 5.349034494222669522e+00 4.141430976991307134e+00
2.242463559146381613e+03 4.499022660158026099e+01 5.354742986918392234e+00 4.146601935742013190e+00
2.301099214305177156e+03 4.499017820467747697e+01 5.361118795076930788e+00 4.152071299749788835e+00
2.359510046221877019e+03 4.499012778604645746e+01 5.367671180247327811e+00 4.157469322482077345e+00
2.415722422989046208e+03 4.499007692974860362e+01 5.374117444993705917e+00 4.162625703764310181e+00
2.471109516686382904e+03 4.499002447853025899e+01 5.380558486214111369e+00 4.167680428380303503e+00
2.526262957138396814e+03 4.498996982805537925e+01 5.387032101392175143e+00 4.172701208382751936e+00
2.584321891649612098e+03 4.498990956771834249e+01 5.393879758796537693e+00 4.177970421459043848e+00
2.646526271609602190e+03 4.498984186827377130e+01 5.401209752369175554e+00 4.183598945454567897e+00
2.707815471532583615e+03 4.498977176334700800e+01 5.408387925397422968e+00 4.189140143834443997e+00
2.766149101222797071e+03 4.498970157599600128e+01 5.415158601789130444e+00 4.194416944023725335e+00
2.823073959038792054e+03 4.498962974233431567e+01 5.421695073817659249e+00 4.199568697379215010e+00
2.879297001230192109e+03 4.498955545173246406e+01 5.428065923307780594e+00 4.204659707931901913e+00
2.935159802307059181e+03 4.498947823974679494e+01 5.434295320281735009e+00 4.209721381771409199e+00
2.990827385659296851e+03 4.498939782178428004e+01 5.440387810977105332e+00 4.214769463491824908e+00
3.046377603160256513e+03 4.498931401026131738e+01 5.446339314028033840e+00 4.219811657947754924e+00
3.101844988416982687e+03 4.498922667244161744e+01 5.452142678575903290e+00 4.224851661448552065e+00
3.212303481337030462e+03 4.498904150688327519e+01 5.463247350755142229e+00 4.234904910826729818e+00
3.267575297309313100e+03 4.498894306596216808e+01 5.468562415957237022e+00 4.239943233950292267e+00
3.322786888505538627e+03 4.498884077529612568e+01 5.473702474943779706e+00 4.244980483561631601e+00
3.377942385058276159e+03 4.498873457152042477e+01 5.478663638077145848e+00 4.250015872126152949e+00
3.433048904462239079e+03 4.498862439152524928e+01 5.483443148392836974e+00 4.255048465807734104e+00
3.488117538519854406e+03 4.498851016970888850e+01 5.488039534435829481e+00 4.260077627880021645e+00
3.600944371147616039e+03 4.498826314228084300e+01 5.496877134670693721e+00 4.270356349718542610e+00
3.662538214306388454e+03 4.498812103480894109e+01 5.501364356977143544e+00 4.275933229486559739e+00
3.722835489357543338e+03 4.498797686348487446e+01 5.505545692185203066e+00 4.281392040085213679e+00
3.780669294556746081e+03 4.498783365906335519e+01 5.509362017398604650e+00 4.286628186237299687e+00
3.837319269259662178e+03 4.498768876280939111e+01 5.512916908098371316e+00 4.291746365127377949e+00
3.893418997314684930e+03 4.498754079249781057e+01 5.516259049905773537e+00 4.296797037681045595e+00
4.007913218636239435e+03 4.498722510437788458e+01 5.522530682559257720e+00 4.307014054867570607e+00
4.070147955187966545e+03 4.498704605484282837e+01 5.525636971368665051e+00 4.312497226621163193e+00
4.131215410061597140e+03 4.498686524853039970e+01 5.528503589743293034e+00 4.317849318392476654e+00
4.190296997973997350e+03 4.498668536137093099e+01 5.531111361223963740e+00 4.322998872392934899e+00
4.248576297123488985e+03 4.498650323604427115e+01 5.533528215985549892e+00 4.328042697402482375e+00
4.373495272056359681e+03 4.498609779474584514e+01 5.538193122794392131e+00 4.338672079196338238e+00
4.436541181794961631e+03 4.498588554309905163e+01 5.540314678981975938e+00 4.343958384787786287e+00
4.497860185635888229e+03 4.498567409598587119e+01 5.542240242925815075e+00 4.349050902111960326e+00
4.558625378264505343e+03 4.498545980917567988e+01 5.544019276212648784e+00 4.354042282674988940e+00
4.689258877863693669e+03 4.498498382696146791e+01 5.547423973936105313e+00 4.364544960788593997e+00
4.755405077819657890e+03 4.498473504605347273e+01 5.548961303260340650e+00 4.369762722005781974e+00
4.820114778731179285e+03 4.498448655202623314e+01 5.550354361262370695e+00 4.374803818042502179e+00
4.887616838256625670e+03 4.498422214610848613e+01 5.551690915868468856e+00 4.379981140582490440e+00
4.958365970603554160e+03 4.498393957235677476e+01 5.552975718040486619e+00 4.385321871174753028e+00
5.095992466938478174e+03 4.498337387615949012e+01 5.555181996194241023e+00 4.395492469909049404e+00
5.167387854954556133e+03 4.498307227971839950e+01 5.556178889132904253e+00 4.400641877899467147e+00
5.242226519472833388e+03 4.498275049563329731e+01 5.557126828415046127e+00 4.405946989757241639e+00
5.315997333308347152e+03 4.498247955082073446e+01 5.557991184447796940e+00 4.411097200266208773e+00
5.463891805044590910e+03 4.498237167281685345e+01 5.559546776279404412e+00 4.421172097087074704e+00
5.542939819006996913e+03 4.498234363054573492e+01 5.560225652358132820e+00 4.426411755986309871e+00
5.621108513395676709e+03 4.498231415945434719e+01 5.560820837233557690e+00 4.431505459011771286e+00
5.698414150786018581e+03 4.498228325749408185e+01 5.561338212036641693e+00 4.436457214731760246e+00
5.863064677690947974e+03 4.498221168019038885e+01 5.562219543974761038e+00 4.446704038826135630e+00
5.946613782883424392e+03 4.498217232886042893e+01 5.562567369835232256e+00 4.451762778763984407e+00
6.032825544015360720e+03 4.498212955064684593e+01 5.562858896541165166e+00 4.456880992106094119e+00
6.122282579193715719e+03 4.498208286985980919e+01 5.563095362413907452e+00 4.462085484400734714e+00
6.210745397400361981e+03 4.498203438067282889e+01 5.563269367855928849e+00 4.467134480143854169e+00
6.396206501673737876e+03 4.498192530269646738e+01 5.563449859982301682e+00 4.477397428159825665e+00
6.489880296882295625e+03 4.498186644357787145e+01 5.563457518875972951e+00 4.482427706075760909e+00
6.586629439094062036e+03 4.498180303215166731e+01 5.563409822798605298e+00 4.487513379318808227e+00
6.686959908480604099e+03 4.498173455347843230e+01 5.563306621325642354e+00 4.492673576585753281e+00
6.888724025779862131e+03 4.498158857008532152e+01 5.562951573335540800e+00 4.502723902555660906e+00
6.995436091755021152e+03 4.498150709540300340e+01 5.562692195204201440e+00 4.507863817265693740e+00
7.101282036430024164e+03 4.498142344900771405e+01 5.562392530401911728e+00 4.512851369055166373e+00
7.211004965554800947e+03 4.498133387351757051e+01 5.562040463467196716e+00 4.517901629493299431e+00
7.324949945355720956e+03 4.498123792097619145e+01 5.561635616937325999e+00 4.523021772252440620e+00
7.555064795607713677e+03 4.498103543249965952e+01 5.560712380531434462e+00 4.532995995376134957e+00
7.677346995610703743e+03 4.498092345431167871e+01 5.560172099572309179e+00 4.538098404744498104e+00
7.798844987243417563e+03 4.498080936506735128e+01 5.559605098894925490e+00 4.543040315683663621e+00
7.925612283739171289e+03 4.498068752880035959e+01 5.558983026661012516e+00 4.548055327368119904e+00
8.188674574646638575e+03 4.498042646163860780e+01 5.557594371662608168e+00 4.558014561810304954e+00
8.326708831053387257e+03 4.498028548184316122e+01 5.556805438410655995e+00 4.562993873901462827e+00
8.478208773295058563e+03 4.498012806789218132e+01 5.555879247460252301e+00 4.568249607643911858e+00
8.633920829100337869e+03 4.497996365614871195e+01 5.554844635213955328e+00 4.573422103018303986e+00
8.786830485258426052e+03 4.497979993631692253e+01 5.553724127290216472e+00 4.578264028379376960e+00
9.131018761607891065e+03 4.497942548598714296e+01 5.550656295304213117e+00 4.588146115354195587e+00
9.322799738405734388e+03 4.497921467610034796e+01 5.548532574194717348e+00 4.592994489233818811e+00
9.528013112981141603e+03 4.497898853852850465e+01 5.545871114302511451e+00 4.597623749463412679e+00
9.768489752727180530e+03 4.497872406408006896e+01 5.542211520837606820e+00 4.602294334129027220e+00
1.005155515415715490e+04 4.497841524471377994e+01 5.537224341761539215e+00 4.606843339987581665e+00
1.038159153437749410e+04 4.497806092354866792e+01 5.530728174971164535e+00 4.611104090734571948e+00
1.075789230280004085e+04 4.497766697904794597e+01 5.522735592438619889e+00 4.614907146299927376e+00
1.117697873716367758e+04 4.497724302946787134e+01 5.513627260839690791e+00 4.618223435525271370e+00
1.163307691851234267e+04 4.497680028143084741e+01 5.504151739151521561e+00 4.621138302571246470e+00
1.211817366232934910e+04 4.497634969801300997e+01 5.495388858633971196e+00 4.623892967976374280e+00
1.262221761706341749e+04 4.497590036425844318e+01 5.488265292163749365e+00 4.626731888238849066e+00
1.313501659942733204e+04 4.497545812966825451e+01 5.483371655657038879e+00 4.629935764076462235e+00
1.364614077324400387e+04 4.497502694825765701e+01 5.481041406037665098e+00 4.633864623774957892e+00
1.414223057557101311e+04 4.497461228911709696e+01 5.481060283437955150e+00 4.638617244612387225e+00
1.460946154613153885e+04 4.497422092460666931e+01 5.482565087692734984e+00 4.643821794529192637e+00
1.504058563377397695e+04 4.497385671469650958e+01 5.484421022166740656e+00 4.648840372237221352e+00
1.543725492372426015e+04 4.497351858081836440e+01 5.485750627950500835e+00 4.653151503999107597e+00
1.580675163761059048e+04 4.497320190135457096e+01 5.486191337664673817e+00 4.656564811647671220e+00
1.615786621398615898e+04 4.497290081699083686e+01 5.485745642076512496e+00 4.659137149590581117e+00
1.683107224380928892e+04 4.497232790349161746e+01 5.482807449434401015e+00 4.662317207924961515e+00
1.749482416744237707e+04 4.497177409542040749e+01 5.477542165227511362e+00 4.663193846568935541e+00
1.850753393184041852e+04 4.497095922191000028e+01 5.469837217850351152e+00 4.662831104919547442e+00
1.919750883279602567e+04 4.497041872103510229e+01 5.467758466668707129e+00 4.663506691666993831e+00
1.988602921181989223e+04 4.496988467038666215e+01 5.466349860492161206e+00 4.663962503115585356e+00
2.091140428713822257e+04 4.496909629001530817e+01 5.464557993638897493e+00 4.664049622936722983e+00
2.159501879974531766e+04 4.496857436278616404e+01 5.463731659968161125e+00 4.663982204494966588e+00
2.227861700672307779e+04 4.496805433619759640e+01 5.463257196257178094e+00 4.663947932384457040e+00
2.296247136990110448e+04 4.496753517068847117e+01 5.462996266226082476e+00 4.663924356192302945e+00
2.364717920673588014e+04 4.496701593700542077e+01 5.462839588976573069e+00 4.663889834999931594e+00
2.433278003555612304e+04 4.496649636563411434e+01 5.462737234830484567e+00 4.663841343241488246e+00
2.535576188373421974e+04 4.496572146714814266e+01 5.462648033393964653e+00 4.663754884303348724e+00
2.603921484297210554e+04 4.496520386981485018e+01 5.462617857473182958e+00 4.663691914698430807e+00
2.706231682692526010e+04 4.496442907186057880e+01 5.462601916682115366e+00 4.663595703574195284e+00
2.808323826611470213e+04 4.496365584738919807e+01 5.462607132234305496e+00 4.663498791252343345e+00
2.876338156938401153e+04 4.496314064147798462e+01 5.462617317372012948e+00 4.663434496904973692e+00
2.978500564488983582e+04 4.496236661580989136e+01 5.462637920451820506e+00 4.663337633589066833e+00
3.080744223101579337e+04 4.496159177556967990e+01 5.462662523296144101e+00 4.663241886221042520e+00
3.183086422142462470e+04 4.496081597749753200e+01 5.462689569750744489e+00 4.663146881526881060e+00
3.285663478098947962e+04 4.496003818334732927e+01 5.462717817663003572e+00 4.663053250113656567e+00
3.422686227722855256e+04 4.495899886705153392e+01 5.462756908223162178e+00 4.662929433315566641e+00
3.525777619257601327e+04 4.495821666803846028e+01 5.462787012433197198e+00 4.662838119503499357e+00
3.629138021095057775e+04 4.495743221469904682e+01 5.462817319653865411e+00 4.662747872885269373e+00
3.766757102212808240e+04 4.495638742896544926e+01 5.462858476971849342e+00 4.662629691531628318e+00
3.870425774082862335e+04 4.495560014691955786e+01 5.462889842808551499e+00 4.662542115817675636e+00
4.009616830429506808e+04 4.495454277526816611e+01 5.462932274211794059e+00 4.662426720963048332e+00
4.148558638903406973e+04 4.495348692879887409e+01 5.462974422585758383e+00 4.662313455003821439e+00
4.286678918285926920e+04 4.495243696365508868e+01 5.463017185481159110e+00 4.662203179989843349e+00
4.424612036478694790e+04 4.495138806107741658e+01 5.463059998407731044e+00 4.662094963941633807e+00
4.595230559332001576e+04 4.495009010786088055e+01 5.463113662444030183e+00 4.661963901491184004e+00
4.731550674063854967e+04 4.494905267927259018e+01 5.463157053827079501e+00 4.661861885928686000e+00
4.901941137600255752e+04 4.494775547758322887e+01 5.463211044250949833e+00 4.661736682808388821e+00
5.072905755193722143e+04 4.494645336041267569e+01 5.463265745450256006e+00 4.661613845928449962e+00
5.245355288875150291e+04 4.494513938530324992e+01 5.463320390564876838e+00 4.661493058560170155e+00
5.417669498380090954e+04 4.494382589484730772e+01 5.463375654971261319e+00 4.661374191407839263e+00
5.590660643522265309e+04 4.494250669335701787e+01 5.463431664017970313e+00 4.661258284322928880e+00
5.765227363643519493e+04 4.494117492007215020e+01 5.463488303610964714e+00 4.661143259866173949e+00
5.976254765594667697e+04 4.493956424284772311e+01 5.463563300240521059e+00 4.661012632921606169e+00
6.153560227813325764e+04 4.493821031138632094e+01 5.463613409577391167e+00 4.660897063221770331e+00
6.365167498366660584e+04 4.493659372573561939e+01 5.463683105919953320e+00 4.660765681007761785e+00
6.577093837704964972e+04 4.493497387691080291e+01 5.463760440926644257e+00 4.660643257423859431e+00
6.824452144493331434e+04 4.493308216579367809e+01 5.463834889946365792e+00 4.660493807513857334e+00
7.037236231109144865e+04 4.493145399751298896e+01 5.463906916581005468e+00 4.660371664969042982e+00
7.285926924054915435e+04 4.492955003647604428e+01 5.463990987760532825e+00 4.660232308963769832e+00
7.500939094847007073e+04 4.492790301519193719e+01 5.464063664707176748e+00 4.660115584612679385e+00
7.751926304119567794e+04 4.492597937127848695e+01 5.464148367611722179e+00 4.659981465177925664e+00
8.037295775677828351e+04 4.492379083643058379e+01 5.464245548017310661e+00 4.659832548552858889e+00
8.284180611549130117e+04 4.492189626263977686e+01 5.464330640258737937e+00 4.659707124994247884e+00
8.565229699267102114e+04 4.491973817954749393e+01 5.464427595591432762e+00 4.659567558937697029e+00
8.846071927682257956e+04 4.491758026776000889e+01 5.464525164839347582e+00 4.659432069735918169e+00
9.164471667620442167e+04 4.491513206885265674e+01 5.464635542218240438e+00 4.659282558494146187e+00
9.449027829009629204e+04 4.491294256767952930e+01 5.464734636351341379e+00 4.659152248221749559e+00
9.769253960887406720e+04 4.491047688337877020e+01 5.464846197627133861e+00 4.659008566580316035e+00
1.009010735329383606e+05 4.490800453629601918e+01 5.464959146239650956e+00 4.658869115713716091e+00
1.044691911643706844e+05 4.490525296055606219e+01 5.465084879905700355e+00 4.658717249120681636e+00
1.080199528059517033e+05 4.490251251734249394e+01 5.465211431727313496e+00 4.658570565936267727e+00
1.116354384564172360e+05 4.489971981829744152e+01 5.465339516588603175e+00 4.658425770087305295e+00
1.152386228254258749e+05 4.489693431956959557e+01 5.465468162337197455e+00 4.658283887644834920e+00
1.192172403634042712e+05 4.489385590132777537e+01 5.465610865303368371e+00 4.658132101397828073e+00
1.232193967274087481e+05 4.489075643831637308e+01 5.465754675893794712e+00 4.657983340336797617e+00
1.272681875508662779e+05 4.488761796949374627e+01 5.465901022833355327e+00 4.657837275330924065e+00
1.313255960005681845e+05 4.488446990598313846e+01 5.466047944057773833e+00 4.657693580887830365e+00
1.357585656809663051e+05 4.488102710575945764e+01 5.466209428772893730e+00 4.657541319889465292e+00
1.405023331347216445e+05 4.487733905308057558e+01 5.466383326830902334e+00 4.657381649071925089e+00
1.448586229423747864e+05 4.487394870137013925e+01 5.466543765257597443e+00 4.657239647549988426e+00
1.499712871511563426e+05 4.486996537337725499e+01 5.466731956040017160e+00 4.657078156792178625e+00
1.547954172265139059e+05 4.486620259207358430e+01 5.466909390827021653e+00 4.656929000327720836e+00
1.599360940709137067e+05 4.486218834209035577e+01 5.467100388826482416e+00 4.656773406284722583e+00
1.653470547173079976e+05 4.485795790751812717e+01 5.467303194890472895e+00 4.656614489504201870e+00
1.707769514148034796e+05 4.485370739216952529e+01 5.467505930459199526e+00 4.656460234421220257e+00
1.766790653356128605e+05 4.484908127049758519e+01 5.467725532985139303e+00 4.656296885916626493e+00
1.825268080324507318e+05 4.484449162458984972e+01 5.467945974963797084e+00 4.656137900312607769e+00
1.887339308190951124e+05 4.483961318005714247e+01 5.468180208686568733e+00 4.655975000090041505e+00
1.949534723885662970e+05 4.483471805123411258e+01 5.468415063223848627e+00 4.655814788400927995e+00
2.014917946943858988e+05 4.482956450119770153e+01 5.468663746357313116e+00 4.655651957202676883e+00
2.082338361802602303e+05 4.482424233875710939e+01 5.468918410366761407e+00 4.655489165378092764e+00
2.149333933550561196e+05 4.481894561488057604e+01 5.469174290402948557e+00 4.655329584712008639e+00
2.222888622003784112e+05 4.481312093674926444e+01 5.469455728631706037e+00 4.655159625206483298e+00
2.297157445779889531e+05 4.480722977024781528e+01 5.469740666823922126e+00 4.654993108763679999e+00
2.375484501565524843e+05 4.480100584323032820e+01 5.470042365365184622e+00 4.654821871020211610e+00
2.451826277889862540e+05 4.479492895079827974e+01 5.470336039100883951e+00 4.654658030950752590e+00
2.533946939082166064e+05 4.478838015346719459e+01 5.470654885166907455e+00 4.654485922898388139e+00
2.618168198863410507e+05 4.478165098385436238e+01 5.470983351976412834e+00 4.654313705001057677e+00
2.706568730698985746e+05 4.477457388185815290e+01 5.471326402986870896e+00 4.654139105141906541e+00
2.796116480244474951e+05 4.476739031918233991e+01 5.471675192373023577e+00 4.653965398137518861e+00
2.891667898569502286e+05 4.475970878239816386e+01 5.472049772620417585e+00 4.653785042535067973e+00
2.988634212947286433e+05 4.475189624935127597e+01 5.472430104992188404e+00 4.653606130412780928e+00
3.087041775561601389e+05 4.474394978806957113e+01 5.472816765091060631e+00 4.653428053641734508e+00
3.189520748116197065e+05 4.473565535146807548e+01 5.473220277626102970e+00 4.653248333915660950e+00
3.296939447073494084e+05 4.472694008098610396e+01 5.473645012618220562e+00 4.653062728109425450e+00
3.408045333849593299e+05 4.471790288231224508e+01 5.474085176950108433e+00 4.652875196615276820e+00
3.518620585165690864e+05 4.470888574688609651e+01 5.474525586697451374e+00 4.652691677677008641e+00
3.635831604648514185e+05 4.469930219974273200e+01 5.474993045786890278e+00 4.652501457841497157e+00
3.759221875284186099e+05 4.468918519625182739e+01 5.475486936901493351e+00 4.652305038419410010e+00
3.885614971616083640e+05 4.467879183087791262e+01 5.475993963060121317e+00 4.652108561407007237e+00
4.012219885623175651e+05 4.466835039830979781e+01 5.476501496655112433e+00 4.651915279319382535e+00
4.147206357507019420e+05 4.465718381986117436e+01 5.477044366426943256e+00 4.651712981261763247e+00
4.285446581111853593e+05 4.464571155599047358e+01 5.477603500750819698e+00 4.651508715664316895e+00
4.427898339936369448e+05 4.463385095905163524e+01 5.478179189183242315e+00 4.651302667434365823e+00
4.576888025374860736e+05 4.462140361326986948e+01 5.478786132420701449e+00 4.651089587236242551e+00
4.729509528686598642e+05 4.460860766596604066e+01 5.479406904271961309e+00 4.650875239736281586e+00
4.888462690609566635e+05 4.459523196621481134e+01 5.480055707314842373e+00 4.650654758454907167e+00
5.051701346066960832e+05 4.458144353729315412e+01 5.480723026706990630e+00 4.650431615862421708e+00
5.217884541922917706e+05 4.456735171837944165e+01 5.481404583995480806e+00 4.650207678315738669e+00
5.392805366686302004e+05 4.455245915437984650e+01 5.482124261677603805e+00 4.649974366670962311e+00
5.571930638565634144e+05 4.453714458385800867e+01 5.482863619442603920e+00 4.649738301852053723e+00
5.759106406404476147e+05 4.452107209274464594e+01 5.483637792621324891e+00 4.649493527588525410e+00
5.951702266325813252e+05 4.450445939078657887e+01 5.484434794329619223e+00 4.649244819773350912e+00
6.149671237777533242e+05 4.448730364926038305e+01 5.485258655952967466e+00 4.648990382001620070e+00
6.352784254810861312e+05 4.446961760667936403e+01 5.486106976954558512e+00 4.648730834609027696e+00
6.564880229684627848e+05 4.445105740838094732e+01 5.486993974918691563e+00 4.648460455511483680e+00
6.784486525631754193e+05 4.443174012261154360e+01 5.487916561707928409e+00 4.648182613134560270e+00
7.010436084086579503e+05 4.441175802930334271e+01 5.488868568264440029e+00 4.647897262853878608e+00
7.245169390067949425e+05 4.439088340593518467e+01 5.489859508096171403e+00 4.647601107921629726e+00
7.482962442177024204e+05 4.436961534511915772e+01 5.490870770489648223e+00 4.647300170778531303e+00
7.733413772374182008e+05 4.434708198472443286e+01 5.491933990064890025e+00 4.646984977981047038e+00
7.991436189661228564e+05 4.432372344659719232e+01 5.493035995595747956e+00 4.646658029708240711e+00
8.257308147008584347e+05 4.429949985999611783e+01 5.494174045447147492e+00 4.646320287660071990e+00
8.531210446820762008e+05 4.427437914471156688e+01 5.495353010270958904e+00 4.645970207440887734e+00
8.816412690974674188e+05 4.424804165422853686e+01 5.496584527062449155e+00 4.645603264916367436e+00
9.109842015929934569e+05 4.422075039232039018e+01 5.497855664793875441e+00 4.645222957064519598e+00
9.412752195585349109e+05 4.419236885570428086e+01 5.499173715647554417e+00 4.644826728578529185e+00
9.724228375038997037e+05 4.416296139206242088e+01 5.500533273805613632e+00 4.644415423682895394e+00
1.004738992076274357e+06 4.413220857634841110e+01 5.501950944611276206e+00 4.643983075589436460e+00
1.038190800311902887e+06 4.410011233340733838e+01 5.503424375291024795e+00 4.643529553265042686e+00
1.072569639607429039e+06 4.406684481326033165e+01 5.504946459832445349e+00 4.643056192319630071e+00
1.108072713640497066e+06 4.403218570100838747e+01 5.506523925347812209e+00 4.642559792283948106e+00
1.144769371098871343e+06 4.399603318046995781e+01 5.508161527217956710e+00 4.642037135816779347e+00
1.182903610596347135e+06 4.395810665409470630e+01 5.509866661497143880e+00 4.641485348981963632e+00
1.222038409227006137e+06 4.391880170151598861e+01 5.511623747431640297e+00 4.640907073699874097e+00
1.262375431191513315e+06 4.387787754325459133e+01 5.513440353392373261e+00 4.640298816644298441e+00
1.303945429271304049e+06 4.383525998179739247e+01 5.515317894113613839e+00 4.639657815319245593e+00
1.347234975698908791e+06 4.379039544099455838e+01 5.517282501371276737e+00 4.638974269037619003e+00
1.391578871417171787e+06 4.374391932894128843e+01 5.519303026385804500e+00 4.638255934266872771e+00
1.437270677446161630e+06 4.369547325968760276e+01 5.521394411335727170e+00 4.637496051833184474e+00
1.484575283622284420e+06 4.364471250062603502e+01 5.523571604026727755e+00 4.636686248154102685e+00
1.533165488334103255e+06 4.359192221719373350e+01 5.525819180494474736e+00 4.635828826747252052e+00
1.583551887409913354e+06 4.353647374384845392e+01 5.528162446582599365e+00 4.634912494483701906e+00
1.635318357236578362e+06 4.347874508976776298e+01 5.530587347448829405e+00 4.633938013590524818e+00
1.688389607536317315e+06 4.341874683353541542e+01 5.533088242083246122e+00 4.632904426598397407e+00
1.743028152973755496e+06 4.335610050248509850e+01 5.535681696933571594e+00 4.631800718153868957e+00
1.799600071589796571e+06 4.329028441558982365e+01 5.538389313139520986e+00 4.630613415658611842e+00
1.857404421736477874e+06 4.322201507356341210e+01 5.541178503159901680e+00 4.629350431675378630e+00
1.917230242568264250e+06 4.315025375729555890e+01 5.544092739395050984e+00 4.627988214144775014e+00
1.980741881986984052e+06 4.307283217349136351e+01 5.547221160243459792e+00 4.626476739060411347e+00
2.040356304150128271e+06 4.299901157210439351e+01 5.550190962158394470e+00 4.624987644676083143e+00
2.107934970041592140e+06 4.291393533101978619e+01 5.553598812175708943e+00 4.623218337465876182e+00
2.175652868037699256e+06 4.282715420266772099e+01 5.557056959366823534e+00 4.621352131592977308e+00
2.247345274234998971e+06 4.273356789274801315e+01 5.560772392912250339e+00 4.619267253614404822e+00
2.306019394663811661e+06 4.265563490771675959e+01 5.563854030796421490e+00 4.617470160594328021e+00
2.384675895430320874e+06 4.254923345004458213e+01 5.568048781201000885e+00 4.614923402097879546e+00
2.451950884806862101e+06 4.245645875985919560e+01 5.571699664783130501e+00 4.612604913167821508e+00
2.518169899340833072e+06 4.236352640043259754e+01 5.575350492865470464e+00 4.610191580042057424e+00
2.596204810002202168e+06 4.225194316026678365e+01 5.579731959480858983e+00 4.607158851893224494e+00
2.664586781543425750e+06 4.215232232771366228e+01 5.583616087069072087e+00 4.604344097701392968e+00
2.731137206315128133e+06 4.205372555087092223e+01 5.587431723556928631e+00 4.601456292451453933e+00
2.806762718589470256e+06 4.193974387241576807e+01 5.591820238156470779e+00 4.597970513263960335e+00
2.870258023117941339e+06 4.184248520619578926e+01 5.595556464258513607e+00 4.594872378607833596e+00
2.921537529120476451e+06 4.176292326821499046e+01 5.598609094470070602e+00 4.592240168222431862e+00
2.981942690186860971e+06 4.166808155274356551e+01 5.602254150062772275e+00 4.588948652360704372e+00
3.042333604125678539e+06 4.157211073525947143e+01 5.605954918466436787e+00 4.585437220844712947e+00
3.093630710964795202e+06 4.148974396014429544e+01 5.609146543616001956e+00 4.582276546667807260e+00
3.155791240443169605e+06 4.138896946852022296e+01 5.613080229831764356e+00 4.578243139845336707e+00
3.207589964670547284e+06 4.130424865377128185e+01 5.616418288721568786e+00 4.574754177324269477e+00
3.260731070119521581e+06 4.121669852362155240e+01 5.619905231083055064e+00 4.570980062940522615e+00
3.313230798988005612e+06 4.112966238264015573e+01 5.623414302186652947e+00 4.567038095472539361e+00
3.356062566606554203e+06 4.105833007727387240e+01 5.626329679513427884e+00 4.563643720863179709e+00
3.410151000687587541e+06 4.096794650603636967e+01 5.630080424114700222e+00 4.559123814859312951e+00
3.453548142608976457e+06 4.089527909584404597e+01 5.633151893736702220e+00 4.555294929810352222e+00
3.496203060905332677e+06 4.082382010041059317e+01 5.636225742261939509e+00 4.551338463066488593e+00
3.538701605559349526e+06 4.075268816491192325e+01 5.639346418927237536e+00 4.547193395888791123e+00
3.581113901580144651e+06 4.068187463044814223e+01 5.642521865042764873e+00 4.542844069801034834e+00
3.623395276153825223e+06 4.061157448016464855e+01 5.645752056028832122e+00 4.538271783035291662e+00
3.655285166602612939e+06 4.055882845449185226e+01 5.648230649783958945e+00 4.534663350847407237e+00
3.697926629384966101e+06 4.048879298573992003e+01 5.651594339814540291e+00 4.529613025238473867e+00
3.730270480742346961e+06 4.043613973853832988e+01 5.654184954807949914e+00 4.525597177965172691e+00
3.762849880395375192e+06 4.038360152756064991e+01 5.656829184711106961e+00 4.521386177646529170e+00
3.795330331008116715e+06 4.033180752315044515e+01 5.659501969246270470e+00 4.517002504953716802e+00
3.827741992591017857e+06 4.028079906564832413e+01 5.662205668358269328e+00 4.512438431076888357e+00
3.860253171718453988e+06 4.023040995068793535e+01 5.664956942534793427e+00 4.507658781083764943e+00
3.882029961630340666e+06 4.019714486767264816e+01 5.666821796192848204e+00 4.504337696507477951e+00
3.914787454537298530e+06 4.014792275516596476e+01 5.669664241534917437e+00 4.499153074693055920e+00
3.936798501281722449e+06 4.011545003419893618e+01 5.671601084297060780e+00 4.495501361842300092e+00
3.970290788429394830e+06 4.006709420171746672e+01 5.674588571686479455e+00 4.489650124568890455e+00
3.992914571139544714e+06 4.003520525980250255e+01 5.676634670913217384e+00 4.485522435861626356e+00
4.015652304460236803e+06 4.000384064144023455e+01 5.678715885657307005e+00 4.481254876634636730e+00
4.038484838086459786e+06 3.997308014607171600e+01 5.680828658686838395e+00 4.476807444333206654e+00
4.061322537580763921e+06 3.994309793404406861e+01 5.682969428040253845e+00 4.472265668702133823e+00
4.084164863076598383e+06 3.991393558886500159e+01 5.685134795071965286e+00 4.467546211324288308e+00
4.107097784565039910e+06 3.988552580806893388e+01 5.687337467563709836e+00 4.462568332319340136e+00
4.130077825704985298e+06 3.985798993689118674e+01 5.689576614001794042e+00 4.457546798489899764e+00
4.153195291515943594e+06 3.983125340052144736e+01 5.691863469604187209e+00 4.452264805714935214e+00
4.164872013720619027e+06 3.981813322133173472e+01 5.693033070056671363e+00 4.449555961087639844e+00
4.188177671606017277e+06 3.979272895910490604e+01 5.695398571472386706e+00 4.444031650094662389e+00
4.211589224356289953e+06 3.976828659294338308e+01 5.697821532679832934e+00 4.438367037652025004e+00
4.223452668024778366e+06 3.975631231290886802e+01 5.699070014315568145e+00 4.435421857248559974e+00
4.247257629804754630e+06 3.973313330346101679e+01 5.701626680958025162e+00 4.429527069050767984e+00
4.259404090454424731e+06 3.972174103396309874e+01 5.702963534874408325e+00 4.426547830040212794e+00
4.284552365306239575e+06 3.969905293421589931e+01 5.705819581186641898e+00 4.420471951894892726e+00
4.297667339879509062e+06 3.968767149463486987e+01 5.707371273364207909e+00 4.417463033829023722e+00
4.321920600400076248e+06 3.966736906785337879e+01 5.710415512874013722e+00 4.412545144935863917e+00
4.348673254706794396e+06 3.964031676436371043e+01 5.714219059501447262e+00 4.409280994055655434e+00
4.365013750484164804e+06 3.958658259724217743e+01 5.717010281798450499e+00 4.409808306868715277e+00
4.374539013059013523e+06 3.957516682719032275e+01 5.719731805959488824e+00 4.413546262584173263e+00
4.378533358035380021e+06 3.957168391419308762e+01 5.721375841472566393e+00 4.416853143096760803e+00
4.382349294681530446e+06 3.956816078129779868e+01 5.723773297347355182e+00 4.422039254520746532e+00
4.383961653425824828e+06 3.956657938862932866e+01 5.725359729403756148e+00 4.425381778237523989e+00
4.385092992196825333e+06 3.956541908831520971e+01 5.726924709628063326e+00 4.428517291754451080e+00
4.386201183689272031e+06 3.956422423371609653e+01 5.729187318561355546e+00 4.432743274914491494e+00
4.386877299023607746e+06 3.956345414634557045e+01 5.731302035873502732e+00 4.436374247203207943e+00
4.387409653067451902e+06 3.956281490877934459e+01 5.733814143047142764e+00 4.440356205664762079e+00
4.387719542167337611e+06 3.956242348994091174e+01 5.735938236003170765e+00 4.443515018327202526e+00
4.387986888801490888e+06 3.956206954195889125e+01 5.738452065894473542e+00 4.447083162850266724e+00
4.388163568265525624e+06 3.956182456409322157e+01 5.740581278891790262e+00 4.450058654137576397e+00
4.388333845782071352e+06 3.956157804653122412e+01 5.742954209072888894e+00 4.453351975563498044e+00
4.388472764747759327e+06 3.956136839438914876e+01 5.744923995009939333e+00 4.456234327710665966e+00
4.388637339315982535e+06 3.956111058255702062e+01 5.746953756243282641e+00 4.459549212619569047e+00
4.388838253622560762e+06 3.956078311914919254e+01 5.748794868982493256e+00 4.463103113522308263e+00
4.389048791233247146e+06 3.956042727272726012e+01 5.749990002899011188e+00 4.465991610964784364e+00
4.389352498893795535e+06 3.955989774982079155e+01 5.750541428432166313e+00 4.468451292304378875e+00
4.389552590928986669e+06 3.955954300786861211e+01 5.750322137550091028e+00 4.469022520156599398e+00
4.390035089272076264e+06 3.955868723461462366e+01 5.748386111339596205e+00 4.467476216789098231e+00
4.390302719028738327e+06 3.955822252197366140e+01 5.746156803791051537e+00 4.464002501450570648e+00
4.390619101176068187e+06 3.955769656510783250e+01 5.743813608264374260e+00 4.455865914827182195e+00
4.390622371576786041e+06 3.955769122360616308e+01 5.743792762644424954e+00 4.455767018226936216e+00
4.390911475000321865e+06 3.955724793069387601e+01 5.743919902435599134e+00 4.446791539689423978e+00
4.390914091320896521e+06 3.955724408243130341e+01 5.743932194948385472e+00 4.446708995658113395e+00
4.391144327531494200e+06 3.955692122987044712e+01 5.745190245542927343e+00 4.439010740208667372e+00
4.391146420587955043e+06 3.955691837689675339e+01 5.745202598259861126e+00 4.438938499545131755e+00
4.391336814924367703e+06 3.955667040009522850e+01 5.746086928082466017e+00 4.431913666302281563e+00
4.391501789554392919e+06 3.955647006258274700e+01 5.746680937264709854e+00 4.424517651569064292e+00
4.391503345432765782e+06 3.955646821420741333e+01 5.746686239768513893e+00 4.424443138198816072e+00
4.391595724167333916e+06 3.955636307024426657e+01 5.745039043318732830e+00 4.417326792129546931e+00
4.391665692429178394e+06 3.955629130811723826e+01 5.746656254843219180e+00 4.411054482545387678e+00
4.391666383306223899e+06 3.955629061584075146e+01 5.746685700515096862e+00 4.410995235772242395e+00
4.391730211269763298e+06 3.955615783951483877e+01 5.750827426403144038e+00 4.403860480317416837e+00
4.391787015402144752e+06 3.955552864097701615e+01 5.755959845750665771e+00 4.396567631715845970e+00
4.391787558090117760e+06 3.955552111001838256e+01 5.756011991648840365e+00 4.396496640635962905e+00
4.391836394866187125e+06 3.955483861338092311e+01 5.761167631426140190e+00 4.389930225409216291e+00
4.391879632078364491e+06 3.955422820431351028e+01 5.765948636029897933e+00 4.384105693093007794e+00
4.391919867268059403e+06 3.955365441970270979e+01 5.770336684981947961e+00 4.378816537214373028e+00
4.391958933696145192e+06 3.955309205306768661e+01 5.774415126981164548e+00 4.373942822915573458e+00
4.391959315230065025e+06 3.955308655189402600e+01 5.774454611271094606e+00 4.373895723211783881e+00
4.392004794073364697e+06 3.955242591320587309e+01 5.778805186187981668e+00 4.368664203645570510e+00
4.392057867216767743e+06 3.955164779910514028e+01 5.783261567877268305e+00 4.363182204908825135e+00
4.392108809265651740e+06 3.955089421239335934e+01 5.787030992040294919e+00 4.358563079408482643e+00
4.392168037672000006e+06 3.955001096989372655e+01 5.790680183966651740e+00 4.354017871643873328e+00
4.392239230414190330e+06 3.954894143908697401e+01 5.794143043861641473e+00 4.349673685507382537e+00
4.392324804090303369e+06 3.954764691562342449e+01 5.797195412761612765e+00 4.345942894977562254e+00
4.392550069317430258e+06 3.954420950923636724e+01 5.800425038443436598e+00 4.341668009016405705e+00
4.392874992537150159e+06 3.953926759444759398e+01 5.798939895288503621e+00 4.335761159543251253e+00
4.393088990128839388e+06 3.953606181689212917e+01 5.800941473870291354e+00 4.327741212158910500e+00
4.393091115932730027e+06 3.953602999048568023e+01 5.800962713496090828e+00 4.327659115788818234e+00
4.393303854395433329e+06 3.953287300644462476e+01 5.804184402840937729e+00 4.319160753314773338e+00
4.393305937558342703e+06 3.953284211034460327e+01 5.804216634628335036e+00 4.319077359728799692e+00
4.393477590182124637e+06 3.953030613473143973e+01 5.806524377182064711e+00 4.312905269064478908e+00
4.393628805248376913e+06 3.952807969023221801e+01 5.807629885790839275e+00 4.308282794573131902e+00
4.393800211284592748e+06 3.952557033788049523e+01 5.808179257982361676e+00 4.304865817883726464e+00
4.394006059858610854e+06 3.952257338116353225e+01 5.807600309915794234e+00 4.301813603413064513e+00
4.394007682354389690e+06 3.952255000253838091e+01 5.807589946191012764e+00 4.301786179716533098e+00
4.394254944615543820e+06 3.951898818979394434e+01 5.806010864117751247e+00 4.297578358096819429e+00
4.394256888562729582e+06 3.951896068030817588e+01 5.805998602439729872e+00 4.297531224526815130e+00
4.394258832509914413e+06 3.951893317082240031e+01 5.805986340761707609e+00 4.297484090956811720e+00
4.394260776457100175e+06 3.951890566133662475e+01 5.805974079083685346e+00 4.297436957386808309e+00
4.394555676130875945e+06 3.951473658158406010e+01 5.804129917203467492e+00 4.290195438471963385e+00
4.394557523361661471e+06 3.951471113244581090e+01 5.804120924388634251e+00 4.290135435522913099e+00
4.394559370592446066e+06 3.951468568330756170e+01 5.804111931573803673e+00 4.290075432573862813e+00
4.394836824656287208e+06 3.951086847847933825e+01 5.802730507651801872e+00 4.280915242069708526e+00
4.394838302440915257e+06 3.951084870313952990e+01 5.802719901940580627e+00 4.280850823315271114e+00
4.394839780225542374e+06 3.951082892779972155e+01 5.802709296229359381e+00 4.280786404560832814e+00
4.394841258010170422e+06 3.951080915245992031e+01 5.802698690518137248e+00 4.280721985806395402e+00
4.395062039033542387e+06 3.950786119649064432e+01 5.801167034446710780e+00 4.271038656259676713e+00
4.395063221261244267e+06 3.950784587466477404e+01 5.801162614276582197e+00 4.270982569899686609e+00
4.395064403488946147e+06 3.950783055283891088e+01 5.801158194106452726e+00 4.270926483539696505e+00
4.395065585716648027e+06 3.950781523101304060e+01 5.801153773936325031e+00 4.270870397179707290e+00
4.395241264753183350e+06 3.950554338657751430e+01 5.800473606556088235e+00 4.262407416712160391e+00
4.395242210535344668e+06 3.950553142199261458e+01 5.800468698061212791e+00 4.262354986013987990e+00
4.395243156317505985e+06 3.950551945740771487e+01 5.800463789566339123e+00 4.262302555315815589e+00
4.395383132077437826e+06 3.950375309199448992e+01 5.799777404494452782e+00 4.254516500344383445e+00
4.395383888703166507e+06 3.950374373998420197e+01 5.799775481307034575e+00 4.254473240203750173e+00
4.395384645328896120e+06 3.950373438797392112e+01 5.799773558119616368e+00 4.254429980063117789e+00
4.395496722584534436e+06 3.950235220329201269e+01 5.799473311043007229e+00 4.247937164129532484e+00
4.395497351825253107e+06 3.950234456088524126e+01 5.799471043395199921e+00 4.247897500747274790e+00
4.395591142121321522e+06 3.950120818758886543e+01 5.799156320500727269e+00 4.241971245409108526e+00
4.395591697190308943e+06 3.950120155608339445e+01 5.799155251235811548e+00 4.241935685177450566e+00
4.395674541093124077e+06 3.950021404400360581e+01 5.798987409247752467e+00 4.236570262905673623e+00
4.395675039621991105e+06 3.950020817089637148e+01 5.798986143178360031e+00 4.236536174264390553e+00
4.395749650117584504e+06 3.949933131278734066e+01 5.798813195835744061e+00 4.231424774864700922e+00
4.395750108443274163e+06 3.949932598637634840e+01 5.798812602014800532e+00 4.231393102570841336e+00
4.395818770028905943e+06 3.949852990146559506e+01 5.798719440268607528e+00 4.226605815007920874e+00
4.395819195970106870e+06 3.949852501149204898e+01 5.798718752868222914e+00 4.226575010491602669e+00
4.395883129781650379e+06 3.949779283456100387e+01 5.798628215760428972e+00 4.221943354376114677e+00
4.395883531200092286e+06 3.949778828092226490e+01 5.798627951019155624e+00 4.221914084113277177e+00
4.395943832355367951e+06 3.949710589771760993e+01 5.798586174446218600e+00 4.217484405624674082e+00
4.395944213361011818e+06 3.949710162321839846e+01 5.798585865822104779e+00 4.217455689689341369e+00
4.396001537100062706e+06 3.949646015131422416e+01 5.798549837156549813e+00 4.213128219782138473e+00
4.396001902183573693e+06 3.949645609984141004e+01 5.798549822645943763e+00 4.213100513367437294e+00
4.396056873547798954e+06 3.949584762090550072e+01 5.798547515028479538e+00 4.208904898547753071e+00
4.396109913108934648e+06 3.949526656456269080e+01 5.798553356675288484e+00 4.204782025050830541e+00
4.396110254292916507e+06 3.949526285494953726e+01 5.798553550669621970e+00 4.204755399671967098e+00
4.396161744229506701e+06 3.949470448775140596e+01 5.798584467248288021e+00 4.200719846771354682e+00
4.396211970387158915e+06 3.949416512372661714e+01 5.798625365515828634e+00 4.196734929821309024e+00
4.396212295908460394e+06 3.949416165222818620e+01 5.798625738612293468e+00 4.196709055215377404e+00
4.396261522625689395e+06 3.949363810190384072e+01 5.798685069414030835e+00 4.192784651207498214e+00
4.396261842535423115e+06 3.949363472190400159e+01 5.798685500735807352e+00 4.192758966292538858e+00
4.396310272597135045e+06 3.949312447194433418e+01 5.798757026464395281e+00 4.188869198022588058e+00
4.396358110521571711e+06 3.949262507982971471e+01 5.798844999684890311e+00 4.185017585890627778e+00
4.396358423052743077e+06 3.949262183735109488e+01 5.798845622955902002e+00 4.184992333611606163e+00
4.396405822985049337e+06 3.949213149466485362e+01 5.798945926876840851e+00 4.181161634256655546e+00
4.396452943627864122e+06 3.949164836759880615e+01 5.799061422554928846e+00 4.177350132900341961e+00
4.396453252778885886e+06 3.949164521632165048e+01 5.799062232368987324e+00 4.177325104111539567e+00
4.396500221805831417e+06 3.949116788607339856e+01 5.799191279599442694e+00 4.173524616706970392e+00
4.396550484234915115e+06 3.949066169217491762e+01 5.799346504076229536e+00 4.169465390692470130e+00
4.396550854719650000e+06 3.949065798022409979e+01 5.799347705014273657e+00 4.169435509308094367e+00
4.396611317828446627e+06 3.949005471504804632e+01 5.799554441648310465e+00 4.164571221231629039e+00
4.396611762410128489e+06 3.949005030579988329e+01 5.799556074622985946e+00 4.164535584174908323e+00
4.396677687313986942e+06 3.948939932990006696e+01 5.799807760910624665e+00 4.159264230608954449e+00
4.396678103421326727e+06 3.948939525220054492e+01 5.799809453784214419e+00 4.159231101811813325e+00
4.396741285676582716e+06 3.948877875946269000e+01 5.800075047627103686e+00 4.154219657142853350e+00
4.396741700682915747e+06 3.948877473705631758e+01 5.800076878451648099e+00 4.154186930553986912e+00
4.396809927724047564e+06 3.948811665269907678e+01 5.800389953008548538e+00 4.148833864677760275e+00
4.396810425731647760e+06 3.948811187741223705e+01 5.800392344949644396e+00 4.148795031244239873e+00
4.396810923739247024e+06 3.948810710212539732e+01 5.800394736890741143e+00 4.148756197810719470e+00
4.396890628918951377e+06 3.948734718882234773e+01 5.800790547889253190e+00 4.142579451822381742e+00
4.396891188588468358e+06 3.948734188938622935e+01 5.800793435768071049e+00 4.142536402018196284e+00
4.396971535691354424e+06 3.948658533739143195e+01 5.801217956502934925e+00 4.136379133593123036e+00
4.396972024873355404e+06 3.948658076873584122e+01 5.801220628906447629e+00 4.136341849487610745e+00
4.396972514055355452e+06 3.948657620008025759e+01 5.801223301309960334e+00 4.136304565382099341e+00
4.397044823822390288e+06 3.948590439741312252e+01 5.801626666451520364e+00 4.130808735857241842e+00
4.397045283777290955e+06 3.948590015208584703e+01 5.801629298280856162e+00 4.130773899673343408e+00
4.397114316466333345e+06 3.948526621910141898e+01 5.802029106411104920e+00 4.125550399101023835e+00
4.397114764192680828e+06 3.948526213150692854e+01 5.802031735046985439e+00 4.125516557352961300e+00
4.397182443217279390e+06 3.948464738249248995e+01 5.802432750398267558e+00 4.120393168182646448e+00
4.397182885870921426e+06 3.948464338361891635e+01 5.802435398800330546e+00 4.120359604225599881e+00
4.397249968592194840e+06 3.948404050224338135e+01 5.802839183005493950e+00 4.115242224961267681e+00
4.397250408605938777e+06 3.948403656846728893e+01 5.802841847553500187e+00 4.115208454980626485e+00
4.397317057961525396e+06 3.948344389708235269e+01 5.803246363412034370e+00 4.110038238119530618e+00
4.397317494991507381e+06 3.948344003077525599e+01 5.803249021608267277e+00 4.110003991474740381e+00
4.397383519206522964e+06 3.948285917652950161e+01 5.803650918456813912e+00 4.104759651990539382e+00
4.397383951182226650e+06 3.948285539552781387e+01 5.803653549790812605e+00 4.104724919727297028e+00
4.397448998755178414e+06 3.948228934339621077e+01 5.804049061799874565e+00 4.099407136796124895e+00
4.397449423258516937e+06 3.948228566800580097e+01 5.804051638856329021e+00 4.099371935277780210e+00
4.397513141508499160e+06 3.948173731933459862e+01 5.804436701757035522e+00 4.093990284371561650e+00
4.397513556413535029e+06 3.948173376669026879e+01 5.804439199650628822e+00 4.093954713566099635e+00
4.397575654832719825e+06 3.948120538472959140e+01 5.804810797988153581e+00 4.088523294837901112e+00
4.397576058491867967e+06 3.948120196720127240e+01 5.804813201910948628e+00 4.088487437331299823e+00
4.397576462151017040e+06 3.948119854967295339e+01 5.804815605833743675e+00 4.088451579824697646e+00
4.397636723739003763e+06 3.948069171733749272e+01 5.805172381797598646e+00 4.082992941660987363e+00
4.397637115099247545e+06 3.948068844174140679e+01 5.805174688863079524e+00 4.082956990927865348e+00
4.397695455004611053e+06 3.948020347283760145e+01 5.805515695055527559e+00 4.077493933898482581e+00
4.397695833762088791e+06 3.948020033923823036e+01 5.805517895881880719e+00 4.077457999147834578e+00
4.397752267502180301e+06 3.947973671187454414e+01 5.805842258131740152e+00 4.071996545739148488e+00
4.397752634029587731e+06 3.947973371461647218e+01 5.805844349674696758e+00 4.071960617748605848e+00
4.397807227947646752e+06 3.947929049339290941e+01 5.806150724735623214e+00 4.066485841443112648e+00
4.397807582704024389e+06 3.947928762626118271e+01 5.806152694810490900e+00 4.066449769013170012e+00
4.397860367224677466e+06 3.947886420196742563e+01 5.806438273203607281e+00 4.060928777053389283e+00
4.397860710244470276e+06 3.947886146246175798e+01 5.806440100257994175e+00 4.060892313050162628e+00
4.397861053264262155e+06 3.947885872295609744e+01 5.806441927312379292e+00 4.060855849046935973e+00
4.397911943160023540e+06 3.947845548134679916e+01 5.806703291807164824e+00 4.055253517693409471e+00
4.397912273688688874e+06 3.947845287347365684e+01 5.806704955383832356e+00 4.055216455661551755e+00
4.397961095164597034e+06 3.947807083613182044e+01 5.806939541746502620e+00 4.049509028409975286e+00
4.397961411782661453e+06 3.947806836903687611e+01 5.806941026134045281e+00 4.049471240903517177e+00
4.398007918219815008e+06 3.947770911786459180e+01 5.807147744312420201e+00 4.043668832692880244e+00
4.398008219265680760e+06 3.947770680218560813e+01 5.807149046885270671e+00 4.043630480693835239e+00
4.398052206377675757e+06 3.947737150105641035e+01 5.807339436589789905e+00 4.037854318735854875e+00
4.398052490707885474e+06 3.947736934275550880e+01 5.807340667451615701e+00 4.037816469962251631e+00
4.398052775038094260e+06 3.947736718445460724e+01 5.807341898313439721e+00 4.037778621188649275e+00
4.398094309536318295e+06 3.947699705662932246e+01 5.807520400275199890e+00 4.032181521130572044e+00
4.398094578419797122e+06 3.947699451240100643e+01 5.807521552338532622e+00 4.032145102756322430e+00
4.398134185554878786e+06 3.947655953190711386e+01 5.807701448913103803e+00 4.026829343977244235e+00
4.398134443058594130e+06 3.947655655292393106e+01 5.807702644066058184e+00 4.026794906090443327e+00
4.398172928002704866e+06 3.947605100835800584e+01 5.807890743681442203e+00 4.021770558739128809e+00
4.398173179704468697e+06 3.947604756265693027e+01 5.807891995793390549e+00 4.021737981130579342e+00
4.398217227512965910e+06 3.947537080815685329e+01 5.808118402091953847e+00 4.016246027067558622e+00
4.398217529555081390e+06 3.947536603195197813e+01 5.808119967988965904e+00 4.016208752436718044e+00
4.398270507742123678e+06 3.947441925701269838e+01 5.808395431621112159e+00 4.009970718870993878e+00
4.398270870192661881e+06 3.947441259369844602e+01 5.808397317580401342e+00 4.009928552875384078e+00
4.398271232643200085e+06 3.947440593038417944e+01 5.808399203539687861e+00 4.009886386879775166e+00
4.398320810258647427e+06 3.947337704286005078e+01 5.808656924135737754e+00 4.004393312836623586e+00
4.398321126751965843e+06 3.947337024568115282e+01 5.808658568884895956e+00 4.004358781485093388e+00
4.398367830948390067e+06 3.947226746310747103e+01 5.808900870272160510e+00 3.999503154400094296e+00
4.398368135943447240e+06 3.947226009534348634e+01 5.808902451902591579e+00 3.999471845494036337e+00
4.398422059069402516e+06 3.947087000169838689e+01 5.809188569245339551e+00 3.994279511694880824e+00
4.398422425063470379e+06 3.947086045495440487e+01 5.809190519500908145e+00 3.994244707788190851e+00
4.398487279212245718e+06 3.946913742968820316e+01 5.809552501740190777e+00 3.988623140113256138e+00
4.398487718405127525e+06 3.946912572484754378e+01 5.809554972181417476e+00 3.988585706255312058e+00
4.398549704247670248e+06 3.946744138531629176e+01 5.809912818920540012e+00 3.983818825345829318e+00
4.398550106163399294e+06 3.946743042107132737e+01 5.809915151390459442e+00 3.983788602937088363e+00
4.398621647163280286e+06 3.946544589639605505e+01 5.810323167483433693e+00 3.979021772253683586e+00
4.398622129462155513e+06 3.946543248630923983e+01 5.810325911343086069e+00 3.978990218886829133e+00
4.398708171581562608e+06 3.946299705407489000e+01 5.810806674670139671e+00 3.974115769697417644e+00
4.398708750340213068e+06 3.946298063566202785e+01 5.810809901080245865e+00 3.974083622865203225e+00
4.398812232386962511e+06 3.945998975748113935e+01 5.811366513660887634e+00 3.969208098851442212e+00
4.398812926897343248e+06 3.945996964295314768e+01 5.811370234087743114e+00 3.969176032575069346e+00
4.398937383157594129e+06 3.945629554041916975e+01 5.812004220490975648e+00 3.964393852578621757e+00
4.398938216570050456e+06 3.945627089137441601e+01 5.812008444458427014e+00 3.964362461993514941e+00
4.399087897447334602e+06 3.945175775463929568e+01 5.812717983898886054e+00 3.959753224531652016e+00
4.399088897542282939e+06 3.945172755137764398e+01 5.812722696970596736e+00 3.959723008812301437e+00
4.399268914633003063e+06 3.944618583747476492e+01 5.813500178372776439e+00 3.955349352168181731e+00
4.399270114746940322e+06 3.944614884265503463e+01 5.813505327833787817e+00 3.955320701682381923e+00
4.399486615301379934e+06 3.943934851242859452e+01 5.814335471993801185e+00 3.951224581108121470e+00
4.399744300027050078e+06 3.943109808874739031e+01 5.815188553368185964e+00 3.947459869599182269e+00
4.399746011380163021e+06 3.943104324354279555e+01 5.815194173860120053e+00 3.947435231438400915e+00
4.400020619791486301e+06 3.942209135036379308e+01 5.815967976755395341e+00 3.944302985341318291e+00
4.400291196825425141e+06 3.941313593854409447e+01 5.816615420680403048e+00 3.941833098517245837e+00
4.400561905170613900e+06 3.940406641707942015e+01 5.817161625003280712e+00 3.939808330972343065e+00
4.401151922287753783e+06 3.938400846142332057e+01 5.818065819067185451e+00 3.936469201282609909e+00
4.401518573475101963e+06 3.937139314201870377e+01 5.818475482041133517e+00 3.934897571682090422e+00
4.402221801287909970e+06 3.934693380256280193e+01 5.819056866760341507e+00 3.932521959979131676e+00
4.402919697193717584e+06 3.932239902139951937e+01 5.819432272038771004e+00 3.930714886347223214e+00
4.403279729704631492e+06 3.930966118486257699e+01 5.819573685442810174e+00 3.929925050423797916e+00
4.403644945048089139e+06 3.929669273669644980e+01 5.819693510527419456e+00 3.929197095162117126e+00
4.404086402426752262e+06 3.928096480268569479e+01 5.819813932162990255e+00 3.928400854162102718e+00
4.404600468297538348e+06 3.926258626014483610e+01 5.819931650985943783e+00 3.927565337087531638e+00
4.405090928768048063e+06 3.924498648383995913e+01 5.820031109254639290e+00 3.926848156334904250e+00
4.405582428120034747e+06 3.922729371170397883e+01 5.820124667665046658e+00 3.926209930101193457e+00
4.406097516761126928e+06 3.920869733680240188e+01 5.820222981035348297e+00 3.925593902802940072e+00
4.406719975992193446e+06 3.918616148498317386e+01 5.820324511095225084e+00 3.924437172949357677e+00
4.406746093162728474e+06 3.918521410400613547e+01 5.820326915933213385e+00 3.924350300203839126e+00
4.406772210333262570e+06 3.918426672302909708e+01 5.820329320771202575e+00 3.924263427458321019e+00
4.407534831712863408e+06 3.915649050411776955e+01 5.820424843942275217e+00 3.921769196141826619e+00
4.407566172317504883e+06 3.915534340200152030e+01 5.820430029920753867e+00 3.921668808197444456e+00
4.407597512922145426e+06 3.915419629988527106e+01 5.820435215899230741e+00 3.921568420253062293e+00
4.408483228069117293e+06 3.912159117205477088e+01 5.820583295483938713e+00 3.918846846084902857e+00
4.408517391446733847e+06 3.912032740060339364e+01 5.820589057045689074e+00 3.918745665306960113e+00
4.408551554824351333e+06 3.911906362915201640e+01 5.820594818607439436e+00 3.918644484529017813e+00
4.409515075393499807e+06 3.908317215796513722e+01 5.820751560075109410e+00 3.916114456535458643e+00
4.409551656969556585e+06 3.908180428992553601e+01 5.820757391007472137e+00 3.916025149464038790e+00
4.409588238545614295e+06 3.908043642188594902e+01 5.820763221939835752e+00 3.915935842392619826e+00
4.410629223996782675e+06 3.904122914331641425e+01 5.820907360587129986e+00 3.913844781284210317e+00
4.410668469717721455e+06 3.903974753320179758e+01 5.820912526693167166e+00 3.913771485703787079e+00
4.411799760349439457e+06 3.899675885689617871e+01 5.821026850848619816e+00 3.912124530275085554e+00
4.411842263168849982e+06 3.899514155572651219e+01 5.821030873286132667e+00 3.912066326751149958e+00
4.413080745811799541e+06 3.894774956136117794e+01 5.821105791385732253e+00 3.910791177726760548e+00
4.413127036402829923e+06 3.894597705757549733e+01 5.821108410168526426e+00 3.910745321957902920e+00
4.414479287184967659e+06 3.889395374644518455e+01 5.821153727976332348e+00 3.910013274601012778e+00
4.452721884507888928e+06 3.744627788778355182e+01 5.820010217540637854e+00 3.921719763579256668e+00
4.475752988362131640e+06 3.661693380102129680e+01 5.819322403749621841e+00 3.934203599736037837e+00
4.487722874071895145e+06 3.620802092356547064e+01 5.818916445870443432e+00 3.947799789320491470e+00
4.494059555142171681e+06 3.600167564225566252e+01 5.818722385405130204e+00 3.958520618279909975e+00
4.500204143818658777e+06 3.581074787613165711e+01 5.818563287196168332e+00 3.972897504802160196e+00
4.503277880783316679e+06 3.571947924558880771e+01 5.818501624629963231e+00 3.982263219041740854e+00
4.507753913517760113e+06 3.559292517831988789e+01 5.818441202488711994e+00 3.999685626595593124e+00
4.510377636858033948e+06 3.552571894789643636e+01 5.818430589729763014e+00 4.009408205771983091e+00
4.517415878742255270e+06 3.539215697930880822e+01 5.818551789170911093e+00 4.026040406372769276e+00
4.528248025065678172e+06 3.525433695961835667e+01 5.818848703985841198e+00 4.038024768420324762e+00
4.588344818563561887e+06 3.467478989559813840e+01 5.820326750651474867e+00 4.037636971325012425e+00
4.638216612048620358e+06 3.404249216980795723e+01 5.820852368527781984e+00 4.034673996593289402e+00
4.664986735411304049e+06 3.374969548943118269e+01 5.821304049457167729e+00 4.039228684092415200e+00
4.675567451891329139e+06 3.362402392373580540e+01 5.821345705840681006e+00 4.034786347583630750e+00
4.678797230825629085e+06 3.357870493991267580e+01 5.821296749366076106e+00 4.027977615538564038e+00
4.684058816848440096e+06 3.350644523210321779e+01 5.821301864610278543e+00 4.031186079053971305e+00
4.687965080258185044e+06 3.344699109150062100e+01 5.821282646505880898e+00 4.029051708179755664e+00
4.691372349766364321e+06 3.339801150767643634e+01 5.821156219019485434e+00 4.022230301990886048e+00
4.694621534120796248e+06 3.334544916952232541e+01 5.821143053685191582e+00 4.025895494920249007e+00
4.695621547381254844e+06 3.332980092766297275e+01 5.820939068168719643e+00 4.015680244985896152e+00
4.698212484619151801e+06 3.328349513753273214e+01 5.821039234072803659e+00 4.023931858355453528e+00
4.699462428095528856e+06 3.326084989845986684e+01 5.821031774909245726e+00 4.020433768544294573e+00
4.700854091853011400e+06 3.323725756473611170e+01 5.820939675619769993e+00 4.022271005277684885e+00
4.702564094618164934e+06 3.320608848085421982e+01 5.820956380117581652e+00 4.021601650526183569e+00
4.704240047494402155e+06 3.317657407754636267e+01 5.820882100092183542e+00 4.020194188518899203e+00
4.709347205235848203e+06 3.308215668842393598e+01 5.820707827306579318e+00 4.018050588178494920e+00
4.710849091120092198e+06 3.305375389329383751e+01 5.820528931683107032e+00 4.012810902424829962e+00
4.711797212845372967e+06 3.303410718780991573e+01 5.820273258327233634e+00 4.000352915153724709e+00
4.713256807048895396e+06 3.299707348811240593e+01 5.820536054645433666e+00 4.011785952617827888e+00
4.715616761639755219e+06 3.294663702662651161e+01 5.820320605719890850e+00 4.010755902991360422e+00
4.716851931797696277e+06 3.291829810171682169e+01 5.820385310205406171e+00 4.012148387062390853e+00
4.717315127298379317e+06 3.290832286824046093e+01 5.820079158427190258e+00 4.007823934171656610e+00
4.717663963542275131e+06 3.290018843037323393e+01 5.819861235657114662e+00 4.000111611201320194e+00
4.718546276431472972e+06 3.287839195437333473e+01 5.819975764211259062e+00 4.007247677917773920e+00
4.718747138332968578e+06 3.287358286082420733e+01 5.819798147548895351e+00 4.002054240146728503e+00
4.720846196267081425e+06 3.282509235549564153e+01 5.820023418476717225e+00 4.006349628446493227e+00
4.722999609550610185e+06 3.277312275368795724e+01 5.819935418041924713e+00 4.005240097498468543e+00
4.724830724762951024e+06 3.272776032326662943e+01 5.819771602011690526e+00 4.002660929319440619e+00
4.726643874438037165e+06 3.268115535219898504e+01 5.819548978116564797e+00 4.000333482046919187e+00
4.727042831807812676e+06 3.267078549196423154e+01 5.819508076508675742e+00 3.997021783641822701e+00
4.727962856195556000e+06 3.264634877133199353e+01 5.819602118035986038e+00 4.000179914266892567e+00
4.729317225700330921e+06 3.261073837159327127e+01 5.819511753060435666e+00 3.999897509694013920e+00
4.730515865745250136e+06 3.257890641034037316e+01 5.819451401600098883e+00 3.998503318837205889e+00
4.733086811818621121e+06 3.250922113866830898e+01 5.819355978363562443e+00 3.999627940488103661e+00
4.733849622126781382e+06 3.248871501018424368e+01 5.819078413143147444e+00 3.993717790205817408e+00
4.735223688120139763e+06 3.245079969549464494e+01 5.819153296816300447e+00 3.995301590326972629e+00
4.736107961157589220e+06 3.242650480691964532e+01 5.819057567369386064e+00 3.993951413760655988e+00
4.738055225959975272e+06 3.237267672628043869e+01 5.819052197734889020e+00 3.996648864418491875e+00
4.738658392156373709e+06 3.235612334181589489e+01 5.818716674556641877e+00 3.989780054515332797e+00
4.740270223809543997e+06 3.231093590974526109e+01 5.818819211586440332e+00 3.991723883814126239e+00
4.741823715639203787e+06 3.226776469167167960e+01 5.818654708230059924e+00 3.989130093180805581e+00
4.746839883425816894e+06 3.212719932156284131e+01 5.818319869798983746e+00 3.986594171960291533e+00
4.749523729371899739e+06 3.205120631572224710e+01 5.818115808784473764e+00 3.984681213792574006e+00
4.751825343799655326e+06 3.198564701598918347e+01 5.817932054504294292e+00 3.983470527088408986e+00
4.753837377358366735e+06 3.192814482459874625e+01 5.817746538702788683e+00 3.981715355997463845e+00
4.756792242055605166e+06 3.184307557250384946e+01 5.817643694407641952e+00 3.984588913695551682e+00
4.757599625839907676e+06 3.181999552268904807e+01 5.817317898305660151e+00 3.977684625721402689e+00
4.759816951992456801e+06 3.175561933974102757e+01 5.817200828073948671e+00 3.976816170838248343e+00
4.762315175337987021e+06 3.168264772194577006e+01 5.817120280446482994e+00 3.979485155671441454e+00
4.765954334476741031e+06 3.157654260477003660e+01 5.816672308018957516e+00 3.972887942598209765e+00
4.768479693380540237e+06 3.150175501932129052e+01 5.816482868147072161e+00 3.973566282869737343e+00
4.774401168029393069e+06 3.132610024071189159e+01 5.815792068617628985e+00 3.967471997080186608e+00
4.777204162649137899e+06 3.124171977797530886e+01 5.815487227448789653e+00 3.966300797346049567e+00
4.780020314099871553e+06 3.115669986418076931e+01 5.815133590703299937e+00 3.963685635718860567e+00
4.782766016650531441e+06 3.107311017465541880e+01 5.814805605933584864e+00 3.961886615720974447e+00
4.786864574595466256e+06 3.094713875906595035e+01 5.814407505146245825e+00 3.962049276206323078e+00
4.795860036725925282e+06 3.066709497666914075e+01 5.813116023889990380e+00 3.953781575680376026e+00
4.808354668822728097e+06 3.026680523773856279e+01 5.810907462527907796e+00 3.941703112525495545e+00
4.817632301605633460e+06 2.995770769564850156e+01 5.808362901298188774e+00 3.927461921019212099e+00
4.822599274436652660e+06 2.978526280583293584e+01 5.806203586772086034e+00 3.915559826076528083e+00
4.826548742187878117e+06 2.964257674156855060e+01 5.803424475072958444e+00 3.901406724437930684e+00
4.828553450714972802e+06 2.956727045544588606e+01 5.801126570321350151e+00 3.890330667147991583e+00
4.830223908862951212e+06 2.950224172065191652e+01 5.798231965202810478e+00 3.878268508562501715e+00
4.831543479548396543e+06 2.944923522834024610e+01 5.793977424937389209e+00 3.863819805266701213e+00
4.832163273500519805e+06 2.942346265368123781e+01 5.790306741383576927e+00 3.851694751450596144e+00
4.832558860520432703e+06 2.940649298794024347e+01 5.786723199358092984e+00 3.840860350382252708e+00
4.832560240516391583e+06 2.940643255006234469e+01 5.786706468702529804e+00 3.840812647478538899e+00
4.832811510180506855e+06 2.939536882778287108e+01 5.783588864745194513e+00 3.831965268859090834e+00
4.832901066398226656e+06 2.939136102308734522e+01 5.782137133371745286e+00 3.828030205704693767e+00
4.832972570060816593e+06 2.938813135764436169e+01 5.780943140221102006e+00 3.824637351946016395e+00
4.833099976586884819e+06 2.938230725448022440e+01 5.779099258038604248e+00 3.819230227763416252e+00
4.833278994838860817e+06 2.937401928292925390e+01 5.776371756269814917e+00 3.813571295658076288e+00
4.833382669860318303e+06 2.936918248755733885e+01 5.774442232325523783e+00 3.809978977514439702e+00
4.833488164132524282e+06 2.936423123656408762e+01 5.772383474873161724e+00 3.805964512950913203e+00
4.833590624866382219e+06 2.935938810820634615e+01 5.770317876147148972e+00 3.801756532166206348e+00
4.833688206105679274e+06 2.935473942093868516e+01 5.768266235983196211e+00 3.797455123248313136e+00
4.833780403994275257e+06 2.935031085318757249e+01 5.766334033681311588e+00 3.793241199825986065e+00
4.833949406346263364e+06 2.934209130078333416e+01 5.762610350565799067e+00 3.785007558690535845e+00
4.834028157616919838e+06 2.933821284379038019e+01 5.761049779486311806e+00 3.781448353807736140e+00
4.834358077063305303e+06 2.932182723644063316e+01 5.756903311320520800e+00 3.778306279057070949e+00
4.834649102995024994e+06 2.930752451990152352e+01 5.752697713496218945e+00 3.778082752454988480e+00
4.834804101807659492e+06 2.930002460938517217e+01 5.752133356679149045e+00 3.782702916820193106e+00
4.834865858428142965e+06 2.929708399694018794e+01 5.752462481110746317e+00 3.786360032830396793e+00
4.834921170751732774e+06 2.929448368524903756e+01 5.753081975691547001e+00 3.790813178816443862e+00
4.834971623343875632e+06 2.929214637111910235e+01 5.753891719484037992e+00 3.795991057487026588e+00
4.835018255021473393e+06 2.929002182137022103e+01 5.755001093670559342e+00 3.802018865942383474e+00
4.835061509885127656e+06 2.928808750823675666e+01 5.756443434087693767e+00 3.808942737723317151e+00
4.835061902555947192e+06 2.928807023418278277e+01 5.756460856913498958e+00 3.809018100734786749e+00
4.835100676234805025e+06 2.928637202427819730e+01 5.758397716414486389e+00 3.816929376494746506e+00
4.835101013308024034e+06 2.928635752168511175e+01 5.758422084078068437e+00 3.817014489444915171e+00
4.835133852167042904e+06 2.928495140611647685e+01 5.761111417330361917e+00 3.825887354076737523e+00
4.835134127535887063e+06 2.928493982948042529e+01 5.761143938256620523e+00 3.825980120775491322e+00
4.835160728166227229e+06 2.928382715800730551e+01 5.764618627753426594e+00 3.835537088251385285e+00
4.835160948461302556e+06 2.928381810527511675e+01 5.764656984050736455e+00 3.835633364735434814e+00
4.835182140847544186e+06 2.928295175032920028e+01 5.768735547076941472e+00 3.845496978081857087e+00
4.835182317083604634e+06 2.928294466393278839e+01 5.768779635122548655e+00 3.845594751530504674e+00
4.835199200498173013e+06 2.928226926219193160e+01 5.773371120209234597e+00 3.855492847324531347e+00
4.835199341487021185e+06 2.928226370517271704e+01 5.773418256784995428e+00 3.855588208000016781e+00
4.835212791823137552e+06 2.928173615046735279e+01 5.778187739770378251e+00 3.865085057550669667e+00
4.835223529533815570e+06 2.928132221678308156e+01 5.782683500359230067e+00 3.873732995952055003e+00
4.835223619766677730e+06 2.928131877683139805e+01 5.782723785626517454e+00 3.873810561448648659e+00
4.835232231515347958e+06 2.928099184461530058e+01 5.786436084364946275e+00 3.881260596740268021e+00
4.835239427584853023e+06 2.928072241340360193e+01 5.788915027182296669e+00 3.887471073097645835e+00
4.835245906569140032e+06 2.928048321863675341e+01 5.790023395952054841e+00 3.892699019634620949e+00
4.835252633061220869e+06 2.928023897421725152e+01 5.789298811333118522e+00 3.897319354790224288e+00
4.835260719554430805e+06 2.927995151137228191e+01 5.786466577840256420e+00 3.901643758483905433e+00
4.835270440989541821e+06 2.927961560133346453e+01 5.782866158288187286e+00 3.905707171707363479e+00
4.835282127883583307e+06 2.927922384506127429e+01 5.779352566796585933e+00 3.909556713858599597e+00
4.835296177562724799e+06 2.927876637788730108e+01 5.776408762245011985e+00 3.913254004773124795e+00
4.835333152862969786e+06 2.927760789482669779e+01 5.772157597501210269e+00 3.920054935204011493e+00
4.835383433509826660e+06 2.927609329317120057e+01 5.770473576401100146e+00 3.925908600369993895e+00
4.835433521228767000e+06 2.927461807759333112e+01 5.773337393666741590e+00 3.930894406505325289e+00
4.835482495334006846e+06 2.927318665667704778e+01 5.775011620715229554e+00 3.935818724108746558e+00
4.835501051102364436e+06 2.927264863490592006e+01 5.777027626401006088e+00 3.941370758126223173e+00
4.835501169264227152e+06 2.927264523456480561e+01 5.777069265222717576e+00 3.941454741770644699e+00
4.835513449448714033e+06 2.927229458182799249e+01 5.777952379641124736e+00 3.949099100750370184e+00
4.835524772793933749e+06 2.927197886268725213e+01 5.777220706831105446e+00 3.953964717248515726e+00
4.835549211250586435e+06 2.927131492728628359e+01 5.780634316140590201e+00 3.962852446333755108e+00
4.835549354258459061e+06 2.927131105012687584e+01 5.780649791741788057e+00 3.962948552807358915e+00
4.835565485546621494e+06 2.927088139814706125e+01 5.785142728802673773e+00 3.970767651207586901e+00
4.835565657156070694e+06 2.927087688799283427e+01 5.785212175250885380e+00 3.970827021349573549e+00
4.835581239293996245e+06 2.927046626595469547e+01 5.789849679310316688e+00 3.976247743322507411e+00
4.835615325049102306e+06 2.926957469371366471e+01 5.792815142606749568e+00 3.985588831286494216e+00
4.835637783097125590e+06 2.926899836014894518e+01 5.792746994002913041e+00 3.990460592507110604e+00
4.835664780201332644e+06 2.926831873005900064e+01 5.792318356158395964e+00 3.995698897501096525e+00
4.835665064880814403e+06 2.926831161872996034e+01 5.792313144332894126e+00 3.995751796085349916e+00
4.835692980164604262e+06 2.926762342332350997e+01 5.792212272980044041e+00 4.000917471331908004e+00
4.835720013710863888e+06 2.926697913829932673e+01 5.792514671571776574e+00 4.005831260983538478e+00
4.835772904425408691e+06 2.926580736694026896e+01 5.793435955797439973e+00 4.015190041926978815e+00
4.835799051051226445e+06 2.926526927933190336e+01 5.793906488783294506e+00 4.019679209548580268e+00
4.835824949665185995e+06 2.926475957550308493e+01 5.794314883828266538e+00 4.024019012978532039e+00
4.835850626012794673e+06 2.926427472661578832e+01 5.794615744367510146e+00 4.028183139426159798e+00
4.835876103101804852e+06 2.926381153551040271e+01 5.794731536351202195e+00 4.032129193056032790e+00
4.835926296912937425e+06 2.926294287085267243e+01 5.794199244245767488e+00 4.039158033027932859e+00
4.835951298760093749e+06 2.926252803604401009e+01 5.793556666965510082e+00 4.042215619742248300e+00
4.836000705454353243e+06 2.926172236928840675e+01 5.791771013746485508e+00 4.047355156627932438e+00
4.836049742413898930e+06 2.926092743053614953e+01 5.789706335569408502e+00 4.051330335512702163e+00
4.836146868565862998e+06 2.925936446815686054e+01 5.786128446356707755e+00 4.056733659256009261e+00
4.836280182501928881e+06 2.925723596263134141e+01 5.783333088081871409e+00 4.060636278563029222e+00
4.836503516637081280e+06 2.925367897949854168e+01 5.795893434901102204e+00 4.069848751545478649e+00
4.836503820865212940e+06 2.925367411273809637e+01 5.796056516373658596e+00 4.069946270989339254e+00
4.836531186103526503e+06 2.925321456309187340e+01 5.795528857951932622e+00 4.074928121644856738e+00
4.836559144778224640e+06 2.925274146495056726e+01 5.789523081903529267e+00 4.077373179065713060e+00
4.836688662040339783e+06 2.925062861428424554e+01 5.777950771367990512e+00 4.081052334497758061e+00
4.836845192238464952e+06 2.924807432693104303e+01 5.787635172525861904e+00 4.079066279901674363e+00
4.837058218119779602e+06 2.924448921968283344e+01 5.796362516802914477e+00 4.076575297579450030e+00
4.837322421450529248e+06 2.923994926797536564e+01 5.801458847017127773e+00 4.075075181995196694e+00
4.837572272060436197e+06 2.923561231822349882e+01 5.802789277834368598e+00 4.074598380669687714e+00
4.837691815091782250e+06 2.923353366131538777e+01 5.802375583654471036e+00 4.074685436512803349e+00
4.837802440907627344e+06 2.923161236478227210e+01 5.801850279225128304e+00 4.074812798325772256e+00
4.837894726867800578e+06 2.923001206102899374e+01 5.801504820913624627e+00 4.074894578567642256e+00
4.837895601027677767e+06 2.922999690707198184e+01 5.801501793754220593e+00 4.074895285868469941e+00
4.837939134189574048e+06 2.922924271817957376e+01 5.801379706078111376e+00 4.074919945530787402e+00
4.837971848188978620e+06 2.922867624758179517e+01 5.801321052807483447e+00 4.074929391463108175e+00
4.837998465630846098e+06 2.922821542361335645e+01 5.801291086387727169e+00 4.074940860284562483e+00
4.837998718528156169e+06 2.922821104534481762e+01 5.801290826560856928e+00 4.074940977221670479e+00
4.838010705860646442e+06 2.922800352777693789e+01 5.801275003208008485e+00 4.074949615104611844e+00
4.838019162746690214e+06 2.922785713531503404e+01 5.801295689252568444e+00 4.074941650579431140e+00
4.838019243673829362e+06 2.922785573443735885e+01 5.801295929587329425e+00 4.074941555227360013e+00
4.838022933951376006e+06 2.922779185060734619e+01 5.801298423571261687e+00 4.074942066477608371e+00
4.838022966322231106e+06 2.922779129021576239e+01 5.801298429648984012e+00 4.074942080031511260e+00
4.838025646629079245e+06 2.922774488971030138e+01 5.801301943588718757e+00 4.074941712980416852e+00
4.838025672525764443e+06 2.922774444139617600e+01 5.801301979812400589e+00 4.074941708309849808e+00
4.838026791262537241e+06 2.922772551885985237e+01 5.801216476883672257e+00 4.074995764167738344e+00
4.838026801621211693e+06 2.922772534407127409e+01 5.801215602926289350e+00 4.074996315948759218e+00
4.838026811979885213e+06 2.922772516928270647e+01 5.801214728968907330e+00 4.074996867729781869e+00
4.838026822338558733e+06 2.922772499449413885e+01 5.801213855011525311e+00 4.074997419510803631e+00
