# #MIST v1.1 [Fe/H] = 0, v_init = 0, reprocessed track 
# #star_age 	 star_mass 	 logL 	 logT
1.054847282477692403e+02 7.499602252893846810e+01 5.874372072839339154e+00 4.038522177122738199e+00
1.055403937353029562e+02 7.499602217958550909e+01 5.874339550389159115e+00 4.038553104631112056e+00
1.055960592228366579e+02 7.499602183023252167e+01 5.874307027938978187e+00 4.038584032139485913e+00
1.056517247103703880e+02 7.499602148087957687e+01 5.874274505488797260e+00 4.038614959647859770e+00
1.169406855822074220e+02 7.499595113170691718e+01 5.867686454567168752e+00 4.044879178363713912e+00
1.170074841672478811e+02 7.499595083738563517e+01 5.867649303120695770e+00 4.044914321378175970e+00
1.170742827522883402e+02 7.499595054306433894e+01 5.867612151674222787e+00 4.044949464392638028e+00
1.304880997064570920e+02 7.499589147529519551e+01 5.860154464157607990e+00 4.051983052534230190e+00
1.305435415452113546e+02 7.499589123599245966e+01 5.860124013378407604e+00 4.052008866865875802e+00
1.305989833839656455e+02 7.499589099668972381e+01 5.860093562599208994e+00 4.052034681197520527e+00
1.417717082809147371e+02 7.499584281349005721e+01 5.853984063059642473e+00 4.057228965187363201e+00
1.418244974665277311e+02 7.499584258978246964e+01 5.853957768066311296e+00 4.057252758418763428e+00
1.526146070058201758e+02 7.499579691226705336e+01 5.848635839421429061e+00 4.062141970440687366e+00
1.526779540285557459e+02 7.499579664784418753e+01 5.848608682762113986e+00 4.062172678612017584e+00
1.527413010512913161e+02 7.499579638342132171e+01 5.848581526102798911e+00 4.062203386783347803e+00
1.657274407120836202e+02 7.499574223618012070e+01 5.843032481084724061e+00 4.068489649312843071e+00
1.658034571393662873e+02 7.499574192283580487e+01 5.843001097769643160e+00 4.068525904945560434e+00
1.658794735666489828e+02 7.499574160949148904e+01 5.842969714454562258e+00 4.068562160578276909e+00
1.809953638284904969e+02 7.499567936623120090e+01 5.836731678755488595e+00 4.075727425160674322e+00
1.810580786974808802e+02 7.499567911134749920e+01 5.836705928437480928e+00 4.075754882280811842e+00
1.936408261582715795e+02 7.499562803308415937e+01 5.831561318225721102e+00 4.081232335723667504e+00
1.936992582234984752e+02 7.499562779861277306e+01 5.831538415609002435e+00 4.081256348602558148e+00
2.057596364863283611e+02 7.499557947469870101e+01 5.826857530380301853e+00 4.086185709860219895e+00
2.058297549646006530e+02 7.499557919655940452e+01 5.826832147915789406e+00 4.086213302726461549e+00
2.203302562713054726e+02 7.499552177525129082e+01 5.821641936696544839e+00 4.091873201117125269e+00
2.204143984452321945e+02 7.499552144556318467e+01 5.821613931174208112e+00 4.091904383125443800e+00
2.204985406191589448e+02 7.499552111587507852e+01 5.821585925651870497e+00 4.091935565133762331e+00
2.372223663874312365e+02 7.499545569085876195e+01 5.816058172827962558e+00 4.098077540887365977e+00
2.372964013996940480e+02 7.499545540457732784e+01 5.816034958516300257e+00 4.098102915861362661e+00
2.521891540592458227e+02 7.499539790630743141e+01 5.811412414384131253e+00 4.103165357314707329e+00
2.522610401122831831e+02 7.499539763142531967e+01 5.811391501687071859e+00 4.103188549416498354e+00
2.672277163546631868e+02 7.499534050174375466e+01 5.807113250720032482e+00 4.107976919770998769e+00
2.673139796183080534e+02 7.499534017513603601e+01 5.807090599759710869e+00 4.108003452704810599e+00
2.853084964146219704e+02 7.499527217380689592e+01 5.802463301294539022e+00 4.113475821466983540e+00
2.854120123309957648e+02 7.499527178578800601e+01 5.802439080501482493e+00 4.113505770041162357e+00
3.059510197886463629e+02 7.499519491798501747e+01 5.797703790386655953e+00 4.119382835325241743e+00
3.060439297721670187e+02 7.499519457316645799e+01 5.797684064167389018e+00 4.119407853993704904e+00
3.247409700327855830e+02 7.499512527940079565e+01 5.793791729525414880e+00 4.124391491384391983e+00
3.248319671403451139e+02 7.499512494430069864e+01 5.793774499566958447e+00 4.124414614549103852e+00
3.439231603063404918e+02 7.499505473678304668e+01 5.790277138651644506e+00 4.129212395762881016e+00
3.440323568354119743e+02 7.499505433713683544e+01 5.790259475121208865e+00 4.129238772823541126e+00
3.669854672462349185e+02 7.499497042963108129e+01 5.786705294235419572e+00 4.134706101982457582e+00
3.671165030811206975e+02 7.499496995244896880e+01 5.786687968565036755e+00 4.134735873260328987e+00
3.930234178140756285e+02 7.499487566432479468e+01 5.783382566526583446e+00 4.140549705816765069e+00
3.931413763486365269e+02 7.499487523604179273e+01 5.783369761399893783e+00 4.140574826732462022e+00
4.168582853683686267e+02 7.499478913722673212e+01 5.780916736167040604e+00 4.145568851437158919e+00
4.169737835704502231e+02 7.499478871815153980e+01 5.780906900159426876e+00 4.145592185680277098e+00
4.413901034904993139e+02 7.499470009026050832e+01 5.779003970021150849e+00 4.150462730175519255e+00
4.415287013329972297e+02 7.499469958661717328e+01 5.778995920043314527e+00 4.150489405426836420e+00
4.708837243740552481e+02 7.499459276717180956e+01 5.777527947141239295e+00 4.156054187554792279e+00
4.710500417850527128e+02 7.499459215978373550e+01 5.777523124155664824e+00 4.156084462425741144e+00
4.712163591960502345e+02 7.499459155239564723e+01 5.777518301170090353e+00 4.156114737296689121e+00
5.038950401540834605e+02 7.499447192495193804e+01 5.776748030443346948e+00 4.161992655705148536e+00
5.040437145638605898e+02 7.499447137650516026e+01 5.776747130003143660e+00 4.162018361239113950e+00
5.338443496382512876e+02 7.499436110287966528e+01 5.776731957344357404e+00 4.167116185557775410e+00
5.645984825462534218e+02 7.499424580062007806e+01 5.777421453953508035e+00 4.172154282970556238e+00
5.647717452668618989e+02 7.499424514469177439e+01 5.777428145273601601e+00 4.172181867712107639e+00
5.649450079874703761e+02 7.499424448876347071e+01 5.777434836593694278e+00 4.172209452453659040e+00
6.019539251094380461e+02 7.499410343662306389e+01 5.779155381071348074e+00 4.178019617594552315e+00
6.021618403741681504e+02 7.499410263320126546e+01 5.779168432698661206e+00 4.178051306600716330e+00
6.426188994791234563e+02 7.499394505479845918e+01 5.781900002961591234e+00 4.184163553117167922e+00
6.428011176710112977e+02 7.499394432992333748e+01 5.781914640281330620e+00 4.184190426577854005e+00
6.790922138261531700e+02 7.499379873149929665e+01 5.784992116584576571e+00 4.189501745010166367e+00
6.792660936534248322e+02 7.499379801995240769e+01 5.785008701286831645e+00 4.189526729428493468e+00
7.142934965865684944e+02 7.499365333754064977e+01 5.788494009719261868e+00 4.194525527479187055e+00
7.513540771409145691e+02 7.499349537238089169e+01 5.792693672639343205e+00 4.199685011213325936e+00
7.515609268928458278e+02 7.499349447315366035e+01 5.792718874935609996e+00 4.199713310982300385e+00
7.961163634588336890e+02 7.499329784446808844e+01 5.798350827858028467e+00 4.205755213365376832e+00
7.963645831611511312e+02 7.499329672158734184e+01 5.798384106110662017e+00 4.205788369090326384e+00
7.966128028634686871e+02 7.499329559870659523e+01 5.798417384363293792e+00 4.205821524815275048e+00
8.441081076347204544e+02 7.499307729359787800e+01 5.804888144092133828e+00 4.212155767329623934e+00
8.855132105662808044e+02 7.499287731691453018e+01 5.810800471639746334e+00 4.217645620983303090e+00
8.857081174823067613e+02 7.499287634764843347e+01 5.810828970824530870e+00 4.217671341865032453e+00
9.246314473518009436e+02 7.499267985140764381e+01 5.816582372396983835e+00 4.222805329861024859e+00
9.248202191011453124e+02 7.499267887249099829e+01 5.816610824544041769e+00 4.222830206494625926e+00
9.627990386532208049e+02 7.499247885348455611e+01 5.822374765343801606e+00 4.227830784629431626e+00
1.003356960841151022e+03 7.499225573684259416e+01 5.828634934329720352e+00 4.233117397025013773e+00
1.003581037759316359e+03 7.499225447439040693e+01 5.828669767205230556e+00 4.233146256494412896e+00
1.052340175152098936e+03 7.499197371571862902e+01 5.836245562965222788e+00 4.239373857351718122e+00
1.052609067453897296e+03 7.499197212322374639e+01 5.836287313211336425e+00 4.239407819231868935e+00
1.103527283720503192e+03 7.499166398408168277e+01 5.844161955050001467e+00 4.245845022842528849e+00
1.103753700663593008e+03 7.499166256089711169e+01 5.844196718947662461e+00 4.245873696020431964e+00
1.148069496639838235e+03 7.499137850726401666e+01 5.850972163299530848e+00 4.251486447800306934e+00
1.189723390930218557e+03 7.499109815618535890e+01 5.857262694066578845e+00 4.256763419094958145e+00
1.189925458746551612e+03 7.499109675896497151e+01 5.857292957672752820e+00 4.256789021088024150e+00
1.230497784643106570e+03 7.499081099541456297e+01 5.863323952661131599e+00 4.261934473187046990e+00
1.270599758829746861e+03 7.499051600787350935e+01 5.869167035751476469e+00 4.267042955204445320e+00
1.310415036041999201e+03 7.499021046570214821e+01 5.874830965039233632e+00 4.272184614356882904e+00
1.310611435714673917e+03 7.499020892263848737e+01 5.874858491224093981e+00 4.272210293821240512e+00
1.350102649033670787e+03 7.498989297936884668e+01 5.880327631440254166e+00 4.277585712163325837e+00
1.388794377461318618e+03 7.498957052509359755e+01 5.885526928093943511e+00 4.283171412875766748e+00
1.426036288321909979e+03 7.498924745230772260e+01 5.890366633491460391e+00 4.288637907381898984e+00
1.426216175389271029e+03 7.498924585763424489e+01 5.890389579142979670e+00 4.288664464518012309e+00
1.462056887497835305e+03 7.498892276634234122e+01 5.894892445181751484e+00 4.293970870266365480e+00
1.497003393662620283e+03 7.498859616228511982e+01 5.899132476976247652e+00 4.299169465953546876e+00
1.531398835237069306e+03 7.498826344409116018e+01 5.903154994420876989e+00 4.304293655283794706e+00
1.565470468841888760e+03 7.498792275519286932e+01 5.906987877870843562e+00 4.309362898866242020e+00
1.599381010407367285e+03 7.498757264356046903e+01 5.910649423813909564e+00 4.314389090569859420e+00
1.599548655960969882e+03 7.498757088447243291e+01 5.910667131088752413e+00 4.314413875011940291e+00
1.636732439750003323e+03 7.498717427003427360e+01 5.914482069338428794e+00 4.319826787514006838e+00
1.681393215229707948e+03 7.498668191789495552e+01 5.918781136117791775e+00 4.326153405041214484e+00
1.726561651500326207e+03 7.498616656208028530e+01 5.922874322739094310e+00 4.332495065631810860e+00
1.726767454143441910e+03 7.498616416350384384e+01 5.922892372921205961e+00 4.332524056026441528e+00
1.766808301685698552e+03 7.498568984867578990e+01 5.926311664673010071e+00 4.338156463983867894e+00
1.804630670640480048e+03 7.498522743723862050e+01 5.929363802040676035e+00 4.343449002528430469e+00
1.841432272716722764e+03 7.498476439255037462e+01 5.932164516399152987e+00 4.348552080798441466e+00
1.877868200145307583e+03 7.498429344540627994e+01 5.934769330828405742e+00 4.353438072046035501e+00
1.918091397357948608e+03 7.498375963305527137e+01 5.937432415627478477e+00 4.358578157609857229e+00
1.966402446042352722e+03 7.498310133819762768e+01 5.940348305934721296e+00 4.364687395622083521e+00
1.966661718217761063e+03 7.498309776442640384e+01 5.940363283653375959e+00 4.364720320738015857e+00
2.015367517650003492e+03 7.498241539927713006e+01 5.943058061604565623e+00 4.370854620887811848e+00
2.059374555754970515e+03 7.498178044728319946e+01 5.945292980307879560e+00 4.376328809356636818e+00
2.101401781129276969e+03 7.498115863200571596e+01 5.947253980749266589e+00 4.381491696793979429e+00
2.142734144471430227e+03 7.498053298518010479e+01 5.949019046174281122e+00 4.386531259714542053e+00
2.188574976149470785e+03 7.497982340103737897e+01 5.950771845770537638e+00 4.392017608793172379e+00
2.188819678097930591e+03 7.497981958234251465e+01 5.950780766714341752e+00 4.392046546790223438e+00
2.243926556890963639e+03 7.497894698952050874e+01 5.952627438568100615e+00 4.398562287041843710e+00
2.297967539366819437e+03 7.497807104199461037e+01 5.954243088815503349e+00 4.404870522724598558e+00
2.345993534240596546e+03 7.497736202780669146e+01 5.955538880095757825e+00 4.410385046994815816e+00
2.346223594009295539e+03 7.497735892259180446e+01 5.955544843897071061e+00 4.410411353006564283e+00
2.391870324177488328e+03 7.497707169874564670e+01 5.956696370150433850e+00 4.415587388531622359e+00
2.436705505288373388e+03 7.497701497684994365e+01 5.957696932246097532e+00 4.420592878306493390e+00
2.486770677809975041e+03 7.497694740103577260e+01 5.958636017960170506e+00 4.426070499309536110e+00
2.546901957456944274e+03 7.497686068688010153e+01 5.959587414364313496e+00 4.432530057180096961e+00
2.605371384442754788e+03 7.497677034405138841e+01 5.960389249923568222e+00 4.438710765531285851e+00
2.605642605735783036e+03 7.497676991117829459e+01 5.960392749067915830e+00 4.438739217100141410e+00
2.658067441512989262e+03 7.497668293827884156e+01 5.961011655711475399e+00 4.444174935755834888e+00
2.708228302987000461e+03 7.497659463389865664e+01 5.961515673482406186e+00 4.449271447865008611e+00
2.764187681949740636e+03 7.497649047784791776e+01 5.961973795723345404e+00 4.454807348004004908e+00
2.831397944837502564e+03 7.497635814089173323e+01 5.962408343819724621e+00 4.461260387056792176e+00
2.831751993632346057e+03 7.497635743094103589e+01 5.962410444174583546e+00 4.461294045752715931e+00
2.896460015762268085e+03 7.497622235582690564e+01 5.962750034894696682e+00 4.467367399612038881e+00
2.954911377027744038e+03 7.497609301507577584e+01 5.962988828771549343e+00 4.472738763857759814e+00
3.011149502484965979e+03 7.497596233450744307e+01 5.963157198235534473e+00 4.477802055484735533e+00
3.074347932604492598e+03 7.497580858423891925e+01 5.963276265944960741e+00 4.483352525551222101e+00
3.150252340807491237e+03 7.497561510648884564e+01 5.963343821546036594e+00 4.489837565857500046e+00
3.150650093164887039e+03 7.497561407855029358e+01 5.963344064167216629e+00 4.489871265372556763e+00
3.222992851758544020e+03 7.497542052501061960e+01 5.963354228451823502e+00 4.495918084010701143e+00
3.288500827542455681e+03 7.497523674107353031e+01 5.963312437426806945e+00 4.501280200285065369e+00
3.351585516780619855e+03 7.497505260298302687e+01 5.963226726470866268e+00 4.506341234887261571e+00
3.422891058674331362e+03 7.497483664732335740e+01 5.963079826553023821e+00 4.511925518790176781e+00
3.508532114729630848e+03 7.497456737067007282e+01 5.962848155344535606e+00 4.518451741421602996e+00
3.508978549426704831e+03 7.497456595283034630e+01 5.962846872741586424e+00 4.518485505665157831e+00
3.589731451222970009e+03 7.497430202449051251e+01 5.962584460075275317e+00 4.524501787960063304e+00
3.663031304487649322e+03 7.497405344057598597e+01 5.962303815994037137e+00 4.529844309328113994e+00
3.733732113857076911e+03 7.497380624433813523e+01 5.961996791585154831e+00 4.534893213135330114e+00
3.814129461001055461e+03 7.497351715502915681e+01 5.961609303509110447e+00 4.540502066409673354e+00
3.814546748269968703e+03 7.497351564513610356e+01 5.961607247087888695e+00 4.540531012597494254e+00
3.911190479750308441e+03 7.497315811514855000e+01 5.961099066311017936e+00 4.547101126341303257e+00
4.001289804317646485e+03 7.497281506402840989e+01 5.960589027905188964e+00 4.553099959788389661e+00
4.083229706349556182e+03 7.497249463958306137e+01 5.960091631732026052e+00 4.558443925148332632e+00
4.162275910731435033e+03 7.497217876776818457e+01 5.959585305726545990e+00 4.563495650541571358e+00
4.252663358103631253e+03 7.497181049516780149e+01 5.958981174653138702e+00 4.569131416303586768e+00
4.253130074699356555e+03 7.497180858623225674e+01 5.958978029786294428e+00 4.569160359723062115e+00
4.361781698184281595e+03 7.497135728227573281e+01 5.958226015229837635e+00 4.575738871024590537e+00
4.462131536143123412e+03 7.497093251388338331e+01 5.957506854004407160e+00 4.581661722713449514e+00
4.553877595190623651e+03 7.497053769513362909e+01 5.956827658597427799e+00 4.586938344501265696e+00
4.554324882045139020e+03 7.497053576349490811e+01 5.956824323934774235e+00 4.586963914251366958e+00
4.643276209650852252e+03 7.497014802875860084e+01 5.956149600171062097e+00 4.591951024454722585e+00
4.745779317653603357e+03 7.496969636719018126e+01 5.955357559950526181e+00 4.597523597535710493e+00
4.868888268582484670e+03 7.496914846424472501e+01 5.954386775966803214e+00 4.603969614960868206e+00
4.982405950775237216e+03 7.496863876932403059e+01 5.953463480690223797e+00 4.609708492089578336e+00
4.982950256589522724e+03 7.496863632031681846e+01 5.953459018469995812e+00 4.609735778675213780e+00
5.088123501764574030e+03 7.496816098870264966e+01 5.952570680673051839e+00 4.614852133779098864e+00
5.209045960442636897e+03 7.496761226740679263e+01 5.951499437863467357e+00 4.620449730841512448e+00
5.354276511325148022e+03 7.496695181365461735e+01 5.950108696394506680e+00 4.626735276512953909e+00
5.488073112544872856e+03 7.496634358741496840e+01 5.948703248091188556e+00 4.632137544224685044e+00
5.488718286640964834e+03 7.496634065501237387e+01 5.948696341178498770e+00 4.632163206338484329e+00
5.615440283591252410e+03 7.496576624990049709e+01 5.947214793523491139e+00 4.636872312215958303e+00
5.762515028339447781e+03 7.496510302405363291e+01 5.945261328957016644e+00 4.641752605370978557e+00
5.939154416433972983e+03 7.496431330357944489e+01 5.942559810897168227e+00 4.646778776958855772e+00
6.151301315423431333e+03 7.496337765896475958e+01 5.938840719625648745e+00 4.651702153960478370e+00
6.152379115079601434e+03 7.496337291441939499e+01 5.938821506433841435e+00 4.651726419032009119e+00
6.407386513729421495e+03 7.496227060340608261e+01 5.933840506955259997e+00 4.656331704955336548e+00
6.713654064026684864e+03 7.496098249362664490e+01 5.927502016080193670e+00 4.660532393769370785e+00
6.715206095531570099e+03 7.496097598805046403e+01 5.927469702876827284e+00 4.660552906505969872e+00
7.083347968490238600e+03 7.495948110840728873e+01 5.920003986016750375e+00 4.664404471687602083e+00
7.525490703601813948e+03 7.495775817069289815e+01 5.912279832249655698e+00 4.668188910798574121e+00
7.527725628968848469e+03 7.495774950050572727e+01 5.912241510096223784e+00 4.668207628872302450e+00
8.059190881249553058e+03 7.495576618953414538e+01 5.905834945759466770e+00 4.672669562585011427e+00
8.061872791689993392e+03 7.495575622363097068e+01 5.905804078972830773e+00 4.672692084473373697e+00
8.064554702130433725e+03 7.495574625772779598e+01 5.905773212186194776e+00 4.672714606361736855e+00
8.703922151131546343e+03 7.495344998488400279e+01 5.902219809142907003e+00 4.679076898139401308e+00
8.707140443660075107e+03 7.495343846315442704e+01 5.902203676904936636e+00 4.679109380853745392e+00
9.120369204323207668e+03 7.495199262895168602e+01 5.901497089030470988e+00 4.683974316101147117e+00
9.122300179840325654e+03 7.495198589828281399e+01 5.901494827032694346e+00 4.683997578309784693e+00
9.584189523534820182e+03 7.495039240033923988e+01 5.902495669159267599e+00 4.690679792071433596e+00
9.586506694155359583e+03 7.495038441212824409e+01 5.902501244611369380e+00 4.690713716901666608e+00
1.014170077483696696e+04 7.494848668493310129e+01 5.904042257518820058e+00 4.698803463422209781e+00
1.014448137958161533e+04 7.494847718550629168e+01 5.904050039202745737e+00 4.698843967671663790e+00
1.060050055770407198e+04 7.494693754950256448e+01 5.904360434259248613e+00 4.704278632865743326e+00
1.060272504149979250e+04 7.494693004611897891e+01 5.904361576442665793e+00 4.704304678203642176e+00
1.102021981311834861e+04 7.494554015190513496e+01 5.903499640774747093e+00 4.707750135776452183e+00
1.151551738623774509e+04 7.494391592006275005e+01 5.901462311222640977e+00 4.710074302161267212e+00
1.211036853639809851e+04 7.494199955708120342e+01 5.898584048761869703e+00 4.711165141921275890e+00
1.211333291090055900e+04 7.494199001279208971e+01 5.898569638913903290e+00 4.711170300115795406e+00
1.282834004089396331e+04 7.493972804666380227e+01 5.895787110586280910e+00 4.711437199949457977e+00
1.368706004676664270e+04 7.493705154953715919e+01 5.893956612698946884e+00 4.711581033956051989e+00
1.369132874605018696e+04 7.493703824875153430e+01 5.893947669954729740e+00 4.711581733523853899e+00
1.472350023281081849e+04 7.493385211567701276e+01 5.893009804087641079e+00 4.711732797635558967e+00
1.472862267195106870e+04 7.493383630547239704e+01 5.893005226009075059e+00 4.711733546205449485e+00
1.473374511109132072e+04 7.493382049526779554e+01 5.893000647930510816e+00 4.711734294775340004e+00
1.474192744434051747e+04 7.493379536840321009e+01 5.892997504960447941e+00 4.711734362309435653e+00
1.475010977758971421e+04 7.493377024153862465e+01 5.892994361990385066e+00 4.711734429843530414e+00
1.599873383141703562e+04 7.492993609030077096e+01 5.892521405868882844e+00 4.711741640766170747e+00
1.600855263131606989e+04 7.492990600749601526e+01 5.892519854674826085e+00 4.711740690213664706e+00
1.601837143121510599e+04 7.492987592469125957e+01 5.892518303480770214e+00 4.711739739661158666e+00
1.752261157574730896e+04 7.492526735644545965e+01 5.892288419140212952e+00 4.711591804757332191e+00
1.753439413562615300e+04 7.492523127665370453e+01 5.892287850805488780e+00 4.711590279051012686e+00
1.934419533301634146e+04 7.491968924906740313e+01 5.892205815456145857e+00 4.711355084992615794e+00
1.935833440487094776e+04 7.491964593187071841e+01 5.892205791062535170e+00 4.711353148449051176e+00
1.937247347672555770e+04 7.491960261467403370e+01 5.892205766668925371e+00 4.711351211905484782e+00
1.938661254858016764e+04 7.491955929747733478e+01 5.892205742275313796e+00 4.711349275361918387e+00
2.156968524293207884e+04 7.491287044299653530e+01 5.892205336951310990e+00 4.711050901147875614e+00
2.158665212915761003e+04 7.491281840575119588e+01 5.892205587766433439e+00 4.711048629638305840e+00
2.160361901538314487e+04 7.491276636850582804e+01 5.892205838581556776e+00 4.711046358128736955e+00
2.423348638034075702e+04 7.490469922745404574e+01 5.892246326175175852e+00 4.710696429080871717e+00
2.425384664381139373e+04 7.490463669155816717e+01 5.892246734569960509e+00 4.710693846931748752e+00
2.427420690728203772e+04 7.490457415566227439e+01 5.892247142964744278e+00 4.710691264782624899e+00
2.744226390331355651e+04 7.489484120405533929e+01 5.892311569175321395e+00 4.710293208476581839e+00
2.746669621947831911e+04 7.489476602952433382e+01 5.892312108136962046e+00 4.710290316903051888e+00
2.749112853564308898e+04 7.489469085499334255e+01 5.892312647098603584e+00 4.710287425329521938e+00
2.751556085180785522e+04 7.489461568046233708e+01 5.892313186060245123e+00 4.710284533755991987e+00
3.133677509997749075e+04 7.488285435889144992e+01 5.892398135421034411e+00 4.709838217735992316e+00
3.136609387937521387e+04 7.488276396650321942e+01 5.892398811982282325e+00 4.709835017215033837e+00
3.139541265877293699e+04 7.488267357411498892e+01 5.892399488543528463e+00 4.709831816694075357e+00
3.142473143817065284e+04 7.488258318172674421e+01 5.892400165104775489e+00 4.709828616173116878e+00
3.603364355949239689e+04 7.486836697719823519e+01 5.892507314531696849e+00 4.709334138986164930e+00
3.606882609476966172e+04 7.486825825552089952e+01 5.892508156943611297e+00 4.709330630849773769e+00
3.610400863004693383e+04 7.486814953384354965e+01 5.892508999355525745e+00 4.709327122713382607e+00
3.613919116532419866e+04 7.486804081216621398e+01 5.892509841767440193e+00 4.709323614576991446e+00
4.169803173913208593e+04 7.485085252438302916e+01 5.892643982106537059e+00 4.708781220215646712e+00
4.174025078146480519e+04 7.485072171627810178e+01 5.892645027642721800e+00 4.708777406824926182e+00
4.178246982379752444e+04 7.485059090817317440e+01 5.892646073178905652e+00 4.708773593434204763e+00
4.182468886613024370e+04 7.485046010006824702e+01 5.892647118715089505e+00 4.708769780043484232e+00
4.186690790846296295e+04 7.485032929196333384e+01 5.892648164251273357e+00 4.708765966652762813e+00
4.857973563936515711e+04 7.482951451284452560e+01 5.892815857900759013e+00 4.708175888162123179e+00
4.863039849016442167e+04 7.482935707767758515e+01 5.892817154069787122e+00 4.708171776397085395e+00
4.868106134096368623e+04 7.482919964251065892e+01 5.892818450238815231e+00 4.708167664632048499e+00
4.873172419176294352e+04 7.482904220734371847e+01 5.892819746407842452e+00 4.708163552867011603e+00
5.682764774948499689e+04 7.480385939331534928e+01 5.893028736302901471e+00 4.707527177659031281e+00
5.688844317044410855e+04 7.480366983843933326e+01 5.893030339451489574e+00 4.707522773921627213e+00
5.694923859140322020e+04 7.480348028356330303e+01 5.893031942600077677e+00 4.707518370184223144e+00
5.701003401236233185e+04 7.480329072868727280e+01 5.893033545748664892e+00 4.707513966446817300e+00
5.707082943332144350e+04 7.480310117381125679e+01 5.893035148897252995e+00 4.707509562709413231e+00
6.684673312354701920e+04 7.477258290063998913e+01 5.893295380297622899e+00 4.706827718038532282e+00
6.691968762869795319e+04 7.477235457458179724e+01 5.893297359646551214e+00 4.706823030742369518e+00
6.699264213384888717e+04 7.477212624852359113e+01 5.893299338995481307e+00 4.706818343446205866e+00
6.706559663899982115e+04 7.477189792246539923e+01 5.893301318344410511e+00 4.706813656150043101e+00
6.713855114415076969e+04 7.477166959640720734e+01 5.893303297693338827e+00 4.706808968853879449e+00
7.894259007757238578e+04 7.473466901956928155e+01 5.893626756090017516e+00 4.706082892552597485e+00
7.903013548375350365e+04 7.473439385645002631e+01 5.893629196609548870e+00 4.706077927556751916e+00
7.911768088993463607e+04 7.473411869333077107e+01 5.893631637129078449e+00 4.706072962560904571e+00
7.920522629611575394e+04 7.473384353021153004e+01 5.893634077648608915e+00 4.706067997565058114e+00
9.344010934116659337e+04 7.468901714561752669e+01 5.894034957528718977e+00 4.705298664242251405e+00
9.354516382858392899e+04 7.468868534871586462e+01 5.894037962593749569e+00 4.705293422756703592e+00
9.365021831600129372e+04 7.468835355181420255e+01 5.894040967658780161e+00 4.705288181271155779e+00
9.375527280341862934e+04 7.468802175491255468e+01 5.894043972723809865e+00 4.705282939785608853e+00
9.386032729083597951e+04 7.468768995801089261e+01 5.894046977788840458e+00 4.705277698300061928e+00
1.110472414323143312e+05 7.463328044672852002e+01 5.894543661297585224e+00 4.704464637076560152e+00
1.111733068172151688e+05 7.463288009151253277e+01 5.894547354528548944e+00 4.704459113601007658e+00
1.112993722021159774e+05 7.463247973629655974e+01 5.894551047759512663e+00 4.704453590125455165e+00
1.114254375870168005e+05 7.463207938108058670e+01 5.894554740990476382e+00 4.704448066649902671e+00
1.115515029719176237e+05 7.463167902586459945e+01 5.894558434221440102e+00 4.704442543174350178e+00
1.323018653265924659e+05 7.456558932709234000e+01 5.895172635837994335e+00 4.703585542134062436e+00
1.324531437884734478e+05 7.456510586543281249e+01 5.895177167648482985e+00 4.703579741948091808e+00
1.326044222503544297e+05 7.456462240377328499e+01 5.895181699458971636e+00 4.703573941762121180e+00
1.327557007122354116e+05 7.456413894211375748e+01 5.895186231269460286e+00 4.703568141576150552e+00
1.329069791741164227e+05 7.456365548045422997e+01 5.895190763079948937e+00 4.703562341390180812e+00
1.579586924616071628e+05 7.448330774823426736e+01 5.895949228185942914e+00 4.702656334861261556e+00
1.581402266158643761e+05 7.448272338128104764e+01 5.895954783965721369e+00 4.702650176171445651e+00
1.583217607701215602e+05 7.448213901432782791e+01 5.895960339745499823e+00 4.702644017481631522e+00
1.585032949243787443e+05 7.448155464737459397e+01 5.895965895525279166e+00 4.702637858791816505e+00
1.586848290786359285e+05 7.448097028042137424e+01 5.895971451305057620e+00 4.702631700102001489e+00
1.588663632328931126e+05 7.448038591346815451e+01 5.895977007084836075e+00 4.702625541412186472e+00
1.891462601629906567e+05 7.438247637994943773e+01 5.896914074822236174e+00 4.701660390083004515e+00
1.893641011480992602e+05 7.438176923250122741e+01 5.896920881807568904e+00 4.701653839089441789e+00
1.895819421332078928e+05 7.438106208505303130e+01 5.896927688792903410e+00 4.701647288095879063e+00
1.897997831183164963e+05 7.438035493760483519e+01 5.896934495778236140e+00 4.701640737102316336e+00
1.900176241034250706e+05 7.437964779015662486e+01 5.896941302763568871e+00 4.701634186108753610e+00
2.265713414046507678e+05 7.426032961157120837e+01 5.898096740927973869e+00 4.700600203149374323e+00
2.268327505867810978e+05 7.425947269492732516e+01 5.898105076728418439e+00 4.700593168207230832e+00
2.270941597689114860e+05 7.425861577828344195e+01 5.898113412528863009e+00 4.700586133265088229e+00
2.273555689510417869e+05 7.425775886163955875e+01 5.898121748329305802e+00 4.700579098322943850e+00
2.276169781331721460e+05 7.425690194499568975e+01 5.898130084129750372e+00 4.700572063380801247e+00
2.717428480767733417e+05 7.411125674231894322e+01 5.899554752320727680e+00 4.699450296316424414e+00
2.720565390953297028e+05 7.411021656528450308e+01 5.899564964627403540e+00 4.699442636899773262e+00
2.723702301138861803e+05 7.410917638825006293e+01 5.899575176934079401e+00 4.699434977483123888e+00
2.726839211324425414e+05 7.410813621121562278e+01 5.899585389240755262e+00 4.699427318066472736e+00
2.729976121509989607e+05 7.410709603418119684e+01 5.899595601547432011e+00 4.699419658649823361e+00
3.262623471018767450e+05 7.392895373138681236e+01 5.901353403611388160e+00 4.698181443184245687e+00
3.266387763241444482e+05 7.392768843757079367e+01 5.901365925260190437e+00 4.698172952485181852e+00
3.270152055464121513e+05 7.392642314375478918e+01 5.901378446908992714e+00 4.698164461786118906e+00
3.273916347686798545e+05 7.392515784993878469e+01 5.901390968557793215e+00 4.698155971087055960e+00
3.277680639909475576e+05 7.392389255612278021e+01 5.901403490206596381e+00 4.698147480387993902e+00
3.920621751542685670e+05 7.370544782796503114e+01 5.903575314709900823e+00 4.696749804313847143e+00
3.925138902209897060e+05 7.370390466108386818e+01 5.903590693102163556e+00 4.696740174361416109e+00
3.929656052877110196e+05 7.370236149420270522e+01 5.903606071494428065e+00 4.696730544408985963e+00
3.934173203544321586e+05 7.370081832732154226e+01 5.903621449886691686e+00 4.696720914456554041e+00
3.938690354211534723e+05 7.369927516044039351e+01 5.903636828278955306e+00 4.696711284504123896e+00
3.943207504878747277e+05 7.369773199355921633e+01 5.903652206671219815e+00 4.696701654551692862e+00
4.720157419639253058e+05 7.342866252016386852e+01 5.906345397441969958e+00 4.695078423514734922e+00
4.725578000439908938e+05 7.342677427220812092e+01 5.906364332585701149e+00 4.695067198779629081e+00
4.730998581240563071e+05 7.342488602425237332e+01 5.906383267729430564e+00 4.695055974044523239e+00
4.736419162041217787e+05 7.342299777629662572e+01 5.906402202873161755e+00 4.695044749309418286e+00
4.741839742841873085e+05 7.342110952834086390e+01 5.906421138016891170e+00 4.695033524574312445e+00
5.679600221355136018e+05 7.308875366049494460e+01 5.909767387937456817e+00 4.693088975911445360e+00
5.686104918315921677e+05 7.308643358226707676e+01 5.909790781253316361e+00 4.693075480805608102e+00
5.692609615276706172e+05 7.308411350403920892e+01 5.909814174569175016e+00 4.693061985699770844e+00
5.699114312237492995e+05 7.308179342581135529e+01 5.909837567885035448e+00 4.693048490593933586e+00
5.705619009198278654e+05 7.307947334758347324e+01 5.909860961200894103e+00 4.693034995488096328e+00
6.837436280374980997e+05 7.266680049467547065e+01 5.914037715685685370e+00 4.690621004496968283e+00
6.845241916727923090e+05 7.266393477133604506e+01 5.914066754187674135e+00 4.690604211801095325e+00
6.853047553080865182e+05 7.266106904799659105e+01 5.914095792689661124e+00 4.690587419105222367e+00
6.860853189433808438e+05 7.265820332465716547e+01 5.914124831191649889e+00 4.690570626409350297e+00
6.868658825786750531e+05 7.265533760131772567e+01 5.914153869693637766e+00 4.690553833713477339e+00
6.876464462139693787e+05 7.265247187797830009e+01 5.914182908195625643e+00 4.690537041017606157e+00
8.244011951175266877e+05 7.213592184021217690e+01 5.919431416027996384e+00 4.687418438737392279e+00
8.253378714798798319e+05 7.213235818506090880e+01 5.919467649836279044e+00 4.687396765761281614e+00
8.262745478422329761e+05 7.212879452990964069e+01 5.919503883644561704e+00 4.687375092785171837e+00
8.272112242045861203e+05 7.212523087475837258e+01 5.919540117452844363e+00 4.687353419809061172e+00
8.281479005669392645e+05 7.212166721960711868e+01 5.919576351261127911e+00 4.687331746832951396e+00
9.931902756135609234e+05 7.147027737061816310e+01 5.926168321911662318e+00 4.683154973973603141e+00
9.943142872483846731e+05 7.146580698599584025e+01 5.926213517966155919e+00 4.683126007770297861e+00
9.954382988832085393e+05 7.146133660137353161e+01 5.926258714020650409e+00 4.683097041566992580e+00
9.965623105180321727e+05 7.145686621675122296e+01 5.926303910075143122e+00 4.683068075363687299e+00
9.976863221528560389e+05 7.145239583212891432e+01 5.926349106129638500e+00 4.683039109160382907e+00
1.196861183843626175e+06 7.062173392739565259e+01 5.934728053870620634e+00 4.677187078594863934e+00
1.198209997805414721e+06 7.061606383291506006e+01 5.934785227285891196e+00 4.677146611060898351e+00
1.199558811767203035e+06 7.061039373843448175e+01 5.934842400701161758e+00 4.677106143526933657e+00
1.200907625728991581e+06 7.060472364395390343e+01 5.934899574116433207e+00 4.677065675992968075e+00
1.202256439690780127e+06 7.059905354947332512e+01 5.934956747531703769e+00 4.677025208459003380e+00
1.203605253652568674e+06 7.059338345499274681e+01 5.935013920946975219e+00 4.676984740925038686e+00
1.413114507436911110e+06 6.965704760839658150e+01 5.944334171875341077e+00 4.669560447205234333e+00
1.414497333001673222e+06 6.965081326023761221e+01 5.944396117198242457e+00 4.669510334000380958e+00
1.415880158566435101e+06 6.964457891207862872e+01 5.944458062521143837e+00 4.669460220795528471e+00
1.417262984131197212e+06 6.963834456391965944e+01 5.944520007844044329e+00 4.669410107590676873e+00
1.418645809695959091e+06 6.963211021576069015e+01 5.944581953166945709e+00 4.669359994385824386e+00
1.600840938218681607e+06 6.875334157564117277e+01 5.953071774588802434e+00 4.661536997954739192e+00
1.602019425408836920e+06 6.874760979886939083e+01 5.953126961753607560e+00 4.661485382638255182e+00
1.603197912598992232e+06 6.874187802209760889e+01 5.953182148918413574e+00 4.661433767321771171e+00
1.604376399789147545e+06 6.873614624532581274e+01 5.953237336083218700e+00 4.661382152005287161e+00
1.756903580511922250e+06 6.794618055952412305e+01 5.960691059714637419e+00 4.653536906120158356e+00
1.757893394849731354e+06 6.794102512589779508e+01 5.960739617621151787e+00 4.653485292805238593e+00
1.758883209187539993e+06 6.793586969227146710e+01 5.960788175527666155e+00 4.653433679490317054e+00
1.886071361673438223e+06 6.723707193058834264e+01 5.967309469301717684e+00 4.645759287154862527e+00
1.886899623046934139e+06 6.723250558133366894e+01 5.967352058402564552e+00 4.645708860170028487e+00
1.993742909732617438e+06 6.661607192965769286e+01 5.973041662058580670e+00 4.638335197372077445e+00
1.994440674927444197e+06 6.661203743954709466e+01 5.973078881709614762e+00 4.638286765174208348e+00
2.085474078943318687e+06 6.606525985666658585e+01 5.978055793188395306e+00 4.631256322117804025e+00
2.086070310992214130e+06 6.606167445381228731e+01 5.978088415032142500e+00 4.631210128102499546e+00
2.165098407401792705e+06 6.557120297480973647e+01 5.982537611225228424e+00 4.624449761214672883e+00
2.165617311617204454e+06 6.556798097032111627e+01 5.982566837575266305e+00 4.624405308022291550e+00
2.166303939079426695e+06 6.556360409781520104e+01 5.982606686590989931e+00 4.624340877363607660e+00
2.236198183551596012e+06 6.511789627205490660e+01 5.986665323323299148e+00 4.617772034646943524e+00
2.236813932676577009e+06 6.511388598447067011e+01 5.986702190903240961e+00 4.617709146222799710e+00
2.299389444780129008e+06 6.470608530235369926e+01 5.990453104822598185e+00 4.611299489205300972e+00
2.299947469243982807e+06 6.470238717763841407e+01 5.990487577593860635e+00 4.611237841342466837e+00
2.356577688970789779e+06 6.432680703304281167e+01 5.993992093330573034e+00 4.604956186265471096e+00
2.408311899586144369e+06 6.397895465267605175e+01 5.997297830692791543e+00 4.598783555641674070e+00
2.408781363871780224e+06 6.397576660626940281e+01 5.997328714099974256e+00 4.598723863725671102e+00
2.456355417144331150e+06 6.365249597712532648e+01 6.000466352601994124e+00 4.592641636175283537e+00
2.500412799875543453e+06 6.335087887140574026e+01 6.003463260409247049e+00 4.586630695795310686e+00
2.541421457996795885e+06 6.306881442977435626e+01 6.006339268099353923e+00 4.580677400735209126e+00
2.541799985100639518e+06 6.306620542238235316e+01 6.006366526117816740e+00 4.580619462953084309e+00
2.580105277113839984e+06 6.280218976249765461e+01 6.009134615614113883e+00 4.574715271789918880e+00
2.616032586413896643e+06 6.255467559800994337e+01 6.011807176665568520e+00 4.568854270564878917e+00
2.649832572099737823e+06 6.232247819296272695e+01 6.014393539227819829e+00 4.563036886142435300e+00
2.650147888621349353e+06 6.232032090103226096e+01 6.014418215773219778e+00 4.562980262922897268e+00
2.682024402593418024e+06 6.210247128587539578e+01 6.016923877039864976e+00 4.557211355687640797e+00
2.712201140742464922e+06 6.189774277991536167e+01 6.019361308144615563e+00 4.551483580207766444e+00
2.740856958362752106e+06 6.170515292788516604e+01 6.021733764998156602e+00 4.545800585558288809e+00
2.768150758918881416e+06 6.152379696762438499e+01 6.024045206018266541e+00 4.540161190620500165e+00
2.768408659772203304e+06 6.152210109221165624e+01 6.024067401503852004e+00 4.540106204632190057e+00
2.794476886275158729e+06 6.135120628952113009e+01 6.026320288975883344e+00 4.534502348943241223e+00
2.819453534521262161e+06 6.118994585389421559e+01 6.028521854415338943e+00 4.528919068891273270e+00
2.843427886838626117e+06 6.103779025401556169e+01 6.030674278148917544e+00 4.523348902829161133e+00
2.866464688311549835e+06 6.089434749961360893e+01 6.032779966075756839e+00 4.517784894250357119e+00
2.888613952072048560e+06 6.075929806339232897e+01 6.034839480947148616e+00 4.512228112180017625e+00
2.888824917497259099e+06 6.075803314790753262e+01 6.034859346497404076e+00 4.512173680069283321e+00
2.910122700181595981e+06 6.063114674456620179e+01 6.036872711258919111e+00 4.506626706728807719e+00
2.930622837265716866e+06 6.051200625404181466e+01 6.038840543486577062e+00 4.501094961722813537e+00
2.950374494325583801e+06 6.040023382807486030e+01 6.040767783690498050e+00 4.495571277516216213e+00
2.969420460373646114e+06 6.029548105608247255e+01 6.042654014218822311e+00 4.490063450572886694e+00
2.987802372441018466e+06 6.019739293339135600e+01 6.044500153174875656e+00 4.484568840584463700e+00
2.987978393587909173e+06 6.019647380804701697e+01 6.044517999830425481e+00 4.484514908970822944e+00
3.005733277006587014e+06 6.010474441709347104e+01 6.046326174844079304e+00 4.479017546110095616e+00
3.022891359739551321e+06 6.001905180565559306e+01 6.048097445152108342e+00 4.473525909568245140e+00
3.039474434202374890e+06 5.993913312340636423e+01 6.049832028138933282e+00 4.468029801955550440e+00
3.055502162564567290e+06 5.986473613444819364e+01 6.051529873885337807e+00 4.462532829624193731e+00
3.070989272336405236e+06 5.979562386325230250e+01 6.053190159736866249e+00 4.457038874428408626e+00
3.085956442873700522e+06 5.973152576988136531e+01 6.054814052326035423e+00 4.451529477106467070e+00
3.086100137228765059e+06 5.973092643670108259e+01 6.054829766852487083e+00 4.451475219297980956e+00
3.100551020902235061e+06 5.967167595958883908e+01 6.056416654502740471e+00 4.445948871259872703e+00
3.114489306890194304e+06 5.961704920397860974e+01 6.057963598856920484e+00 4.440433976725941534e+00
3.127934773651948199e+06 5.956676682512261323e+01 6.059472532554337931e+00 4.434931089790664416e+00
3.140918219126001932e+06 5.952051422561800109e+01 6.060946209873510071e+00 4.429443783443007376e+00
3.153468341017386410e+06 5.947799391920619883e+01 6.062386251505436086e+00 4.423962886100865077e+00
3.165608595464298502e+06 5.943894196777383598e+01 6.063794605338323151e+00 4.418505203022965233e+00
3.165725490242639557e+06 5.943857685772003663e+01 6.063808249029408515e+00 4.418451844128458816e+00
3.177479723743069917e+06 5.940275130933277126e+01 6.065186995144984827e+00 4.413008091225147922e+00
3.188879891784094274e+06 5.936986270245300545e+01 6.066539016212458613e+00 4.407566609736383256e+00
3.211693121480480768e+06 5.866311520232355292e+01 6.067636465931297352e+00 4.400797029787280934e+00
3.241912040431546513e+06 5.742525608320576680e+01 6.069637052759500051e+00 4.399704480002649909e+00
3.272333259108933154e+06 5.613369420587757475e+01 6.071875182940736693e+00 4.406053334240128905e+00
3.284867867414284497e+06 5.572099778799193359e+01 6.073274165885955256e+00 4.407263547212157739e+00
3.295579007096864283e+06 5.537875524254044990e+01 6.074420384745495838e+00 4.409358531072388843e+00
3.304623977435130626e+06 5.516869024246942388e+01 6.075759276466035530e+00 4.410187160195695455e+00
3.323674645953054540e+06 5.489694783922004007e+01 6.078935613374534697e+00 4.408949345025825473e+00
3.337097723937528208e+06 5.480543704654530757e+01 6.082446348510381462e+00 4.410995027109811062e+00
3.342303915644682944e+06 5.478771207823214695e+01 6.084475777656434659e+00 4.414122546257429391e+00
3.344484093713768758e+06 5.477996685479800476e+01 6.085721121286340463e+00 4.416790263521653159e+00
3.346575427332188468e+06 5.477218953792582568e+01 6.087495353875831405e+00 4.421029720203828894e+00
3.347806159417420626e+06 5.476734462260407099e+01 6.089179839337409916e+00 4.425183972945022859e+00
3.348544420127824415e+06 5.476427844021208813e+01 6.090761086693873061e+00 4.429001331564346167e+00
3.348999342139646411e+06 5.476229514563428324e+01 6.092211191138030557e+00 4.432446136985586982e+00
3.349289734715837054e+06 5.476097357965362988e+01 6.093512422292947761e+00 4.435454202133059631e+00
3.349577341158085503e+06 5.475960310325765334e+01 6.095348099033679468e+00 4.439576614039626890e+00
3.349741938180820085e+06 5.475878023482057699e+01 6.096801490426654979e+00 4.442734847640879892e+00
3.349879724359275773e+06 5.475806210050503608e+01 6.098336584230411361e+00 4.446047150964667516e+00
3.349995410536113195e+06 5.475743323149860942e+01 6.099850389287741592e+00 4.449369638334204957e+00
3.350102568263467401e+06 5.475682599074910684e+01 6.101330876929191405e+00 4.452813043884761512e+00
3.350215824898794759e+06 5.475615817889276826e+01 6.102790188335033505e+00 4.456560967096531378e+00
3.350299516894627362e+06 5.475564768213840239e+01 6.103758228160142352e+00 4.459268479588377687e+00
3.350420241776299663e+06 5.475488643660468568e+01 6.105007789820391828e+00 4.462951537654351597e+00
3.350594385712959338e+06 5.475373976249112218e+01 6.106550823810368733e+00 4.467585075820439400e+00
3.350688948426909745e+06 5.475309470717517968e+01 6.107273422000434770e+00 4.469717637487137907e+00
3.350921127929010428e+06 5.475145463205668506e+01 6.108653005657089352e+00 4.473378100278775804e+00
3.351043643342186231e+06 5.475056593735806842e+01 6.109184616593180905e+00 4.474453305718581575e+00
3.351343296022255905e+06 5.474835790656514689e+01 6.109968271814072871e+00 4.474433822260399651e+00
3.351732326573904138e+06 5.474550936645871957e+01 6.110167015251061429e+00 4.470163436311209715e+00
3.351951793093827087e+06 5.474394989831449010e+01 6.109894405551268726e+00 4.466103629268270758e+00
3.352215600048165768e+06 5.474214504323266794e+01 6.109262256614372610e+00 4.459717171398621893e+00
3.352218282830751967e+06 5.474212683070231122e+01 6.109255276919477673e+00 4.459649325402541109e+00
3.352463338753827382e+06 5.474054694451052683e+01 6.108453393028995926e+00 4.452198459661799390e+00
3.352675192380227149e+06 5.473927915733290916e+01 6.107668664465994546e+00 4.444255508105841912e+00
3.352677210510143545e+06 5.473926727642305679e+01 6.107661058789781272e+00 4.444176822085120548e+00
3.352854671257248614e+06 5.473828965081040110e+01 6.107009836963261940e+00 4.436231674002837799e+00
3.352856355404760689e+06 5.473828052551458256e+01 6.107003696665251447e+00 4.436153938876602254e+00
3.353003601343249436e+06 5.473753618630286155e+01 6.106012381881323670e+00 4.427495012152635745e+00
3.353005003455040511e+06 5.473752920400659860e+01 6.106002046130591054e+00 4.427408886867229221e+00
3.353124866594698280e+06 5.473697997925588510e+01 6.105526576315510212e+00 4.419279236448372394e+00
3.353222463813304901e+06 5.473657263725250033e+01 6.105272217065029317e+00 4.411382376036539377e+00
3.353223395963644609e+06 5.473656879805405850e+01 6.105269901869944782e+00 4.411305135048255721e+00
3.353304605945476331e+06 5.473626022296363658e+01 6.105292376216983286e+00 4.403847680516207674e+00
3.353305387341980822e+06 5.473625728619074948e+01 6.105292872155003714e+00 4.403775016987411028e+00
3.353374045797749422e+06 5.473288818883336404e+01 6.105226605390985384e+00 4.397052371830954876e+00
3.353434380950204097e+06 5.472970268304080577e+01 6.105383663677125483e+00 4.390575527689950519e+00
3.353488821733800229e+06 5.472687155397311898e+01 6.105648802944195097e+00 4.384274820791548954e+00
3.353489352188584395e+06 5.472684399486449536e+01 6.105651458042812507e+00 4.384213148632325918e+00
3.353538906230336521e+06 5.472430352728759573e+01 6.105943776483015561e+00 4.378092121233238210e+00
3.353584597524141893e+06 5.472199261396710313e+01 6.106266887099110363e+00 4.372200985736911072e+00
3.353627318702115677e+06 5.471985946029668924e+01 6.106606689767087204e+00 4.366489110665074058e+00
3.353627736976665445e+06 5.471983858058190719e+01 6.106610024260997527e+00 4.366433145714112563e+00
3.353628002471420448e+06 5.471982548762802168e+01 6.106612375728891706e+00 4.366396638766866900e+00
3.353668335853717756e+06 5.471783672744922455e+01 6.106969703324203635e+00 4.360848260464921466e+00
3.353668590438236948e+06 5.471782431890093079e+01 6.106972007029799698e+00 4.360812092357317482e+00
3.353707251305092126e+06 5.471594052731939684e+01 6.107321802944838396e+00 4.355315431769345658e+00
3.353707496894598939e+06 5.471592869571082929e+01 6.107324014816552626e+00 4.355279486603694572e+00
3.353744777822167147e+06 5.471413342997980322e+01 6.107660989779807537e+00 4.349819946623133760e+00
3.353745015298753511e+06 5.471412212149979126e+01 6.107663330061964047e+00 4.349784688990538051e+00
3.353781059627243783e+06 5.471240670073925827e+01 6.108018093055063602e+00 4.344424637707907877e+00
3.353781290589747485e+06 5.471239582578434835e+01 6.108020313350383645e+00 4.344389268684308192e+00
3.353816339372160845e+06 5.471074674417121031e+01 6.108357735336311656e+00 4.339017054280395413e+00
3.353816564582846127e+06 5.471073626036960036e+01 6.108359949341357620e+00 4.338982072975103854e+00
3.353850732780535705e+06 5.470914707078645023e+01 6.108689776671960558e+00 4.333656186650396869e+00
3.353850952672344632e+06 5.470913694933993554e+01 6.108691432223972484e+00 4.333620478018398003e+00
3.353884295361557044e+06 5.470760385410045501e+01 6.108942409958292075e+00 4.328207360006409488e+00
3.353916765794018283e+06 5.470612870563538621e+01 6.109184307198599839e+00 4.322938847042236965e+00
3.353916974899540655e+06 5.470611930516641053e+01 6.109185747570530012e+00 4.322904230802151915e+00
3.353948700256313197e+06 5.470469490587218075e+01 6.109404820136684400e+00 4.317646439217893928e+00
3.353948905909914523e+06 5.470468576846147357e+01 6.109406268510539917e+00 4.317612051031257892e+00
3.353980101733800024e+06 5.470330168203265231e+01 6.109625154748280274e+00 4.312385157409355685e+00
3.353980304044059943e+06 5.470329279725345373e+01 6.109626536459588309e+00 4.312350775051493557e+00
3.354010992957186885e+06 5.470194718233229736e+01 6.109837616172828056e+00 4.307133186108872636e+00
3.354041240590485744e+06 5.470063640784663050e+01 6.110055531160293540e+00 4.301973418349219536e+00
3.354041437528395560e+06 5.470062795738298433e+01 6.110056973575011874e+00 4.301939651866977243e+00
3.354071333084365353e+06 5.469934744506926450e+01 6.110276479727048127e+00 4.296809557131551216e+00
3.354071528397009708e+06 5.469933915952895376e+01 6.110277932938219969e+00 4.296775891089534838e+00
3.354101180691969115e+06 5.469808367197923360e+01 6.110496768615971241e+00 4.291654467251694527e+00
3.354101374649731442e+06 5.469807553699961034e+01 6.110498142887898609e+00 4.291620640230780381e+00
3.354130814355029725e+06 5.469684336045587969e+01 6.110705383779786004e+00 4.286477865080009941e+00
3.354160018498760648e+06 5.469563511908088316e+01 6.110905378943130906e+00 4.281332201946722371e+00
3.354160209232822061e+06 5.469562730165133502e+01 6.110906696221828582e+00 4.281298400287651518e+00
3.354189150691351853e+06 5.469444386209119102e+01 6.111104878260656292e+00 4.276152455709669731e+00
3.354189339808677323e+06 5.469443619981426252e+01 6.111106129593442127e+00 4.276118393005462259e+00
3.354218022967439611e+06 5.469327698034277319e+01 6.111295717215307732e+00 4.270937232158396490e+00
3.354218210185528733e+06 5.469326948311496750e+01 6.111296949912896181e+00 4.270903059460021467e+00
3.354246586406562477e+06 5.469213616964866276e+01 6.111482558440559210e+00 4.265703429404681835e+00
3.354246771312407218e+06 5.469212885142542291e+01 6.111483740809410037e+00 4.265669102994809947e+00
3.354274783425874077e+06 5.469102332711549508e+01 6.111663419699617350e+00 4.260452105083919250e+00
3.354302405368294567e+06 5.468994610691448344e+01 6.111841119373599085e+00 4.255232126091392786e+00
3.354302585131133907e+06 5.468993915863371313e+01 6.111842251912771751e+00 4.255197687475245516e+00
3.354329801419855095e+06 5.468889042434082626e+01 6.112014867679838481e+00 4.249966596596136625e+00
3.354329978491120972e+06 5.468888366116966893e+01 6.112016011964330531e+00 4.249932247449370593e+00
3.354356737153066322e+06 5.468786490668387046e+01 6.112187653928558895e+00 4.244715656675988491e+00
3.354356910505988169e+06 5.468785836369202968e+01 6.112188743706416183e+00 4.244681414184817925e+00
3.354383076803551987e+06 5.468687406664942330e+01 6.112355863593614380e+00 4.239501710525302336e+00
3.354408628369660117e+06 5.468592425662180290e+01 6.112524869984006237e+00 4.234397471338746222e+00
3.354408793895634357e+06 5.468591815426255209e+01 6.112525954795202665e+00 4.234364105449552440e+00
3.354433793926979415e+06 5.468499971905445989e+01 6.112692430382939079e+00 4.229317389343694167e+00
3.354433956050470471e+06 5.468499381081008437e+01 6.112693548902347729e+00 4.229284553221556386e+00
3.354458445495879743e+06 5.468410454520255826e+01 6.112862577522593099e+00 4.224312941570499191e+00
3.354458604490284808e+06 5.468409881629570179e+01 6.112863675912819872e+00 4.224280502977214802e+00
3.354482624240373261e+06 5.468323652933579382e+01 6.113032808198887835e+00 4.219381923945957347e+00
3.354506213243538048e+06 5.468239912840547134e+01 6.113204921753808918e+00 4.214568721011182184e+00
3.354506366677792743e+06 5.468239372089765027e+01 6.113206037253050340e+00 4.214537331403825249e+00
3.354529555333496071e+06 5.468157956582105328e+01 6.113378099984335456e+00 4.209800877626622473e+00
3.354552376189328730e+06 5.468078691200102526e+01 6.113554071883093854e+00 4.205156193115300312e+00
3.354552524866982829e+06 5.468078178269692557e+01 6.113555222163695291e+00 4.205125968686085791e+00
3.354575002971229143e+06 5.468000926449420973e+01 6.113732522318549911e+00 4.200572708456148163e+00
3.354575149527844973e+06 5.468000426038346973e+01 6.113733715713246752e+00 4.200543200746419181e+00
3.354597310048151761e+06 5.467925050967699008e+01 6.113915082238349008e+00 4.196094260605750748e+00
3.354619178154334426e+06 5.467851412161139990e+01 6.114098589526445693e+00 4.191746697019985035e+00
3.354619320919532329e+06 5.467850934279717023e+01 6.114099818875233794e+00 4.191718541166013168e+00
3.354640916414297186e+06 5.467778924338514912e+01 6.114285778915218295e+00 4.187473812977762222e+00
3.354662261277262121e+06 5.467708422760546227e+01 6.114473165690464285e+00 4.183326082519315037e+00
3.354683374194656499e+06 5.467639329337711729e+01 6.114663637699370824e+00 4.179280569709917792e+00
3.354683512255753390e+06 5.467638879888539805e+01 6.114664883767440884e+00 4.179254288154000463e+00
3.354704413547583856e+06 5.467571094652531372e+01 6.114856756983416020e+00 4.175305881636930394e+00
3.354725125865491107e+06 5.467504506530607955e+01 6.115060788419101279e+00 4.171505887937190238e+00
3.354745658324270509e+06 5.467439042764429757e+01 6.115266656637410314e+00 4.167840364789558549e+00
3.354745792764469050e+06 5.467438616011025942e+01 6.115267933801412426e+00 4.167816435391682006e+00
3.354766153595996089e+06 5.467374218011268283e+01 6.115458452601254535e+00 4.164185974024704251e+00
3.354786358179223258e+06 5.467310820855392706e+01 6.115650727198696401e+00 4.160602084277977397e+00
3.354806418877623044e+06 5.467248366533485182e+01 6.115850558507389678e+00 4.157099274596012251e+00
3.354826348530080169e+06 5.467186789885719378e+01 6.116053488280238426e+00 4.153682497880772928e+00
3.354846159229596145e+06 5.467126030300956785e+01 6.116257965676791031e+00 4.150351576074486459e+00
3.354865863313047681e+06 5.467066028436093461e+01 6.116463396132265196e+00 4.147102873581306248e+00
3.354865992615548894e+06 5.467065636093205683e+01 6.116464760699484415e+00 4.147081790348224217e+00
3.354885601299665868e+06 5.467006340696251243e+01 6.116671544916044034e+00 4.143912942464838878e+00
3.354905122727365233e+06 5.466947705867242746e+01 6.116879378287357838e+00 4.140820153159296524e+00
3.354924565301706083e+06 5.466889689239137340e+01 6.117087779281598969e+00 4.137799046606684072e+00
3.354943942770994268e+06 5.466832234248381894e+01 6.117297053190847933e+00 4.134844786267815486e+00
3.354963266418341082e+06 5.466775293235384936e+01 6.117506612542552347e+00 4.131951219325657121e+00
3.354982540819654241e+06 5.466718840149943048e+01 6.117715943381789145e+00 4.129112030438768066e+00
3.355001772647416219e+06 5.466662844395195009e+01 6.117924290774770846e+00 4.126318337032054195e+00
3.355020971117546782e+06 5.466607269955817117e+01 6.118131880152071211e+00 4.123563371966712410e+00
3.355059189452487975e+06 5.466497578681563851e+01 6.118540180439746123e+00 4.118137533764979707e+00
3.355078351997559890e+06 5.466443043688676795e+01 6.118740389449500938e+00 4.115423245269415276e+00
3.355099706293237861e+06 5.466382629455116415e+01 6.118957078856931631e+00 4.112376935515554166e+00
3.355125361702070571e+06 5.466310513647607650e+01 6.119207398226493844e+00 4.108662218189698123e+00
3.355125543226189911e+06 5.466310004721646720e+01 6.119209140172579886e+00 4.108635757435662228e+00
3.355152181845225394e+06 5.466235684990252253e+01 6.119463045795703771e+00 4.104716439760201396e+00
3.355178130555511452e+06 5.466163901279851700e+01 6.119702123471324029e+00 4.100814952724393336e+00
3.355178301123567857e+06 5.466163430976028792e+01 6.119703663982665631e+00 4.100789051622221848e+00
3.355204018663899973e+06 5.466092883739137420e+01 6.119931959635654728e+00 4.096821946073749388e+00
3.355229462488540448e+06 5.466023686433406681e+01 6.120150340482700457e+00 4.092782186510206088e+00
3.355254694601938594e+06 5.465955669181072096e+01 6.120358345886930174e+00 4.088639492947996779e+00
3.355254860111008398e+06 5.465955224520178035e+01 6.120359688478536064e+00 4.088611962455113158e+00
3.355279916026993655e+06 5.465888301729815169e+01 6.120556482484253102e+00 4.084340505844558322e+00
3.355304834364900365e+06 5.465822377560850498e+01 6.120742101264404766e+00 4.079920284282902543e+00
3.355304998011150397e+06 5.465821946101080897e+01 6.120743296892683816e+00 4.079890843045959947e+00
3.355329812789432704e+06 5.465756950396977487e+01 6.120918568684185601e+00 4.075304043793122055e+00
3.355354560213413090e+06 5.465692802870049150e+01 6.121079585640313958e+00 4.070514219920961629e+00
3.355354722904359922e+06 5.465692382651920411e+01 6.121080608773031173e+00 4.070482226476833887e+00
3.355379434585529380e+06 5.465629032551310473e+01 6.121222320892435675e+00 4.065439223115559386e+00
3.355379597108100075e+06 5.465628617411384482e+01 6.121223210005214632e+00 4.065405482100035606e+00
3.355404215948674362e+06 5.465566244308544697e+01 6.121336834931159210e+00 4.060052589541855994e+00
3.355404377665624022e+06 5.465565836103532149e+01 6.121337519089495416e+00 4.060016712733965250e+00
3.355428556714331266e+06 5.465505347350792675e+01 6.121412498946726899e+00 4.054350467697033444e+00
3.355428714674947783e+06 5.465504953710352254e+01 6.121412911962915260e+00 4.054312600513090281e+00
3.355451922532948200e+06 5.465447679213728094e+01 6.121423434372824879e+00 4.048311093816948869e+00
3.355452073134337552e+06 5.465447309048978752e+01 6.121423367975704188e+00 4.048270972552851177e+00
3.355473840539711528e+06 5.465394376820446354e+01 6.121377528682875990e+00 4.042022830705395364e+00
3.355473981014921796e+06 5.465394036681041712e+01 6.121377140241335724e+00 4.041981360705219295e+00
3.355494012858117931e+06 5.465343983870997846e+01 6.121322947376187429e+00 4.035746094201184242e+00
3.355494141648472287e+06 5.465343658319022069e+01 6.121322601857204226e+00 4.035705227506518611e+00
3.355512481852348894e+06 5.465285592672421444e+01 6.121299501567271761e+00 4.029723486470027538e+00
3.355512599895486608e+06 5.465285192496565969e+01 6.121299411862163531e+00 4.029684619745385277e+00
3.355529597651090007e+06 5.465216306965579918e+01 6.121342263843033926e+00 4.024118072155034476e+00
3.355529707619002555e+06 5.465215837911082986e+01 6.121342656934142035e+00 4.024082121623171915e+00
3.355545873283119872e+06 5.465136114485292751e+01 6.121444326902473421e+00 4.018913565839298485e+00
3.355545978633733466e+06 5.465135574614473768e+01 6.121445072263496989e+00 4.018880102072639460e+00
3.355561833941131365e+06 5.465043706417213798e+01 6.121572098366591774e+00 4.013977843598611095e+00
3.355580187469483819e+06 5.464921314331256497e+01 6.121712483264087012e+00 4.008451905003440174e+00
3.355580312323417980e+06 5.464920463804475048e+01 6.121713422769252233e+00 4.008414464811136391e+00
3.355602386499015614e+06 5.464750803854288108e+01 6.121894909288882580e+00 4.002014697235695806e+00
3.355602536323736422e+06 5.464749627683318067e+01 6.121896160743520277e+00 4.001971540443832964e+00
3.355622802529498935e+06 5.464569844146774358e+01 6.122124358613382888e+00 3.996518674054944320e+00
3.355622932456189301e+06 5.464568659995255473e+01 6.122125911470917892e+00 3.996484302707321135e+00
3.355642030475988053e+06 5.464389248927460585e+01 6.122368589822385410e+00 3.991735458224566546e+00
3.355642155318012927e+06 5.464388069306903617e+01 6.122370194586219228e+00 3.991704802504724370e+00
3.355664377198498230e+06 5.464174594966200971e+01 6.122652241685493379e+00 3.986573852756423619e+00
3.355664527008928824e+06 5.464173152483982676e+01 6.122654139703145759e+00 3.986539571803256354e+00
3.355691253189682495e+06 5.463910931064982890e+01 6.123035535580433120e+00 3.981047633737249569e+00
3.355716784748245496e+06 5.463654821644135495e+01 6.123466427010178847e+00 3.976585676661509527e+00
3.355716951033062767e+06 5.463653148576247531e+01 6.123469295111897637e+00 3.976557329756009285e+00
3.355746716015430633e+06 5.463348668579854461e+01 6.123928690207454117e+00 3.972016424528505230e+00
3.355782473902627826e+06 5.462975719785355011e+01 6.124473566861313500e+00 3.967349729976623607e+00
3.355782713352764957e+06 5.462973218070661119e+01 6.124477215453383749e+00 3.967318953307824358e+00
3.355825718597456813e+06 5.462515465537909876e+01 6.125129858840300479e+00 3.962574009847375400e+00
3.355826005937621929e+06 5.462512402287714508e+01 6.125134217993183583e+00 3.962542748469859433e+00
3.355877727167318109e+06 5.461950149397981136e+01 6.125925638580772770e+00 3.957803949455103165e+00
3.355939861604591832e+06 5.461260019510293517e+01 6.126897759471129135e+00 3.953086542885727361e+00
3.355940275374429766e+06 5.461255417800489909e+01 6.126904242080367879e+00 3.953055517727045665e+00
3.356000343609584961e+06 5.460573392302179485e+01 6.127933545504663293e+00 3.949368224069017774e+00
3.356071581725923344e+06 5.459749335377856028e+01 6.129171055497624643e+00 3.945583300434221563e+00
3.356157162029400468e+06 5.458739737823142946e+01 6.130728072502568793e+00 3.941792229873317677e+00
3.356157729412628338e+06 5.458733039330915915e+01 6.130738413887378613e+00 3.941767289532175145e+00
3.356239801237598062e+06 5.457744353478386046e+01 6.132395415672028172e+00 3.938917515405502279e+00
3.356322421658718493e+06 5.456731203306308231e+01 6.134170974294483436e+00 3.936490194430201317e+00
3.356539218765839934e+06 5.454000792387214602e+01 6.139203707096910101e+00 3.931899342265845920e+00
3.356652324364400934e+06 5.452535689370935046e+01 6.142370818245456832e+00 3.930787576172024789e+00
3.356766110932283103e+06 5.451036190812861548e+01 6.148127610173978574e+00 3.928902649639065547e+00
3.356770440671644639e+06 5.450977352710780366e+01 6.148240858591643487e+00 3.929007497863035159e+00
3.356774770411006175e+06 5.450918514608699184e+01 6.148354107009309288e+00 3.929112346087005214e+00
3.356894271217384841e+06 5.449294270673709661e+01 6.151319625658743462e+00 3.932226073760959117e+00
3.356899466904618777e+06 5.449223560845362613e+01 6.151402144533898664e+00 3.932425197193851751e+00
3.356904662591853179e+06 5.449152851017015564e+01 6.151484663409053866e+00 3.932624320626743497e+00
3.356909858279086649e+06 5.449082141188667805e+01 6.151567182284209068e+00 3.932823444059636575e+00
3.356915053966321051e+06 5.449011431360320756e+01 6.151649701159365158e+00 3.933022567492528765e+00
3.357063650621209294e+06 5.446996717669881605e+01 6.154923207832268872e+00 3.936733340531781700e+00
3.357228539135315455e+06 5.444760933873426012e+01 6.159966115125849129e+00 3.936496376072286196e+00
3.357386557424088009e+06 5.442571713125786914e+01 6.163368203060827888e+00 3.936272360129633441e+00
3.357693925000149757e+06 5.438225418140790168e+01 6.168451351540147343e+00 3.935872131549994712e+00
3.357996883471721783e+06 5.433852799097776654e+01 6.171959208224844673e+00 3.935696131578930945e+00
3.358443831763240509e+06 5.427295682810191124e+01 6.176017773062728367e+00 3.935899847596019629e+00
3.358904428239034954e+06 5.420448151134755221e+01 6.178397995374334428e+00 3.936147267348048651e+00
3.359508761651878245e+06 5.411377787006590268e+01 6.181118254142738522e+00 3.936343820250500336e+00
3.359905842460241169e+06 5.405377574756833070e+01 6.182216621031479953e+00 3.937232516931593373e+00
3.360293279996607453e+06 5.399518946690595556e+01 6.183326190330475924e+00 3.938239114598698798e+00
3.360671767322177999e+06 5.393792185912585069e+01 6.184262032250901875e+00 3.939190847495599002e+00
3.361042373380163219e+06 5.388184212626697445e+01 6.185065574496515950e+00 3.940053937199573753e+00
3.361407166542435065e+06 5.382665540121173819e+01 6.185698716749334025e+00 3.940890400674275540e+00
3.361798161183677614e+06 5.376756619214139477e+01 6.186115662324435327e+00 3.941785337358445496e+00
3.362586028514075093e+06 5.364868714554631879e+01 6.187185081907470519e+00 3.943138803225719524e+00
3.363354267345875967e+06 5.353280927616771123e+01 6.188259991381661607e+00 3.944064108250984191e+00
3.364467655914192088e+06 5.336471737929927883e+01 6.189474343383340127e+00 3.945207313185300269e+00
3.365213801132749300e+06 5.325204018500702574e+01 6.190067185668019611e+00 3.945999236789046183e+00
3.366114771484157536e+06 5.311607037593014269e+01 6.190583291045559378e+00 3.946995964979043592e+00
3.376558394349762239e+06 5.156939701109669727e+01 6.192159247288593349e+00 3.961507303962507276e+00
3.381545812503714580e+06 5.086084342615191645e+01 6.192653390521155821e+00 3.975722738387077460e+00
3.383313382192998659e+06 5.062382203199120312e+01 6.193134261422259534e+00 3.993090699332469740e+00
3.383986456550432835e+06 5.054036479377266033e+01 6.193911120775989154e+00 4.011617068590873636e+00
3.384242685602308251e+06 5.051775896676057442e+01 6.195127356247503769e+00 4.028184197554200097e+00
3.384491144904565997e+06 5.050512889538769912e+01 6.194916693509926908e+00 4.048894627492121145e+00
3.385142472563639283e+06 5.047916356766830148e+01 6.192127606092507008e+00 4.066665634940810570e+00
3.390235728429172654e+06 5.026683180374141813e+01 6.192814527533939462e+00 4.084424944942175451e+00
3.415571629665513057e+06 4.913969878869548324e+01 6.195467455757354358e+00 4.102204540462111026e+00
3.449457790957615245e+06 4.750171656796177189e+01 6.199454545489178514e+00 4.117098048282224809e+00
3.475532123430936597e+06 4.612930057296892983e+01 6.202507853000009064e+00 4.132973285291785537e+00
3.492249883446830790e+06 4.515665219692243681e+01 6.204058694929479145e+00 4.154583702317426130e+00
3.496514514705826528e+06 4.489265227852470730e+01 6.204387757413245552e+00 4.163997043052269476e+00
3.502500984944248106e+06 4.450311952270240567e+01 6.204684680373675931e+00 4.184880612034194591e+00
3.506028780647635926e+06 4.425782199905432179e+01 6.204875184080108852e+00 4.207435358181548679e+00
3.506882705803444609e+06 4.419570998596113753e+01 6.204920278823351509e+00 4.216377892968591112e+00
3.508545346366405953e+06 4.406936663020132983e+01 6.204889410852899800e+00 4.241210650767701651e+00
3.509229596060873009e+06 4.401449291875341174e+01 6.204778672263152828e+00 4.254916057885748337e+00
3.510325139151784126e+06 4.394512471125666764e+01 6.204635408652786843e+00 4.275752203253362360e+00
3.511617434662589803e+06 4.388184511823918399e+01 6.204895671233982668e+00 4.293097664822736803e+00
3.512825833675267175e+06 4.382172515781454081e+01 6.204842100126108484e+00 4.310268928447950287e+00
3.513913119305897970e+06 4.376677422517225580e+01 6.204764229467426340e+00 4.325673950912408472e+00
3.515308584919588640e+06 4.369516703301307103e+01 6.204816594786166206e+00 4.341766776452134380e+00
3.517645590883605648e+06 4.357303793993004604e+01 6.204854510274198098e+00 4.362338334189335143e+00
3.520054181947224773e+06 4.344501160545445373e+01 6.204904719018148995e+00 4.378557648464767027e+00
3.522951917837671004e+06 4.328862006579729638e+01 6.204985114460980000e+00 4.394839152862042297e+00
3.526264222371859942e+06 4.310729375089162829e+01 6.205048822605534475e+00 4.410434460597942419e+00
3.531786969334474299e+06 4.280064268382602677e+01 6.205309685153695298e+00 4.432585411552711463e+00
3.534975395236114971e+06 4.262251761307634723e+01 6.205439840195792200e+00 4.444559193107860295e+00
3.540435717354942113e+06 4.231727236276239523e+01 6.205563336050714085e+00 4.465687673733602203e+00
3.544174373824128881e+06 4.210820089393831722e+01 6.205596336675494484e+00 4.483123860636832880e+00
3.546299965362300631e+06 4.198905292234533704e+01 6.205481528137823943e+00 4.495996584292566212e+00
3.549398185573374853e+06 4.181159760007632542e+01 6.204878175566978626e+00 4.520215781857353399e+00
3.550423797801011242e+06 4.174692671135405675e+01 6.204622984712020894e+00 4.532140766792673858e+00
3.553801935649498831e+06 4.150859770972946450e+01 6.203835205998704083e+00 4.550561238531350305e+00
3.557537663188899402e+06 4.123696512163930095e+01 6.202774411757023820e+00 4.572585052185822008e+00
3.559238145530868322e+06 4.111216266830450650e+01 6.202264988881916352e+00 4.588415286483364497e+00
3.560438788770948071e+06 4.102353917071013001e+01 6.201874470984786392e+00 4.601382002930275661e+00
3.561878394334347453e+06 4.091668131281555532e+01 6.201359685720909454e+00 4.618161425507150142e+00
3.563600684734138660e+06 4.078804508044751742e+01 6.200678657571358166e+00 4.638599960126123634e+00
3.565178590215048287e+06 4.066953284476054620e+01 6.199981061574289853e+00 4.656893907042980452e+00
3.566592328313990496e+06 4.056284482212727482e+01 6.199337414654810807e+00 4.672531903482408211e+00
3.568305644711317029e+06 4.043302381279283964e+01 6.198482858337401424e+00 4.690424436830813448e+00
3.569934176021892112e+06 4.030922596882800235e+01 6.197628471787769655e+00 4.706374661640300161e+00
3.571875899163017981e+06 4.016138614065897627e+01 6.196544201780028516e+00 4.724769648184667048e+00
3.573497480239461176e+06 4.003786222198507971e+01 6.195585507464152819e+00 4.741250466073069880e+00
3.574960665774771012e+06 3.992624848548337013e+01 6.194647294546403060e+00 4.757252410309246393e+00
3.576847088556555565e+06 3.978165264309388505e+01 6.193293098948688069e+00 4.777909599916194239e+00
3.578608350015076809e+06 3.964561695476155023e+01 6.191881431962298343e+00 4.794910201089440882e+00
3.580681008235608693e+06 3.948457865555297985e+01 6.190082577573310374e+00 4.811176620366796719e+00
3.583332002815261483e+06 3.927860437115040781e+01 6.187636925550146216e+00 4.828722939522609892e+00
3.585786552485471591e+06 3.908892459147352128e+01 6.185257702771800759e+00 4.844202258279310058e+00
3.588769139231978450e+06 3.886010255424000093e+01 6.182219761699938587e+00 4.862852371102245996e+00
3.591345875236315653e+06 3.866399703143934374e+01 6.179513027581072571e+00 4.878789571813796577e+00
3.595018981971905567e+06 3.838679297845852290e+01 6.175609892677943691e+00 4.900963045783563565e+00
3.597879567768204957e+06 3.817259804516092458e+01 6.172655958788582531e+00 4.917522689057623353e+00
3.600971610681093764e+06 3.794244685526274452e+01 6.169724391847807965e+00 4.934551374214300345e+00
3.604086797848652117e+06 3.771145334329033005e+01 6.167166160829559374e+00 4.950698801144310046e+00
3.607790316857424099e+06 3.743731672706569213e+01 6.164883221849800421e+00 4.968243200520664260e+00
3.611149983228018507e+06 3.718842869170212850e+01 6.163475575828801567e+00 4.984187455417361079e+00
3.614260147643926553e+06 3.695707003232764265e+01 6.162628655958490853e+00 5.000957980925509361e+00
3.616934670143802650e+06 3.675641381438730804e+01 6.162088090889469072e+00 5.018992722998837586e+00
3.619074999373483937e+06 3.659359129010985612e+01 6.161663970998374040e+00 5.037290810591181334e+00
3.620778567026137840e+06 3.646148985520119368e+01 6.161239095560921086e+00 5.055041553147549216e+00
3.622193137741497718e+06 3.634915077898374847e+01 6.160754346374947232e+00 5.072021198439547796e+00
3.623432614839536604e+06 3.624790080438086903e+01 6.160169004969963780e+00 5.088251620837997535e+00
3.624954180058572441e+06 3.611875057720492777e+01 6.159129912855478395e+00 5.108640430686029354e+00
3.626399784844097681e+06 3.599010801465874465e+01 6.157751567036751972e+00 5.126138795727737119e+00
3.628013521041669417e+06 3.583903859193267039e+01 6.155684487712737685e+00 5.140352364701548993e+00
3.640502350830296986e+06 3.461610204901784726e+01 6.139433130767936397e+00 5.157223184121690451e+00
3.655401162846557330e+06 3.321888784494903746e+01 6.121579131075130853e+00 5.172251038148998781e+00
3.664222543081629556e+06 3.240637789335884378e+01 6.109018391686801053e+00 5.176344585091550599e+00
3.677145551974643487e+06 3.179118216961367338e+01 6.108552120980535349e+00 5.184775158281464513e+00
3.688277240425957832e+06 3.159216168047930040e+01 6.113469575871051553e+00 5.200885090255181531e+00
3.691544223482941743e+06 3.153482543000320959e+01 6.121312806777102544e+00 5.220180131109026789e+00
3.692041970419625286e+06 3.152599582334657669e+01 6.126044016989061980e+00 5.231116048617199255e+00
3.692043692147300579e+06 3.152596499035473343e+01 6.126068749874671759e+00 5.231172450331025736e+00
3.692045413874975406e+06 3.152593415736288662e+01 6.126093482760282427e+00 5.231228852044850441e+00
3.692219997061232571e+06 3.152280720194966790e+01 6.128605824878813557e+00 5.236955326853868442e+00
3.692221374443372712e+06 3.152278237220948398e+01 6.128627087026529807e+00 5.237002895233958455e+00
3.692360490039521828e+06 3.152027399884243408e+01 6.130776522799320283e+00 5.241808149532158012e+00
3.692361591945233755e+06 3.152025402112864327e+01 6.130793924288182595e+00 5.241846373818037641e+00
3.692475528995862231e+06 3.151818753651901162e+01 6.132594166318246387e+00 5.245792505982671550e+00
3.692612517913987394e+06 3.151569091576643800e+01 6.134771418505990503e+00 5.250442585991557110e+00
3.692614104658212513e+06 3.151566184833602691e+01 6.134796656185003805e+00 5.250495389732505735e+00
3.692615691402437631e+06 3.151563278090561937e+01 6.134821893864015330e+00 5.250548193473455250e+00
3.692776011157390196e+06 3.151269390559382799e+01 6.137371169233455603e+00 5.255876978154749857e+00
3.692777458978339564e+06 3.151266720203523519e+01 6.137394137104303482e+00 5.255924582177923021e+00
3.692924415201638825e+06 3.150995467584823473e+01 6.139724403906259731e+00 5.260734383471952214e+00
3.692925807521547657e+06 3.150992883665804811e+01 6.139746413621375964e+00 5.260778463720535036e+00
3.693067539283982478e+06 3.150729625682826907e+01 6.141986283022189852e+00 5.265260829922373986e+00
3.693068912612676620e+06 3.150727061880935764e+01 6.142007951301237334e+00 5.265303988894046938e+00
3.693213661457056645e+06 3.150456531825614803e+01 6.144290775282113870e+00 5.269833250063810759e+00
3.693215309451489709e+06 3.150453437302403614e+01 6.144316717650454507e+00 5.269883882333079583e+00
3.693388383956579957e+06 3.150127970337779715e+01 6.147039961972751598e+00 5.275172548683756624e+00
3.693390294007482007e+06 3.150124358677880210e+01 6.147069963433275497e+00 5.275229716473301522e+00
3.693579326746230479e+06 3.149766398183769667e+01 6.150038070199602913e+00 5.280866901600564489e+00
3.693580960966025479e+06 3.149763283134138803e+01 6.150063688697883890e+00 5.280914834656474710e+00
3.693744972767966799e+06 3.149450196038223027e+01 6.152635934995517530e+00 5.285716719477449033e+00
3.693746490526147187e+06 3.149447283074090365e+01 6.152659777818710651e+00 5.285760857451537120e+00
3.693900004064011388e+06 3.149152201571629561e+01 6.155073467922266062e+00 5.290200043252797357e+00
3.693901469910329673e+06 3.149149370241059742e+01 6.155096579630975562e+00 5.290241665724654041e+00
3.694050337188703008e+06 3.148861362016555177e+01 6.157448374905925448e+00 5.294475993986493378e+00
3.694051778996276204e+06 3.148858559852415340e+01 6.157471279243768691e+00 5.294517202981772641e+00
3.694198471685050055e+06 3.148572966605032519e+01 6.159806840814139761e+00 5.298645194472565656e+00
3.694199900675944053e+06 3.148570172285543833e+01 6.159829721673030889e+00 5.298683806018614106e+00
3.694345343760219403e+06 3.148285237720190111e+01 6.162170111577923493e+00 5.302643457619362621e+00
3.694489661568989512e+06 3.148000750171617668e+01 6.164534713663853083e+00 5.306647876306668010e+00
3.694491067739268299e+06 3.147997966439472250e+01 6.164558093946121531e+00 5.306687050450939580e+00
3.694633839279661421e+06 3.147714740930042154e+01 6.166956927341646910e+00 5.310691941951420247e+00
3.694635226102056447e+06 3.147711978232290519e+01 6.166980720700506069e+00 5.310731384589363557e+00
3.694775592198893428e+06 3.147431729510728005e+01 6.169428110155174672e+00 5.314782989791304146e+00
3.694776948749413714e+06 3.147429009769895458e+01 6.169452472037672663e+00 5.314823222877352649e+00
3.694913549116922077e+06 3.147154481626940736e+01 6.171968574322509227e+00 5.318993909365871353e+00
3.694914859146769624e+06 3.147151837818264752e+01 6.171993757001587255e+00 5.319035903286435385e+00
3.695045695244773291e+06 3.146887106061182493e+01 6.174613943969336383e+00 5.323461641609845252e+00
3.695046935600959696e+06 3.146884585670703416e+01 6.174640415490959988e+00 5.323507194491057248e+00
3.695169174222749192e+06 3.146635489777930417e+01 6.177436821384397980e+00 5.328458368950636626e+00
3.695170312728715595e+06 3.146633159481168462e+01 6.177465586017635957e+00 5.328511178512229662e+00
3.695171451234682463e+06 3.146630829184406508e+01 6.177494350650874821e+00 5.328563988073822699e+00
3.695281062855904922e+06 3.146405740583722377e+01 6.180661682345334640e+00 5.334701813583277996e+00
3.695282056562152691e+06 3.146403690324049762e+01 6.180695632291998365e+00 5.334771317594359630e+00
3.695283050268399995e+06 3.146401640064377148e+01 6.180729582238662090e+00 5.334840821605441263e+00
3.695355789565714076e+06 3.146251180079640619e+01 6.183439843069976405e+00 5.340671054403250295e+00
3.695356187048212625e+06 3.146250352038757114e+01 6.183458113147299429e+00 5.340714325574070998e+00
3.695397269149390049e+06 3.146164545156672432e+01 6.185907964312807650e+00 5.346976777596887942e+00
3.695397677409614436e+06 3.146163690181549555e+01 6.185937960455701656e+00 5.347057024619689791e+00
3.695398085669838823e+06 3.146162835206427744e+01 6.185967956598597439e+00 5.347137271642493417e+00
3.695398493930063210e+06 3.146161980231304867e+01 6.185997952741491446e+00 5.347217518665295266e+00
3.695398902190288529e+06 3.146161125256182345e+01 6.186027948884386340e+00 5.347297765688098892e+00
3.695427072145785205e+06 3.146101966328619426e+01 6.188506943181964814e+00 5.354355260703101749e+00
3.695427235449874774e+06 3.146101621326859288e+01 6.188526382737991938e+00 5.354415004065705475e+00
3.695427398753964342e+06 3.146101276325099505e+01 6.188545822294019949e+00 5.354474747428310977e+00
3.695442161443686113e+06 3.146069996050223949e+01 6.190622528485286047e+00 5.342846761279931300e+00
3.695442292086957954e+06 3.146069718460613274e+01 6.190643586515045982e+00 5.342600956209190066e+00
3.695442422730229795e+06 3.146069440871002598e+01 6.190664644544805029e+00 5.342355151138448832e+00
3.695442553373501636e+06 3.146069163281391923e+01 6.190685702574564075e+00 5.342109346067707598e+00
3.695442684016773477e+06 3.146068885691780537e+01 6.190706760604323122e+00 5.341863540996966364e+00
3.695442814660045318e+06 3.146068608102169861e+01 6.190727818634082169e+00 5.341617735926224242e+00
3.695442945303317159e+06 3.146068330512559186e+01 6.190748876663841216e+00 5.341371930855483008e+00
3.695443075946589001e+06 3.146068052922948510e+01 6.190769934693601151e+00 5.341126125784741774e+00
3.695443206589860842e+06 3.146067775333337124e+01 6.190790992723359309e+00 5.340880320713999652e+00
3.695443337233133614e+06 3.146067497743726449e+01 6.190812050753120133e+00 5.340634515643259306e+00
3.695451332601371221e+06 3.146050461979830004e+01 6.194079558415579001e+00 5.342491901491299267e+00
3.695451384858679958e+06 3.146050350248695793e+01 6.194117080983971846e+00 5.342642118524435269e+00
3.695451437115988694e+06 3.146050238517561581e+01 6.194154603552362914e+00 5.342792335557571270e+00
3.695451489373297431e+06 3.146050126786427370e+01 6.194192126120754871e+00 5.342942552590707272e+00
3.695451541630606633e+06 3.146050015055293159e+01 6.194229648689146828e+00 5.343092769623843274e+00
3.695451593887915369e+06 3.146049903324158947e+01 6.194267171257538784e+00 5.343242986656979276e+00
3.695451646145224106e+06 3.146049791593024736e+01 6.194304693825930741e+00 5.343393203690116167e+00
3.695453840952191502e+06 3.146045079960706659e+01 6.196369800590284527e+00 5.352079625419400521e+00
3.695453851403653156e+06 3.146045057362150743e+01 6.196383827222521568e+00 5.352141366243861498e+00
3.695453861855114810e+06 3.146045034763594828e+01 6.196397853854758608e+00 5.352203107068323362e+00
3.695454901710319798e+06 3.146042779164759651e+01 6.198511650666205242e+00 5.361439513992467099e+00
3.695454911825961899e+06 3.146042757200227413e+01 6.198534434738483867e+00 5.361538932289096060e+00
3.695454921941604931e+06 3.146042735235695531e+01 6.198557218810762492e+00 5.361638350585725910e+00
3.695454932057247031e+06 3.146042713271163294e+01 6.198580002883041118e+00 5.361737768882353095e+00
3.695455466163176578e+06 3.146041548606884319e+01 6.200266432613844358e+00 5.369160330491545174e+00
3.695455470209433697e+06 3.146041539760864225e+01 6.200281441739273980e+00 5.369226601170527857e+00
3.695455474255690351e+06 3.146041530914844131e+01 6.200296450864703601e+00 5.369292871849512316e+00
3.695455478301947471e+06 3.146041522068824392e+01 6.200311459990133223e+00 5.369359142528494999e+00
3.695455821424544323e+06 3.146040776903966929e+01 6.202069700247285766e+00 5.377069091703222448e+00
3.695455824661550112e+06 3.146040769885030386e+01 6.202087352506009843e+00 5.377146412846373735e+00
3.695455827898555901e+06 3.146040762866094198e+01 6.202105004764734808e+00 5.377223733989525023e+00
3.695455985217028763e+06 3.146040432337469639e+01 6.203323821132002536e+00 5.382328948114280642e+00
3.695455986511831172e+06 3.146040429648902403e+01 6.203334937278113692e+00 5.382375015971176957e+00
3.695456102864590939e+06 3.146040193602823720e+01 6.204561876330680015e+00 5.388150129117055265e+00
3.695456103986678645e+06 3.146040191333902314e+01 6.204574015467442472e+00 5.388208023256836121e+00
3.695456105108765885e+06 3.146040189064981263e+01 6.204586154604204928e+00 5.388265917396616089e+00
3.695456198466421105e+06 3.146040005526765526e+01 6.206004313684655216e+00 5.396509065312439013e+00
3.695456199364090804e+06 3.146040003767331328e+01 6.206018367365361499e+00 5.396591831214542445e+00
3.695456200261760969e+06 3.146040002007896774e+01 6.206032421046067782e+00 5.396674597116644101e+00
3.695456201159430668e+06 3.146040000248462221e+01 6.206046474726773177e+00 5.396757363018745757e+00
3.695456275127418805e+06 3.146039860129824817e+01 6.207619457568626764e+00 5.405566066825779004e+00
3.695456275845554657e+06 3.146039858771856146e+01 6.207634934794331372e+00 5.405652573358418422e+00
3.695456276563690510e+06 3.146039857413887830e+01 6.207650412020035091e+00 5.405739079891056953e+00
3.695456277281826362e+06 3.146039856055919515e+01 6.207665889245739699e+00 5.405825586423696372e+00
