# #MIST v1.1 [Fe/H] = 0, v_init = 0, reprocessed track 
# #star_age 	 star_mass 	 logL 	 logT
3.225203311953682714e+02 1.349969157648572775e+02 6.377797894529020795e+00 4.513295730308934495e+00
3.228412469975527301e+02 1.349969119473632588e+02 6.377805017679460953e+00 4.513330899002423457e+00
3.231621627997371320e+02 1.349969081298692117e+02 6.377812140829902887e+00 4.513366067695912420e+00
3.234830786019216475e+02 1.349969043123751931e+02 6.377819263980343045e+00 4.513401236389401383e+00
3.238039944041060494e+02 1.349969004948811460e+02 6.377826387130784092e+00 4.513436405082891234e+00
3.241249102062905081e+02 1.349968966773871273e+02 6.377833510281225138e+00 4.513471573776380197e+00
3.244458260084749668e+02 1.349968928598930802e+02 6.377840633431665296e+00 4.513506742469869160e+00
3.247667418106593686e+02 1.349968890423990331e+02 6.377847756582107230e+00 4.513541911163358122e+00
3.250876576128438842e+02 1.349968852249050144e+02 6.377854879732547388e+00 4.513577079856847085e+00
3.254085734150283429e+02 1.349968814074109957e+02 6.377862002882988435e+00 4.513612248550336936e+00
3.257294892172127447e+02 1.349968775899169771e+02 6.377869126033429481e+00 4.513647417243825011e+00
3.899964255724826216e+02 1.349961111805030498e+02 6.379273381450429881e+00 4.520689317419160247e+00
3.902666090395772471e+02 1.349961077924981510e+02 6.379277357239776514e+00 4.520718833757244148e+00
3.905367925066718726e+02 1.349961044044932805e+02 6.379281333029122258e+00 4.520748350095326273e+00
3.908069759737664981e+02 1.349961010164883817e+02 6.379285308818468891e+00 4.520777866433409287e+00
3.910771594408610667e+02 1.349960976284834828e+02 6.379289284607814636e+00 4.520807382771492300e+00
3.913473429079556922e+02 1.349960942404786124e+02 6.379293260397161269e+00 4.520836899109575313e+00
3.916175263750502609e+02 1.349960908524737135e+02 6.379297236186507902e+00 4.520866415447658326e+00
4.457925905503965396e+02 1.349954092170990805e+02 6.380070942725157401e+00 4.526781812942855865e+00
4.460404408965042649e+02 1.349954059814060088e+02 6.380073285019543405e+00 4.526808723569963888e+00
4.462882912426118196e+02 1.349954027457129655e+02 6.380075627313929409e+00 4.526835634197070135e+00
4.465361415887194880e+02 1.349953995100198938e+02 6.380077969608316302e+00 4.526862544824178158e+00
4.467839919348271565e+02 1.349953962743268505e+02 6.380080311902702306e+00 4.526889455451286182e+00
4.470318422809348249e+02 1.349953930386337788e+02 6.380082654197088310e+00 4.526916366078392429e+00
4.968595234917870016e+02 1.349947399680946774e+02 6.380531473618364480e+00 4.532321833603783823e+00
4.970974534752739942e+02 1.349947367548790567e+02 6.380532802410886717e+00 4.532347474266295251e+00
4.973353834587611004e+02 1.349947335416634644e+02 6.380534131203407178e+00 4.532373114928806679e+00
4.975733134422481498e+02 1.349947303284478437e+02 6.380535459995929415e+00 4.532398755591318107e+00
4.978112434257352561e+02 1.349947271152322514e+02 6.380536788788450764e+00 4.532424396253830423e+00
4.980491734092222487e+02 1.349947239020166307e+02 6.380538117580972113e+00 4.532450036916340963e+00
5.459905819521359263e+02 1.349940735735640374e+02 6.380785161025607444e+00 4.537609821657636822e+00
5.462244969982406246e+02 1.349940703183850985e+02 6.380785777396638991e+00 4.537634808017280363e+00
5.464584120443453230e+02 1.349940670632061313e+02 6.380786393767669651e+00 4.537659794376923905e+00
5.466923270904499077e+02 1.349940638080271924e+02 6.380787010138700310e+00 4.537684780736568335e+00
5.469262421365546061e+02 1.349940605528482536e+02 6.380787626509731858e+00 4.537709767096211877e+00
5.941409044917248821e+02 1.349934003762272141e+02 6.380893178781485986e+00 4.542744815770831224e+00
5.943737859104589916e+02 1.349933970458918679e+02 6.380893253590331327e+00 4.542769453674091018e+00
5.946066673291932148e+02 1.349933937155565218e+02 6.380893328399176667e+00 4.542794091577351701e+00
5.948395487479272106e+02 1.349933903852211756e+02 6.380893403208022896e+00 4.542818729480611495e+00
6.436980703983488183e+02 1.349926877206691529e+02 6.380886047181000720e+00 4.547972909519692131e+00
6.439775281008297725e+02 1.349926836227232343e+02 6.380885545902311051e+00 4.548002094181428312e+00
6.442569858033107266e+02 1.349926795247772873e+02 6.380885044623621383e+00 4.548031278843164493e+00
6.445364435057916808e+02 1.349926754268313402e+02 6.380884543344931714e+00 4.548060463504899786e+00
6.448159012082726349e+02 1.349926713288853932e+02 6.380884042066242934e+00 4.548089648166635968e+00
7.037255848912595866e+02 1.349918014430106155e+02 6.380751427974962198e+00 4.554215584699031538e+00
7.040609341342367316e+02 1.349917963882284653e+02 6.380750214064544679e+00 4.554250011062169534e+00
7.043962833772138765e+02 1.349917913334462582e+02 6.380749000154126271e+00 4.554284437425308418e+00
7.047316326201910215e+02 1.349917862786641081e+02 6.380747786243708752e+00 4.554318863788447302e+00
7.050669818631681665e+02 1.349917812238819295e+02 6.380746572333290345e+00 4.554353290151586187e+00
7.054023311061454251e+02 1.349917761690997509e+02 6.380745358422873714e+00 4.554387716514725071e+00
7.705681411958514673e+02 1.349907874823238387e+02 6.380491286484974545e+00 4.561055566440272102e+00
7.708519956989950970e+02 1.349907830751261315e+02 6.380489895333885997e+00 4.561084267294841510e+00
7.711358502021386130e+02 1.349907786679283959e+02 6.380488504182798337e+00 4.561112968149410030e+00
7.714197047052821290e+02 1.349907742607306886e+02 6.380487113031710678e+00 4.561141669003979437e+00
7.717035592084257587e+02 1.349907698535329814e+02 6.380485721880621242e+00 4.561170369858548845e+00
8.279099395959226513e+02 1.349898920713165467e+02 6.380193922007782348e+00 4.566830469887263710e+00
8.281732081127479432e+02 1.349898878908774407e+02 6.380192334723002290e+00 4.566856671240119070e+00
8.284364766295732352e+02 1.349898837104383063e+02 6.380190747438222232e+00 4.566882872592973541e+00
8.811666771129805511e+02 1.349890419600563689e+02 6.379859376091802758e+00 4.572106268785368854e+00
8.814221863209213552e+02 1.349890378261400201e+02 6.379857603637697494e+00 4.572131275705734410e+00
8.816776955288621593e+02 1.349890336922236997e+02 6.379855831183591341e+00 4.572156282626100854e+00
8.819332047368027361e+02 1.349890295583073510e+02 6.379854058729485189e+00 4.572181289546466409e+00
9.334384298586824116e+02 1.349881920628919829e+02 6.379485461652780742e+00 4.577195902162007890e+00
9.336922030201369580e+02 1.349881878895511989e+02 6.379483518854364377e+00 4.577220315771109327e+00
9.339459761815912771e+02 1.349881837162104148e+02 6.379481576055946235e+00 4.577244729380211652e+00
9.341997493430458235e+02 1.349881795428696591e+02 6.379479633257529869e+00 4.577269142989313089e+00
9.888117336880466155e+02 1.349872766186399815e+02 6.379047962915652903e+00 4.582482090824540499e+00
9.891162614817919803e+02 1.349872715375811083e+02 6.379045425798119950e+00 4.582510768051774264e+00
9.894207892755372313e+02 1.349872664565222351e+02 6.379042888680587886e+00 4.582539445279007140e+00
1.055137887165785287e+03 1.349861635182016357e+02 6.378480177082559877e+00 4.588667729640179438e+00
1.055503320518279679e+03 1.349861573275133537e+02 6.378476912227975859e+00 4.588701268961036916e+00
1.055868753870774299e+03 1.349861511368250717e+02 6.378473647373391842e+00 4.588734808281894395e+00
1.056234187223268691e+03 1.349861449461367897e+02 6.378470382518809600e+00 4.588768347602751874e+00
1.056599620575763083e+03 1.349861387554485077e+02 6.378467117664225583e+00 4.588801886923608464e+00
1.126515612593471815e+03 1.349849482627762427e+02 6.377829881984878213e+00 4.595172466703107972e+00
1.126828322362369363e+03 1.349849428832550302e+02 6.377826918007951207e+00 4.595200541658645221e+00
1.127141032131267139e+03 1.349849375037337609e+02 6.377823954031023312e+00 4.595228616614183359e+00
1.188770946852543602e+03 1.349838730521784953e+02 6.377228735123389392e+00 4.600719270885022638e+00
1.189063689626687392e+03 1.349838679611213479e+02 6.377225816658563140e+00 4.600745001856823890e+00
1.189356432400831409e+03 1.349838628700642005e+02 6.377222898193736000e+00 4.600770732828624254e+00
1.189649175174975198e+03 1.349838577790070531e+02 6.377219979728909749e+00 4.600796463800424618e+00
1.248262549278931147e+03 1.349828350589637296e+02 6.376626673580783944e+00 4.605904921799476526e+00
1.248548864074394714e+03 1.349828300379498103e+02 6.376623708495547049e+00 4.605929551557639279e+00
1.248835178869858282e+03 1.349828250169358625e+02 6.376620743410311931e+00 4.605954181315802032e+00
1.311480856117285384e+03 1.349817230892694511e+02 6.375962567529370517e+00 4.611277126902727730e+00
1.311824433871841393e+03 1.349817170244120348e+02 6.375958897341000409e+00 4.611305896356581613e+00
1.312168011626397856e+03 1.349817109595546185e+02 6.375955227152630300e+00 4.611334665810436384e+00
1.387548970976044075e+03 1.349803765897128471e+02 6.375138714707670573e+00 4.617546828786068147e+00
1.387961264281511376e+03 1.349803692688939805e+02 6.375134180905573267e+00 4.617580204369772900e+00
1.388373557586979132e+03 1.349803619480751422e+02 6.375129647103476849e+00 4.617613579953479430e+00
1.388785850892446433e+03 1.349803546272563040e+02 6.375125113301380431e+00 4.617646955537184184e+00
1.466669503672908832e+03 1.349789691576902442e+02 6.374256736015908587e+00 4.623872628990088884e+00
1.467022460770420366e+03 1.349789628625399587e+02 6.374252723650494445e+00 4.623900332107249156e+00
1.467375417867931901e+03 1.349789565673897016e+02 6.374248711285079416e+00 4.623928035224409427e+00
1.536692818857486827e+03 1.349777193028106979e+02 6.373450009580988507e+00 4.629294154497529235e+00
1.537024712841085602e+03 1.349777133731473953e+02 6.373446122706103445e+00 4.629319411759443170e+00
1.537356606824684377e+03 1.349777074434840927e+02 6.373442235831217495e+00 4.629344669021355330e+00
1.603909210214013456e+03 1.349765184189816694e+02 6.372652919205891386e+00 4.634332522336061189e+00
1.604236052844028563e+03 1.349765125797048029e+02 6.372648989362980743e+00 4.634356603169193178e+00
1.604562895474043444e+03 1.349765067404279648e+02 6.372645059520070987e+00 4.634380684002326056e+00
1.677121959337369390e+03 1.349752114408871364e+02 6.371759265690982055e+00 4.639608875410193178e+00
1.677514170493387155e+03 1.349752044439541407e+02 6.371754416192460191e+00 4.639636594874476216e+00
1.677906381649405375e+03 1.349751974470211451e+02 6.371749566693937439e+00 4.639664314338760143e+00
1.765212584979007261e+03 1.349736429217825560e+02 6.370647518684685373e+00 4.645651843220447219e+00
1.765683238366228579e+03 1.349736345545119320e+02 6.370641480357932096e+00 4.645683331588578824e+00
1.766153891753450353e+03 1.349736261872413365e+02 6.370635442031179707e+00 4.645714819956712205e+00
1.766624545140671898e+03 1.349736178199707695e+02 6.370629403704425542e+00 4.645746308324843810e+00
1.855488644464810932e+03 1.349720429773323076e+02 6.369464265614658949e+00 4.651536412857163683e+00
1.855901280236194680e+03 1.349720356880619363e+02 6.369458737604862364e+00 4.651562569021272964e+00
1.856313916007578882e+03 1.349720283987915366e+02 6.369453209595064891e+00 4.651588725185383133e+00
1.937948441793879283e+03 1.349705919553539388e+02 6.368335360150212843e+00 4.656610749471525423e+00
1.938345460292233383e+03 1.349705849932579156e+02 6.368329821308906347e+00 4.656634528173233534e+00
1.938742478790587711e+03 1.349705780311618923e+02 6.368324282467602515e+00 4.656658306874943420e+00
2.027912833520959111e+03 1.349690222413149741e+02 6.367049884233820123e+00 4.661774359121189981e+00
2.028389255718984714e+03 1.349690139566839946e+02 6.367042968823576565e+00 4.661800905561846342e+00
2.028865677917009634e+03 1.349690056720529867e+02 6.367036053413331231e+00 4.661827452002501815e+00
2.136155956912270995e+03 1.349671531331194387e+02 6.365440304655043846e+00 4.667484712702600902e+00
2.136727663549901081e+03 1.349671433050102110e+02 6.365431675142308343e+00 4.667513801209529412e+00
2.137299370187531167e+03 1.349671334769010116e+02 6.365423045629572840e+00 4.667542889716457921e+00
2.137871076825161254e+03 1.349671236487918122e+02 6.365414416116838225e+00 4.667571978223386431e+00
2.246768914391217095e+03 1.349652677789529491e+02 6.363731056680148157e+00 4.672836306644571280e+00
2.247285730168553982e+03 1.349652590292456011e+02 6.363722925518544571e+00 4.672860298901680309e+00
2.247802545945890415e+03 1.349652502795382247e+02 6.363714794356940985e+00 4.672884291158788450e+00
2.364913001090345915e+03 1.349632867342314739e+02 6.361833618743650831e+00 4.677948930326690125e+00
2.365533180023149271e+03 1.349632763901792032e+02 6.361823547086359554e+00 4.677974696593813597e+00
2.366153358955953536e+03 1.349632660461269893e+02 6.361813475429070941e+00 4.678000462860937958e+00
2.507058012488981603e+03 1.349609448447238833e+02 6.359480307771828933e+00 4.683357389528642223e+00
2.507802227208346721e+03 1.349609326617601255e+02 6.359467865536089448e+00 4.683384363261707151e+00
2.508546441927710930e+03 1.349609204787963677e+02 6.359455423300349075e+00 4.683411336994772967e+00
2.509290656647075593e+03 1.349609082958326098e+02 6.359442981064608702e+00 4.683438310727838783e+00
2.652665757631793895e+03 1.349585945504721849e+02 6.356983760660751770e+00 4.688188044905475138e+00
2.653356462564028334e+03 1.349585834999186034e+02 6.356971734665132878e+00 4.688209642023913659e+00
2.654047167496262773e+03 1.349585724493649650e+02 6.356959708669512210e+00 4.688231239142351292e+00
2.811942315005038836e+03 1.349560838535975336e+02 6.354148386375212176e+00 4.692611400440314995e+00
2.812771160923720345e+03 1.349560708753451763e+02 6.354133487663960800e+00 4.692633129463816388e+00
2.813600006842401854e+03 1.349560578970927622e+02 6.354118588952708535e+00 4.692654858487318670e+00
2.814428852761083363e+03 1.349560449188403766e+02 6.354103690241456270e+00 4.692676587510820951e+00
3.004566106506559663e+03 1.349531213313011904e+02 6.350615589652397475e+00 4.696987495142169067e+00
3.005560721608977474e+03 1.349531061488111732e+02 6.350597197795771365e+00 4.697008652230517001e+00
3.006555336711394375e+03 1.349530909663211276e+02 6.350578805939146143e+00 4.697029809318865823e+00
3.007549951813812640e+03 1.349530757838311104e+02 6.350560414082521810e+00 4.697050966407214645e+00
3.236510348390318541e+03 1.349496558135084570e+02 6.346276628996733393e+00 4.701200670115659896e+00
3.237703886513219913e+03 1.349496381267110507e+02 6.346254204302892887e+00 4.701220947571824738e+00
3.238897424636120832e+03 1.349496204399136730e+02 6.346231779609050605e+00 4.701241225027988690e+00
3.240090962759021750e+03 1.349496027531162952e+02 6.346209354915208323e+00 4.701261502484153532e+00
3.515798269149150201e+03 1.349456203724515717e+02 6.341131850005877091e+00 4.705361966437195065e+00
3.517230514896631121e+03 1.349455998604983620e+02 6.341105647955115998e+00 4.705382274360998984e+00
3.518662760644112495e+03 1.349455793485451807e+02 6.341079445904354905e+00 4.705402582284803792e+00
3.520095006391593870e+03 1.349455588365919709e+02 6.341053243853593813e+00 4.705422890208608599e+00
3.521527252139075244e+03 1.349455383246387896e+02 6.341027041802832720e+00 4.705443198132413407e+00
3.853808265554710033e+03 1.349409201135217700e+02 6.335485650164120131e+00 4.709819401970667840e+00
3.855526960451687501e+03 1.349408964362580718e+02 6.335457790930792754e+00 4.709841536582671573e+00
3.857245655348665423e+03 1.349408727589944021e+02 6.335429931697465378e+00 4.709863671194673529e+00
3.858964350245642891e+03 1.349408490817307609e+02 6.335402072464138001e+00 4.709885805806676373e+00
3.860683045142619449e+03 1.349408254044670628e+02 6.335374213230810625e+00 4.709907940418679217e+00
4.261138956138359390e+03 1.349354920566264866e+02 6.330327227738104412e+00 4.715225275133566818e+00
4.263201390014732169e+03 1.349354648274881185e+02 6.330303114179869794e+00 4.715252868733249336e+00
4.265263823891104948e+03 1.349354375983497221e+02 6.330279000621635177e+00 4.715280462332930966e+00
4.267326257767477728e+03 1.349354103692113540e+02 6.330254887063401448e+00 4.715308055932614373e+00
4.269388691643850507e+03 1.349353831400729860e+02 6.330230773505167718e+00 4.715335649532296003e+00
4.271451125520223286e+03 1.349353559109346179e+02 6.330206659946933101e+00 4.715363243131978521e+00
4.754473139366758915e+03 1.349292035941467418e+02 6.327076351151164957e+00 4.723092044633596664e+00
4.756948060018406068e+03 1.349291723151274027e+02 6.327063048959188585e+00 4.723133022670333858e+00
4.759422980670054130e+03 1.349291410361080636e+02 6.327049746767212213e+00 4.723174000707070164e+00
4.761897901321701283e+03 1.349291097570887246e+02 6.327036444575236729e+00 4.723214978743807357e+00
4.764372821973348437e+03 1.349290784780693855e+02 6.327023142383259469e+00 4.723255956780544551e+00
4.766847742624996499e+03 1.349290471990500464e+02 6.327009840191283985e+00 4.723296934817281745e+00
4.769322663276643652e+03 1.349290159200306789e+02 6.326996537999307613e+00 4.723337912854018938e+00
5.195188726946983479e+03 1.349238231058999986e+02 6.325929089016649520e+00 4.730981830782408970e+00
5.197222767194092739e+03 1.349237985265698114e+02 6.325925427263937806e+00 4.731019037119786219e+00
5.199256807441201090e+03 1.349237739472396242e+02 6.325921765511226091e+00 4.731056243457162580e+00
5.201290847688310350e+03 1.349237493679094086e+02 6.325918103758515265e+00 4.731093449794540717e+00
5.203324887935419611e+03 1.349237247885792215e+02 6.325914442005804439e+00 4.731130656131917078e+00
5.557340673849853374e+03 1.349195699788715785e+02 6.325582110930242585e+00 4.737348760943605797e+00
5.559046041588282606e+03 1.349195500828650438e+02 6.325580803761185145e+00 4.737378466845499680e+00
5.560751409326711837e+03 1.349195301868585091e+02 6.325579496592127704e+00 4.737408172747394453e+00
5.562456777065141068e+03 1.349195102908519743e+02 6.325578189423070263e+00 4.737437878649289225e+00
5.877970969570105808e+03 1.349159185302200967e+02 6.325158229838789836e+00 4.742047140067045419e+00
5.879512664479960222e+03 1.349159010479575613e+02 6.325156041814169683e+00 4.742068985343149912e+00
5.881054359389816454e+03 1.349158835656950259e+02 6.325153853789548641e+00 4.742090830619253516e+00
6.247977747935167827e+03 1.349118097219112258e+02 6.324138934432185444e+00 4.745512533670627420e+00
6.249827781826993487e+03 1.349117892261667464e+02 6.324133563416543424e+00 4.745528873153832983e+00
6.251677815718819147e+03 1.349117687304222670e+02 6.324128192400900517e+00 4.745545212637039434e+00
6.253527849610643898e+03 1.349117482346777592e+02 6.324122821385257609e+00 4.745561552120244997e+00
6.695315942978527346e+03 1.349069515809257211e+02 6.322585407514582201e+00 4.747573960052347886e+00
6.697535983648717774e+03 1.349069275171738127e+02 6.322577577429858486e+00 4.747583298624273418e+00
6.699756024318908203e+03 1.349069034534219043e+02 6.322569747345135660e+00 4.747592637196199838e+00
6.701976064989097722e+03 1.349068793896699958e+02 6.322561917260411946e+00 4.747601975768126259e+00
7.233897809566710748e+03 1.349012080463106997e+02 6.321056400570689959e+00 4.748629087338452237e+00
7.236561858370940172e+03 1.349011796715722369e+02 6.321048975594607100e+00 4.748633855272299975e+00
7.239225907175166867e+03 1.349011512968337456e+02 6.321041550618523353e+00 4.748638623206147713e+00
7.241889955979395381e+03 1.349011229220952828e+02 6.321034125642440493e+00 4.748643391139995451e+00
7.882327288515915825e+03 1.348943824767751778e+02 6.319935454070417791e+00 4.749115650998617433e+00
7.885524147080988769e+03 1.348943488481401118e+02 6.319930118540150410e+00 4.749117862355491937e+00
7.888721005646062622e+03 1.348943152195050459e+02 6.319924783009883917e+00 4.749120073712368217e+00
7.891917864211137385e+03 1.348942815908699799e+02 6.319919447479617425e+00 4.749122285069244498e+00
8.663000150107018271e+03 1.348862306569274381e+02 6.319290126727543644e+00 4.749319376880370314e+00
8.666836380385107987e+03 1.348861906101818704e+02 6.319287079239938265e+00 4.749320314756236172e+00
8.670672610663197702e+03 1.348861505634362743e+02 6.319284031752333775e+00 4.749321252632103807e+00
8.674508840941285598e+03 1.348861105166907350e+02 6.319280984264729284e+00 4.749322190507970554e+00
8.678345071219375313e+03 1.348860704699451389e+02 6.319277936777124793e+00 4.749323128383836412e+00
8.682181301497463210e+03 1.348860304231995713e+02 6.319274889289520303e+00 4.749324066259703159e+00
8.688309107742992637e+03 1.348859667060238792e+02 6.319272846964430812e+00 4.749324031125431667e+00
8.694436913988523884e+03 1.348859029888481871e+02 6.319270804639340433e+00 4.749323995991161063e+00
9.629540147056426576e+03 1.348761800588954998e+02 6.318963658569942687e+00 4.749315662953040196e+00
9.636893514551062253e+03 1.348761037019710898e+02 6.318962712026264583e+00 4.749314630275778271e+00
9.644246882045697930e+03 1.348760273450466514e+02 6.318961765482585591e+00 4.749313597598515457e+00
1.077078278222396693e+04 1.348643293107128898e+02 6.318821283273010181e+00 4.749152801780121891e+00
1.077960682321753120e+04 1.348642376568181476e+02 6.318820902134263839e+00 4.749151130957105948e+00
1.078843086421109547e+04 1.348641460029234054e+02 6.318820520995517498e+00 4.749149460134090006e+00
1.079725490520465792e+04 1.348640543490286632e+02 6.318820139856772045e+00 4.749147789311074952e+00
1.215615721821342959e+04 1.348499383353646692e+02 6.318764819700024127e+00 4.748889491488399450e+00
1.216674606740570744e+04 1.348498282193035607e+02 6.318764699854543920e+00 4.748887387392953130e+00
1.217733491659798347e+04 1.348497181032424237e+02 6.318764580009064602e+00 4.748885283297507698e+00
1.381437100172387545e+04 1.348326911834683415e+02 6.318747793721763983e+00 4.748560942752548364e+00
1.382707762075460596e+04 1.348325588152160606e+02 6.318747783893639891e+00 4.748558491115774771e+00
1.383978423978533647e+04 1.348324264469638081e+02 6.318747774065514022e+00 4.748556039479002067e+00
1.385249085881606698e+04 1.348322940787115272e+02 6.318747764237388154e+00 4.748553587842229362e+00
1.582709945619172504e+04 1.348117183472504053e+02 6.318747100259447969e+00 4.748175507951791552e+00
1.584234739902860383e+04 1.348115591697560092e+02 6.318747139248799272e+00 4.748172736838490060e+00
1.585759534186548080e+04 1.348113999922616131e+02 6.318747178238149687e+00 4.748169965725189456e+00
1.587284328470235778e+04 1.348112408147672170e+02 6.318747217227500990e+00 4.748167194611888853e+00
1.825457195582264831e+04 1.347863675338512337e+02 6.318753842880211913e+00 4.747739402035373146e+00
1.827286948722690067e+04 1.347861760562727227e+02 6.318753915168199953e+00 4.747736317428987718e+00
1.829116701863115304e+04 1.347859845786942117e+02 6.318753987456187993e+00 4.747733232822604066e+00
1.830946455003540905e+04 1.347857931011157007e+02 6.318754059744176033e+00 4.747730148216218637e+00
2.118217698050315812e+04 1.347557153809185593e+02 6.318765905431009244e+00 4.747253468843670277e+00
2.120413401818825878e+04 1.347554849782094948e+02 6.318766012035503365e+00 4.747250071469203192e+00
2.122609105587336308e+04 1.347552545755004019e+02 6.318766118639995710e+00 4.747246674094736996e+00
2.124804809355847101e+04 1.347550241727913658e+02 6.318766225244489831e+00 4.747243276720269911e+00
2.471286864026785042e+04 1.347186421335519810e+02 6.318783674683364993e+00 4.746717844496163963e+00
2.473921708548997412e+04 1.347183648057580285e+02 6.318783824238061619e+00 4.746714135697381209e+00
2.476556553071210146e+04 1.347180874779640760e+02 6.318783973792758246e+00 4.746710426898598456e+00
2.479191397593422516e+04 1.347178101501701235e+02 6.318784123347454873e+00 4.746706718099816591e+00
2.481826242115634523e+04 1.347175328223761710e+02 6.318784272902151500e+00 4.746703009301033838e+00
2.900239552242972786e+04 1.346734548933633278e+02 6.318808906958416571e+00 4.746128819913797869e+00
2.903401365669627558e+04 1.346731209742654869e+02 6.318809112446713172e+00 4.746124803704065975e+00
2.906563179096283056e+04 1.346727870551676460e+02 6.318809317935008885e+00 4.746120787494333193e+00
2.909724992522937828e+04 1.346724531360698052e+02 6.318809523423304597e+00 4.746116771284600411e+00
3.414350415417067416e+04 1.346191028862870098e+02 6.318843473637285157e+00 4.745494808466678371e+00
3.418144591529053287e+04 1.346187006896388425e+02 6.318843750599080877e+00 4.745490489653299448e+00
3.421938767641039885e+04 1.346182984929907036e+02 6.318844027560876597e+00 4.745486170839921414e+00
3.425732943753025029e+04 1.346178962963425647e+02 6.318844304522674094e+00 4.745481852026541603e+00
3.429527119865011628e+04 1.346174940996943974e+02 6.318844581484469813e+00 4.745477533213163568e+00
4.038871803449952131e+04 1.345528163543755795e+02 6.318890695064691698e+00 4.744808324372552732e+00
4.043424814784335467e+04 1.345523317424995184e+02 6.318891065407584939e+00 4.744803709065987363e+00
4.047977826118718804e+04 1.345518471306234289e+02 6.318891435750479957e+00 4.744799093759422881e+00
4.052530837453102140e+04 1.345513625187473963e+02 6.318891806093374086e+00 4.744794478452857511e+00
4.787386866822538286e+04 1.344730234753794775e+02 6.318953598652750969e+00 4.744079324387619145e+00
4.792850480423797853e+04 1.344724393307756145e+02 6.318954086026272066e+00 4.744074419134940435e+00
4.798314094025057420e+04 1.344718551861717799e+02 6.318954573399793162e+00 4.744069513882260836e+00
4.803777707626317715e+04 1.344712710415679169e+02 6.318955060773316035e+00 4.744064608629582125e+00
4.809241321227577282e+04 1.344706868969640823e+02 6.318955548146836243e+00 4.744059703376903414e+00
5.696532170072161534e+04 1.343756425759789295e+02 6.319037435545010517e+00 4.743299143859590394e+00
5.703088506393672287e+04 1.343749381555827824e+02 6.319038073045895487e+00 4.743293950893255229e+00
5.709644842715183768e+04 1.343742337351866354e+02 6.319038710546781346e+00 4.743288757926919175e+00
5.716201179036695976e+04 1.343735293147904599e+02 6.319039348047666316e+00 4.743283564960584009e+00
5.722757515358207456e+04 1.343728248943943129e+02 6.319039985548551286e+00 4.743278371994248843e+00
6.794062870293218293e+04 1.342574626543334091e+02 6.319147671514600439e+00 4.742472399072401146e+00
6.801930473879032070e+04 1.342566127893785506e+02 6.319148498240599210e+00 4.742466914140471168e+00
6.809798077464847302e+04 1.342557629244237205e+02 6.319149324966598869e+00 4.742461429208541190e+00
6.817665681050661078e+04 1.342549130594688904e+02 6.319150151692598527e+00 4.742455944276612101e+00
6.825533284636474855e+04 1.342540631945140603e+02 6.319150978418597298e+00 4.742450459344683011e+00
8.118967314144302509e+04 1.341139699108582590e+02 6.319291550979219352e+00 4.741597828179097363e+00
8.128408438447280787e+04 1.341129440167014764e+02 6.319292618192456246e+00 4.741592038061486214e+00
8.137849562750256155e+04 1.341119181225446937e+02 6.319293685405693140e+00 4.741586247943874177e+00
8.147290687053234433e+04 1.341108922283879110e+02 6.319294752618930922e+00 4.741580457826263029e+00
8.156731811356209801e+04 1.341098663342311568e+02 6.319295819832167815e+00 4.741574667708650992e+00
9.718293771068580099e+04 1.339396414490477696e+02 6.319478141835054075e+00 4.740672244516712652e+00
9.729623120232153451e+04 1.339384022866319697e+02 6.319479509131737061e+00 4.740666121185444837e+00
9.740952469395725348e+04 1.339371631242161982e+02 6.319480876428420046e+00 4.740659997854177021e+00
9.752281818559297244e+04 1.339359239618004267e+02 6.319482243725102144e+00 4.740653874522909206e+00
9.763611167722870596e+04 1.339346847993846268e+02 6.319483611021784242e+00 4.740647751191641390e+00
1.164881486854128598e+05 1.337277044007850861e+02 6.319718814207166524e+00 4.739689594665028594e+00
1.166241008753757342e+05 1.337262065201554151e+02 6.319720561699538663e+00 4.739683090636900964e+00
1.167600530653386086e+05 1.337247086395257440e+02 6.319722309191909915e+00 4.739676586608773334e+00
1.168960052553014684e+05 1.337232107588960730e+02 6.319724056684282942e+00 4.739670082580645705e+00
1.170319574452643283e+05 1.337217128782663735e+02 6.319725804176654194e+00 4.739663578552518075e+00
1.397903540450481814e+05 1.334698290747800797e+02 6.320028900903480462e+00 4.738639651693098642e+00
1.399534966730036540e+05 1.334680168311922444e+02 6.320031135121649157e+00 4.738632689034010248e+00
1.401166393009590975e+05 1.334662045876044658e+02 6.320033369339816964e+00 4.738625726374921854e+00
1.402797819289145409e+05 1.334643923440166873e+02 6.320035603557984771e+00 4.738618763715832571e+00
1.404429245568699553e+05 1.334625801004288803e+02 6.320037837776152578e+00 4.738611801056743289e+00
1.679161431045660283e+05 1.331557310610027116e+02 6.320428088792031218e+00 4.737506386544975356e+00
1.681119142581126071e+05 1.331535360367554119e+02 6.320430940691350585e+00 4.737498849613566598e+00
1.683076854116591276e+05 1.331513410125081123e+02 6.320433792590668176e+00 4.737491312682157840e+00
1.685034565652056481e+05 1.331491459882607842e+02 6.320436644489987543e+00 4.737483775750748194e+00
1.686992277187521686e+05 1.331469509640134561e+02 6.320439496389305134e+00 4.737476238819338548e+00
2.018628611295340233e+05 1.327726507746265838e+02 6.320941251776709180e+00 4.736265986187053301e+00
2.020977865137898480e+05 1.327699884342436860e+02 6.320944888350636504e+00 4.736257706277965163e+00
2.023327118980456726e+05 1.327673260938607882e+02 6.320948524924563827e+00 4.736249426368877025e+00
2.025676372823014972e+05 1.327646637534779188e+02 6.320952161498491151e+00 4.736241146459787998e+00
2.028025626665573218e+05 1.327620014130950210e+02 6.320955798072418474e+00 4.736232866550699860e+00
2.428338481437513838e+05 1.323046602229008215e+02 6.321602254254427677e+00 4.734882941627027719e+00
2.431157586048584199e+05 1.323014254319527652e+02 6.321606909273409514e+00 4.734873668470741315e+00
2.433976690659653977e+05 1.322981906410047088e+02 6.321611564292391350e+00 4.734864395314454910e+00
2.436795795270723756e+05 1.322949558500566525e+02 6.321616219311374074e+00 4.734855122158167617e+00
2.439614899881793826e+05 1.322917210591085961e+02 6.321620874330355022e+00 4.734845849001881213e+00
2.922809430219192291e+05 1.317317122717575444e+02 6.322455244683170328e+00 4.733305524638433681e+00
2.926192355752476142e+05 1.317277731451059140e+02 6.322461206995631855e+00 4.733294902981034724e+00
2.929575281285759993e+05 1.317238340184542835e+02 6.322467169308093382e+00 4.733284281323634879e+00
2.932958206819043262e+05 1.317198948918026531e+02 6.322473131620554909e+00 4.733273659666235922e+00
2.936341132352327695e+05 1.317159557651510227e+02 6.322479093933017325e+00 4.733263038008836965e+00
3.519557494290490285e+05 1.310283163933234505e+02 6.323562364049949203e+00 4.731457317268144891e+00
3.523617004930430558e+05 1.310235057752916532e+02 6.323570061643026818e+00 4.731444820818431651e+00
3.527676515570371412e+05 1.310186951572597991e+02 6.323577759236103546e+00 4.731432324368718412e+00
3.531736026210312266e+05 1.310138845392279734e+02 6.323585456829180274e+00 4.731419827919005172e+00
3.535795536850253120e+05 1.310090739211961477e+02 6.323593154422257001e+00 4.731407331469291933e+00
4.239714681815988151e+05 1.301616114198997423e+02 6.325003810407765492e+00 4.729227011062142161e+00
4.244586094583916711e+05 1.301557143667234300e+02 6.325013756803063991e+00 4.729211889752141573e+00
4.249457507351845852e+05 1.301498173135471461e+02 6.325023703198363378e+00 4.729196768442140986e+00
4.254328920119774411e+05 1.301439202603708338e+02 6.325033649593662766e+00 4.729181647132140398e+00
4.259200332887704135e+05 1.301380232071945215e+02 6.325043595988963041e+00 4.729166525822139810e+00
5.108774719614515780e+05 1.290885280700305771e+02 6.326897290271946694e+00 4.726445847945955236e+00
5.114620414936030284e+05 1.290812636681545484e+02 6.326910288829723505e+00 4.726426956647061139e+00
5.120466110257544206e+05 1.290739992662785482e+02 6.326923287387500316e+00 4.726408065348166154e+00
5.126311805579059874e+05 1.290667348644025765e+02 6.326936285945277127e+00 4.726389174049272057e+00
5.132157500900573796e+05 1.290594704625265763e+02 6.326949284503053939e+00 4.726370282750377960e+00
6.157492460294262273e+05 1.277513174521092907e+02 6.329401611499417157e+00 4.722861838451347438e+00
6.164507294680079212e+05 1.277423097688207605e+02 6.329418683101760479e+00 4.722837502991195535e+00
6.171522129065897316e+05 1.277333020855322445e+02 6.329435754704102912e+00 4.722813167531044520e+00
6.178536963451715419e+05 1.277242944022437143e+02 6.329452826306446234e+00 4.722788832070892617e+00
6.185551797837533522e+05 1.277152867189551984e+02 6.329469897908790443e+00 4.722764496610741602e+00
7.422968583495776402e+05 1.260704601524163309e+02 6.332719064637949202e+00 4.718096699847704301e+00
7.431386384758757195e+05 1.260591929715320418e+02 6.332741499217120484e+00 4.718064423348044656e+00
7.439804186021739151e+05 1.260479257906477528e+02 6.332763933796291766e+00 4.718032146848385011e+00
7.448221987284719944e+05 1.260366586097634496e+02 6.332786368375462160e+00 4.717999870348724478e+00
7.456639788547701901e+05 1.260253914288791748e+02 6.332808802954634331e+00 4.717967593849065722e+00
7.465057589810682693e+05 1.260141242479948858e+02 6.332831237533804725e+00 4.717935317349405189e+00
8.896562868512892164e+05 1.240084338201129128e+02 6.336983398998552452e+00 4.711805624616797417e+00
8.906168165765942540e+05 1.239948769600609069e+02 6.337011631276400436e+00 4.711763788236010164e+00
8.915773463018996408e+05 1.239813201000088725e+02 6.337039863554249308e+00 4.711721951855222912e+00
8.925378760272049112e+05 1.239677632399568665e+02 6.337068095832099068e+00 4.711680115474435659e+00
8.934984057525100652e+05 1.239542063799048321e+02 6.337096328109947940e+00 4.711638279093648407e+00
1.020578662661423907e+06 1.220572697912383546e+02 6.340996832623948976e+00 4.705501076395699478e+00
1.021396934782688040e+06 1.220449438044137196e+02 6.341022126543009563e+00 4.705460908640338502e+00
1.022215206903951941e+06 1.220326178175890561e+02 6.341047420462068374e+00 4.705420740884977526e+00
1.134270108063550666e+06 1.202545011701018183e+02 6.344697165307824349e+00 4.699471919516061469e+00
1.134997773851928301e+06 1.202428768990849619e+02 6.344721025911800538e+00 4.699432903800744299e+00
1.135725439640305936e+06 1.202312526280681055e+02 6.344744886515776727e+00 4.699393888085426241e+00
1.236951063551092055e+06 1.185322450602819089e+02 6.348245441065713202e+00 4.693850297143605133e+00
1.237611250375997974e+06 1.185211091462922326e+02 6.348268393344118188e+00 4.693814064146176079e+00
1.238271437200903427e+06 1.185099732323025279e+02 6.348291345622523174e+00 4.693777831148745250e+00
1.331046105894932291e+06 1.168683088743178473e+02 6.351686482641828668e+00 4.689285125036703583e+00
1.331652956602291204e+06 1.168575320770073631e+02 6.351708775699823839e+00 4.689256037880804584e+00
1.417526567470822716e+06 1.152637613139707184e+02 6.355015573790594452e+00 4.686095829280592540e+00
1.418089198062556563e+06 1.152532921724113351e+02 6.355037299163003084e+00 4.686075499340641493e+00
1.498109357914295513e+06 1.137094177257256291e+02 6.358275689321516211e+00 4.683659349828502627e+00
1.498634319395811530e+06 1.136992734819083068e+02 6.358296977252502202e+00 4.683643636336224603e+00
1.573715377393485513e+06 1.122012022063185555e+02 6.361442292477986094e+00 4.681558534232586055e+00
1.644690798638004810e+06 1.107376855394448256e+02 6.364508029020474744e+00 4.679702358302179732e+00
1.712118839391542366e+06 1.093004267060614865e+02 6.367517452519528831e+00 4.678055299845760295e+00
1.712562140775326407e+06 1.092909733002249197e+02 6.367537246554828556e+00 4.678044481888660400e+00
1.713193618984460598e+06 1.092770546858553331e+02 6.367566300445871796e+00 4.678030408542129592e+00
1.777546215684380382e+06 1.078577510945233513e+02 6.370529057508744764e+00 4.676599093483679859e+00
1.838907615718541201e+06 1.064587693432558666e+02 6.373453750109998595e+00 4.675381609678368022e+00
1.897453930218140827e+06 1.050792743189186638e+02 6.376341473283898331e+00 4.674352168367825300e+00
1.953338309320127359e+06 1.037187848593091246e+02 6.379189541362829452e+00 4.673471599303334223e+00
2.006700455646225484e+06 1.023769563953077864e+02 6.382003673327935722e+00 4.672634995644946443e+00
2.057670574717937503e+06 1.010533112708442047e+02 6.384787139265854172e+00 4.671788554702046348e+00
2.152469326344821602e+06 9.847068470027434728e+01 6.390253878779908803e+00 4.669239390512755605e+00
2.196963448886071332e+06 9.719774381475123448e+01 6.392955857309637224e+00 4.668080589464050689e+00
2.239481541145380586e+06 9.594170607364041814e+01 6.395611962378079163e+00 4.667159344038766200e+00
2.318589273258342873e+06 9.349354675433815487e+01 6.400748571579994106e+00 4.666246032362230345e+00
2.390976470487126149e+06 9.111419555502992296e+01 6.405706013283381850e+00 4.666566760475125086e+00
2.457358185363373253e+06 8.880204022117912643e+01 6.410516333545029255e+00 4.668277557954770174e+00
2.486541283404619433e+06 8.763098388990903231e+01 6.412441182359723157e+00 4.670689780689350812e+00
2.486686762984127738e+06 8.761753496553455989e+01 6.412432260642325410e+00 4.670776050677321045e+00
2.501540451752591413e+06 8.623329725660003930e+01 6.411562376028352439e+00 4.679713153923960256e+00
2.501686854560763575e+06 8.621907036830435800e+01 6.411555962470991687e+00 4.679808021691535203e+00
2.516092890884940978e+06 8.480808771054245199e+01 6.410887106783478728e+00 4.689301051940611309e+00
2.527594295494974591e+06 8.362212742381933595e+01 6.410148532925639131e+00 4.697725700344758337e+00
2.527687993292205036e+06 8.361211107947957544e+01 6.410141238687939058e+00 4.697799209807153709e+00
2.536925856160763651e+06 8.261836499000381195e+01 6.409398093974195021e+00 4.705130795276378564e+00
2.544729441239629406e+06 8.174971308236928280e+01 6.408655846511415177e+00 4.711718756344517089e+00
2.551657371511630248e+06 8.095578392102603971e+01 6.407899324269906494e+00 4.717874303753320397e+00
2.551720619498730171e+06 8.094838602446567677e+01 6.407891726569690860e+00 4.717932565720857063e+00
2.558065089502236806e+06 8.020212474110277867e+01 6.407108983198569696e+00 4.723833319189603586e+00
2.563996109799967147e+06 7.948769571014753410e+01 6.406292419326098830e+00 4.729576784039902115e+00
2.569610035262221936e+06 7.879624096322037019e+01 6.405435574518471675e+00 4.735221017221324047e+00
2.574967024036347866e+06 7.812240160246302878e+01 6.404533976534985129e+00 4.740805390910471928e+00
2.580104742254743353e+06 7.746301685757390487e+01 6.403583874276673527e+00 4.746346819833185293e+00
2.585048807421234436e+06 7.681609832876283406e+01 6.402582583248611847e+00 4.751846047129281381e+00
2.589820990061475895e+06 7.617996762938402355e+01 6.401527658019062983e+00 4.757305178787318845e+00
2.594441190982266329e+06 7.555301410292896946e+01 6.400415319214123322e+00 4.762732787741516205e+00
2.598925672737953253e+06 7.493388182305236001e+01 6.399241645410599588e+00 4.768129231427230330e+00
2.598968808248934336e+06 7.492785827467787385e+01 6.399229717306655019e+00 4.768181911318647437e+00
2.603330395443185698e+06 7.431545567769742888e+01 6.397989960569566925e+00 4.773542754943445487e+00
2.607584426090315916e+06 7.370846392329883656e+01 6.396680180199181720e+00 4.778871481781058250e+00
2.611744089073596522e+06 7.310562619687928532e+01 6.395294210708646787e+00 4.784180071780850696e+00
2.615818935382287484e+06 7.250608445738126306e+01 6.393825823100367067e+00 4.789470324823369651e+00
2.619816166420836933e+06 7.190927007948484118e+01 6.392269437396039145e+00 4.794734867976260695e+00
2.623744196081034839e+06 7.131438304532095174e+01 6.390618231359603385e+00 4.799966502052296136e+00
2.627613399873880669e+06 7.072029596405009499e+01 6.388863166285280393e+00 4.805157861102045125e+00
2.631435918734194711e+06 7.012556998087040938e+01 6.386993737647613578e+00 4.810310989937341297e+00
2.635223955760298762e+06 6.952864300035965073e+01 6.384997230439111604e+00 4.815419134507971322e+00
2.638990305180478841e+06 6.892784634578256941e+01 6.382859819112162825e+00 4.820484633103399474e+00
2.643080660446425900e+06 6.826735116612299237e+01 6.380349331004219415e+00 4.825922149894927848e+00
2.647997930776948109e+06 6.746350426281861701e+01 6.377070068000529446e+00 4.832010794065521253e+00
2.653083942289452534e+06 6.662266298660775021e+01 6.373409563562509206e+00 4.837747838478456686e+00
2.657708055120373145e+06 6.585138355634009599e+01 6.369845542583636444e+00 4.842802404318200971e+00
2.662140023303878959e+06 6.510840797579895423e+01 6.366238145006709814e+00 4.847743842446638141e+00
2.662182388381273486e+06 6.510128927602298177e+01 6.366202701402205122e+00 4.847791656040837616e+00
2.670002113206218928e+06 6.378400865918447948e+01 6.359387539702376912e+00 4.857028507309105514e+00
2.673277587405332364e+06 6.323069785194434900e+01 6.356385306928010515e+00 4.861225260596303777e+00
2.676111143363729119e+06 6.275174170988781697e+01 6.353743786247168401e+00 4.865119837232683153e+00
2.678534783763262443e+06 6.234211284570782396e+01 6.351474866453272305e+00 4.868761300723998708e+00
2.682311434658232145e+06 6.170434483219468547e+01 6.348003732260001364e+00 4.875456097614831563e+00
2.683773268407636788e+06 6.145774811145448524e+01 6.346722427782929721e+00 4.878620528284404401e+00
2.686017013723174110e+06 6.107956074010801473e+01 6.344915858162280209e+00 4.884647967797366874e+00
2.686877943772024475e+06 6.093452826946862899e+01 6.344314205657328287e+00 4.887573546951115233e+00
2.688195922690872569e+06 6.071251787544473189e+01 6.343582827392139301e+00 4.893235780965921045e+00
2.688701951157205738e+06 6.062725488823266318e+01 6.343402010757786869e+00 4.896007810010551964e+00
2.689479379918251187e+06 6.049618094878518093e+01 6.343322811722131860e+00 4.901383478119645254e+00
2.690030398384428583e+06 6.040316323666920795e+01 6.343524426695921647e+00 4.906559144873150480e+00
2.690424297769122757e+06 6.033655990244291445e+01 6.343921047025867566e+00 4.911507893476709796e+00
2.690709033759488724e+06 6.028832255561475506e+01 6.344448462519450160e+00 4.916197973391661868e+00
2.690917720747900195e+06 6.025289480804838149e+01 6.345055046923164355e+00 4.920600991256174339e+00
2.691073173385606613e+06 6.022644688664433943e+01 6.345702380271361243e+00 4.924697255675655860e+00
2.691239276490332559e+06 6.019811136669698470e+01 6.346685303343999607e+00 4.930245077353809791e+00
2.691320129389388021e+06 6.018428123493309556e+01 6.347324529550887107e+00 4.933567905109226714e+00
2.691411848426460288e+06 6.016855382961919219e+01 6.348227615991234529e+00 4.938013217272992250e+00
2.691498684980568476e+06 6.015361667560822667e+01 6.349308901515382075e+00 4.943062900302541252e+00
2.691560876805115025e+06 6.014288431335285168e+01 6.350246672235426715e+00 4.947283032895120058e+00
2.691627484779978171e+06 6.013135183144688511e+01 6.351419636577881889e+00 4.952406210669264119e+00
2.691675544628610369e+06 6.012300294706942339e+01 6.352369287081726767e+00 4.956462332245820335e+00
2.691731644867361523e+06 6.011322492097013992e+01 6.353559582526063565e+00 4.961475657084793767e+00
2.691779420468553901e+06 6.010487082910700707e+01 6.354606983327252934e+00 4.965859110049917646e+00
2.691846764147079550e+06 6.009305343446787617e+01 6.356082609127975402e+00 4.972018381825052735e+00
2.691878987860898022e+06 6.008738169284035280e+01 6.356775796180325955e+00 4.974925539179056777e+00
2.691963808141469024e+06 6.007240031359804533e+01 6.358528036600771927e+00 4.982426705761904273e+00
2.692019680438120849e+06 6.006249208440868870e+01 6.359619875193562422e+00 4.987249074489819023e+00
2.692086841025608592e+06 6.005054201543003956e+01 6.360866460609289064e+00 4.992925512940185051e+00
2.692087524014633615e+06 6.005042041210296588e+01 6.360879010030215497e+00 4.992983007304725440e+00
2.692168389915226959e+06 6.003597595872116699e+01 6.362288685907936170e+00 4.999647780511372375e+00
2.692241955747477710e+06 6.002278125922040175e+01 6.363505630398964108e+00 5.005581290318302123e+00
2.692242654466543347e+06 6.002265582137010824e+01 6.363517057725815107e+00 5.005637382732608387e+00
2.692310023666606285e+06 6.001052584919884225e+01 6.364575505431217195e+00 5.010958896521453987e+00
2.692375304444767535e+06 5.999873317635940850e+01 6.365553786679305048e+00 5.016014828945880133e+00
2.692451436408805661e+06 5.998493761945664460e+01 6.366635315540470685e+00 5.021776010437043247e+00
2.692542947794724721e+06 5.996829945188137856e+01 6.367862835151113288e+00 5.028516176297959994e+00
2.692543865969165694e+06 5.996813244776217289e+01 6.367875066657317618e+00 5.028583584353137681e+00
2.692625220353032462e+06 5.995328589392078555e+01 6.368917562123649567e+00 5.034435362479891651e+00
2.692700271300595254e+06 5.993954447876184588e+01 6.369838261674996893e+00 5.039710920988633269e+00
2.692773268858153839e+06 5.992614034595973038e+01 6.370698674255305782e+00 5.044730265869054264e+00
2.692859386287877802e+06 5.991028377048490938e+01 6.371667133206153188e+00 5.050481670393529576e+00
2.692962898581517395e+06 5.989116625880394196e+01 6.372773230394533250e+00 5.057152449600808453e+00
2.692963926849334966e+06 5.989097631149336110e+01 6.372784180173454160e+00 5.057218555608224975e+00
2.693054760161919054e+06 5.987414247520809596e+01 6.373714878931825645e+00 5.062895350919423443e+00
2.693139716164357495e+06 5.985835113506453098e+01 6.374552059313075780e+00 5.068057982173064246e+00
2.693223147865981329e+06 5.984280183385636320e+01 6.375353120183934408e+00 5.073011705175908936e+00
2.693322713399239350e+06 5.982419814293538707e+01 6.376295183435670033e+00 5.078796896695775942e+00
2.693414603543666657e+06 5.980697738516514761e+01 6.377160582312184189e+00 5.084034209048021502e+00
2.693415502826286480e+06 5.980680884356611671e+01 6.377169050737124145e+00 5.084085442834800794e+00
2.693415984031820670e+06 5.980671841161520064e+01 6.377173539639558797e+00 5.084112369455705327e+00
2.693416465237355325e+06 5.980662797966427036e+01 6.377178028541992560e+00 5.084139296076610748e+00
2.693416946442889515e+06 5.980653754771334718e+01 6.377182517444426324e+00 5.084166222697516169e+00
2.693417427648424171e+06 5.980644711576243111e+01 6.377187006346860088e+00 5.084193149318420701e+00
2.693417908853958361e+06 5.980635668381150793e+01 6.377191495249294739e+00 5.084220075939326122e+00
2.693418390059493016e+06 5.980626625186058476e+01 6.377195984151728503e+00 5.084247002560230655e+00
2.693418871265027206e+06 5.980617581990966158e+01 6.377200473054162266e+00 5.084273929181136076e+00
2.693419352470561862e+06 5.980608538795874551e+01 6.377204961956596030e+00 5.084300855802040608e+00
2.693419833676096052e+06 5.980599495600782234e+01 6.377209450859030682e+00 5.084327782422946029e+00
2.693420314881630708e+06 5.980590452405689206e+01 6.377213939761464445e+00 5.084354709043850562e+00
2.693420796087164897e+06 5.980581409210597599e+01 6.377218428663899097e+00 5.084381635664755983e+00
2.693421277292699553e+06 5.980572366015505281e+01 6.377222917566331972e+00 5.084408562285660516e+00
2.693421758498233743e+06 5.980563322820412964e+01 6.377227406468766624e+00 5.084435488906565936e+00
2.693422239703767933e+06 5.980554279625320646e+01 6.377231895371201276e+00 5.084462415527471357e+00
2.693422720909302589e+06 5.980545236430228329e+01 6.377236384273635039e+00 5.084489342148375890e+00
2.693423202114836778e+06 5.980536193235136722e+01 6.377240873176068803e+00 5.084516268769281311e+00
2.693423683320370968e+06 5.980527150040043693e+01 6.377245362078502566e+00 5.084543195390185844e+00
2.693424164525905624e+06 5.980518106844952086e+01 6.377249850980937218e+00 5.084570122011091264e+00
2.693424645731439814e+06 5.980509063649859769e+01 6.377254339883370982e+00 5.084597048631996685e+00
2.693425126936974470e+06 5.980500020454767451e+01 6.377258828785804745e+00 5.084623975252901218e+00
2.693425608142508660e+06 5.980490977259675844e+01 6.377263317688238509e+00 5.084650901873805751e+00
2.693426089348043315e+06 5.980481934064582816e+01 6.377267806590673160e+00 5.084677828494711171e+00
2.693426570553577505e+06 5.980472890869491209e+01 6.377272295493106924e+00 5.084704755115615704e+00
2.693427051759112161e+06 5.980463847674398892e+01 6.377276784395540687e+00 5.084731681736521125e+00
2.693427532964646351e+06 5.980454804479306574e+01 6.377281273297974451e+00 5.084758608357425658e+00
2.693428014170181006e+06 5.980445761284214257e+01 6.377285762200409103e+00 5.084785534978330190e+00
2.693428495375715196e+06 5.980436718089121939e+01 6.377290251102842866e+00 5.084812461599236499e+00
2.693428976581249852e+06 5.980427674894029622e+01 6.377294740005277518e+00 5.084839388220141032e+00
2.693429457786784042e+06 5.980418631698937304e+01 6.377299228907711282e+00 5.084866314841045565e+00
2.693429938992318697e+06 5.980409588503844986e+01 6.377303717810145045e+00 5.084893241461950986e+00
2.693430420197852887e+06 5.980400545308753379e+01 6.377308206712579697e+00 5.084920168082856406e+00
2.693430901403387543e+06 5.980391502113660351e+01 6.377312695615013460e+00 5.084947094703760939e+00
2.693431382608921733e+06 5.980382458918568744e+01 6.377317184517448112e+00 5.084974021324665472e+00
2.693431863814456388e+06 5.980373415723476427e+01 6.377321673419880987e+00 5.085000947945570893e+00
2.693432345019990578e+06 5.980364372528384820e+01 6.377326162322315639e+00 5.085027874566476314e+00
2.693432826225524768e+06 5.980355329333292502e+01 6.377330651224749403e+00 5.085054801187380846e+00
2.693433307431059424e+06 5.980346286138199474e+01 6.377335140127183166e+00 5.085081727808286267e+00
2.693433788636594079e+06 5.980337242943107867e+01 6.377339629029616930e+00 5.085108654429191688e+00
2.693434269842128269e+06 5.980328199748015550e+01 6.377344117932051581e+00 5.085135581050096221e+00
2.693434751047662459e+06 5.980319156552923232e+01 6.377348606834485345e+00 5.085162507671000753e+00
2.693435232253197115e+06 5.980310113357830915e+01 6.377353095736919997e+00 5.085189434291906174e+00
2.693435713458731305e+06 5.980301070162738597e+01 6.377357584639353760e+00 5.085216360912811595e+00
2.693436194664265960e+06 5.980292026967646279e+01 6.377362073541787524e+00 5.085243287533716128e+00
2.693436675869800150e+06 5.980282983772553962e+01 6.377366562444222176e+00 5.085270214154620660e+00
2.693437157075334340e+06 5.980273940577462355e+01 6.377371051346655051e+00 5.085297140775526081e+00
2.693437638280868996e+06 5.980264897382370037e+01 6.377375540249089703e+00 5.085324067396431502e+00
2.693438119486403652e+06 5.980255854187277009e+01 6.377380029151523466e+00 5.085350994017336035e+00
2.693438600691937841e+06 5.980246810992186113e+01 6.377384518053958118e+00 5.085377920638241456e+00
2.693439081897472031e+06 5.980237767797093085e+01 6.377389006956391881e+00 5.085404847259146877e+00
2.693439563103006687e+06 5.980228724602001478e+01 6.377393495858825645e+00 5.085431773880051409e+00
2.693440044308540877e+06 5.980219681406909160e+01 6.377397984761259409e+00 5.085458700500955942e+00
2.693440525514075533e+06 5.980210638211816843e+01 6.377402473663694060e+00 5.085485627121861363e+00
2.693441006719609722e+06 5.980201595016724525e+01 6.377406962566126936e+00 5.085512553742766784e+00
2.693441487925144378e+06 5.980192551821632208e+01 6.377411451468562475e+00 5.085539480363671316e+00
2.693441969130678568e+06 5.980183508626539890e+01 6.377415940370996239e+00 5.085566406984575849e+00
2.693442450336213224e+06 5.980174465431448283e+01 6.377420429273430003e+00 5.085593333605481270e+00
2.693442931541747414e+06 5.980165422236355965e+01 6.377424918175863766e+00 5.085620260226386691e+00
2.693443412747282069e+06 5.980156379041262937e+01 6.377429407078297530e+00 5.085647186847291223e+00
2.693443893952816259e+06 5.980147335846172041e+01 6.377433895980732181e+00 5.085674113468195756e+00
2.693444375158350915e+06 5.980138292651079013e+01 6.377438384883165945e+00 5.085701040089101177e+00
2.693444856363885105e+06 5.980129249455987406e+01 6.377442873785600597e+00 5.085727966710006598e+00
2.693445337569419295e+06 5.980120206260895088e+01 6.377447362688034360e+00 5.085754893330911131e+00
2.693445818774953485e+06 5.980111163065802771e+01 6.377451851590468124e+00 5.085781819951816551e+00
2.693446299980488140e+06 5.980102119870710453e+01 6.377456340492901887e+00 5.085808746572721084e+00
2.693446781186022796e+06 5.980093076675618136e+01 6.377460829395336539e+00 5.085835673193626505e+00
2.693447262391556986e+06 5.980084033480525818e+01 6.377465318297770303e+00 5.085862599814531038e+00
2.693447743597091176e+06 5.980074990285433501e+01 6.377469807200204954e+00 5.085889526435435570e+00
2.693448224802625831e+06 5.980065947090341183e+01 6.377474296102638718e+00 5.085916453056341879e+00
2.693448706008160487e+06 5.980056903895249576e+01 6.377478785005072481e+00 5.085943379677246412e+00
2.693449187213694677e+06 5.980047860700156548e+01 6.377483273907506245e+00 5.085970306298150945e+00
2.693449668419228867e+06 5.980038817505064230e+01 6.377487762809940008e+00 5.085997232919056366e+00
2.693450149624763522e+06 5.980029774309972623e+01 6.377492251712374660e+00 5.086024159539961786e+00
2.693450630830298178e+06 5.980020731114880306e+01 6.377496740614808424e+00 5.086051086160866319e+00
2.693451112035832368e+06 5.980011687919787988e+01 6.377501229517243075e+00 5.086078012781770852e+00
2.693451593241366558e+06 5.980002644724695671e+01 6.377505718419676839e+00 5.086104939402677161e+00
2.693452074446900748e+06 5.979993601529604064e+01 6.377510207322110602e+00 5.086131866023581694e+00
2.693452555652435403e+06 5.979984558334511746e+01 6.377514696224544366e+00 5.086158792644486226e+00
2.693453036857970059e+06 5.979975515139419429e+01 6.377519185126979018e+00 5.086185719265390759e+00
2.693453518063504249e+06 5.979966471944327111e+01 6.377523674029413669e+00 5.086212645886297068e+00
2.693453999269038904e+06 5.979957428749235504e+01 6.377528162931847433e+00 5.086239572507201601e+00
2.693454480474573094e+06 5.979948385554143186e+01 6.377532651834281197e+00 5.086266499128106133e+00
2.693454961680107750e+06 5.979939342359050158e+01 6.377537140736714960e+00 5.086293425749011554e+00
2.693455442885641940e+06 5.979930299163958551e+01 6.377541629639148724e+00 5.086320352369916975e+00
2.693455924091176596e+06 5.979921255968866944e+01 6.377546118541583375e+00 5.086347278990821508e+00
2.693520886838320643e+06 5.978699097996329215e+01 6.378148396875557680e+00 5.089948199057237943e+00
2.693521271802748553e+06 5.978691847832783424e+01 6.378151944191686518e+00 5.089969338309776603e+00
2.693521656767175999e+06 5.978684597669237633e+01 6.378155491507814467e+00 5.089990477562315263e+00
2.693522041731603444e+06 5.978677347505692552e+01 6.378159038823943305e+00 5.090011616814853035e+00
2.693522426696030423e+06 5.978670097342147471e+01 6.378162586140070367e+00 5.090032756067391695e+00
2.693522811660458334e+06 5.978662847178601680e+01 6.378166133456199205e+00 5.090053895319930355e+00
2.693523196624886245e+06 5.978655597015055889e+01 6.378169680772327155e+00 5.090075034572469015e+00
2.693523581589313224e+06 5.978648346851511519e+01 6.378173228088455993e+00 5.090096173825007675e+00
2.693523966553741135e+06 5.978641096687965728e+01 6.378176775404583942e+00 5.090117313077546335e+00
2.693524351518168580e+06 5.978633846524419937e+01 6.378180322720712780e+00 5.090138452330084995e+00
2.693524736482596025e+06 5.978626596360874146e+01 6.378183870036839842e+00 5.090159591582623655e+00
2.693525121447023470e+06 5.978619346197329776e+01 6.378187417352968680e+00 5.090180730835161427e+00
2.693525506411450915e+06 5.978612096033783985e+01 6.378190964669096630e+00 5.090201870087700087e+00
2.693525891375878360e+06 5.978604845870238194e+01 6.378194511985224580e+00 5.090223009340238747e+00
2.693526276340305805e+06 5.978597595706692402e+01 6.378198059301352529e+00 5.090244148592777407e+00
2.693526661304733250e+06 5.978590345543148032e+01 6.378201606617480479e+00 5.090265287845316067e+00
2.693527046269161161e+06 5.978583095379602241e+01 6.378205153933608429e+00 5.090286427097854727e+00
2.693527431233588606e+06 5.978575845216056450e+01 6.378208701249736379e+00 5.090307566350393387e+00
2.693527816198016051e+06 5.978568595052512080e+01 6.378212248565865217e+00 5.090328705602932047e+00
2.693528201162443496e+06 5.978561344888966289e+01 6.378215795881993166e+00 5.090349844855470707e+00
2.693528586126871407e+06 5.978554094725420498e+01 6.378219343198121116e+00 5.090370984108008479e+00
2.693528971091298386e+06 5.978546844561874707e+01 6.378222890514249066e+00 5.090392123360547139e+00
2.693529356055726297e+06 5.978539594398329626e+01 6.378226437830377016e+00 5.090413262613085799e+00
2.693529741020153742e+06 5.978532344234783835e+01 6.378229985146505854e+00 5.090434401865624459e+00
2.693530125984581187e+06 5.978525094071238755e+01 6.378233532462633804e+00 5.090455541118164007e+00
2.693530510949008632e+06 5.978517843907693674e+01 6.378237079778761753e+00 5.090476680370701779e+00
2.693530895913436078e+06 5.978510593744147883e+01 6.378240627094889703e+00 5.090497819623240439e+00
2.693531280877863523e+06 5.978503343580602092e+01 6.378244174411017653e+00 5.090518958875779099e+00
2.693531665842290968e+06 5.978496093417057011e+01 6.378247721727146491e+00 5.090540098128317759e+00
2.693532050806718878e+06 5.978488843253511931e+01 6.378251269043274441e+00 5.090561237380855530e+00
2.693532435771146324e+06 5.978481593089966140e+01 6.378254816359402390e+00 5.090582376633394190e+00
2.693532820735573769e+06 5.978474342926421059e+01 6.378258363675531228e+00 5.090603515885933739e+00
2.693533205700001679e+06 5.978467092762875978e+01 6.378261910991659178e+00 5.090624655138472399e+00
2.693533590664429124e+06 5.978459842599330898e+01 6.378265458307787128e+00 5.090645794391010170e+00
2.693533975628856570e+06 5.978452592435785107e+01 6.378269005623915966e+00 5.090666933643548830e+00
2.693534360593284015e+06 5.978445342272239316e+01 6.378272552940043916e+00 5.090688072896087490e+00
2.693534745557710994e+06 5.978438092108694235e+01 6.378276100256172754e+00 5.090709212148626150e+00
2.693535130522138905e+06 5.978430841945148444e+01 6.378279647572299815e+00 5.090730351401164810e+00
2.693535515486566350e+06 5.978423591781603363e+01 6.378283194888428653e+00 5.090751490653703470e+00
2.693535900450993795e+06 5.978416341618057572e+01 6.378286742204556603e+00 5.090772629906242130e+00
2.693536285415421706e+06 5.978409091454512492e+01 6.378290289520684553e+00 5.090793769158780790e+00
2.693536670379849151e+06 5.978401841290967411e+01 6.378293836836812503e+00 5.090814908411319450e+00
2.693537055344276596e+06 5.978394591127420910e+01 6.378297384152941341e+00 5.090836047663857222e+00
2.693537440308704041e+06 5.978387340963875829e+01 6.378300931469070179e+00 5.090857186916396770e+00
2.693537825273131486e+06 5.978380090800330748e+01 6.378304478785198128e+00 5.090878326168935430e+00
2.693538210237558931e+06 5.978372840636785668e+01 6.378308026101326078e+00 5.090899465421474090e+00
2.693538595201986376e+06 5.978365590473239877e+01 6.378311573417454028e+00 5.090920604674012750e+00
2.693538980166414287e+06 5.978358340309694796e+01 6.378315120733582866e+00 5.090941743926551410e+00
2.693539365130841732e+06 5.978351090146149005e+01 6.378318668049709927e+00 5.090962883179090070e+00
2.693539750095269177e+06 5.978343839982603214e+01 6.378322215365838765e+00 5.090984022431627842e+00
2.693540135059696622e+06 5.978336589819058133e+01 6.378325762681966715e+00 5.091005161684166502e+00
2.693540520024124067e+06 5.978329339655513053e+01 6.378329309998094665e+00 5.091026300936705162e+00
2.693540904988551512e+06 5.978322089491967262e+01 6.378332857314223503e+00 5.091047440189243822e+00
2.693541289952979423e+06 5.978314839328422181e+01 6.378336404630351453e+00 5.091068579441782482e+00
2.693541674917406868e+06 5.978307589164877101e+01 6.378339951946480291e+00 5.091089718694322031e+00
2.693542059881834313e+06 5.978300339001332020e+01 6.378343499262608240e+00 5.091110857946860691e+00
2.693542444846262224e+06 5.978293088837786229e+01 6.378347046578736190e+00 5.091131997199398462e+00
2.693542829810689669e+06 5.978285838674240438e+01 6.378350593894864140e+00 5.091153136451937122e+00
2.693543214775117114e+06 5.978278588510695357e+01 6.378354141210992090e+00 5.091174275704475782e+00
2.693543599739544559e+06 5.978271338347149566e+01 6.378357688527120928e+00 5.091195414957014442e+00
2.693543984703972004e+06 5.978264088183604485e+01 6.378361235843248878e+00 5.091216554209553102e+00
2.693544369668399449e+06 5.978256838020059405e+01 6.378364783159376827e+00 5.091237693462091762e+00
2.693544754632826895e+06 5.978249587856513614e+01 6.378368330475504777e+00 5.091258832714630422e+00
2.693545139597254805e+06 5.978242337692968533e+01 6.378371877791633615e+00 5.091279971967168194e+00
2.693545524561682250e+06 5.978235087529422742e+01 6.378375425107760677e+00 5.091301111219706854e+00
2.693545909526109695e+06 5.978227837365877662e+01 6.378378972423889515e+00 5.091322250472245514e+00
2.693546294490537141e+06 5.978220587202331870e+01 6.378382519740017464e+00 5.091343389724784174e+00
2.693548083094493020e+06 5.978186844365218633e+01 6.378398721670614613e+00 5.091439738699293116e+00
2.693632397963985335e+06 5.976595154848865121e+01 6.379156763749239012e+00 5.095941352719935757e+00
2.693664314843442291e+06 5.975991529898644927e+01 6.379435019651012340e+00 5.097598126835216625e+00
2.693716601335834246e+06 5.975001450852154505e+01 6.379877382219376614e+00 5.100242645846520873e+00
2.693760517500146292e+06 5.974168748823294095e+01 6.380234848360055722e+00 5.102385174823885983e+00
2.693817050103473477e+06 5.973095401412422945e+01 6.380669273493363214e+00 5.105017083486812268e+00
2.693867211837385315e+06 5.972141759565963781e+01 6.381023885177335764e+00 5.107208581951856452e+00
2.693928381521981210e+06 5.970977395678971078e+01 6.381408360383179712e+00 5.109667080376611104e+00
2.693986371759424917e+06 5.969872262108847849e+01 6.381714361082001297e+00 5.111747363861747218e+00
2.694068462537413463e+06 5.968306119310004476e+01 6.382033644358805269e+00 5.114228031593960999e+00
2.694180618915353902e+06 5.966164155604194974e+01 6.382263796711651338e+00 5.116766696467782261e+00
2.694313278322897851e+06 5.963628977337394588e+01 6.382285708069318275e+00 5.118772283495322206e+00
2.694617466191924177e+06 5.957816032240931747e+01 6.381863845069010388e+00 5.121445720702869409e+00
2.694968227526145056e+06 5.951120192428918898e+01 6.381062177533587843e+00 5.123660859874561879e+00
2.695343705990177579e+06 5.943966164476698566e+01 6.380092677978286275e+00 5.125892509881266434e+00
2.695834288006756920e+06 5.934642127430627312e+01 6.378936996517786895e+00 5.128716990724225155e+00
2.696196367880418897e+06 5.927774941836179323e+01 6.378246297618386684e+00 5.130702292458394709e+00
2.696669954207194038e+06 5.918807427861516857e+01 6.377523251266376647e+00 5.133161357211413645e+00
2.697138255979965907e+06 5.909952314967249265e+01 6.376943525957162962e+00 5.135507688182656238e+00
2.697602554125411436e+06 5.901181436798530910e+01 6.376471302670786656e+00 5.137883833299573766e+00
2.698059354315977544e+06 5.892557122869484232e+01 6.376119723319440880e+00 5.140393967898963190e+00
2.698503018712454475e+06 5.884182706380603634e+01 6.375879867467236117e+00 5.142955883340524004e+00
2.698826921139757149e+06 5.878069118748487654e+01 6.375735382737827805e+00 5.144823357682710707e+00
2.699269166022350546e+06 5.869722594299547325e+01 6.375453298190798535e+00 5.147064799957815850e+00
2.700190827231719624e+06 5.852348173860038827e+01 6.373922010071636279e+00 5.149725138424653181e+00
2.701799199764550664e+06 5.822211114625009998e+01 6.369739257990284287e+00 5.151593570576790349e+00
2.705131376861460507e+06 5.760607256593225856e+01 6.362739594721291247e+00 5.153387032397914069e+00
2.712059070500762668e+06 5.635036044476611750e+01 6.351690861502378382e+00 5.155016871333622852e+00
2.717982470590868033e+06 5.529863219984430600e+01 6.342605095916172608e+00 5.156009062803386556e+00
2.726459051733273547e+06 5.382902122631192299e+01 6.329406285321765857e+00 5.155964035603052054e+00
2.734420023284423631e+06 5.249934651548891651e+01 6.317248225229672443e+00 5.155789167318370225e+00
2.741942795481787529e+06 5.126988468013595934e+01 6.305563084350092495e+00 5.155451925285664316e+00
2.745678935027538799e+06 5.043667797043308099e+01 6.295157403541526087e+00 5.154021012463798179e+00
2.745724186966077425e+06 5.042246287602608845e+01 6.294964782618452936e+00 5.154015072965629329e+00
2.751838902589957695e+06 4.841451308790040287e+01 6.269041195575980829e+00 5.153293688270458084e+00
2.754044466435062699e+06 4.763540515906939987e+01 6.259596766745939789e+00 5.153003619222472409e+00
2.755933803376064170e+06 4.696813981198693710e+01 6.251617609124269670e+00 5.152744254876258978e+00
2.759273521568099502e+06 4.580389890926570473e+01 6.237526643262387260e+00 5.152187117849123865e+00
2.762420879555161111e+06 4.473853808650738273e+01 6.224488350299512973e+00 5.151775288808662978e+00
2.765955033056799788e+06 4.358841702086272818e+01 6.210058273097551762e+00 5.151246048494970253e+00
2.768074841598386876e+06 4.292018868931020847e+01 6.201479497296737975e+00 5.150836324230901653e+00
2.771608259954017587e+06 4.184888221895473492e+01 6.187676963573464306e+00 5.150272472433714555e+00
2.774996185803345405e+06 4.086623228711634681e+01 6.174574661467872261e+00 5.149699926199969191e+00
2.777064962434682995e+06 4.028593124177097451e+01 6.166617427716304611e+00 5.149380736568480721e+00
2.781216127105884254e+06 3.916580280111411838e+01 6.151133186475266079e+00 5.148748259814849959e+00
2.784805133047265466e+06 3.824718167332678576e+01 6.138115152510703609e+00 5.148212735815172358e+00
2.786675539702819195e+06 3.778571285429946158e+01 6.131406774445213870e+00 5.147917880838589255e+00
2.791239911838072818e+06 3.670334178652311152e+01 6.115318829972863135e+00 5.147358166081387409e+00
2.795262009780754801e+06 3.580264449769643420e+01 6.101752714104591746e+00 5.146875079947178300e+00
2.799204007764400914e+06 3.496607372942904846e+01 6.088763111660690619e+00 5.146446887707304185e+00
2.801630419073226862e+06 3.447059073218132852e+01 6.080838052025153040e+00 5.146214047671704428e+00
2.806413332465971820e+06 3.353534029403972738e+01 6.065761666912226957e+00 5.145722156396120184e+00
2.808553683985619340e+06 3.313619644956725097e+01 6.059215252193662415e+00 5.145467732883766132e+00
2.812881698187716305e+06 3.236248414097288872e+01 6.046227224986512994e+00 5.144901163737001681e+00
2.818298024401371367e+06 3.145130520152291709e+01 6.030523028995899537e+00 5.144285318646512728e+00
2.820774575030340813e+06 3.105560207136929307e+01 6.023666682766708469e+00 5.144026460819724811e+00
2.825631906163290609e+06 3.031526831104785202e+01 6.010513985362973877e+00 5.143554686644030483e+00
2.831639090975095518e+06 2.945766344562144212e+01 5.994850159836632386e+00 5.143022220504002817e+00
2.836948493787592277e+06 2.875217858554380967e+01 5.981811500381517988e+00 5.142664762389409283e+00
2.839761888422458433e+06 2.839565450225739340e+01 5.975027394732765451e+00 5.142482095434210976e+00
2.846420292100308463e+06 2.759590568717608861e+01 5.959586241597209622e+00 5.142065605720366861e+00
2.852317828114784788e+06 2.694225951018626830e+01 5.946850856202278379e+00 5.141828931680082704e+00
2.855482476892915554e+06 2.660860132664159750e+01 5.940141078500351668e+00 5.141705564493059377e+00
2.862937198786573485e+06 2.586670584544771501e+01 5.925036469257685567e+00 5.141458456781625053e+00
2.869573655447618570e+06 2.526016447191044634e+01 5.912588219614689500e+00 5.141269393629690043e+00
2.877390781828627922e+06 2.460272439753027385e+01 5.898688805217288333e+00 5.141231687103260839e+00
2.881673729681764729e+06 2.426402036570380716e+01 5.891484433292829337e+00 5.141241658148098637e+00
2.889735740940023214e+06 2.367261906937379479e+01 5.878834113472560574e+00 5.141311243799178143e+00
2.899572108765280806e+06 2.301228291238794554e+01 5.864349091660432833e+00 5.141291092642543248e+00
2.904033268175768666e+06 2.273546326006515983e+01 5.858312472326877796e+00 5.141325542589725295e+00
2.914585458540252410e+06 2.213087330720930268e+01 5.844873913416344102e+00 5.141613919544917088e+00
2.925337852086059749e+06 2.157505095965200326e+01 5.832546610352174810e+00 5.142176149493169035e+00
2.935347887100902852e+06 2.110952575213965687e+01 5.822230545246516620e+00 5.142903570617273878e+00
2.945290697144525591e+06 2.069340946106104084e+01 5.813134517080227326e+00 5.143882103685932350e+00
2.955091372353848070e+06 2.031930995320589517e+01 5.804979289147102151e+00 5.145144241592728207e+00
2.964657762102060951e+06 1.998505198954002893e+01 5.797831342575585190e+00 5.146735471034880938e+00
2.973896870299668517e+06 1.969051255456329841e+01 5.791724552280099303e+00 5.148578563019911236e+00
2.986909783257810399e+06 1.931553162841866111e+01 5.784242367171185784e+00 5.151541595801593765e+00
2.994925373978814576e+06 1.910376400694747900e+01 5.780234412802759181e+00 5.153742565739301895e+00
3.002303788409139961e+06 1.892160703152525159e+01 5.777010879384349984e+00 5.156124051225072336e+00
3.008981337073988747e+06 1.876750449445188451e+01 5.774539204576951690e+00 5.158690507534529068e+00
3.014913131885664072e+06 1.863777078640596940e+01 5.772670321828305973e+00 5.161374734553763943e+00
3.020078818630926311e+06 1.853078676598019925e+01 5.771406069563158603e+00 5.164185546556520734e+00
3.024486259656036273e+06 1.844240049244878676e+01 5.770545807003622407e+00 5.167070626907387165e+00
3.028171110742791556e+06 1.837036011360290644e+01 5.770088259780614237e+00 5.169962063790205065e+00
3.029771238791045267e+06 1.833974669782649158e+01 5.769998148086333600e+00 5.171409092334104507e+00
3.032491880048107356e+06 1.828860422868435265e+01 5.770034537709913813e+00 5.174259250926217746e+00
3.034674042959756684e+06 1.824827361070131104e+01 5.770294877845903336e+00 5.177040286985024053e+00
3.036405449332213961e+06 1.821664144252788020e+01 5.770726755893432092e+00 5.179719024290770690e+00
3.038334417389539536e+06 1.818176709044102779e+01 5.771597028524443118e+00 5.183486401283550649e+00
3.039285072340229526e+06 1.816472055627085425e+01 5.772271815587059152e+00 5.185824527444505172e+00
3.040032971022473648e+06 1.815137081076703396e+01 5.772984427082519687e+00 5.188013381749971842e+00
3.041138471650440712e+06 1.813171754764046284e+01 5.774536697261209994e+00 5.192171269584793691e+00
3.041663089898292907e+06 1.812241282551240573e+01 5.775622528154291224e+00 5.194780366176985353e+00
3.042294021512928419e+06 1.811123046318711260e+01 5.777482288909716601e+00 5.198900867847757290e+00
3.042302359816205688e+06 1.811108268715878467e+01 5.777507537454013686e+00 5.198956511302101013e+00
3.042680779816429596e+06 1.810436894309496836e+01 5.778938864045225721e+00 5.201921472973066507e+00
3.043022573677829932e+06 1.809829334060714245e+01 5.780820198147511135e+00 5.205626082758275430e+00
3.043183323544919491e+06 1.809542892506962630e+01 5.781975243215701887e+00 5.207812614867538770e+00
3.043436340628532693e+06 1.809090509869669106e+01 5.784289932061019712e+00 5.212090450314851964e+00
3.043528768008290790e+06 1.808924606313558670e+01 5.785325521487328260e+00 5.213942232326171933e+00
3.043602479225424584e+06 1.808791977479699398e+01 5.786241398110250955e+00 5.215612689967032978e+00
3.043660953531653620e+06 1.808686531452364932e+01 5.787027558432845886e+00 5.217019268367704576e+00
3.043774603721162770e+06 1.808480924287922065e+01 5.788705407361523392e+00 5.219985564824050961e+00
3.043854402514325455e+06 1.808335976624825747e+01 5.789988792188461630e+00 5.222233323581442654e+00
3.043934805240280926e+06 1.808189418577875429e+01 5.791337229855837876e+00 5.224569723585156034e+00
3.044019385580808856e+06 1.808034730639272425e+01 5.792779669870878223e+00 5.227028493702865042e+00
3.044091594383410178e+06 1.807902257036333893e+01 5.794017049880292980e+00 5.229112524859113265e+00
3.044139201547208242e+06 1.807814708088594102e+01 5.794833661006657977e+00 5.230477750602248399e+00
3.044264464558925480e+06 1.807583555663041963e+01 5.796979222561391865e+00 5.234044106366539495e+00
3.044347047978505958e+06 1.807430527877300008e+01 5.798387383835595266e+00 5.236358980778203609e+00
3.044348002700119745e+06 1.807428753226454177e+01 5.798403601120966755e+00 5.236385615741649069e+00
3.044447484692262020e+06 1.807243736728630168e+01 5.800092114751111083e+00 5.239157346637923318e+00
3.044567092216020450e+06 1.807020326209999794e+01 5.802109112182123773e+00 5.242453848678108486e+00
3.044568467015143950e+06 1.807017747260557883e+01 5.802132144850475015e+00 5.242491319075064382e+00
3.044712545963303186e+06 1.806747216634639841e+01 5.804542752276031337e+00 5.246413441537473688e+00
3.044714195722251665e+06 1.806744103557852199e+01 5.804570161748220158e+00 5.246458064932491006e+00
3.044887750363621861e+06 1.806416186835793525e+01 5.807448368151305829e+00 5.251139307638946541e+00
3.044889730074360035e+06 1.806412424828398144e+01 5.807480930138477326e+00 5.251192034559885258e+00
3.045088512959903106e+06 1.806034165419646342e+01 5.810745535584956656e+00 5.256481029168000418e+00
3.045090317803434096e+06 1.806030707042560124e+01 5.810774946614069236e+00 5.256528803237407566e+00
3.045272959013744257e+06 1.805680236735255306e+01 5.813747417653761573e+00 5.261335758460216283e+00
3.045274691215785220e+06 1.805676892565943703e+01 5.813775455986384344e+00 5.261380232536787993e+00
3.045450755034726113e+06 1.805336467437825121e+01 5.816623310348361997e+00 5.265895337466989901e+00
3.045452459019073285e+06 1.805333154184043565e+01 5.816650800700732482e+00 5.265938845594464013e+00
3.045626071723245084e+06 1.804995023409059129e+01 5.819450346983045641e+00 5.270353609881047952e+00
3.045627767636789475e+06 1.804991702701556733e+01 5.819477651099605353e+00 5.270396156978697455e+00
3.045809569568713196e+06 1.804635001563116603e+01 5.822406731306420724e+00 5.274945852011694747e+00
3.045811604664965998e+06 1.804630988972028760e+01 5.822439576204432754e+00 5.274996471842912982e+00
3.046030581021776423e+06 1.804198104666425451e+01 5.825979361198780460e+00 5.280416988321023020e+00
3.046033023137279786e+06 1.804193249217671635e+01 5.826018977718119274e+00 5.280476797212736884e+00
3.046035465252783149e+06 1.804188393768917820e+01 5.826058594237456312e+00 5.280536606104450748e+00
3.046272245979872067e+06 1.803716349034881361e+01 5.829905974912012567e+00 5.286321882596697108e+00
3.046274290835560299e+06 1.803712242329316595e+01 5.829939349357223577e+00 5.286371522763811726e+00
3.046477103478379548e+06 1.803303877612025019e+01 5.833262047336367218e+00 5.291287879944091443e+00
3.046478973708692007e+06 1.803300089671621009e+01 5.833292952223021466e+00 5.291333067388012346e+00
3.046666678013266996e+06 1.802918920287851989e+01 5.836411953999389723e+00 5.295867260181971403e+00
3.046668460838227998e+06 1.802915280934231390e+01 5.836441907552833541e+00 5.295910306869150652e+00
3.046848416110023856e+06 1.802546930756612653e+01 5.839489514942183490e+00 5.300264948456297809e+00
3.046850147776221856e+06 1.802543368805469726e+01 5.839519261602061029e+00 5.300307018913608559e+00
3.047025269681236707e+06 1.802182118735331073e+01 5.842561564547664510e+00 5.304585520874357307e+00
3.047026962679558434e+06 1.802178609834096790e+01 5.842591520018774354e+00 5.304627266083336679e+00
3.047198048768697307e+06 1.801822937027891669e+01 5.845667961304803484e+00 5.308897369422446388e+00
3.047199702748978510e+06 1.801819482641772296e+01 5.845698428562080551e+00 5.308939409558821154e+00
3.047366342717279680e+06 1.801470317542198885e+01 5.848841877488103691e+00 5.313267058473878812e+00
3.047367948650575243e+06 1.801466937162698656e+01 5.848873177040353255e+00 5.313310018494084908e+00
3.047528832958737388e+06 1.801127100005504644e+01 5.852122869568592733e+00 5.317780837461787868e+00
3.047530373983411118e+06 1.801123829882712002e+01 5.852155438858593683e+00 5.317825772968809872e+00
3.047683308094300330e+06 1.800798060373732312e+01 5.855573358276372709e+00 5.322590390282766037e+00
3.047684758684807923e+06 1.800794955847022294e+01 5.855607966967176559e+00 5.322639181015272669e+00
3.047826512397266924e+06 1.800490296782538735e+01 5.859317299131328483e+00 5.327997574074167630e+00
3.047827836324115284e+06 1.800487437208072095e+01 5.859355565897686802e+00 5.328054155385107293e+00
3.047829160250963643e+06 1.800484577633606165e+01 5.859393832664045121e+00 5.328110736696047844e+00
3.047950431950271130e+06 1.800221401379778285e+01 5.863473532684249534e+00 5.334442308664923971e+00
3.047951491091749165e+06 1.800219089888806678e+01 5.863515193486215082e+00 5.334509664557652187e+00
3.047952550233228132e+06 1.800216778397835071e+01 5.863556854288182407e+00 5.334577020450380402e+00
3.047953609374706633e+06 1.800214466906863819e+01 5.863598515090148844e+00 5.334644376343109506e+00
3.048026054651847109e+06 1.800055757258396127e+01 5.866749406640995090e+00 5.339966116889024228e+00
3.048026478308438323e+06 1.800054821882257272e+01 5.866771451188501629e+00 5.340005819915459639e+00
3.048064776864307001e+06 1.799969991921541634e+01 5.869115807566913645e+00 5.344402027151694767e+00
3.048065115789580159e+06 1.799969238931703330e+01 5.869139504054639467e+00 5.344447704290885781e+00
3.048065454714853317e+06 1.799968485941865382e+01 5.869163200542366177e+00 5.344493381430076795e+00
3.048095890204383992e+06 1.799900616285335886e+01 5.871852431646663817e+00 5.349942219187811432e+00
3.048096161344602704e+06 1.799900009775939580e+01 5.871880590254983545e+00 5.350000843368973413e+00
3.048096432484821416e+06 1.799899403266543629e+01 5.871908748863304162e+00 5.350059467550135395e+00
3.048113677002720535e+06 1.799860701298436894e+01 5.873980481408391796e+00 5.354580716854210110e+00
3.048113785458807833e+06 1.799860456695139277e+01 5.873996133055719326e+00 5.354616553267021573e+00
3.048120636928230524e+06 1.799844973798679604e+01 5.874509312789019333e+00 5.347568686316256148e+00
3.048120681580506731e+06 1.799844872629319781e+01 5.874508550977345145e+00 5.347442353319104669e+00
3.048120726232783869e+06 1.799844771459959958e+01 5.874507789165670957e+00 5.347316020321954078e+00
3.048120770885060541e+06 1.799844670290600135e+01 5.874507027353996769e+00 5.347189687324803486e+00
3.048120815537337679e+06 1.799844569121240312e+01 5.874506265542324357e+00 5.347063354327652007e+00
3.048124897188687231e+06 1.799835322901884638e+01 5.875045649822506988e+00 5.344678899193973542e+00
3.048128225286363624e+06 1.799827772766903422e+01 5.875806592045678123e+00 5.346795552406268470e+00
3.048131181944054551e+06 1.799821049746005031e+01 5.876588831289834225e+00 5.348986018663350883e+00
3.048133866656886414e+06 1.799814931177741073e+01 5.877416736248319395e+00 5.351306306647263256e+00
3.048136268788121641e+06 1.799809443292549105e+01 5.878290157007199035e+00 5.353767602878445331e+00
3.048136291628127452e+06 1.799809391075923060e+01 5.878298841496832239e+00 5.353792115279632391e+00
3.048138418589808512e+06 1.799804519227692268e+01 5.879220486765612819e+00 5.356407937303469424e+00
3.048140283731970936e+06 1.799800235481977495e+01 5.880188712394066819e+00 5.359178952280871044e+00
3.048141902064328548e+06 1.799796507977123383e+01 5.881198272772885538e+00 5.362094474104043940e+00
3.048141917397999670e+06 1.799796472633666511e+01 5.881208257712584597e+00 5.362123366770798150e+00
3.048143305783983320e+06 1.799793265123773267e+01 5.882247752498501292e+00 5.365156246881058522e+00
3.048144489541573450e+06 1.799790521941248045e+01 5.883301431460372655e+00 5.368259438564165542e+00
3.048144500766623765e+06 1.799790495911161159e+01 5.883311782525543876e+00 5.368289976932754115e+00
3.048145476403288543e+06 1.799788227918905648e+01 5.884332134461177866e+00 5.371334445944933478e+00
3.048146259198395070e+06 1.799786402712961575e+01 5.885287791717686900e+00 5.374325682305074459e+00
3.048146883960983250e+06 1.799784941838515451e+01 5.886209317687352893e+00 5.377824838304363197e+00
3.048146889854969457e+06 1.799784928049483312e+01 5.886218310829463896e+00 5.377860084105752669e+00
3.048147387307445519e+06 1.799783761637888091e+01 5.887058289270004963e+00 5.381138881925251027e+00
3.048147784326388501e+06 1.799782828388360656e+01 5.887819703602847454e+00 5.384150713206657279e+00
3.048147788098539691e+06 1.799782819518058119e+01 5.887827073558596247e+00 5.384179930713930418e+00
3.048148113583947066e+06 1.799782052655641351e+01 5.888530761072806818e+00 5.386995211677144013e+00
3.048148391392060090e+06 1.799781398377211517e+01 5.889205501305655233e+00 5.389657758409736488e+00
3.048148633834637702e+06 1.799780831654358337e+01 5.889873068726562799e+00 5.392212548566149621e+00
3.048148847709792666e+06 1.799780335805151665e+01 5.890530273126239891e+00 5.394686963816452518e+00
3.048148849785272032e+06 1.799780330996792088e+01 5.890536708036059110e+00 5.394711163261940889e+00
3.048149039067497943e+06 1.799779895855868972e+01 5.891187444070558499e+00 5.397121122311889785e+00
3.048149206940973178e+06 1.799779513271438347e+01 5.891834781204354776e+00 5.399479190935791983e+00
3.048149355663497467e+06 1.799779177428449728e+01 5.892480593533841571e+00 5.401808724140103379e+00
3.048149487144022249e+06 1.799778883415184083e+01 5.893123968413591207e+00 5.404065053909769212e+00
3.048149603077380452e+06 1.799778626883481891e+01 5.893770009648974906e+00 5.406314610921546304e+00
3.048149604211031459e+06 1.799778624375576541e+01 5.893776343923542882e+00 5.406336664502703115e+00
